SNo,Date,E. Code,Name,Shift, InTime, OutTime
1,01-08-2017,123,K.N.SURENDRA,GS,09:00,18:00
2,01-08-2017,124,K.N.SOWMYA,GS,09:00,18:00
3,01-08-2017,125,K.N.BOREGOWDA,GS,09:00,18:00
4,01-08-2017,127,SRINIVAS.H.C,GS,09:00,18:00
5,01-08-2017,128,KUMAR.H.S,GS,09:00,18:00
6,01-08-2017,130,A.H.PRASAD KUMAR,GS,09:00,18:00
7,01-08-2017,131,GIRISH SHETTY,GS,09:02,18:19
8,01-08-2017,135,KUMAR.B.S,GS,08:58,19:42
9,01-08-2017,136,SUDHIR SHETTY,GS,09:38,00:00
10,01-08-2017,138,PRASANNA KUMAR.S,GS,00:00,00:00
11,01-08-2017,139,MITHUN.G.SHETTY,GS,00:00,19:14
12,01-08-2017,140,VENKATESH.K,GS,10:13,20:24
13,01-08-2017,143,JAGANNATH JAKKA,GS,00:00,00:00
14,01-08-2017,147,UMESH.B.V,GS,09:21,18:30
15,01-08-2017,149,C.V.HARISH,GS,09:00,18:00
16,01-08-2017,157,SANTOSH.K.NAIK,GS,00:00,00:00
17,01-08-2017,158,NANJEGOWDA,GS,09:00,18:00
18,01-08-2017,170,VAISHNAVI.R.AITHAL,GS,08:56,18:16
19,01-08-2017,171,SHIVANNA,GS,07:00,17:39
20,01-08-2017,175,BHANUPRAKASH DG,GS,09:14,19:22
21,01-08-2017,197,SHIVA KUMAR.N,GS,09:04,10:43
22,01-08-2017,199,HEMANTH.V.G,GS,00:00,18:42
23,01-08-2017,201,SUNIL KUMAR.B.B,GS,09:10,19:13
24,01-08-2017,202,MAHESH RAJ URS,GS,00:00,00:00
25,01-08-2017,206,PRASANNA.N.M,GS,00:00,00:00
26,01-08-2017,207,PRIYA NAGARAJ,GS,00:00,00:00
27,01-08-2017,208,K.P.RAGHAVENDRA,GS,09:00,18:00
28,01-08-2017,210,KAVYA.B.K,GS,00:00,00:00
29,01-08-2017,211,BASAVARAJU.K.N,GS,00:00,00:00
30,01-08-2017,213,AJITH ASHOKAN,GS,09:05,19:00
31,01-08-2017,217,C.SHASHIDHAR,GS,00:00,00:00
32,01-08-2017,218,KISHORE.B.N,GS,00:00,00:00
33,01-08-2017,223,CHETAN.G.K,GS,00:00,00:00
34,01-08-2017,230,KEERTHI KUMAR.K.R,GS,00:00,00:00
35,01-08-2017,243,ABBUBAKARSIDEEK.K,GS,09:00,18:00
36,01-08-2017,250,YOGESH.A.N,GS,08:13,20:00
37,01-08-2017,252,SRILATHA BOLLADY,GS,09:09,20:05
38,01-08-2017,254,PAVAN KUMAR.H.N,GS,08:50,18:27
39,01-08-2017,257,CHANDRAPPA,GS,00:00,00:00
40,01-08-2017,262,REKHA,GS,09:00,18:00
41,01-08-2017,263,YOGESH GOWDA.M.L,GS,07:04,21:04
42,01-08-2017,265,NAGARAJ PRAKASH,GS,09:17,18:20
43,01-08-2017,268,AVIN KUMAR,GS,00:00,00:00
44,01-08-2017,269,PRADEEP.B.R,GS,00:00,00:00
45,01-08-2017,273,KUSHALA.G.V,GS,00:00,00:00
46,01-08-2017,274,Abhinandan.K.M,GS,09:13,20:04
47,01-08-2017,275,MANJU.B,GS,09:19,18:27
48,01-08-2017,277,N.CHANDRASHEKAR,GS,00:00,00:00
49,01-08-2017,279,MALLESH,GS,00:00,00:00
50,01-08-2017,282,NAVIN KUMAR.B.R,GS,00:00,00:00
51,01-08-2017,290,NARAYANA REDDY.M,GS,00:00,00:00
52,01-08-2017,293,VENKAT RAMANAIAH YETURU,GS,09:00,00:00
53,01-08-2017,296,NANDEESHA.K,GS,00:00,00:00
54,01-08-2017,300,KEMPARAJU.N.S,GS,09:06,18:25
55,01-08-2017,302,HARSHA KUMAR.H.R,GS,00:00,00:00
56,01-08-2017,303,PRITHVI KUMAR.C.A,GS,00:00,00:00
57,01-08-2017,304,SANTOSH NARAYAN,GS,13:02,20:06
58,01-08-2017,314,VIJAYASHREE.S.ANAND,GS,08:38,18:21
59,01-08-2017,317,MAHESH GOWDA.C.S,GS,09:05,20:48
60,01-08-2017,322,SURESH.K,GS,09:11,18:31
61,01-08-2017,323,CHELUVEGOWDA.H.S,GS,08:43,18:31
62,01-08-2017,327,BINDU RANI,GS,11:03,17:59
63,01-08-2017,328,DHANASHEKAR.M,GS,08:57,18:37
64,01-08-2017,330,THIMMAPPA,GS,00:00,00:00
65,01-08-2017,331,ALTAF,GS,09:00,18:00
66,01-08-2017,332,ANIL KUMAR.H.R,GS,09:02,18:27
67,01-08-2017,334,SHIVAPRASAD,GS,08:52,18:03
68,01-08-2017,324,Madan.V(NOT IN PAYROLL),GS,00:00,00:00
69,01-08-2017,336,SHWETHA.H.G,GS,09:03,00:00
70,01-08-2017,338,NANDINI.S.L,GS,09:10,17:13
71,01-08-2017,1010,RAMU.H.M,GS,00:00,00:00
72,01-08-2017,1011,NIRANJAN.K.B,GS,00:00,00:00
73,01-08-2017,189,K.N.RAJU,GS,00:00,00:00
74,01-08-2017,339,MADEVAPPA BHAJANTRI,GS,08:44,18:31
75,01-08-2017,5002,Madhu sudhan.B,GS,00:00,00:00
76,01-08-2017,5004,SHIVANNA JUNIOR,GS,09:00,18:00
77,01-08-2017,5005,Sarath kumar.R,GS,00:00,00:00
78,01-08-2017,5006,Ritish Kiran.,GS,00:00,00:00
79,01-08-2017,5007,Sanjay Prabhakar Balli,GS,00:00,00:00
80,01-08-2017,5008,Vinay.K.C,GS,00:00,00:00
81,01-08-2017,346,SARANDEEP.S,GS,09:08,18:02
82,01-08-2017,342,NETHRAVATHI.T,GS,00:00,00:00
83,01-08-2017,5013,CHANNABASAVESHWARASWAMY.G.S,GS,00:00,00:00
84,01-08-2017,344,J.K.SRINIVASA,GS,09:06,20:04
85,01-08-2017,5015,SANDEEPA.V.P,GS,00:00,00:00
86,01-08-2017,343,SRIDHAR.G,GS,00:00,00:00
87,01-08-2017,347,DEEPAK.T.N,GS,10:09,18:18
88,01-08-2017,348,VINAY BHARGAVA.K.N,GS,09:03,18:41
