SNo,Date,E. Code,Name,Shift, InTime, OutTime
1,02-12-2016,123,K.N.SURENDRA,GS,09:00,18:00
2,02-12-2016,124,K.N.SOWMYA,GS,09:00,18:00
3,02-12-2016,125,K.N.BOREGOWDA,GS,09:00,18:00
4,02-12-2016,127,SRINIVAS.H.C,GS,09:00,18:00
5,02-12-2016,128,KUMAR.H.S,GS,09:00,18:00
6,02-12-2016,130,A.H.PRASAD KUMAR,GS,09:00,18:00
7,02-12-2016,131,GIRISH SHETTY,GS,08:59,18:31
8,02-12-2016,135,KUMAR.B.S,GS,09:01,19:00
9,02-12-2016,136,SUDHIR SHETTY,GS,08:45,18:33
10,02-12-2016,138,PRASANNA KUMAR.S,GS,08:56,19:00
11,02-12-2016,139,MITHUN.G.SHETTY,GS,09:40,18:47
12,02-12-2016,140,VENKATESH.K,GS,09:52,16:41
13,02-12-2016,143,JAGANNATH JAKKA,GS,09:42,18:47
14,02-12-2016,147,UMESH.B.V,GS,09:11,18:07
15,02-12-2016,149,C.V.HARISH,GS,09:00,18:00
16,02-12-2016,152,CHANDRASHEKAR.M.B,GS,09:00,18:00
17,02-12-2016,157,SANTOSH.K.NAIK,GS,08:42,18:36
18,02-12-2016,158,NANJEGOWDA,GS,09:00,18:00
19,02-12-2016,170,VAISHNAVI.R.AITHAL,GS,09:02,18:19
20,02-12-2016,171,SHIVANNA,GS,09:01,17:56
21,02-12-2016,175,BHANUPRAKASH DG,GS,10:01,19:34
22,02-12-2016,188,RATHNA,GS,09:00,18:00
23,02-12-2016,197,SHIVA KUMAR.N,GS,09:25,20:08
24,02-12-2016,199,HEMANTH.V.G,GS,10:45,19:24
25,02-12-2016,201,SUNIL KUMAR.B.B,GS,08:55,18:11
26,02-12-2016,202,MAHESH RAJ URS,GS,09:14,17:39
27,02-12-2016,206,PRASANNA.N.M,GS,08:53,18:08
28,02-12-2016,207,PRIYA NAGARAJ,GS,13:57,00:00
29,02-12-2016,208,K.P.RAGHAVENDRA,GS,09:00,18:00
30,02-12-2016,210,KAVYA.B.K,GS,09:49,19:02
31,02-12-2016,211,BASAVARAJU.K.N,GS,09:23,18:47
32,02-12-2016,213,AJITH ASHOKAN,GS,09:01,18:52
33,02-12-2016,217,C.SHASHIDHAR,GS,08:49,18:05
34,02-12-2016,218,KISHORE.B.N,GS,09:00,18:00
35,02-12-2016,223,CHETAN.G.K,GS,09:00,18:00
36,02-12-2016,230,KEERTHI KUMAR.K.R,GS,09:00,18:00
37,02-12-2016,243,ABBUBAKARSIDEEK.K,GS,08:57,18:20
38,02-12-2016,245,AVILASH.P.G,GS,09:00,18:00
39,02-12-2016,250,YOGESH.A.N,GS,08:22,18:36
40,02-12-2016,252,SRILATHA BOLLADY,GS,09:08,19:14
41,02-12-2016,254,PAVAN KUMAR.H.N,GS,09:15,18:52
42,02-12-2016,257,CHANDRAPPA,GS,08:48,00:00
43,02-12-2016,258,THIPPESWAMY.B.C,GS,09:11,17:53
44,02-12-2016,259,KARTHIKEYA PATIL,GS,09:03,17:59
45,02-12-2016,261,RAMU,GS,09:00,18:00
46,02-12-2016,262,REKHA,GS,09:00,18:00
47,02-12-2016,263,YOGESH GOWDA.M.L,GS,07:24,20:09
48,02-12-2016,265,NAGARAJ PRAKASH,GS,09:11,18:54
49,02-12-2016,268,AVIN KUMAR,GS,09:14,17:40
50,02-12-2016,269,PRADEEP.B.R,GS,09:07,18:01
51,02-12-2016,270,MANJUNATH.R,GS,08:52,00:00
52,02-12-2016,273,KUSHALA.G.V,GS,09:00,18:00
53,02-12-2016,274,Abhinandan.K.M,GS,09:02,20:02
54,02-12-2016,275,MANJU.B,GS,09:18,18:09
55,02-12-2016,277,N.CHANDRASHEKAR,GS,08:58,17:59
56,02-12-2016,279,MALLESH,GS,09:00,18:00
57,02-12-2016,282,NAVIN KUMAR.B.R,GS,09:00,18:00
58,02-12-2016,290,NARAYANA REDDY.M,GS,08:57,18:09
59,02-12-2016,291,RAJANNA.A.C,GS,09:07,18:11
60,02-12-2016,293,VENKAT RAMANAIAH YETURU,GS,08:45,09:19
61,02-12-2016,296,NANDEESHA.K,GS,00:00,00:00
62,02-12-2016,300,KEMPARAJU.N.S,GS,09:05,18:31
63,02-12-2016,301,PUNEETH.M.P,GS,09:00,18:00
64,02-12-2016,302,HARSHA KUMAR.H.R,GS,09:00,18:00
65,02-12-2016,303,PRITHVI KUMAR.C.A,GS,09:51,18:24
66,02-12-2016,304,SANTOSH NARAYAN,GS,10:47,19:14
67,02-12-2016,309,MARY SHARLY,GS,08:59,18:24
68,02-12-2016,311,RAKESH.A.M,GS,00:00,19:59
69,02-12-2016,314,VIJAYASHREE.S.ANAND,GS,09:06,19:07
70,02-12-2016,315,BALAJI,GS,09:00,18:00
71,02-12-2016,317,MAHESH GOWDA.C.S,GS,09:03,18:21
72,02-12-2016,318,DHIRENDRA BHASKAR.H.P,GS,08:59,18:14
73,02-12-2016,319,PRADEEP KUMAR.S.S,GS,08:59,18:13
74,02-12-2016,321,PALLAVI.K,GS,00:00,00:00
75,02-12-2016,322,SURESH.K,GS,09:17,18:09
76,02-12-2016,323,CHELUVEGOWDA.H.S,GS,00:00,00:00
77,02-12-2016,327,BINDU RANI,GS,11:08,17:31
78,02-12-2016,328,DHANASHEKAR.M,GS,09:13,18:23
79,02-12-2016,329,Kaliprasad(NOT IN PAYROLL),GS,09:00,18:00
80,02-12-2016,330,THIMMAPPA,GS,08:48,20:05
81,02-12-2016,331,ALTAF,GS,00:00,00:00
82,02-12-2016,332,ANIL KUMAR.H.R,GS,09:02,18:01
83,02-12-2016,334,SHIVAPRASAD,GS,08:33,18:14
84,02-12-2016,324,Madan.V(NOT IN PAYROLL),GS,08:35,00:00
85,02-12-2016,249,DIVAKAR.N.M,GS,00:00,19:53
86,02-12-2016,336,SHWETHA.H.G,GS,09:18,16:15
87,02-12-2016,337,K.O.SREEDHAR,GS,09:01,19:49
88,02-12-2016,338,NANDINI.S.L,GS,00:00,00:00
89,02-12-2016,1010,RAMU.H.M,GS,00:00,00:00
