SNo,Date,E. Code,Name,Shift, InTime, OutTime
1,02-04-2017,123,K.N.SURENDRA,GS,00:00,00:00
2,02-04-2017,124,K.N.SOWMYA,GS,00:00,00:00
3,02-04-2017,125,K.N.BOREGOWDA,GS,00:00,00:00
4,02-04-2017,127,SRINIVAS.H.C,GS,00:00,00:00
5,02-04-2017,128,KUMAR.H.S,GS,00:00,00:00
6,02-04-2017,130,A.H.PRASAD KUMAR,GS,00:00,00:00
7,02-04-2017,131,GIRISH SHETTY,GS,00:00,00:00
8,02-04-2017,135,KUMAR.B.S,GS,00:00,00:00
9,02-04-2017,136,SUDHIR SHETTY,GS,00:00,00:00
10,02-04-2017,138,PRASANNA KUMAR.S,GS,00:00,00:00
11,02-04-2017,139,MITHUN.G.SHETTY,GS,09:16,09:56
12,02-04-2017,140,VENKATESH.K,GS,00:00,00:00
13,02-04-2017,143,JAGANNATH JAKKA,GS,00:00,00:00
14,02-04-2017,147,UMESH.B.V,GS,00:00,00:00
15,02-04-2017,149,C.V.HARISH,GS,09:00,18:00
16,02-04-2017,152,CHANDRASHEKAR.M.B,GS,00:00,00:00
17,02-04-2017,157,SANTOSH.K.NAIK,GS,00:00,00:00
18,02-04-2017,158,NANJEGOWDA,GS,00:00,00:00
19,02-04-2017,170,VAISHNAVI.R.AITHAL,GS,00:00,00:00
20,02-04-2017,171,SHIVANNA,GS,09:40,18:00
21,02-04-2017,175,BHANUPRAKASH DG,GS,00:00,00:00
22,02-04-2017,197,SHIVA KUMAR.N,GS,09:38,13:33
23,02-04-2017,199,HEMANTH.V.G,GS,12:44,17:49
24,02-04-2017,201,SUNIL KUMAR.B.B,GS,00:00,00:00
25,02-04-2017,202,MAHESH RAJ URS,GS,00:00,00:00
26,02-04-2017,206,PRASANNA.N.M,GS,00:00,00:00
27,02-04-2017,207,PRIYA NAGARAJ,GS,00:00,00:00
28,02-04-2017,208,K.P.RAGHAVENDRA,GS,00:00,00:00
29,02-04-2017,210,KAVYA.B.K,GS,00:00,00:00
30,02-04-2017,211,BASAVARAJU.K.N,GS,00:00,00:00
31,02-04-2017,213,AJITH ASHOKAN,GS,00:00,00:00
32,02-04-2017,217,C.SHASHIDHAR,GS,00:00,00:00
33,02-04-2017,218,KISHORE.B.N,GS,00:00,00:00
34,02-04-2017,223,CHETAN.G.K,GS,00:00,00:00
35,02-04-2017,230,KEERTHI KUMAR.K.R,GS,09:47,18:03
36,02-04-2017,243,ABBUBAKARSIDEEK.K,GS,00:00,00:00
37,02-04-2017,245,AVILASH.P.G,GS,00:00,00:00
38,02-04-2017,250,YOGESH.A.N,GS,00:00,00:00
39,02-04-2017,252,SRILATHA BOLLADY,GS,09:46,18:29
40,02-04-2017,254,PAVAN KUMAR.H.N,GS,00:00,00:00
41,02-04-2017,257,CHANDRAPPA,GS,00:00,00:00
42,02-04-2017,258,THIPPESWAMY.B.C,GS,00:00,00:00
43,02-04-2017,262,REKHA,GS,00:00,00:00
44,02-04-2017,263,YOGESH GOWDA.M.L,GS,08:52,18:33
45,02-04-2017,265,NAGARAJ PRAKASH,GS,00:00,00:00
46,02-04-2017,268,AVIN KUMAR,GS,00:00,00:00
47,02-04-2017,269,PRADEEP.B.R,GS,00:00,00:00
48,02-04-2017,270,MANJUNATH.R,GS,00:00,00:00
49,02-04-2017,273,KUSHALA.G.V,GS,00:00,00:00
50,02-04-2017,274,Abhinandan.K.M,GS,00:00,00:00
51,02-04-2017,275,MANJU.B,GS,00:00,00:00
52,02-04-2017,277,N.CHANDRASHEKAR,GS,00:00,00:00
53,02-04-2017,279,MALLESH,GS,00:00,00:00
54,02-04-2017,282,NAVIN KUMAR.B.R,GS,00:00,00:00
55,02-04-2017,290,NARAYANA REDDY.M,GS,00:00,00:00
56,02-04-2017,293,VENKAT RAMANAIAH YETURU,GS,09:59,17:30
57,02-04-2017,296,NANDEESHA.K,GS,00:00,00:00
58,02-04-2017,300,KEMPARAJU.N.S,GS,00:00,00:00
59,02-04-2017,302,HARSHA KUMAR.H.R,GS,00:00,00:00
60,02-04-2017,303,PRITHVI KUMAR.C.A,GS,00:00,00:00
61,02-04-2017,304,SANTOSH NARAYAN,GS,11:28,18:29
62,02-04-2017,311,RAKESH.A.M,GS,00:00,00:00
63,02-04-2017,314,VIJAYASHREE.S.ANAND,GS,09:42,14:59
64,02-04-2017,315,BALAJI,GS,00:00,00:00
65,02-04-2017,317,MAHESH GOWDA.C.S,GS,00:00,00:00
66,02-04-2017,321,PALLAVI.K,GS,09:07,17:59
67,02-04-2017,322,SURESH.K,GS,00:00,00:00
68,02-04-2017,323,CHELUVEGOWDA.H.S,GS,00:00,00:00
69,02-04-2017,327,BINDU RANI,GS,00:00,00:00
70,02-04-2017,328,DHANASHEKAR.M,GS,00:00,00:00
71,02-04-2017,329,Kaliprasad(NOT IN PAYROLL),GS,00:00,00:00
72,02-04-2017,330,THIMMAPPA,GS,00:00,00:00
73,02-04-2017,331,ALTAF,GS,00:00,00:00
74,02-04-2017,332,ANIL KUMAR.H.R,GS,00:00,00:00
75,02-04-2017,334,SHIVAPRASAD,GS,00:00,00:00
76,02-04-2017,324,Madan.V(NOT IN PAYROLL),GS,00:00,00:00
77,02-04-2017,336,SHWETHA.H.G,GS,09:31,17:59
78,02-04-2017,338,NANDINI.S.L,GS,00:00,00:00
79,02-04-2017,1010,RAMU.H.M,GS,08:56,12:37
80,02-04-2017,1011,NIRANJAN.K.B,GS,00:00,00:00
81,02-04-2017,189,K.N.RAJU,GS,00:00,00:00
82,02-04-2017,339,MADEVAPPA BHAJANTRI,GS,00:00,00:00
83,02-04-2017,5001,M.N.Manjunath,GS,00:00,00:00
