SNo,Date,E. Code,Name,Shift, InTime, OutTime
1,02-08-2017,123,K.N.SURENDRA,GS,09:00,18:00
2,02-08-2017,124,K.N.SOWMYA,GS,09:00,18:00
3,02-08-2017,125,K.N.BOREGOWDA,GS,09:00,18:00
4,02-08-2017,127,SRINIVAS.H.C,GS,09:00,18:00
5,02-08-2017,128,KUMAR.H.S,GS,09:00,18:00
6,02-08-2017,130,A.H.PRASAD KUMAR,GS,09:00,18:00
7,02-08-2017,131,GIRISH SHETTY,GS,09:07,19:36
8,02-08-2017,135,KUMAR.B.S,GS,09:06,17:56
9,02-08-2017,136,SUDHIR SHETTY,GS,09:11,18:22
10,02-08-2017,138,PRASANNA KUMAR.S,GS,00:00,00:00
11,02-08-2017,139,MITHUN.G.SHETTY,GS,08:31,19:46
12,02-08-2017,140,VENKATESH.K,GS,09:43,20:08
13,02-08-2017,143,JAGANNATH JAKKA,GS,08:39,00:00
14,02-08-2017,147,UMESH.B.V,GS,09:11,17:55
15,02-08-2017,149,C.V.HARISH,GS,09:00,18:00
16,02-08-2017,157,SANTOSH.K.NAIK,GS,00:00,00:00
17,02-08-2017,158,NANJEGOWDA,GS,09:00,18:00
18,02-08-2017,170,VAISHNAVI.R.AITHAL,GS,09:00,17:57
19,02-08-2017,171,SHIVANNA,GS,08:44,18:06
20,02-08-2017,175,BHANUPRAKASH DG,GS,09:21,18:25
21,02-08-2017,197,SHIVA KUMAR.N,GS,09:03,19:58
22,02-08-2017,199,HEMANTH.V.G,GS,09:00,18:00
23,02-08-2017,201,SUNIL KUMAR.B.B,GS,09:08,18:02
24,02-08-2017,202,MAHESH RAJ URS,GS,00:00,00:00
25,02-08-2017,206,PRASANNA.N.M,GS,00:00,00:00
26,02-08-2017,207,PRIYA NAGARAJ,GS,00:00,00:00
27,02-08-2017,208,K.P.RAGHAVENDRA,GS,09:00,18:00
28,02-08-2017,210,KAVYA.B.K,GS,09:02,18:27
29,02-08-2017,211,BASAVARAJU.K.N,GS,00:00,00:00
30,02-08-2017,213,AJITH ASHOKAN,GS,09:03,18:18
31,02-08-2017,217,C.SHASHIDHAR,GS,00:00,00:00
32,02-08-2017,218,KISHORE.B.N,GS,00:00,00:00
33,02-08-2017,223,CHETAN.G.K,GS,00:00,00:00
34,02-08-2017,230,KEERTHI KUMAR.K.R,GS,00:00,00:00
35,02-08-2017,243,ABBUBAKARSIDEEK.K,GS,09:00,18:00
36,02-08-2017,250,YOGESH.A.N,GS,08:04,19:11
37,02-08-2017,252,SRILATHA BOLLADY,GS,09:06,18:24
38,02-08-2017,254,PAVAN KUMAR.H.N,GS,08:44,18:05
39,02-08-2017,257,CHANDRAPPA,GS,00:00,00:00
40,02-08-2017,262,REKHA,GS,09:00,18:00
41,02-08-2017,263,YOGESH GOWDA.M.L,GS,07:07,20:34
42,02-08-2017,265,NAGARAJ PRAKASH,GS,09:02,18:37
43,02-08-2017,268,AVIN KUMAR,GS,00:00,00:00
44,02-08-2017,269,PRADEEP.B.R,GS,00:00,00:00
45,02-08-2017,273,KUSHALA.G.V,GS,00:00,00:00
46,02-08-2017,274,Abhinandan.K.M,GS,09:06,19:58
47,02-08-2017,275,MANJU.B,GS,09:22,18:35
48,02-08-2017,277,N.CHANDRASHEKAR,GS,00:00,00:00
49,02-08-2017,279,MALLESH,GS,00:00,00:00
50,02-08-2017,282,NAVIN KUMAR.B.R,GS,00:00,00:00
51,02-08-2017,290,NARAYANA REDDY.M,GS,00:00,00:00
52,02-08-2017,293,VENKAT RAMANAIAH YETURU,GS,09:02,18:24
53,02-08-2017,296,NANDEESHA.K,GS,00:00,00:00
54,02-08-2017,300,KEMPARAJU.N.S,GS,09:03,18:21
55,02-08-2017,302,HARSHA KUMAR.H.R,GS,00:00,00:00
56,02-08-2017,303,PRITHVI KUMAR.C.A,GS,00:00,00:00
57,02-08-2017,304,SANTOSH NARAYAN,GS,18:33,19:04
58,02-08-2017,314,VIJAYASHREE.S.ANAND,GS,12:41,17:35
59,02-08-2017,317,MAHESH GOWDA.C.S,GS,08:54,19:06
60,02-08-2017,322,SURESH.K,GS,09:14,18:02
61,02-08-2017,323,CHELUVEGOWDA.H.S,GS,08:05,17:44
62,02-08-2017,327,BINDU RANI,GS,10:57,18:15
63,02-08-2017,328,DHANASHEKAR.M,GS,08:40,00:00
64,02-08-2017,330,THIMMAPPA,GS,00:00,00:00
65,02-08-2017,331,ALTAF,GS,09:00,18:00
66,02-08-2017,332,ANIL KUMAR.H.R,GS,19:09,19:18
67,02-08-2017,334,SHIVAPRASAD,GS,00:00,00:00
68,02-08-2017,324,Madan.V(NOT IN PAYROLL),GS,00:00,00:00
69,02-08-2017,336,SHWETHA.H.G,GS,09:06,00:00
70,02-08-2017,338,NANDINI.S.L,GS,00:00,00:00
71,02-08-2017,1010,RAMU.H.M,GS,07:13,13:57
72,02-08-2017,1011,NIRANJAN.K.B,GS,00:00,00:00
73,02-08-2017,189,K.N.RAJU,GS,00:00,00:00
74,02-08-2017,339,MADEVAPPA BHAJANTRI,GS,08:12,19:15
75,02-08-2017,5002,Madhu sudhan.B,GS,00:00,00:00
76,02-08-2017,5004,SHIVANNA JUNIOR,GS,09:00,18:00
77,02-08-2017,5005,Sarath kumar.R,GS,00:00,00:00
78,02-08-2017,5006,Ritish Kiran.,GS,00:00,00:00
79,02-08-2017,5007,Sanjay Prabhakar Balli,GS,00:00,00:00
80,02-08-2017,5008,Vinay.K.C,GS,00:00,00:00
81,02-08-2017,346,SARANDEEP.S,GS,09:02,00:00
82,02-08-2017,342,NETHRAVATHI.T,GS,08:49,18:07
83,02-08-2017,5013,CHANNABASAVESHWARASWAMY.G.S,GS,00:00,00:00
84,02-08-2017,344,J.K.SRINIVASA,GS,08:55,19:06
85,02-08-2017,5015,SANDEEPA.V.P,GS,00:00,00:00
86,02-08-2017,343,SRIDHAR.G,GS,00:00,00:00
87,02-08-2017,347,DEEPAK.T.N,GS,00:00,00:00
88,02-08-2017,348,VINAY BHARGAVA.K.N,GS,08:50,18:22
