SNo,Date,E. Code,Name,Shift, InTime, OutTime
1,01-06-2016,123,K.N.SURENDRA,GS,9:00,18:00
2,01-06-2016,124,K.N.SOWMYA,GS,9:00,18:00
3,01-06-2016,125,K.N.BOREGOWDA,GS,9:00,18:00
4,01-06-2016,127,SRINIVAS.H.C,GS,9:00,18:00
5,01-06-2016,128,KUMAR.H.S,GS,9:00,18:00
6,01-06-2016,130,A.H.PRASAD KUMAR,GS,9:00,18:00
7,01-06-2016,131,GIRISH SHETTY,GS,8:58,19:02
8,01-06-2016,135,KUMAR.B.S,GS,9:11,19:16
9,01-06-2016,136,SUDHIR SHETTY,GS,9:20,19:46
10,01-06-2016,138,PRASANNA KUMAR.S,GS,9:02,18:11
11,01-06-2016,139,MITHUN.G.SHETTY,GS,7:51,18:04
12,01-06-2016,140,VENKATESH.K,GS,10:38,22:24
13,01-06-2016,143,JAGANNATH JAKKA,GS,11:19,20:10
14,01-06-2016,147,UMESH.B.V,GS,9:35,0:00
15,01-06-2016,149,C.V.HARISH,GS,7:30,18:01
16,01-06-2016,152,CHANDRASHEKAR.M.B,GS,8:10,18:21
17,01-06-2016,157,SANTOSH.K.NAIK,GS,8:22,19:23
18,01-06-2016,158,NANJEGOWDA,GS,0:00,0:00
19,01-06-2016,170,VAISHNAVI.R.AITHAL,GS,9:12,19:03
20,01-06-2016,171,SHIVANNA,GS,8:18,0:00
21,01-06-2016,172,BOREGOWDA,GS,8:31,18:00
22,01-06-2016,175,BHANUPRAKASH DG,GS,9:14,20:06
23,01-06-2016,188,RATHNA,GS,0:00,0:00
24,01-06-2016,194,NANJAMANI,GS,8:49,18:03
25,01-06-2016,195,RAVI IV,GS,9:06,18:29
26,01-06-2016,197,SHIVA KUMAR.N,GS,9:05,0:06
27,01-06-2016,199,HEMANTH.V.G,GS,0:00,0:00
28,01-06-2016,201,SUNIL KUMAR.B.B,GS,8:31,0:00
29,01-06-2016,202,MAHESH RAJ URS,GS,9:01,18:04
30,01-06-2016,206,PRASANNA.N.M,GS,9:03,18:09
31,01-06-2016,207,PRIYA NAGARAJ,GS,11:06,20:12
32,01-06-2016,208,K.P.RAGHAVENDRA,GS,9:00,18:00
33,01-06-2016,209,NAVEEN.B.L,GS,8:34,21:15
34,01-06-2016,210,KAVYA.B.K,GS,9:42,20:07
35,01-06-2016,211,BASAVARAJU.K.N,GS,9:16,18:49
36,01-06-2016,213,AJITH ASHOKAN,GS,9:05,18:46
37,01-06-2016,217,C.SHASHIDHAR,GS,8:38,18:01
38,01-06-2016,218,KISHORE.B.N,GS,8:45,18:12
39,01-06-2016,223,CHETAN.G.K,GS,0:00,0:00
40,01-06-2016,230,KEERTHI KUMAR.K.R,GS,0:00,0:00
41,01-06-2016,236,NANDEESH.G.H,GS,8:25,20:15
42,01-06-2016,243,ABBUBAKARSIDEEK.K,GS,0:00,0:00
43,01-06-2016,245,AVILASH.P.G,GS,8:52,18:11
44,01-06-2016,249,DIVAKAR.N.N,GS,0:00,0:00
45,01-06-2016,250,YOGESH.A.N,GS,7:55,19:47
46,01-06-2016,252,SRILATHA BOLLADY,GS,9:14,18:16
47,01-06-2016,254,PAVAN KUMAR.H.N,GS,8:17,18:28
48,01-06-2016,257,CHANDRAPPA,GS,8:20,18:01
49,01-06-2016,258,THIPPESWAMY.B.C,GS,9:07,18:37
50,01-06-2016,259,KARTHIKEYA PATIL,GS,0:00,0:00
51,01-06-2016,261,RAMU,GS,9:00,18:00
52,01-06-2016,262,REKHA,GS,9:00,18:00
53,01-06-2016,263,YOGESH GOWDA.M.L,GS,0:00,0:00
54,01-06-2016,265,NAGARAJ PRAKASH,GS,8:59,19:27
55,01-06-2016,269,PRADEEP.B.R,GS,9:04,18:10
56,01-06-2016,270,MANJUNATH.R,GS,0:00,0:00
57,01-06-2016,273,KUSHALA.G.V,GS,9:00,18:00
58,01-06-2016,274,Abhinandan.K.M,GS,7:37,0:06
59,01-06-2016,275,MANJU.B,GS,9:12,18:23
60,01-06-2016,277,N.CHANDRAHEKAR,GS,0:00,0:00
61,01-06-2016,279,MALLESH,GS,0:00,0:00
62,01-06-2016,282,NAVIN KUMAR.B.R,GS,8:52,18:14
63,01-06-2016,290,NARAYANA REDDY.M,GS,9:11,17:58
64,01-06-2016,291,RAJANNA.A.C,GS,8:45,18:20
65,01-06-2016,293,VENKAT RAMANAIAH YETURU,GS,11:14,20:32
66,01-06-2016,295,SHIVARAJ.V.S,GS,9:00,18:04
67,01-06-2016,296,NANDEESHA.K,GS,0:00,0:00
68,01-06-2016,298,SHARATH.N,GS,9:33,18:02
69,01-06-2016,300,KEMPARAJU.N.S,GS,9:01,18:04
70,01-06-2016,301,PUNEETH.M.P,GS,9:00,18:00
71,01-06-2016,302,HARSHA KUMAR.H.R,GS,9:05,18:02
72,01-06-2016,303,PRITHVI KUMAR.C.A,GS,0:00,0:00
73,01-06-2016,304,SANTOSH NARAYAN,GS,0:00,18:21
74,01-06-2016,307,VIVEK KUMAR SHARMA,GS,9:25,18:04
75,01-06-2016,309,MARY SHARLY,GS,9:08,18:10
76,01-06-2016,311,RAKESH.A.M,GS,9:02,18:39
77,01-06-2016,312,GAYATRI R BHAT,GS,0:00,0:00
78,01-06-2016,313,SUSHMA.R,GS,0:00,0:00
79,01-06-2016,314,VIJAYASHREE.S.ANAND,GS,8:55,18:12
80,01-06-2016,315,BALAJI,GS,9:00,18:00
81,01-06-2016,317,MAHESH GOWDA.C.S,GS,8:54,19:22
82,01-06-2016,318,DHIRENDRA BHASKAR.H.P,GS,8:52,20:48
