SNo,Date,E. Code,Name,Shift, InTime, OutTime
1,27-02-2018,123,K.N.SURENDRA,GS,09:00,18:00
2,27-02-2018,124,K.N.SOWMYA,GS,09:00,18:00
3,27-02-2018,125,K.N.BOREGOWDA,GS,09:00,18:00
4,27-02-2018,127,SRINIVAS.H.C,GS,09:00,18:00
5,27-02-2018,128,KUMAR.H.S,GS,09:00,18:00
6,27-02-2018,130,A.H.PRASAD KUMAR,GS,09:00,18:00
7,27-02-2018,131,GIRISH SHETTY,GS,09:00,18:36
8,27-02-2018,135,KUMAR.B.S,GS,09:00,18:49
9,27-02-2018,136,SUDHIR SHETTY,GS,09:05,18:54
10,27-02-2018,138,PRASANNA KUMAR.S,GS,00:00,00:00
11,27-02-2018,139,MITHUN.G.SHETTY,GS,09:00,20:01
12,27-02-2018,140,VENKATESH.K,GS,09:00,18:49
13,27-02-2018,143,JAGANNATH JAKKA,GS,00:00,00:00
14,27-02-2018,147,UMESH.B.V,GS,00:00,00:00
15,27-02-2018,157,SANTOSH.K.NAIK,GS,09:00,18:00
16,27-02-2018,158,NANJEGOWDA,GS,09:00,18:00
17,27-02-2018,170,VAISHNAVI.R.AITHAL,GS,08:45,17:57
18,27-02-2018,171,SHIVANNA,GS,09:00,18:00
19,27-02-2018,175,BHANUPRAKASH DG,GS,09:00,18:39
20,27-02-2018,197,SHIVA KUMAR.N,GS,00:00,00:00
21,27-02-2018,201,SUNIL KUMAR.B.B,GS,09:00,18:35
22,27-02-2018,202,MAHESH RAJ URS,GS,09:00,18:00
23,27-02-2018,207,PRIYA NAGARAJ,GS,00:00,00:00
24,27-02-2018,208,K.P.RAGHAVENDRA,GS,09:00,18:00
25,27-02-2018,210,KAVYA.B.K,GS,09:50,19:10
26,27-02-2018,211,BASAVARAJU.K.N,GS,09:00,18:00
27,27-02-2018,217,C.SHASHIDHAR,GS,09:00,18:00
28,27-02-2018,223,CHETAN.G.K,GS,09:00,18:00
29,27-02-2018,243,ABBUBAKARSIDEEK.K,GS,09:00,18:00
30,27-02-2018,250,YOGESH.A.N,GS,08:00,18:40
31,27-02-2018,252,SRILATHA BOLLADY,GS,09:00,18:06
32,27-02-2018,254,PAVAN KUMAR.H.N,GS,09:00,18:50
33,27-02-2018,257,CHANDRAPPA,GS,09:00,18:00
34,27-02-2018,262,REKHA,GS,09:00,18:00
35,27-02-2018,263,YOGESH GOWDA.M.L,GS,07:30,21:04
36,27-02-2018,265,NAGARAJ PRAKASH,GS,09:15,18:00
37,27-02-2018,268,AVIN KUMAR,GS,00:00,00:00
38,27-02-2018,269,PRADEEP.B.R,GS,00:00,00:00
39,27-02-2018,273,KUSHALA.G.V,GS,09:00,18:00
40,27-02-2018,274,Abhinandan.K.M,GS,09:10,20:19
41,27-02-2018,275,MANJU.B,GS,00:00,00:00
42,27-02-2018,279,MALLESH,GS,09:00,18:00
43,27-02-2018,282,NAVIN KUMAR.B.R,GS,09:00,18:00
44,27-02-2018,290,NARAYANA REDDY.M,GS,09:30,18:16
45,27-02-2018,293,VENKAT RAMANAIAH YETURU,GS,09:00,18:22
46,27-02-2018,296,NANDEESHA.K,GS,09:30,18:35
47,27-02-2018,302,HARSHA KUMAR.H.R,GS,09:00,18:00
48,27-02-2018,303,PRITHVI KUMAR.C.A,GS,00:00,00:00
49,27-02-2018,304,SANTOSH NARAYAN,GS,00:00,00:00
50,27-02-2018,314,VIJAYASHREE.S.ANAND,GS,09:30,18:12
51,27-02-2018,322,SURESH.K,GS,09:20,17:58
52,27-02-2018,323,CHELUVEGOWDA.H.S,GS,09:00,19:14
53,27-02-2018,327,BINDU RANI,GS,10:45,17:59
54,27-02-2018,328,DHANASHEKAR.M,GS,00:00,00:00
55,27-02-2018,331,ALTAF,GS,09:00,18:00
56,27-02-2018,332,ANIL KUMAR.H.R,GS,09:00,18:00
57,27-02-2018,334,SHIVAPRASAD,GS,09:00,19:01
58,27-02-2018,336,SHWETHA.H.G,GS,09:00,18:14
59,27-02-2018,1011,NIRANJAN.K.B,GS,09:00,18:00
60,27-02-2018,189,K.N.RAJU,GS,09:00,18:00
61,27-02-2018,339,MADEVAPPA BHAJANTRI,GS,09:00,18:51
62,27-02-2018,5002,Madhu sudhan.B,GS,00:00,00:00
63,27-02-2018,5004,SHIVANNA JUNIOR,GS,09:00,18:00
64,27-02-2018,5008,Vinay.K.C,GS,00:00,00:00
65,27-02-2018,346,SARANDEEP.S,GS,09:30,17:50
66,27-02-2018,342,NETHRAVATHI.T,GS,00:00,00:00
67,27-02-2018,344,J.K.SRINIVASA,GS,09:00,19:27
68,27-02-2018,5015,SANDEEPA.V.P,GS,00:00,00:00
69,27-02-2018,347,DEEPAK.T.N,GS,09:00,18:00
70,27-02-2018,348,VINAY BHARGAVA.K.N,GS,09:00,18:18
71,27-02-2018,5016,Praveen kumar.H.M,GS,09:00,18:00
72,27-02-2018,351,RAGHUVEER.R,GS,09:00,18:00
73,27-02-2018,349,RATHNA,GS,09:00,18:00
74,27-02-2018,5017,NITHIN KUMAR K,GS,00:00,00:00
75,27-02-2018,4002,CHAITRA.V,GS,00:00,00:00
76,27-02-2018,4003,B.BHAVYASHREE,GS,00:00,00:00
77,27-02-2018,4004,SANTOSHIMATA.S.B,GS,00:00,00:00
78,27-02-2018,5020,LAKSHMIKANTH.C.S,GS,00:00,00:00
79,27-02-2018,4005,KEMPEGOWDA.G,GS,09:00,18:00
80,27-02-2018,5021,MENAKA.N,GS,09:00,18:00
81,27-02-2018,5023,Kavya.B.S,GS,09:00,17:59
82,27-02-2018,5024,KARTHIK.R,GS,00:00,00:00
83,27-02-2018,5025,SHIVAKUMAR.M.S,GS,09:00,19:54
84,27-02-2018,5026,SUMANRAJ,GS,00:00,00:00
85,27-02-2018,354,AJITHKUMAR.Y.B,GS,09:00,18:00
86,27-02-2018,4008,RANJITHA,GS,00:00,00:00
87,27-02-2018,5027,MAHADEV,GS,07:40,18:48
88,27-02-2018,5028,AVILASH.P.G,GS,09:00,18:00
89,27-02-2018,5029,ABHISHEK ,GS,09:00,18:00
90,27-02-2018,5030,PRATHAP,GS,00:00,00:00
91,27-02-2018,355,RAJARAO,GS,09:00,18:00
92,27-02-2018,356,PUNITH KUMAR.K.M,GS,00:00,00:00
93,27-02-2018,5031,SANJAY,GS,09:00,18:00
94,27-02-2018,4009,RASHMITHA.S,GS,00:00,00:00
95,27-02-2018,4010,R.D.NANDINI,GS,00:00,00:00
96,27-02-2018,4011,RANJINI.K,GS,00:00,00:00
