SNo,Date,E. Code,Name,Shift, InTime, OutTime
1,01-10-2016,206,PRASANNA N M,GS,00:00,00:00
2,01-10-2016,139,MITHUN G SHETTY,GS,09:04,19:01
3,01-10-2016,249,DIVAKAR.N.M,GS,00:00,00:00
4,01-10-2016,138,PRASANNA KUMAR.S,GS,00:00,00:00
5,01-10-2016,270,MANJUNATH.R,GS,08:48,19:07
6,01-10-2016,202,MAHESH RAJ URS,GS,08:47,18:13
7,01-10-2016,149,C V HARISH,GS,07:23,18:00
8,01-10-2016,211,BASAVARAJU.K.N,GS,09:09,19:12
9,01-10-2016,277,N CHANDRASHEKAR,GS,09:02,18:15
10,01-10-2016,268,AVIN KUMAR,GS,08:59,18:27
11,01-10-2016,296,NANDEESHA.K,GS,08:59,18:22
12,01-10-2016,331,ALTAF,GS,08:59,18:22
13,01-10-2016,330,THIMMAPPA,GS,08:48,00:00
14,01-10-2016,303,PRITHVI KUMAR C A,GS,10:02,18:37
15,01-10-2016,217,C SHASHIDHAR,GS,08:17,18:01
16,01-10-2016,259,KARTHIKEYA PATIL,GS,09:02,18:06
17,01-10-2016,324,Madan V,GS,08:48,00:00
