SNo,Date,E. Code,Name,Shift, InTime, OutTime
1,03-08-2017,123,K.N.SURENDRA,GS,09:00,18:00
2,03-08-2017,124,K.N.SOWMYA,GS,09:00,18:00
3,03-08-2017,125,K.N.BOREGOWDA,GS,09:00,18:00
4,03-08-2017,127,SRINIVAS.H.C,GS,09:00,18:00
5,03-08-2017,128,KUMAR.H.S,GS,09:00,18:00
6,03-08-2017,130,A.H.PRASAD KUMAR,GS,09:00,18:00
7,03-08-2017,131,GIRISH SHETTY,GS,09:04,18:21
8,03-08-2017,135,KUMAR.B.S,GS,09:05,18:28
9,03-08-2017,136,SUDHIR SHETTY,GS,09:21,18:22
10,03-08-2017,138,PRASANNA KUMAR.S,GS,00:00,00:00
11,03-08-2017,139,MITHUN.G.SHETTY,GS,09:21,19:11
12,03-08-2017,140,VENKATESH.K,GS,00:00,00:00
13,03-08-2017,143,JAGANNATH JAKKA,GS,00:00,00:00
14,03-08-2017,147,UMESH.B.V,GS,09:10,18:21
15,03-08-2017,149,C.V.HARISH,GS,09:00,18:00
16,03-08-2017,157,SANTOSH.K.NAIK,GS,00:00,00:00
17,03-08-2017,158,NANJEGOWDA,GS,09:00,18:00
18,03-08-2017,170,VAISHNAVI.R.AITHAL,GS,08:35,18:04
19,03-08-2017,171,SHIVANNA,GS,08:08,19:42
20,03-08-2017,175,BHANUPRAKASH DG,GS,08:52,19:42
21,03-08-2017,197,SHIVA KUMAR.N,GS,09:26,18:38
22,03-08-2017,199,HEMANTH.V.G,GS,09:00,18:00
23,03-08-2017,201,SUNIL KUMAR.B.B,GS,09:12,18:22
24,03-08-2017,202,MAHESH RAJ URS,GS,00:00,00:00
25,03-08-2017,206,PRASANNA.N.M,GS,00:00,00:00
26,03-08-2017,207,PRIYA NAGARAJ,GS,00:00,00:00
27,03-08-2017,208,K.P.RAGHAVENDRA,GS,09:00,18:00
28,03-08-2017,210,KAVYA.B.K,GS,09:16,19:39
29,03-08-2017,211,BASAVARAJU.K.N,GS,00:00,00:00
30,03-08-2017,213,AJITH ASHOKAN,GS,08:51,18:21
31,03-08-2017,217,C.SHASHIDHAR,GS,00:00,00:00
32,03-08-2017,218,KISHORE.B.N,GS,00:00,00:00
33,03-08-2017,223,CHETAN.G.K,GS,09:29,13:21
34,03-08-2017,230,KEERTHI KUMAR.K.R,GS,00:00,00:00
35,03-08-2017,243,ABBUBAKARSIDEEK.K,GS,09:00,18:00
36,03-08-2017,250,YOGESH.A.N,GS,08:02,18:10
37,03-08-2017,252,SRILATHA BOLLADY,GS,09:05,19:13
38,03-08-2017,254,PAVAN KUMAR.H.N,GS,08:59,18:22
39,03-08-2017,257,CHANDRAPPA,GS,00:00,00:00
40,03-08-2017,262,REKHA,GS,09:00,18:00
41,03-08-2017,263,YOGESH GOWDA.M.L,GS,07:17,20:25
42,03-08-2017,265,NAGARAJ PRAKASH,GS,09:14,18:25
43,03-08-2017,268,AVIN KUMAR,GS,00:00,00:00
44,03-08-2017,269,PRADEEP.B.R,GS,00:00,00:00
45,03-08-2017,273,KUSHALA.G.V,GS,00:00,00:00
46,03-08-2017,274,Abhinandan.K.M,GS,07:17,07:37
47,03-08-2017,275,MANJU.B,GS,09:21,18:23
48,03-08-2017,277,N.CHANDRASHEKAR,GS,00:00,00:00
49,03-08-2017,279,MALLESH,GS,00:00,00:00
50,03-08-2017,282,NAVIN KUMAR.B.R,GS,00:00,00:00
51,03-08-2017,290,NARAYANA REDDY.M,GS,00:00,00:00
52,03-08-2017,293,VENKAT RAMANAIAH YETURU,GS,09:09,11:22
53,03-08-2017,296,NANDEESHA.K,GS,00:00,00:00
54,03-08-2017,300,KEMPARAJU.N.S,GS,09:05,18:22
55,03-08-2017,302,HARSHA KUMAR.H.R,GS,00:00,00:00
56,03-08-2017,303,PRITHVI KUMAR.C.A,GS,00:00,00:00
57,03-08-2017,304,SANTOSH NARAYAN,GS,19:20,20:19
58,03-08-2017,314,VIJAYASHREE.S.ANAND,GS,09:20,18:00
59,03-08-2017,317,MAHESH GOWDA.C.S,GS,08:57,18:50
60,03-08-2017,322,SURESH.K,GS,09:04,17:56
61,03-08-2017,323,CHELUVEGOWDA.H.S,GS,08:20,17:54
62,03-08-2017,327,BINDU RANI,GS,10:54,18:26
63,03-08-2017,328,DHANASHEKAR.M,GS,08:26,19:36
64,03-08-2017,330,THIMMAPPA,GS,00:00,00:00
65,03-08-2017,331,ALTAF,GS,09:00,18:00
66,03-08-2017,332,ANIL KUMAR.H.R,GS,08:59,18:05
67,03-08-2017,334,SHIVAPRASAD,GS,00:00,00:00
68,03-08-2017,324,Madan.V(NOT IN PAYROLL),GS,00:00,00:00
69,03-08-2017,336,SHWETHA.H.G,GS,09:16,09:27
70,03-08-2017,338,NANDINI.S.L,GS,09:04,18:31
71,03-08-2017,1010,RAMU.H.M,GS,07:41,20:17
72,03-08-2017,1011,NIRANJAN.K.B,GS,00:00,00:00
73,03-08-2017,189,K.N.RAJU,GS,00:00,00:00
74,03-08-2017,339,MADEVAPPA BHAJANTRI,GS,08:43,20:01
75,03-08-2017,5002,Madhu sudhan.B,GS,00:00,00:00
76,03-08-2017,5004,SHIVANNA JUNIOR,GS,09:00,18:00
77,03-08-2017,5005,Sarath kumar.R,GS,00:00,00:00
78,03-08-2017,5006,Ritish Kiran.,GS,00:00,00:00
79,03-08-2017,5007,Sanjay Prabhakar Balli,GS,00:00,00:00
80,03-08-2017,5008,Vinay.K.C,GS,00:00,00:00
81,03-08-2017,346,SARANDEEP.S,GS,09:00,00:00
82,03-08-2017,342,NETHRAVATHI.T,GS,09:00,19:32
83,03-08-2017,5013,CHANNABASAVESHWARASWAMY.G.S,GS,00:00,00:00
84,03-08-2017,344,J.K.SRINIVASA,GS,08:57,19:16
85,03-08-2017,5015,SANDEEPA.V.P,GS,00:00,00:00
86,03-08-2017,343,SRIDHAR.G,GS,00:00,00:00
87,03-08-2017,347,DEEPAK.T.N,GS,09:15,00:00
88,03-08-2017,348,VINAY BHARGAVA.K.N,GS,08:49,18:30
