SNo,Date,E. Code,Name,Shift, InTime, OutTime
1,09-12-2017,123,K.N.SURENDRA,GS,09:00,18:00
2,09-12-2017,124,K.N.SOWMYA,GS,09:00,18:00
3,09-12-2017,125,K.N.BOREGOWDA,GS,09:00,18:00
4,09-12-2017,127,SRINIVAS.H.C,GS,09:00,18:00
5,09-12-2017,128,KUMAR.H.S,GS,09:00,18:00
6,09-12-2017,130,A.H.PRASAD KUMAR,GS,09:00,18:00
7,09-12-2017,131,GIRISH SHETTY,GS,00:00,00:00
8,09-12-2017,135,KUMAR.B.S,GS,09:00,18:00
9,09-12-2017,136,SUDHIR SHETTY,GS,09:00,18:00
10,09-12-2017,138,PRASANNA KUMAR.S,GS,00:00,00:00
11,09-12-2017,139,MITHUN.G.SHETTY,GS,09:00,18:00
12,09-12-2017,140,VENKATESH.K,GS,09:00,18:00
13,09-12-2017,143,JAGANNATH JAKKA,GS,09:00,18:00
14,09-12-2017,147,UMESH.B.V,GS,09:00,18:00
15,09-12-2017,149,C.V.HARISH,GS,00:00,00:00
16,09-12-2017,157,SANTOSH.K.NAIK,GS,00:00,00:00
17,09-12-2017,158,NANJEGOWDA,GS,09:00,18:00
18,09-12-2017,170,VAISHNAVI.R.AITHAL,GS,09:00,18:00
19,09-12-2017,171,SHIVANNA,GS,09:00,18:00
20,09-12-2017,175,BHANUPRAKASH DG,GS,00:00,00:00
21,09-12-2017,197,SHIVA KUMAR.N,GS,09:00,18:00
22,09-12-2017,201,SUNIL KUMAR.B.B,GS,09:00,18:00
23,09-12-2017,202,MAHESH RAJ URS,GS,00:00,00:00
24,09-12-2017,206,PRASANNA.N.M,GS,00:00,00:00
25,09-12-2017,207,PRIYA NAGARAJ,GS,09:00,18:00
26,09-12-2017,208,K.P.RAGHAVENDRA,GS,09:00,18:00
27,09-12-2017,210,KAVYA.B.K,GS,09:00,18:00
28,09-12-2017,211,BASAVARAJU.K.N,GS,00:00,00:00
29,09-12-2017,213,AJITH ASHOKAN,GS,09:00,18:00
30,09-12-2017,217,C.SHASHIDHAR,GS,00:00,00:00
31,09-12-2017,223,CHETAN.G.K,GS,00:00,00:00
32,09-12-2017,243,ABBUBAKARSIDEEK.K,GS,00:00,00:00
33,09-12-2017,250,YOGESH.A.N,GS,09:00,18:00
34,09-12-2017,252,SRILATHA BOLLADY,GS,09:00,18:00
35,09-12-2017,254,PAVAN KUMAR.H.N,GS,09:00,18:00
36,09-12-2017,257,CHANDRAPPA,GS,00:00,00:00
37,09-12-2017,262,REKHA,GS,09:00,18:00
38,09-12-2017,263,YOGESH GOWDA.M.L,GS,05:52,21:58
39,09-12-2017,265,NAGARAJ PRAKASH,GS,09:00,18:00
40,09-12-2017,268,AVIN KUMAR,GS,00:00,00:00
41,09-12-2017,269,PRADEEP.B.R,GS,00:00,00:00
42,09-12-2017,273,KUSHALA.G.V,GS,09:00,18:00
43,09-12-2017,274,Abhinandan.K.M,GS,09:00,18:00
44,09-12-2017,275,MANJU.B,GS,09:00,18:00
45,09-12-2017,277,N.CHANDRASHEKAR,GS,00:00,00:00
46,09-12-2017,279,MALLESH,GS,00:00,00:00
47,09-12-2017,282,NAVIN KUMAR.B.R,GS,00:00,00:00
48,09-12-2017,290,NARAYANA REDDY.M,GS,09:00,18:00
49,09-12-2017,293,VENKAT RAMANAIAH YETURU,GS,09:00,18:00
50,09-12-2017,296,NANDEESHA.K,GS,00:00,00:00
51,09-12-2017,300,KEMPARAJU.N.S,GS,09:00,18:00
52,09-12-2017,302,HARSHA KUMAR.H.R,GS,00:00,00:00
53,09-12-2017,303,PRITHVI KUMAR.C.A,GS,00:00,00:00
54,09-12-2017,304,SANTOSH NARAYAN,GS,09:00,18:00
55,09-12-2017,314,VIJAYASHREE.S.ANAND,GS,09:00,18:00
56,09-12-2017,317,MAHESH GOWDA.C.S,GS,09:00,18:00
57,09-12-2017,322,SURESH.K,GS,09:00,18:00
58,09-12-2017,323,CHELUVEGOWDA.H.S,GS,00:00,00:00
59,09-12-2017,327,BINDU RANI,GS,09:00,18:00
60,09-12-2017,328,DHANASHEKAR.M,GS,00:00,00:00
61,09-12-2017,330,THIMMAPPA,GS,00:00,00:00
62,09-12-2017,331,ALTAF,GS,00:00,00:00
63,09-12-2017,332,ANIL KUMAR.H.R,GS,00:00,00:00
64,09-12-2017,334,SHIVAPRASAD,GS,09:00,18:00
65,09-12-2017,336,SHWETHA.H.G,GS,09:00,18:00
66,09-12-2017,1011,NIRANJAN.K.B,GS,00:00,00:00
67,09-12-2017,189,K.N.RAJU,GS,00:00,00:00
68,09-12-2017,339,MADEVAPPA BHAJANTRI,GS,09:00,18:00
69,09-12-2017,5002,Madhu sudhan.B,GS,00:00,00:00
70,09-12-2017,5004,SHIVANNA JUNIOR,GS,09:00,18:00
71,09-12-2017,5006,Ritish Kiran.,GS,00:00,00:00
72,09-12-2017,5008,Vinay.K.C,GS,00:00,00:00
73,09-12-2017,346,SARANDEEP.S,GS,09:00,18:00
74,09-12-2017,342,NETHRAVATHI.T,GS,09:00,18:00
75,09-12-2017,344,J.K.SRINIVASA,GS,09:00,18:00
76,09-12-2017,5015,SANDEEPA.V.P,GS,00:00,00:00
77,09-12-2017,347,DEEPAK.T.N,GS,09:00,18:00
78,09-12-2017,348,VINAY BHARGAVA.K.N,GS,09:00,18:00
79,09-12-2017,5016,Praveen kumar.H.M,GS,00:00,00:00
80,09-12-2017,351,RAGHUVEER.R,GS,09:00,18:00
81,09-12-2017,349,RATHNA,GS,09:00,18:00
82,09-12-2017,5017,NITHIN KUMAR K,GS,00:00,00:00
83,09-12-2017,5018,KIRAN.M,GS,00:00,00:00
84,09-12-2017,5019,NIVEDITHA.K.S,GS,09:00,18:00
85,09-12-2017,4001,ARPITHA.M,GS,09:00,18:00
86,09-12-2017,4002,CHAITRA.V,GS,00:00,00:00
87,09-12-2017,4003,B.BHAVYASHREE,GS,00:00,00:00
88,09-12-2017,4004,SANTOSHIMATA.S.B,GS,00:00,00:00
89,09-12-2017,5020,LAKSHMIKANTH.C.S,GS,00:00,00:00
90,09-12-2017,4005,KEMPEGOWDA.G,GS,00:00,00:00
91,09-12-2017,5021,MENAKA.N,GS,09:00,18:00
92,09-12-2017,5022,Dr.Prasanna Kumar.S.P,GS,00:00,00:00
93,09-12-2017,5023,Kavya.B.S,GS,09:00,18:00
94,09-12-2017,5024,KARTHIK.R,GS,09:00,18:00
95,09-12-2017,5025,SHIVAKUMAR.M.S,GS,09:00,18:00
