SNo,Date,E. Code,Name,Shift, InTime, OutTime
1,03-10-2016,230,KEERTHI KUMAR,GS,09:00,18:00
2,03-10-2016,279,MALLESH,GS,09:00,18:00
3,03-10-2016,282,NAVIN KUMAR.B.R,GS,09:00,18:00
4,03-10-2016,302,HARSHA KUMAR.H.R,GS,09:00,18:00
