SNo,Date,E. Code,Name,Shift, InTime, OutTime
1,04-10-2016,123,K.N.SURENDRA,GS,09:00,18:00
2,04-10-2016,124,K.N.SOWMYA,GS,09:00,18:00
3,04-10-2016,125,K.N.BOREGOWDA,GS,09:00,18:00
4,04-10-2016,127,SRINIVAS.H.C,GS,09:00,18:00
5,04-10-2016,128,KUMAR.H.S,GS,09:00,18:00
6,04-10-2016,130,A.H.PRASAD KUMAR,GS,09:00,18:00
7,04-10-2016,131,GIRISH SHETTY,GS,08:57,18:25
8,04-10-2016,135,KUMAR.B.S,GS,09:07,18:08
9,04-10-2016,136,SUDHIR SHETTY,GS,09:11,18:55
10,04-10-2016,138,PRASANNA KUMAR.S,GS,08:59,15:42
11,04-10-2016,139,MITHUN.G.SHETTY,GS,15:21,19:03
12,04-10-2016,140,VENKATESH.K,GS,09:46,19:42
13,04-10-2016,143,JAGANNATH JAKKA,GS,10:03,18:57
14,04-10-2016,147,UMESH.B.V,GS,09:17,13:42
15,04-10-2016,158,NANJEGOWDA,GS,09:00,18:00
16,04-10-2016,170,VAISHNAVI.R.AITHAL,GS,08:52,18:43
17,04-10-2016,171,SHIVANNA,GS,09:03,18:36
18,04-10-2016,175,BHANUPRAKASH DG,GS,09:06,13:10
19,04-10-2016,188,RATHNA,GS,09:00,18:00
20,04-10-2016,197,SHIVA KUMAR.N,GS,00:00,00:00
21,04-10-2016,199,HEMANTH.V.G,GS,09:00,18:00
22,04-10-2016,201,SUNIL KUMAR.B.B,GS,09:03,18:55
23,04-10-2016,207,PRIYA NAGARAJ,GS,14:08,18:19
24,04-10-2016,208,K.P.RAGHAVENDRA,GS,09:00,18:00
25,04-10-2016,210,KAVYA.B.K,GS,09:34,19:03
26,04-10-2016,213,AJITH ASHOKAN,GS,09:08,18:36
27,04-10-2016,218,KISHORE.B.N,GS,09:00,18:00
28,04-10-2016,223,CHETAN.G.K,GS,09:00,18:00
29,04-10-2016,250,YOGESH.A.N,GS,07:44,19:11
30,04-10-2016,252,SRILATHA BOLLADY,GS,09:12,19:02
31,04-10-2016,254,PAVAN KUMAR.H.N,GS,09:08,17:23
32,04-10-2016,258,THIPPESWAMY.B.C,GS,09:07,18:01
33,04-10-2016,261,RAMU,GS,09:00,18:00
34,04-10-2016,262,REKHA,GS,09:00,18:00
35,04-10-2016,263,YOGESH GOWDA.M.L,GS,07:22,19:42
36,04-10-2016,265,NAGARAJ PRAKASH,GS,09:08,18:41
37,04-10-2016,273,KUSHALA.G.V,GS,09:00,18:00
38,04-10-2016,274,Abhinandan.K.M,GS,10:48,16:39
39,04-10-2016,275,MANJU.B,GS,09:03,19:01
40,04-10-2016,290,NARAYANA REDDY.M,GS,09:21,18:44
41,04-10-2016,291,RAJANNA.A.C,GS,09:21,18:34
42,04-10-2016,293,VENKAT RAMANAIAH YETURU,GS,08:35,18:26
43,04-10-2016,300,KEMPARAJU.N.S,GS,09:00,18:10
44,04-10-2016,301,PUNEETH.M.P,GS,09:00,18:00
45,04-10-2016,304,SANTOSH NARAYAN,GS,10:22,18:17
46,04-10-2016,309,MARY SHARLY,GS,09:25,18:03
47,04-10-2016,314,VIJAYASHREE.S.ANAND,GS,09:05,18:21
48,04-10-2016,315,BALAJI,GS,09:00,18:00
49,04-10-2016,317,MAHESH GOWDA.C.S,GS,08:52,19:00
50,04-10-2016,318,DHIRENDRA BHASKAR.H.P,GS,09:00,16:15
51,04-10-2016,319,PRADEEP KUMAR.S.S,GS,08:50,19:00
52,04-10-2016,320,RAJSHEKAR.C,GS,09:00,18:00
53,04-10-2016,321,PALLAVI.K,GS,09:27,18:02
54,04-10-2016,322,SURESH.K,GS,09:03,18:23
55,04-10-2016,323,CHELUVEGOWDA.H.S,GS,08:20,18:14
56,04-10-2016,327,BINDU RANI,GS,11:05,17:31
57,04-10-2016,328,DHANASHEKAR.M,GS,12:49,18:55
58,04-10-2016,329,Kaliprasad(NOT IN PAYROLL),GS,09:00,18:00
59,04-10-2016,333,CHETAN.S,GS,08:03,18:35
60,04-10-2016,334,SHIVAPRASAD,GS,08:59,18:17
61,04-10-2016,336,SHWETHA.H.G,GS,08:54,18:02
