SNo,Date,E. Code,Name,Shift, InTime, OutTime
1,05-05-2017,123,K.N.SURENDRA,GS,09:00,18:00
2,05-05-2017,124,K.N.SOWMYA,GS,09:00,18:00
3,05-05-2017,125,K.N.BOREGOWDA,GS,09:00,18:00
4,05-05-2017,127,SRINIVAS.H.C,GS,09:00,18:00
5,05-05-2017,128,KUMAR.H.S,GS,09:00,18:00
6,05-05-2017,130,A.H.PRASAD KUMAR,GS,09:00,18:00
7,05-05-2017,131,GIRISH SHETTY,GS,08:53,18:21
8,05-05-2017,135,KUMAR.B.S,GS,00:00,00:00
9,05-05-2017,136,SUDHIR SHETTY,GS,09:06,16:39
10,05-05-2017,138,PRASANNA KUMAR.S,GS,08:52,18:13
11,05-05-2017,139,MITHUN.G.SHETTY,GS,08:47,20:23
12,05-05-2017,140,VENKATESH.K,GS,09:45,20:45
13,05-05-2017,143,JAGANNATH JAKKA,GS,09:35,10:02
14,05-05-2017,147,UMESH.B.V,GS,09:24,18:35
15,05-05-2017,149,C.V.HARISH,GS,09:00,18:00
16,05-05-2017,152,CHANDRASHEKAR.M.B,GS,00:00,00:00
17,05-05-2017,157,SANTOSH.K.NAIK,GS,00:00,00:00
18,05-05-2017,158,NANJEGOWDA,GS,09:00,18:00
19,05-05-2017,170,VAISHNAVI.R.AITHAL,GS,00:00,00:00
20,05-05-2017,171,SHIVANNA,GS,09:02,16:08
21,05-05-2017,175,BHANUPRAKASH DG,GS,09:38,14:44
22,05-05-2017,197,SHIVA KUMAR.N,GS,09:04,19:21
23,05-05-2017,199,HEMANTH.V.G,GS,09:00,19:10
24,05-05-2017,201,SUNIL KUMAR.B.B,GS,15:03,19:18
25,05-05-2017,202,MAHESH RAJ URS,GS,00:00,00:00
26,05-05-2017,206,PRASANNA.N.M,GS,17:08,20:21
27,05-05-2017,207,PRIYA NAGARAJ,GS,00:00,18:41
28,05-05-2017,208,K.P.RAGHAVENDRA,GS,09:00,18:00
29,05-05-2017,210,KAVYA.B.K,GS,09:48,19:22
30,05-05-2017,211,BASAVARAJU.K.N,GS,00:00,00:00
31,05-05-2017,213,AJITH ASHOKAN,GS,09:02,18:28
32,05-05-2017,217,C.SHASHIDHAR,GS,00:00,00:00
33,05-05-2017,218,KISHORE.B.N,GS,00:00,00:00
34,05-05-2017,223,CHETAN.G.K,GS,10:12,10:16
35,05-05-2017,230,KEERTHI KUMAR.K.R,GS,11:22,20:45
36,05-05-2017,243,ABBUBAKARSIDEEK.K,GS,00:00,00:00
37,05-05-2017,250,YOGESH.A.N,GS,08:17,19:25
38,05-05-2017,252,SRILATHA BOLLADY,GS,09:09,21:04
39,05-05-2017,254,PAVAN KUMAR.H.N,GS,00:00,00:00
40,05-05-2017,257,CHANDRAPPA,GS,00:00,00:00
41,05-05-2017,258,THIPPESWAMY.B.C,GS,09:09,18:21
42,05-05-2017,262,REKHA,GS,09:00,18:00
43,05-05-2017,263,YOGESH GOWDA.M.L,GS,07:18,22:34
44,05-05-2017,265,NAGARAJ PRAKASH,GS,09:04,19:22
45,05-05-2017,268,AVIN KUMAR,GS,00:00,18:09
46,05-05-2017,269,PRADEEP.B.R,GS,00:00,00:00
47,05-05-2017,273,KUSHALA.G.V,GS,09:00,18:00
48,05-05-2017,274,Abhinandan.K.M,GS,11:34,19:32
49,05-05-2017,275,MANJU.B,GS,00:00,00:00
50,05-05-2017,277,N.CHANDRASHEKAR,GS,00:00,00:00
51,05-05-2017,279,MALLESH,GS,00:00,00:00
52,05-05-2017,282,NAVIN KUMAR.B.R,GS,00:00,00:00
53,05-05-2017,290,NARAYANA REDDY.M,GS,08:56,18:20
54,05-05-2017,293,VENKAT RAMANAIAH YETURU,GS,08:54,10:53
55,05-05-2017,296,NANDEESHA.K,GS,00:00,18:09
56,05-05-2017,300,KEMPARAJU.N.S,GS,08:52,18:22
57,05-05-2017,302,HARSHA KUMAR.H.R,GS,00:00,00:00
58,05-05-2017,303,PRITHVI KUMAR.C.A,GS,08:56,12:46
59,05-05-2017,304,SANTOSH NARAYAN,GS,10:47,21:04
60,05-05-2017,314,VIJAYASHREE.S.ANAND,GS,09:09,18:09
61,05-05-2017,315,BALAJI,GS,09:00,18:00
62,05-05-2017,317,MAHESH GOWDA.C.S,GS,08:21,19:21
63,05-05-2017,321,PALLAVI.K,GS,09:05,18:01
64,05-05-2017,322,SURESH.K,GS,00:00,19:47
65,05-05-2017,323,CHELUVEGOWDA.H.S,GS,00:00,00:00
66,05-05-2017,327,BINDU RANI,GS,10:47,17:35
67,05-05-2017,328,DHANASHEKAR.M,GS,11:32,18:11
68,05-05-2017,330,THIMMAPPA,GS,00:00,00:00
69,05-05-2017,331,ALTAF,GS,00:00,00:00
70,05-05-2017,332,ANIL KUMAR.H.R,GS,00:00,00:00
71,05-05-2017,334,SHIVAPRASAD,GS,08:32,19:10
72,05-05-2017,324,Madan.V(NOT IN PAYROLL),GS,00:00,00:00
73,05-05-2017,336,SHWETHA.H.G,GS,09:34,18:41
74,05-05-2017,338,NANDINI.S.L,GS,09:03,18:59
75,05-05-2017,1010,RAMU.H.M,GS,07:50,20:45
76,05-05-2017,5003,NIRANJAN.K.B,GS,00:00,00:00
77,05-05-2017,189,K.N.RAJU,GS,00:00,00:00
78,05-05-2017,339,MADEVAPPA BHAJANTRI,GS,08:27,20:10
79,05-05-2017,5002,Madhu sudhan.B,GS,00:00,00:00
80,05-05-2017,5004,SHIVANNA JUNIOR,GS,00:00,00:00
81,05-05-2017,5005,Sarath kumar.R,GS,09:00,18:00
82,05-05-2017,5006,Ritish Kiran.,GS,00:00,00:00
