SNo,Date,E. Code,Name,Shift, InTime, OutTime
1,03-09-2016,123,K.N.SURENDRA,GS,09:00,18:00
2,03-09-2016,124,K.N.SOWMYA,GS,09:00,18:00
3,03-09-2016,125,K.N.BOREGOWDA,GS,09:00,18:00
4,03-09-2016,127,SRINIVAS.H.C,GS,09:00,18:00
5,03-09-2016,128,KUMAR.H.S,GS,09:00,18:00
6,03-09-2016,130,A.H.PRASAD KUMAR,GS,09:00,18:00
7,03-09-2016,131,GIRISH SHETTY,GS,09:04,17:11
8,03-09-2016,135,KUMAR.B.S,GS,09:24,16:16
9,03-09-2016,136,SUDHIR SHETTY,GS,09:06,18:51
10,03-09-2016,138,PRASANNA KUMAR.S,GS,09:09,18:22
11,03-09-2016,139,MITHUN.G.SHETTY,GS,09:06,18:24
12,03-09-2016,140,VENKATESH.K,GS,10:08,21:32
13,03-09-2016,143,JAGANNATH JAKKA,GS,10:40,00:00
14,03-09-2016,147,UMESH.B.V,GS,09:24,18:41
15,03-09-2016,149,C.V.HARISH,GS,07:24,00:00
16,03-09-2016,152,CHANDRASHEKAR.M.B,GS,08:36,18:14
17,03-09-2016,157,SANTOSH.K.NAIK,GS,00:00,00:00
18,03-09-2016,158,NANJEGOWDA,GS,09:00,18:00
19,03-09-2016,170,VAISHNAVI.R.AITHAL,GS,09:04,17:55
20,03-09-2016,171,SHIVANNA,GS,08:09,18:29
21,03-09-2016,175,BHANUPRAKASH DG,GS,08:57,17:31
22,03-09-2016,188,RATHNA,GS,09:00,18:00
23,03-09-2016,197,SHIVA KUMAR.N,GS,00:00,00:00
24,03-09-2016,199,HEMANTH.V.G,GS,00:00,00:00
25,03-09-2016,201,SUNIL KUMAR.B.B,GS,09:01,17:29
26,03-09-2016,202,MAHESH RAJ URS,GS,08:39,18:10
27,03-09-2016,206,PRASANNA.N.M,GS,08:56,16:45
28,03-09-2016,207,PRIYA NAGARAJ,GS,10:14,19:35
29,03-09-2016,208,K.P.RAGHAVENDRA,GS,00:00,00:00
30,03-09-2016,210,KAVYA.B.K,GS,09:31,18:30
31,03-09-2016,211,BASAVARAJU.K.N,GS,09:15,19:38
32,03-09-2016,213,AJITH ASHOKAN,GS,09:12,18:17
33,03-09-2016,217,C.SHASHIDHAR,GS,08:17,18:00
34,03-09-2016,218,KISHORE.B.N,GS,09:00,18:00
35,03-09-2016,223,CHETAN.G.K,GS,09:00,18:00
36,03-09-2016,230,KEERTHI KUMAR.K.R,GS,09:00,18:00
37,03-09-2016,243,ABBUBAKARSIDEEK.K,GS,00:00,00:00
38,03-09-2016,245,AVILASH.P.G,GS,09:06,00:00
39,03-09-2016,250,YOGESH.A.N,GS,07:46,19:10
40,03-09-2016,252,SRILATHA BOLLADY,GS,09:07,18:06
41,03-09-2016,254,PAVAN KUMAR.H.N,GS,09:10,17:54
42,03-09-2016,257,CHANDRAPPA,GS,08:20,18:12
43,03-09-2016,258,THIPPESWAMY.B.C,GS,09:09,17:58
44,03-09-2016,259,KARTHIKEYA PATIL,GS,08:49,00:00
45,03-09-2016,261,RAMU,GS,09:00,18:00
46,03-09-2016,262,REKHA,GS,09:00,18:00
47,03-09-2016,263,YOGESH GOWDA.M.L,GS,07:02,21:32
48,03-09-2016,265,NAGARAJ PRAKASH,GS,09:09,15:46
49,03-09-2016,268,AVIN KUMAR,GS,08:55,18:06
50,03-09-2016,269,PRADEEP.B.R,GS,09:02,18:04
51,03-09-2016,270,MANJUNATH.R,GS,08:32,18:05
52,03-09-2016,273,KUSHALA.G.V,GS,09:00,18:00
53,03-09-2016,274,Abhinandan.K.M,GS,09:11,00:00
54,03-09-2016,275,MANJU.B,GS,09:15,18:57
55,03-09-2016,277,N.CHANDRASHEKAR,GS,08:37,00:00
56,03-09-2016,279,MALLESH,GS,09:00,18:00
57,03-09-2016,282,NAVIN KUMAR.B.R,GS,09:00,18:00
58,03-09-2016,290,NARAYANA REDDY.M,GS,09:03,18:29
59,03-09-2016,291,RAJANNA.A.C,GS,09:18,18:22
60,03-09-2016,293,VENKAT RAMANAIAH YETURU,GS,08:39,17:46
61,03-09-2016,296,NANDEESHA.K,GS,08:49,18:06
62,03-09-2016,300,KEMPARAJU.N.S,GS,09:12,18:49
63,03-09-2016,301,PUNEETH.M.P,GS,09:00,18:00
64,03-09-2016,302,HARSHA KUMAR.H.R,GS,09:00,18:00
65,03-09-2016,303,PRITHVI KUMAR.C.A,GS,10:09,19:25
66,03-09-2016,304,SANTOSH NARAYAN,GS,08:28,17:49
67,03-09-2016,309,MARY SHARLY,GS,09:06,17:58
68,03-09-2016,311,RAKESH.A.M,GS,08:54,18:09
69,03-09-2016,314,VIJAYASHREE.S.ANAND,GS,09:19,17:56
70,03-09-2016,315,BALAJI,GS,09:00,18:00
71,03-09-2016,317,MAHESH GOWDA.C.S,GS,08:59,18:09
72,03-09-2016,318,DHIRENDRA BHASKAR.H.P,GS,08:58,18:04
73,03-09-2016,319,PRADEEP KUMAR.S.S,GS,09:00,00:00
74,03-09-2016,320,RAJSHEKAR.C,GS,09:00,18:00
75,03-09-2016,321,PALLAVI.K,GS,09:00,17:58
76,03-09-2016,322,SURESH.K,GS,09:08,18:41
77,03-09-2016,323,CHELUVEGOWDA.H.S,GS,08:08,00:00
78,03-09-2016,327,BINDU RANI,GS,11:47,15:42
79,03-09-2016,328,DHANASHEKAR.M,GS,09:09,00:00
80,03-09-2016,329,KALIPRASAD,GS,09:00,18:00
81,03-09-2016,330,THIMMAPPA,GS,08:45,00:00
82,03-09-2016,331,ALTAF,GS,08:33,18:02
83,03-09-2016,332,ANIL KUMAR.H.R,GS,09:03,18:23
84,03-09-2016,333,CHETAN.S,GS,00:00,00:00
85,03-09-2016,334,SHIVAPRASAD,GS,08:57,00:00
86,03-09-2016,324,MADAN.V,GS,08:33,18:05
