SNo,Date,E. Code,Name,Shift, InTime, OutTime
1,05-04-2017,123,K.N.SURENDRA,GS,09:00,18:00
2,05-04-2017,124,K.N.SOWMYA,GS,09:00,18:00
3,05-04-2017,125,K.N.BOREGOWDA,GS,09:00,18:00
4,05-04-2017,127,SRINIVAS.H.C,GS,09:00,19:29
5,05-04-2017,128,KUMAR.H.S,GS,09:00,18:00
6,05-04-2017,130,A.H.PRASAD KUMAR,GS,09:00,18:00
7,05-04-2017,131,GIRISH SHETTY,GS,08:55,17:57
8,05-04-2017,135,KUMAR.B.S,GS,09:05,17:02
9,05-04-2017,136,SUDHIR SHETTY,GS,09:13,18:29
10,05-04-2017,138,PRASANNA KUMAR.S,GS,16:56,18:02
11,05-04-2017,139,MITHUN.G.SHETTY,GS,09:07,18:02
12,05-04-2017,140,VENKATESH.K,GS,00:00,00:00
13,05-04-2017,143,JAGANNATH JAKKA,GS,10:09,15:33
14,05-04-2017,147,UMESH.B.V,GS,09:00,18:05
15,05-04-2017,149,C.V.HARISH,GS,09:00,18:00
16,05-04-2017,152,CHANDRASHEKAR.M.B,GS,00:00,00:00
17,05-04-2017,157,SANTOSH.K.NAIK,GS,00:00,00:00
18,05-04-2017,158,NANJEGOWDA,GS,09:00,18:00
19,05-04-2017,170,VAISHNAVI.R.AITHAL,GS,08:57,18:36
20,05-04-2017,171,SHIVANNA,GS,08:56,18:03
21,05-04-2017,175,BHANUPRAKASH DG,GS,08:42,18:41
22,05-04-2017,197,SHIVA KUMAR.N,GS,08:55,17:20
23,05-04-2017,199,HEMANTH.V.G,GS,00:00,00:00
24,05-04-2017,201,SUNIL KUMAR.B.B,GS,08:56,18:29
25,05-04-2017,202,MAHESH RAJ URS,GS,00:00,00:00
26,05-04-2017,206,PRASANNA.N.M,GS,00:00,00:00
27,05-04-2017,207,PRIYA NAGARAJ,GS,00:00,00:00
28,05-04-2017,208,K.P.RAGHAVENDRA,GS,09:00,18:00
29,05-04-2017,210,KAVYA.B.K,GS,10:06,18:22
30,05-04-2017,211,BASAVARAJU.K.N,GS,00:00,00:00
31,05-04-2017,213,AJITH ASHOKAN,GS,09:03,00:00
32,05-04-2017,217,C.SHASHIDHAR,GS,00:00,00:00
33,05-04-2017,218,KISHORE.B.N,GS,00:00,00:00
34,05-04-2017,223,CHETAN.G.K,GS,15:26,17:12
35,05-04-2017,230,KEERTHI KUMAR.K.R,GS,00:00,00:00
36,05-04-2017,243,ABBUBAKARSIDEEK.K,GS,00:00,00:00
37,05-04-2017,245,AVILASH.P.G,GS,00:00,00:00
38,05-04-2017,250,YOGESH.A.N,GS,08:04,19:37
39,05-04-2017,252,SRILATHA BOLLADY,GS,09:19,19:28
40,05-04-2017,254,PAVAN KUMAR.H.N,GS,09:04,09:04
41,05-04-2017,257,CHANDRAPPA,GS,00:00,00:00
42,05-04-2017,258,THIPPESWAMY.B.C,GS,09:20,17:43
43,05-04-2017,262,REKHA,GS,09:00,18:00
44,05-04-2017,263,YOGESH GOWDA.M.L,GS,07:30,20:22
45,05-04-2017,265,NAGARAJ PRAKASH,GS,09:17,18:07
46,05-04-2017,268,AVIN KUMAR,GS,00:00,00:00
47,05-04-2017,269,PRADEEP.B.R,GS,00:00,00:00
48,05-04-2017,270,MANJUNATH.R,GS,00:00,00:00
49,05-04-2017,273,KUSHALA.G.V,GS,09:00,18:00
50,05-04-2017,274,Abhinandan.K.M,GS,00:00,00:00
51,05-04-2017,275,MANJU.B,GS,09:17,18:15
52,05-04-2017,277,N.CHANDRASHEKAR,GS,00:00,00:00
53,05-04-2017,279,MALLESH,GS,00:00,00:00
54,05-04-2017,282,NAVIN KUMAR.B.R,GS,14:51,15:57
55,05-04-2017,290,NARAYANA REDDY.M,GS,09:06,18:03
56,05-04-2017,293,VENKAT RAMANAIAH YETURU,GS,09:11,19:28
57,05-04-2017,296,NANDEESHA.K,GS,00:00,00:00
58,05-04-2017,300,KEMPARAJU.N.S,GS,09:22,18:29
59,05-04-2017,302,HARSHA KUMAR.H.R,GS,00:00,00:00
60,05-04-2017,303,PRITHVI KUMAR.C.A,GS,00:00,00:00
61,05-04-2017,304,SANTOSH NARAYAN,GS,10:08,19:25
62,05-04-2017,311,RAKESH.A.M,GS,08:58,18:52
63,05-04-2017,314,VIJAYASHREE.S.ANAND,GS,09:09,18:09
64,05-04-2017,315,BALAJI,GS,09:00,18:00
65,05-04-2017,317,MAHESH GOWDA.C.S,GS,08:53,18:04
66,05-04-2017,321,PALLAVI.K,GS,09:05,18:05
67,05-04-2017,322,SURESH.K,GS,09:04,17:54
68,05-04-2017,323,CHELUVEGOWDA.H.S,GS,08:28,17:24
69,05-04-2017,327,BINDU RANI,GS,11:03,17:41
70,05-04-2017,328,DHANASHEKAR.M,GS,09:04,17:43
71,05-04-2017,329,Kaliprasad(NOT IN PAYROLL),GS,00:00,00:00
72,05-04-2017,330,THIMMAPPA,GS,00:00,00:00
73,05-04-2017,331,ALTAF,GS,09:00,18:00
74,05-04-2017,332,ANIL KUMAR.H.R,GS,00:00,00:00
75,05-04-2017,334,SHIVAPRASAD,GS,08:35,18:25
76,05-04-2017,324,Madan.V(NOT IN PAYROLL),GS,00:00,00:00
77,05-04-2017,336,SHWETHA.H.G,GS,00:00,00:00
78,05-04-2017,338,NANDINI.S.L,GS,09:08,18:16
79,05-04-2017,1010,RAMU.H.M,GS,07:48,20:07
80,05-04-2017,1011,NIRANJAN.K.B,GS,00:00,00:00
81,05-04-2017,189,K.N.RAJU,GS,00:00,00:00
82,05-04-2017,339,MADEVAPPA BHAJANTRI,GS,07:46,20:08
83,05-04-2017,5001,M.N.Manjunath,GS,00:00,00:00
84,05-04-2017,5002,MADHUSUDHAN.B,GS,09:00,18:00
