SNo,Date,E. Code,Name,Shift, InTime, OutTime
1,09-01-2017,123,K.N.SURENDRA,GS,09:00,18:00
2,09-01-2017,124,K.N.SOWMYA,GS,09:00,18:00
3,09-01-2017,125,K.N.BOREGOWDA,GS,09:00,18:00
4,09-01-2017,127,SRINIVAS.H.C,GS,09:00,18:59
5,09-01-2017,128,KUMAR.H.S,GS,09:00,18:00
6,09-01-2017,130,A.H.PRASAD KUMAR,GS,09:00,18:00
7,09-01-2017,131,GIRISH SHETTY,GS,09:03,18:22
8,09-01-2017,135,KUMAR.B.S,GS,09:03,18:44
9,09-01-2017,136,SUDHIR SHETTY,GS,09:18,18:18
10,09-01-2017,138,PRASANNA KUMAR.S,GS,00:00,00:00
11,09-01-2017,139,MITHUN.G.SHETTY,GS,00:00,00:00
12,09-01-2017,140,VENKATESH.K,GS,12:05,21:33
13,09-01-2017,143,JAGANNATH JAKKA,GS,00:00,18:56
14,09-01-2017,147,UMESH.B.V,GS,09:10,18:19
15,09-01-2017,149,C.V.HARISH,GS,09:00,18:00
16,09-01-2017,152,CHANDRASHEKAR.M.B,GS,09:00,18:00
17,09-01-2017,157,SANTOSH.K.NAIK,GS,00:00,00:00
18,09-01-2017,158,NANJEGOWDA,GS,09:00,18:00
19,09-01-2017,170,VAISHNAVI.R.AITHAL,GS,09:11,18:12
20,09-01-2017,171,SHIVANNA,GS,00:00,00:00
21,09-01-2017,175,BHANUPRAKASH DG,GS,09:14,16:51
22,09-01-2017,188,RATHNA,GS,09:00,18:00
23,09-01-2017,197,SHIVA KUMAR.N,GS,09:06,22:04
24,09-01-2017,199,HEMANTH.V.G,GS,09:00,18:00
25,09-01-2017,201,SUNIL KUMAR.B.B,GS,09:00,18:18
26,09-01-2017,202,MAHESH RAJ URS,GS,00:00,00:00
27,09-01-2017,206,PRASANNA.N.M,GS,09:03,00:00
28,09-01-2017,207,PRIYA NAGARAJ,GS,09:32,18:56
29,09-01-2017,208,K.P.RAGHAVENDRA,GS,09:00,18:00
30,09-01-2017,210,KAVYA.B.K,GS,09:47,18:55
31,09-01-2017,211,BASAVARAJU.K.N,GS,00:00,00:00
32,09-01-2017,213,AJITH ASHOKAN,GS,09:01,18:13
33,09-01-2017,217,C.SHASHIDHAR,GS,00:00,00:00
34,09-01-2017,218,KISHORE.B.N,GS,09:00,18:00
35,09-01-2017,223,CHETAN.G.K,GS,09:00,18:00
36,09-01-2017,230,KEERTHI KUMAR.K.R,GS,00:00,00:00
37,09-01-2017,243,ABBUBAKARSIDEEK.K,GS,00:00,00:00
38,09-01-2017,245,AVILASH.P.G,GS,00:00,00:00
39,09-01-2017,250,YOGESH.A.N,GS,00:00,19:01
40,09-01-2017,252,SRILATHA BOLLADY,GS,09:38,20:59
41,09-01-2017,254,PAVAN KUMAR.H.N,GS,00:00,00:00
42,09-01-2017,257,CHANDRAPPA,GS,00:00,00:00
43,09-01-2017,258,THIPPESWAMY.B.C,GS,09:14,17:56
44,09-01-2017,259,KARTHIKEYA PATIL,GS,08:57,00:00
45,09-01-2017,261,RAMU,GS,09:00,18:00
46,09-01-2017,262,REKHA,GS,09:00,18:00
47,09-01-2017,263,YOGESH GOWDA.M.L,GS,07:32,22:05
48,09-01-2017,265,NAGARAJ PRAKASH,GS,09:11,18:14
49,09-01-2017,268,AVIN KUMAR,GS,09:07,00:00
50,09-01-2017,269,PRADEEP.B.R,GS,00:00,00:00
51,09-01-2017,270,MANJUNATH.R,GS,09:00,18:00
52,09-01-2017,273,KUSHALA.G.V,GS,09:00,18:00
53,09-01-2017,274,Abhinandan.K.M,GS,09:08,09:21
54,09-01-2017,275,MANJU.B,GS,00:00,00:00
55,09-01-2017,277,N.CHANDRASHEKAR,GS,08:59,00:00
56,09-01-2017,279,MALLESH,GS,09:00,18:00
57,09-01-2017,282,NAVIN KUMAR.B.R,GS,00:00,00:00
58,09-01-2017,290,NARAYANA REDDY.M,GS,08:54,18:07
59,09-01-2017,293,VENKAT RAMANAIAH YETURU,GS,08:42,11:52
60,09-01-2017,296,NANDEESHA.K,GS,08:57,00:00
61,09-01-2017,300,KEMPARAJU.N.S,GS,08:53,18:05
62,09-01-2017,301,PUNEETH.M.P,GS,00:00,00:00
63,09-01-2017,302,HARSHA KUMAR.H.R,GS,09:00,18:00
64,09-01-2017,303,PRITHVI KUMAR.C.A,GS,09:56,21:01
65,09-01-2017,304,SANTOSH NARAYAN,GS,09:41,20:44
66,09-01-2017,311,RAKESH.A.M,GS,09:00,18:00
67,09-01-2017,314,VIJAYASHREE.S.ANAND,GS,09:06,18:18
68,09-01-2017,315,BALAJI,GS,09:00,18:00
69,09-01-2017,317,MAHESH GOWDA.C.S,GS,09:08,18:18
70,09-01-2017,318,DHIRENDRA BHASKAR.H.P,GS,00:00,00:00
71,09-01-2017,319,PRADEEP KUMAR.S.S,GS,09:16,10:55
72,09-01-2017,321,PALLAVI.K,GS,00:00,00:00
73,09-01-2017,322,SURESH.K,GS,09:10,18:18
74,09-01-2017,323,CHELUVEGOWDA.H.S,GS,09:15,19:29
75,09-01-2017,327,BINDU RANI,GS,10:49,17:32
76,09-01-2017,328,DHANASHEKAR.M,GS,09:25,18:13
77,09-01-2017,329,Kaliprasad,GS,09:00,18:00
78,09-01-2017,330,THIMMAPPA,GS,00:00,00:00
79,09-01-2017,331,ALTAF,GS,09:00,18:00
80,09-01-2017,332,ANIL KUMAR.H.R,GS,00:00,00:00
81,09-01-2017,334,SHIVAPRASAD,GS,08:35,19:28
82,09-01-2017,324,Madan.V,GS,09:00,18:00
83,09-01-2017,249,DIVAKAR.N.M,GS,00:00,00:00
84,09-01-2017,336,SHWETHA.H.G,GS,08:58,18:38
85,09-01-2017,337,K.O.SREEDHAR,GS,09:06,19:58
86,09-01-2017,338,NANDINI.S.L,GS,09:08,18:27
87,09-01-2017,1010,RAMU.H.M,GS,08:10,19:08
88,09-01-2017,1011,NIRANJAN.K.B,GS,00:00,00:00
