SNo,date ,E. Code,Name,Shift, InTime, OutTime,Work Dur.,OT,Tot.  Dur.
1,9-5-16,123,K.N.SURENDRA,GS,9:00,18:00,9:00,0:00,9:00
2,9-5-16,124,K.N.SOWMYA,GS,9:00,18:00,9:00,0:00,9:00
3,9-5-16,125,K.N.BOREGOWDA,GS,9:00,18:00,9:00,0:00,9:00
4,9-5-16,127,SRINIVAS.H.C,GS,9:00,18:00,9:00,0:00,9:00
5,9-5-16,128,KUMAR.H.S,GS,9:00,18:00,9:00,0:00,9:00
6,9-5-16,130,A.H.PRASAD KUMAR,GS,9:00,18:00,9:00,0:00,9:00
7,9-5-16,131,GIRISH SHETTY,GS,8:59,18:43,9:44,0:00,9:44
8,9-5-16,135,KUMAR.B.S,GS,9:16,18:44,9:28,0:00,9:28
9,9-5-16,136,SUDHIR SHETTY,GS,9:28,18:49,9:21,0:00,9:21
10,9-5-16,138,PRASANNA KUMAR.S,GS,8:59,18:23,9:24,0:00,9:24
11,9-5-16,139,MITHUN.G.SHETTY,GS,8:41,19:26,10:45,1:45,10:45
12,9-5-16,140,VENKATESH.K,GS,10:03,21:22,11:19,2:19,11:19
13,9-5-16,143,JAGANNATH JAKKA,GS,13:24,20:20,6:56,0:00,6:56
14,9-5-16,147,UMESH.B.V,GS,9:34,18:46,9:12,0:00,9:12
15,9-5-16,149,C.V.HARISH,GS,7:31,18:06,10:35,1:35,10:35
16,9-5-16,152,CHANDRASHEKAR.M.B,GS,8:34,18:04,9:30,0:00,9:30
17,9-5-16,157,SANTOSH.K.NAIK,GS,8:35,18:21,9:46,0:00,9:46
18,9-5-16,158,NANJEGOWDA,GS,0:00,0:00,0:00,0:00,0:00
19,9-5-16,170,VAISHNAVI.R.AITHAL,GS,9:23,19:29,10:06,1:06,10:06
20,9-5-16,171,SHIVANNA,GS,7:51,0:00,0:00,0:00,0:00
21,9-5-16,172,BOREGOWDA,GS,0:00,0:00,0:00,0:00,0:00
22,9-5-16,175,BHANUPRAKASH DG,GS,0:00,0:00,0:00,0:00,0:00
23,9-5-16,188,RATHNA,GS,9:00,18:00,9:00,0:00,9:00
24,9-5-16,194,NANJAMANI,GS,9:01,18:34,9:33,0:00,9:33
25,9-5-16,195,RAVI IV,GS,0:00,0:00,0:00,0:00,0:00
26,9-5-16,197,SHIVA KUMAR.N,GS,9:24,21:22,11:58,2:58,11:58
27,9-5-16,199,HEMANTH.V.G,GS,0:00,0:00,0:00,0:00,0:00
28,9-5-16,201,SUNIL KUMAR.B.B,GS,9:43,18:48,9:05,0:00,9:05
29,9-5-16,202,MAHESH RAJ URS,GS,8:57,19:02,10:05,1:05,10:05
30,9-5-16,206,PRASANNA.N.M,GS,0:00,0:00,0:00,0:00,0:00
31,9-5-16,207,PRIYA NAGARAJ,GS,0:00,21:15,0:00,0:00,0:00
32,9-5-16,208,K.P.RAGHAVENDRA,GS,9:00,18:00,9:00,0:00,9:00
33,9-5-16,209,NAVEEN.B.L,GS,0:00,0:00,0:00,0:00,0:00
34,9-5-16,210,KAVYA.B.K,GS,0:00,20:43,0:00,0:00,0:00
35,9-5-16,211,BASAVARAJU.K.N,GS,9:40,18:58,9:18,0:00,9:18
36,9-5-16,213,AJITH ASHOKAN,GS,9:00,18:43,9:43,0:00,9:43
37,9-5-16,217,C.SHASHIDHAR,GS,8:22,18:21,9:59,0:00,9:59
38,9-5-16,218,KISHORE.B.N,GS,8:17,18:25,10:08,1:08,10:08
39,9-5-16,223,CHETAN.G.K,GS,0:00,0:00,0:00,0:00,0:00
40,9-5-16,230,KEERTHI KUMAR.K.R,GS,9:48,18:04,8:16,0:00,8:16
41,9-5-16,236,NANDEESH.G.H,GS,0:00,0:00,0:00,0:00,0:00
42,9-5-16,243,ABBUBAKARSIDEEK.K,GS,9:10,18:14,9:04,0:00,9:04
43,9-5-16,245,AVILASH.P.G,GS,0:00,0:00,0:00,0:00,0:00
44,9-5-16,249,DIVAKAR.N.N,GS,0:00,0:00,0:00,0:00,0:00
45,9-5-16,250,YOGESH.A.N,GS,8:21,19:49,11:28,2:28,11:28
46,9-5-16,252,SRILATHA BOLLADY,GS,9:19,18:42,9:23,0:00,9:23
47,9-5-16,254,PAVAN KUMAR.H.N,GS,8:41,19:18,10:37,1:37,10:37
48,9-5-16,257,CHANDRAPPA,GS,8:46,18:11,9:25,0:00,9:25
49,9-5-16,258,THIPPESWAMY.B.C,GS,9:08,18:37,9:29,0:00,9:29
50,9-5-16,259,KARTHIKEYA PATIL,GS,9:15,19:02,9:47,0:00,9:47
51,9-5-16,261,RAMU,GS,9:00,18:00,9:00,0:00,9:00
52,9-5-16,262,REKHA,GS,9:00,18:00,9:00,0:00,9:00
53,9-5-16,263,YOGESH GOWDA.M.L,GS,7:49,21:30,13:41,4:41,13:41
54,9-5-16,265,NAGARAJ PRAKASH,GS,8:59,18:44,9:45,0:00,9:45
55,9-5-16,266,RAGHU.D.S,GS,9:16,18:34,9:18,0:00,9:18
56,9-5-16,268,D.V.Avin Kumar,GS,0:00,0:00,0:00,0:00,0:00
57,9-5-16,269,PRADEEP.B.R,GS,8:59,18:13,9:14,0:00,9:14
58,9-5-16,270,MANJUNATH.R,GS,8:58,0:00,0:00,0:00,0:00
59,9-5-16,273,KUSHALA.G.V,GS,9:00,18:05,9:05,0:00,9:05
60,9-5-16,274,Abhi,GS,8:44,19:42,10:58,1:58,10:58
61,9-5-16,275,MANJU.B,GS,9:46,18:49,9:03,0:00,9:03
62,9-5-16,277,N.CHANDRAHEKAR,GS,0:00,0:00,0:00,0:00,0:00
63,9-5-16,279,MALLESH,GS,8:50,18:01,9:11,0:00,9:11
64,9-5-16,282,NAVIN KUMAR.B.R,GS,10:46,0:00,0:00,0:00,0:00
65,9-5-16,287,SUNIL.V,GS,9:22,21:05,11:43,2:43,11:43
66,9-5-16,289,H.VENKAT RAGHAVAN,GS,9:00,20:46,11:46,2:46,11:46
67,9-5-16,290,NARAYANA REDDY.M,GS,0:00,0:00,0:00,0:00,0:00
68,9-5-16,291,RAJANNA.A.C,GS,9:02,18:38,9:36,0:00,9:36
69,9-5-16,293,VENKAT RAMANAIAH YETURU,GS,8:57,21:05,12:08,3:08,12:08
70,9-5-16,295,SHIVARAJ.V.S,GS,8:58,15:18,6:20,0:00,6:20
71,9-5-16,296,NANDEESHA.K,GS,9:15,19:02,9:47,0:00,9:47
72,9-5-16,298,SHARATH.N,GS,9:28,15:18,5:50,0:00,5:50
73,9-5-16,300,KEMPARAJU.N.S,GS,8:58,18:44,9:46,0:00,9:46
74,9-5-16,301,PUNEETH.M.P,GS,9:00,18:00,9:00,0:00,9:00
75,9-5-16,302,HARSHA KUMAR.H.R,GS,8:35,18:07,9:32,0:00,9:32
76,9-5-16,303,PRITHVI KUMAR.C.A,GS,10:29,19:02,8:33,0:00,8:33
77,9-5-16,304,SANTOSH NARAYAN,GS,10:27,19:16,8:49,0:00,8:49
78,9-5-16,307,VIVEK KUMAR SHARMA,GS,9:10,17:30,8:20,0:00,8:20
79,9-5-16,309,MARY SHARLY,GS,8:57,18:08,9:11,0:00,9:11
80,9-5-16,310,LAKSHMANA.N.R,GS,0:00,0:00,0:00,0:00,0:00
81,9-5-16,311,RAKESH.A.M,GS,8:52,18:01,9:09,0:00,9:09
82,9-5-16,312,GAYATRI R BHAT,GS,9:37,19:05,9:28,0:00,9:28
83,9-5-16,313,SUSHMA.R,GS,0:00,0:00,0:00,0:00,0:00
84,9-5-16,314,VIJAYASHREE.S.ANAND,GS,9:00,18:57,9:57,0:00,9:57
85,9-5-16,315,BALAJI,GS,9:00,18:00,9:00,0:00,9:00
86,9-5-16,316,RAMA MAHESH,GS,0:00,0:00,0:00,0:00,0:00
,,,,,,,,,
,,,,,,,,,
,,,,,,,,,
,,,,,,,,,
,,,,,,,,,
,,,,,,,,,
,,,,,,,,,
,,,,,,,,,
,,,,,,,,,
,,,,,,,,,
,,,,,,,,,
,,,,,,,,,
,,,,,,,,,
,,,,,,,,,
,,,,,,,,,
,,,,,,,,,
,,,,,,,,,
,,,,,,,,,
,,,,,,,,,
,,,,,,,,,
,,,,,,,,,
,,,,,,,,,
,,,,,,,,,
,,,,,,,,,
,,,,,,,,,
,,,,,,,,,
,,,,,,,,,
,,,,,,,,,
,,,,,,,,,
,,,,,,,,,
,,,,,,,,,
,,,,,,,,,
,,,,,,,,,
,,,,,,,,,
,,,,,,,,,
,,,,,,,,,
,,,,,,,,,
,,,,,,,,,
,,,,,,,,,
,,,,,,,,,
,,,,,,,,,
,,,,,,,,,
,,,,,,,,,
,,,,,,,,,
,,,,,,,,,
,,,,,,,,,
,,,,,,,,,
,,,,,,,,,
,,,,,,,,,
,,,,,,,,,
,,,,,,,,,
,,,,,,,,,
,,,,,,,,,
,,,,,,,,,
,,,,,,,,,
,,,,,,,,,
,,,,,,,,,
,,,,,,,,,
,,,,,,,,,
,,,,,,,,,
,,,,,,,,,
,,,,,,,,,
,,,,,,,,,
,,,,,,,,,
,,,,,,,,,
,,,,,,,,,
,,,,,,,,,
,,,,,,,,,
,,,,,,,,,
,,,,,,,,,
,,,,,,,,,
,,,,,,,,,
,,,,,,,,,
,,,,,,,,,
,,,,,,,,,
,,,,,,,,,
,,,,,,,,,
,,,,,,,,,
,,,,,,,,,
,,,,,,,,,
,,,,,,,,,
,,,,,,,,,
,,,,,,,,,
,,,,,,,,,
,,,,,,,,,
