SNo,Date,E. Code,Name,Shift, InTime, OutTime
1,08-03-2018,123,K.N.SURENDRA,GS,09:00,18:00
2,08-03-2018,124,K.N.SOWMYA,GS,09:00,18:00
3,08-03-2018,125,K.N.BOREGOWDA,GS,09:00,18:00
4,08-03-2018,127,SRINIVAS.H.C,GS,09:00,18:00
5,08-03-2018,128,KUMAR.H.S,GS,09:00,18:00
6,08-03-2018,130,A.H.PRASAD KUMAR,GS,09:00,18:00
7,08-03-2018,131,GIRISH SHETTY,GS,08:03,18:02
8,08-03-2018,135,KUMAR.B.S,GS,08:11,17:54
9,08-03-2018,136,SUDHIR SHETTY,GS,09:23,18:08
10,08-03-2018,138,PRASANNA KUMAR.S,GS,00:00,20:06
11,08-03-2018,139,MITHUN.G.SHETTY,GS,09:00,18:00
12,08-03-2018,140,VENKATESH.K,GS,09:14,19:38
13,08-03-2018,143,JAGANNATH JAKKA,GS,09:00,18:00
14,08-03-2018,147,UMESH.B.V,GS,09:06,17:50
15,08-03-2018,157,SANTOSH.K.NAIK,GS,09:00,18:00
16,08-03-2018,158,NANJEGOWDA,GS,09:00,18:00
17,08-03-2018,170,VAISHNAVI.R.AITHAL,GS,08:55,18:37
18,08-03-2018,171,SHIVANNA,GS,08:11,18:38
19,08-03-2018,175,BHANUPRAKASH DG,GS,09:06,20:00
20,08-03-2018,197,SHIVA KUMAR.N,GS,09:23,18:52
21,08-03-2018,201,SUNIL KUMAR.B.B,GS,09:11,17:54
22,08-03-2018,202,MAHESH RAJ URS,GS,00:00,00:00
23,08-03-2018,207,PRIYA NAGARAJ,GS,00:00,00:00
24,08-03-2018,208,K.P.RAGHAVENDRA,GS,09:00,18:00
25,08-03-2018,210,KAVYA.B.K,GS,00:00,00:00
26,08-03-2018,211,BASAVARAJU.K.N,GS,00:00,00:00
27,08-03-2018,217,C.SHASHIDHAR,GS,00:00,00:00
28,08-03-2018,223,CHETAN.G.K,GS,00:00,00:00
29,08-03-2018,243,ABBUBAKARSIDEEK.K,GS,09:00,18:00
30,08-03-2018,250,YOGESH.A.N,GS,08:28,19:55
31,08-03-2018,252,SRILATHA BOLLADY,GS,09:20,18:44
32,08-03-2018,254,PAVAN KUMAR.H.N,GS,00:00,00:00
33,08-03-2018,257,CHANDRAPPA,GS,09:00,18:00
34,08-03-2018,262,REKHA,GS,09:00,18:00
35,08-03-2018,263,YOGESH GOWDA.M.L,GS,00:00,00:00
36,08-03-2018,265,NAGARAJ PRAKASH,GS,08:26,18:00
37,08-03-2018,268,AVIN KUMAR,GS,09:25,19:04
38,08-03-2018,269,PRADEEP.B.R,GS,00:00,00:00
39,08-03-2018,273,KUSHALA.G.V,GS,09:00,18:00
40,08-03-2018,274,Abhinandan.K.M,GS,10:15,18:46
41,08-03-2018,275,MANJU.B,GS,00:00,00:00
42,08-03-2018,279,MALLESH,GS,09:00,18:00
43,08-03-2018,282,NAVIN KUMAR.B.R,GS,00:00,00:00
44,08-03-2018,290,NARAYANA REDDY.M,GS,08:56,18:36
45,08-03-2018,293,VENKAT RAMANAIAH YETURU,GS,09:01,17:45
46,08-03-2018,296,NANDEESHA.K,GS,09:09,19:21
47,08-03-2018,302,HARSHA KUMAR.H.R,GS,00:00,00:00
48,08-03-2018,303,PRITHVI KUMAR.C.A,GS,17:11,18:40
49,08-03-2018,314,VIJAYASHREE.S.ANAND,GS,09:14,18:33
50,08-03-2018,322,SURESH.K,GS,09:14,17:30
51,08-03-2018,323,CHELUVEGOWDA.H.S,GS,08:56,18:06
52,08-03-2018,327,BINDU RANI,GS,11:13,18:25
53,08-03-2018,328,DHANASHEKAR.M,GS,07:46,18:08
54,08-03-2018,331,ALTAF,GS,09:00,18:00
55,08-03-2018,332,ANIL KUMAR.H.R,GS,00:00,00:00
56,08-03-2018,334,SHIVAPRASAD,GS,08:54,18:46
57,08-03-2018,336,SHWETHA.H.G,GS,09:04,18:02
58,08-03-2018,1011,NIRANJAN.K.B,GS,00:00,00:00
59,08-03-2018,189,K.N.RAJU,GS,00:00,00:00
60,08-03-2018,339,MADEVAPPA BHAJANTRI,GS,09:09,18:55
61,08-03-2018,5002,Madhu sudhan.B,GS,00:00,00:00
62,08-03-2018,5004,SHIVANNA JUNIOR,GS,09:00,18:00
63,08-03-2018,5008,Vinay.K.C,GS,00:00,00:00
64,08-03-2018,346,SARANDEEP.S,GS,09:43,16:58
65,08-03-2018,342,NETHRAVATHI.T,GS,09:04,18:05
66,08-03-2018,344,J.K.SRINIVASA,GS,08:42,18:43
67,08-03-2018,5015,SANDEEPA.V.P,GS,00:00,00:00
68,08-03-2018,347,DEEPAK.T.N,GS,08:58,18:23
69,08-03-2018,348,VINAY BHARGAVA.K.N,GS,09:08,18:05
70,08-03-2018,5016,Praveen kumar.H.M,GS,00:00,00:00
71,08-03-2018,351,RAGHUVEER.R,GS,09:06,19:38
72,08-03-2018,349,RATHNA,GS,09:00,18:00
73,08-03-2018,5017,NITHIN KUMAR K,GS,00:00,00:00
74,08-03-2018,4002,CHAITRA.V,GS,00:00,00:00
75,08-03-2018,4003,B.BHAVYASHREE,GS,08:50,18:05
76,08-03-2018,4004,SANTOSHIMATA.S.B,GS,09:03,18:05
77,08-03-2018,5020,LAKSHMIKANTH.C.S,GS,00:00,00:00
78,08-03-2018,4005,KEMPEGOWDA.G,GS,09:00,18:00
79,08-03-2018,5021,MENAKA.N,GS,09:00,18:00
80,08-03-2018,5023,Kavya.B.S,GS,09:29,18:18
81,08-03-2018,5024,KARTHIK.R,GS,00:00,00:00
82,08-03-2018,5025,SHIVAKUMAR.M.S,GS,07:39,20:17
83,08-03-2018,5026,SUMANRAJ,GS,00:00,00:00
84,08-03-2018,354,AJITHKUMAR.Y.B,GS,09:18,18:06
85,08-03-2018,4008,RANJITHA.B.P,GS,09:01,18:02
86,08-03-2018,5027,MAHADEV,GS,08:00,20:23
87,08-03-2018,5028,AVILASH.P.G,GS,00:00,00:00
88,08-03-2018,5029,ABHISHEK ,GS,00:00,00:00
89,08-03-2018,355,RAJARAO,GS,09:00,18:00
90,08-03-2018,356,PUNITH KUMAR.K.M,GS,00:00,00:00
91,08-03-2018,5031,SANJAY,GS,00:00,00:00
92,08-03-2018,4009,RASHMITHA.S,GS,09:02,18:14
93,08-03-2018,4010,R.D.NANDINI,GS,09:17,18:14
94,08-03-2018,4011,RANJINI.K,GS,09:05,18:02
95,08-03-2018,5032,DHAN BOPAIAH.K.B,GS,09:22,19:30
96,08-03-2018,358,VINAY.M,GS,09:31,19:21
96,08-03-2018,357,SHREYAS.B.H,GS,09:09,18:06
