SNo,Date,E. Code,Name,Shift, InTime, OutTime
1,02-03-2018,123,K.N.SURENDRA,GS,09:00,18:00
2,02-03-2018,124,K.N.SOWMYA,GS,09:00,18:00
3,02-03-2018,125,K.N.BOREGOWDA,GS,09:00,18:00
4,02-03-2018,127,SRINIVAS.H.C,GS,09:00,20:51
5,02-03-2018,128,KUMAR.H.S,GS,09:00,18:00
6,02-03-2018,130,A.H.PRASAD KUMAR,GS,09:00,18:00
7,02-03-2018,131,GIRISH SHETTY,GS,09:06,18:42
8,02-03-2018,135,KUMAR.B.S,GS,00:00,00:00
9,02-03-2018,136,SUDHIR SHETTY,GS,09:30,19:27
10,02-03-2018,138,PRASANNA KUMAR.S,GS,00:00,00:00
11,02-03-2018,139,MITHUN.G.SHETTY,GS,20:24,20:45
12,02-03-2018,140,VENKATESH.K,GS,09:24,19:46
13,02-03-2018,143,JAGANNATH JAKKA,GS,00:00,00:00
14,02-03-2018,147,UMESH.B.V,GS,09:32,18:34
15,02-03-2018,157,SANTOSH.K.NAIK,GS,09:00,18:00
16,02-03-2018,158,NANJEGOWDA,GS,09:00,18:00
17,02-03-2018,170,VAISHNAVI.R.AITHAL,GS,08:47,18:19
18,02-03-2018,171,SHIVANNA,GS,09:44,18:56
19,02-03-2018,175,BHANUPRAKASH DG,GS,08:59,19:16
20,02-03-2018,197,SHIVA KUMAR.N,GS,09:08,21:38
21,02-03-2018,201,SUNIL KUMAR.B.B,GS,09:07,18:01
22,02-03-2018,202,MAHESH RAJ URS,GS,00:00,00:00
23,02-03-2018,207,PRIYA NAGARAJ,GS,00:00,00:00
24,02-03-2018,208,K.P.RAGHAVENDRA,GS,09:00,18:00
25,02-03-2018,210,KAVYA.B.K,GS,09:57,00:00
26,02-03-2018,211,BASAVARAJU.K.N,GS,00:00,00:00
27,02-03-2018,217,C.SHASHIDHAR,GS,00:00,00:00
28,02-03-2018,223,CHETAN.G.K,GS,00:00,00:00
29,02-03-2018,243,ABBUBAKARSIDEEK.K,GS,09:00,18:00
30,02-03-2018,250,YOGESH.A.N,GS,08:33,18:41
31,02-03-2018,252,SRILATHA BOLLADY,GS,09:15,19:09
32,02-03-2018,254,PAVAN KUMAR.H.N,GS,00:00,00:00
33,02-03-2018,257,CHANDRAPPA,GS,09:00,18:00
34,02-03-2018,262,REKHA,GS,09:00,18:00
35,02-03-2018,263,YOGESH GOWDA.M.L,GS,07:43,21:39
36,02-03-2018,265,NAGARAJ PRAKASH,GS,09:20,19:27
37,02-03-2018,268,AVIN KUMAR,GS,00:00,00:00
38,02-03-2018,269,PRADEEP.B.R,GS,00:00,00:00
39,02-03-2018,273,KUSHALA.G.V,GS,09:00,18:00
40,02-03-2018,274,Abhinandan.K.M,GS,00:00,00:00
41,02-03-2018,275,MANJU.B,GS,09:29,21:18
42,02-03-2018,279,MALLESH,GS,09:00,18:00
43,02-03-2018,282,NAVIN KUMAR.B.R,GS,00:00,00:00
44,02-03-2018,290,NARAYANA REDDY.M,GS,08:07,21:15
45,02-03-2018,293,VENKAT RAMANAIAH YETURU,GS,09:02,16:31
46,02-03-2018,296,NANDEESHA.K,GS,09:14,18:02
47,02-03-2018,302,HARSHA KUMAR.H.R,GS,00:00,00:00
48,02-03-2018,303,PRITHVI KUMAR.C.A,GS,10:51,18:19
49,02-03-2018,314,VIJAYASHREE.S.ANAND,GS,09:10,18:04
50,02-03-2018,322,SURESH.K,GS,09:11,17:51
51,02-03-2018,323,CHELUVEGOWDA.H.S,GS,08:33,18:21
52,02-03-2018,327,BINDU RANI,GS,11:11,18:03
53,02-03-2018,328,DHANASHEKAR.M,GS,09:09,00:00
54,02-03-2018,331,ALTAF,GS,09:00,18:00
55,02-03-2018,332,ANIL KUMAR.H.R,GS,00:00,00:00
56,02-03-2018,334,SHIVAPRASAD,GS,08:08,20:53
57,02-03-2018,336,SHWETHA.H.G,GS,09:00,18:07
58,02-03-2018,1011,NIRANJAN.K.B,GS,00:00,00:00
59,02-03-2018,189,K.N.RAJU,GS,00:00,00:00
60,02-03-2018,339,MADEVAPPA BHAJANTRI,GS,08:13,21:18
61,02-03-2018,5002,Madhu sudhan.B,GS,00:00,00:00
62,02-03-2018,5004,SHIVANNA JUNIOR,GS,09:00,18:00
63,02-03-2018,5008,Vinay.K.C,GS,00:00,00:00
64,02-03-2018,346,SARANDEEP.S,GS,09:11,17:01
65,02-03-2018,342,NETHRAVATHI.T,GS,09:04,18:09
66,02-03-2018,344,J.K.SRINIVASA,GS,09:09,20:26
67,02-03-2018,5015,SANDEEPA.V.P,GS,00:00,00:00
68,02-03-2018,347,DEEPAK.T.N,GS,08:56,20:55
69,02-03-2018,348,VINAY BHARGAVA.K.N,GS,09:13,00:00
70,02-03-2018,5016,Praveen kumar.H.M,GS,00:00,00:00
71,02-03-2018,351,RAGHUVEER.R,GS,08:06,20:55
72,02-03-2018,349,RATHNA,GS,09:00,18:00
73,02-03-2018,5017,NITHIN KUMAR K,GS,00:00,00:00
74,02-03-2018,4002,CHAITRA.V,GS,00:00,00:00
75,02-03-2018,4003,B.BHAVYASHREE,GS,00:00,00:00
76,02-03-2018,4004,SANTOSHIMATA.S.B,GS,09:22,18:09
77,02-03-2018,5020,LAKSHMIKANTH.C.S,GS,00:00,00:00
78,02-03-2018,4005,KEMPEGOWDA.G,GS,09:00,18:00
79,02-03-2018,5021,MENAKA.N,GS,09:00,18:00
80,02-03-2018,5023,Kavya.B.S,GS,09:30,18:22
81,02-03-2018,5024,KARTHIK.R,GS,00:00,00:00
82,02-03-2018,5025,SHIVAKUMAR.M.S,GS,07:44,20:54
83,02-03-2018,5026,SUMANRAJ,GS,00:00,00:00
84,02-03-2018,354,AJITHKUMAR.Y.B,GS,09:11,18:08
85,02-03-2018,4008,RANJITHA.B.P,GS,08:53,18:09
86,02-03-2018,5027,MAHADEV,GS,07:44,20:08
87,02-03-2018,5028,AVILASH.P.G,GS,00:00,00:00
88,02-03-2018,5029,ABHISHEK ,GS,00:00,00:00
89,02-03-2018,355,RAJARAO,GS,09:00,18:00
90,02-03-2018,356,PUNITH KUMAR.K.M,GS,00:00,00:00
91,02-03-2018,5031,SANJAY,GS,00:00,00:00
92,02-03-2018,4009,RASHMITHA.S,GS,09:04,18:21
93,02-03-2018,4010,R.D.NANDINI,GS,09:18,18:21
94,02-03-2018,4011,RANJINI.K,GS,08:50,18:09
95,02-03-2018,5032,DHAN BOPAIAH.K.B,GS,09:15,18:00
96,02-03-2018,358,VINAY.M,GS,09:00,18:00
