SNo,Date,E. Code,Name,Shift, InTime, OutTime
1,09-05-2017,123,K.N.SURENDRA,GS,09:00,18:00
2,09-05-2017,124,K.N.SOWMYA,GS,09:00,18:00
3,09-05-2017,125,K.N.BOREGOWDA,GS,09:00,18:00
4,09-05-2017,127,SRINIVAS.H.C,GS,09:00,18:00
5,09-05-2017,128,KUMAR.H.S,GS,09:00,18:00
6,09-05-2017,130,A.H.PRASAD KUMAR,GS,09:00,18:00
7,09-05-2017,131,GIRISH SHETTY,GS,08:54,18:28
8,09-05-2017,135,KUMAR.B.S,GS,09:08,18:14
9,09-05-2017,136,SUDHIR SHETTY,GS,00:00,00:00
10,09-05-2017,138,PRASANNA KUMAR.S,GS,09:17,19:04
11,09-05-2017,139,MITHUN.G.SHETTY,GS,08:57,19:52
12,09-05-2017,140,VENKATESH.K,GS,09:28,19:30
13,09-05-2017,143,JAGANNATH JAKKA,GS,09:30,14:20
14,09-05-2017,147,UMESH.B.V,GS,09:13,18:07
15,09-05-2017,149,C.V.HARISH,GS,09:00,18:00
16,09-05-2017,152,CHANDRASHEKAR.M.B,GS,00:00,00:00
17,09-05-2017,157,SANTOSH.K.NAIK,GS,00:00,00:00
18,09-05-2017,158,NANJEGOWDA,GS,09:00,18:00
19,09-05-2017,170,VAISHNAVI.R.AITHAL,GS,08:55,18:45
20,09-05-2017,171,SHIVANNA,GS,09:00,17:46
21,09-05-2017,175,BHANUPRAKASH DG,GS,09:22,19:52
22,09-05-2017,197,SHIVA KUMAR.N,GS,09:20,20:01
23,09-05-2017,199,HEMANTH.V.G,GS,09:00,18:00
24,09-05-2017,201,SUNIL KUMAR.B.B,GS,09:11,18:07
25,09-05-2017,202,MAHESH RAJ URS,GS,00:00,00:00
26,09-05-2017,206,PRASANNA.N.M,GS,14:48,19:49
27,09-05-2017,207,PRIYA NAGARAJ,GS,00:00,00:00
28,09-05-2017,208,K.P.RAGHAVENDRA,GS,09:00,18:00
29,09-05-2017,210,KAVYA.B.K,GS,09:59,19:23
30,09-05-2017,211,BASAVARAJU.K.N,GS,00:00,00:00
31,09-05-2017,213,AJITH ASHOKAN,GS,08:59,18:38
32,09-05-2017,217,C.SHASHIDHAR,GS,00:00,00:00
33,09-05-2017,218,KISHORE.B.N,GS,00:00,19:49
34,09-05-2017,223,CHETAN.G.K,GS,00:00,00:00
35,09-05-2017,230,KEERTHI KUMAR.K.R,GS,14:02,19:56
36,09-05-2017,243,ABBUBAKARSIDEEK.K,GS,00:00,00:00
37,09-05-2017,250,YOGESH.A.N,GS,08:09,18:19
38,09-05-2017,252,SRILATHA BOLLADY,GS,00:00,00:00
39,09-05-2017,254,PAVAN KUMAR.H.N,GS,00:00,00:00
40,09-05-2017,257,CHANDRAPPA,GS,00:00,00:00
41,09-05-2017,258,THIPPESWAMY.B.C,GS,09:11,18:08
42,09-05-2017,262,REKHA,GS,09:00,18:00
43,09-05-2017,263,YOGESH GOWDA.M.L,GS,07:13,20:20
44,09-05-2017,265,NAGARAJ PRAKASH,GS,09:03,18:41
45,09-05-2017,268,AVIN KUMAR,GS,00:00,00:00
46,09-05-2017,269,PRADEEP.B.R,GS,13:58,19:43
47,09-05-2017,273,KUSHALA.G.V,GS,09:00,18:00
48,09-05-2017,274,Abhinandan.K.M,GS,08:58,09:15
49,09-05-2017,275,MANJU.B,GS,09:00,19:05
50,09-05-2017,277,N.CHANDRASHEKAR,GS,00:00,00:00
51,09-05-2017,279,MALLESH,GS,00:00,00:00
52,09-05-2017,282,NAVIN KUMAR.B.R,GS,00:00,00:00
53,09-05-2017,290,NARAYANA REDDY.M,GS,10:18,18:15
54,09-05-2017,293,VENKAT RAMANAIAH YETURU,GS,08:45,20:17
55,09-05-2017,296,NANDEESHA.K,GS,00:00,00:00
56,09-05-2017,300,KEMPARAJU.N.S,GS,08:58,18:31
57,09-05-2017,302,HARSHA KUMAR.H.R,GS,14:46,19:42
58,09-05-2017,303,PRITHVI KUMAR.C.A,GS,10:40,18:56
59,09-05-2017,304,SANTOSH NARAYAN,GS,12:05,19:32
60,09-05-2017,314,VIJAYASHREE.S.ANAND,GS,09:04,18:01
61,09-05-2017,315,BALAJI,GS,09:00,18:00
62,09-05-2017,317,MAHESH GOWDA.C.S,GS,08:33,18:14
63,09-05-2017,321,PALLAVI.K,GS,00:00,00:00
64,09-05-2017,322,SURESH.K,GS,09:06,18:07
65,09-05-2017,323,CHELUVEGOWDA.H.S,GS,00:00,00:00
66,09-05-2017,327,BINDU RANI,GS,10:32,17:32
67,09-05-2017,328,DHANASHEKAR.M,GS,11:25,19:23
68,09-05-2017,330,THIMMAPPA,GS,00:00,00:00
69,09-05-2017,331,ALTAF,GS,00:00,00:00
70,09-05-2017,332,ANIL KUMAR.H.R,GS,09:30,18:19
71,09-05-2017,334,SHIVAPRASAD,GS,08:50,20:09
72,09-05-2017,324,Madan.V(NOT IN PAYROLL),GS,00:00,00:00
73,09-05-2017,336,SHWETHA.H.G,GS,00:00,00:00
74,09-05-2017,338,NANDINI.S.L,GS,00:00,00:00
75,09-05-2017,1010,RAMU.H.M,GS,07:51,18:57
76,09-05-2017,1011,NIRANJAN.K.B,GS,00:00,00:00
77,09-05-2017,189,K.N.RAJU,GS,00:00,00:00
78,09-05-2017,339,MADEVAPPA BHAJANTRI,GS,08:37,20:17
79,09-05-2017,5002,Madhu sudhan.B,GS,00:00,00:00
80,09-05-2017,5004,SHIVANNA JUNIOR,GS,09:00,18:00
81,09-05-2017,5005,Sarath kumar.R,GS,09:00,18:00
82,09-05-2017,5006,Ritish Kiran.,GS,09:00,18:00
