SNo,Date,E. Code,Name,Shift, InTime, OutTime
1,10-03-2017,123,K.N.SURENDRA,GS,09:00,18:00
2,10-03-2017,124,K.N.SOWMYA,GS,09:00,18:00
3,10-03-2017,125,K.N.BOREGOWDA,GS,09:00,18:00
4,10-03-2017,127,SRINIVAS.H.C,GS,09:00,18:00
5,10-03-2017,128,KUMAR.H.S,GS,09:00,18:00
6,10-03-2017,130,A.H.PRASAD KUMAR,GS,09:00,18:00
7,10-03-2017,131,GIRISH SHETTY,GS,09:09,17:55
8,10-03-2017,135,KUMAR.B.S,GS,09:16,18:15
9,10-03-2017,136,SUDHIR SHETTY,GS,09:23,18:27
10,10-03-2017,138,PRASANNA KUMAR.S,GS,09:10,00:00
11,10-03-2017,139,MITHUN.G.SHETTY,GS,15:25,19:17
12,10-03-2017,140,VENKATESH.K,GS,10:48,20:37
13,10-03-2017,143,JAGANNATH JAKKA,GS,00:00,00:00
14,10-03-2017,147,UMESH.B.V,GS,09:50,18:13
15,10-03-2017,149,C.V.HARISH,GS,09:00,18:00
16,10-03-2017,152,CHANDRASHEKAR.M.B,GS,00:00,00:00
17,10-03-2017,157,SANTOSH.K.NAIK,GS,00:00,19:17
18,10-03-2017,158,NANJEGOWDA,GS,09:00,18:00
19,10-03-2017,170,VAISHNAVI.R.AITHAL,GS,08:51,18:23
20,10-03-2017,171,SHIVANNA,GS,08:30,17:52
21,10-03-2017,175,BHANUPRAKASH DG,GS,09:21,19:14
22,10-03-2017,188,RATHNA,GS,09:00,18:00
23,10-03-2017,197,SHIVA KUMAR.N,GS,00:00,00:00
24,10-03-2017,199,HEMANTH.V.G,GS,10:14,10:14
25,10-03-2017,201,SUNIL KUMAR.B.B,GS,09:12,18:08
26,10-03-2017,202,MAHESH RAJ URS,GS,00:00,00:00
27,10-03-2017,206,PRASANNA.N.M,GS,00:00,00:00
28,10-03-2017,207,PRIYA NAGARAJ,GS,09:56,11:35
29,10-03-2017,208,K.P.RAGHAVENDRA,GS,09:00,18:00
30,10-03-2017,210,KAVYA.B.K,GS,10:08,18:56
31,10-03-2017,211,BASAVARAJU.K.N,GS,00:00,00:00
32,10-03-2017,213,AJITH ASHOKAN,GS,09:02,18:18
33,10-03-2017,217,C.SHASHIDHAR,GS,00:00,00:00
34,10-03-2017,218,KISHORE.B.N,GS,00:00,00:00
35,10-03-2017,223,CHETAN.G.K,GS,00:00,00:00
36,10-03-2017,230,KEERTHI KUMAR.K.R,GS,00:00,00:00
37,10-03-2017,243,ABBUBAKARSIDEEK.K,GS,00:00,00:00
38,10-03-2017,245,AVILASH.P.G,GS,00:00,00:00
39,10-03-2017,250,YOGESH.A.N,GS,07:41,18:42
40,10-03-2017,252,SRILATHA BOLLADY,GS,09:15,19:18
41,10-03-2017,254,PAVAN KUMAR.H.N,GS,09:04,19:02
42,10-03-2017,257,CHANDRAPPA,GS,00:00,00:00
43,10-03-2017,258,THIPPESWAMY.B.C,GS,09:17,17:55
44,10-03-2017,262,REKHA,GS,09:00,18:00
45,10-03-2017,263,YOGESH GOWDA.M.L,GS,07:24,20:46
46,10-03-2017,265,NAGARAJ PRAKASH,GS,08:40,18:20
47,10-03-2017,268,AVIN KUMAR,GS,00:00,00:00
48,10-03-2017,269,PRADEEP.B.R,GS,00:00,00:00
49,10-03-2017,270,MANJUNATH.R,GS,00:00,00:00
50,10-03-2017,273,KUSHALA.G.V,GS,09:00,18:00
51,10-03-2017,274,Abhinandan.K.M,GS,09:07,20:12
52,10-03-2017,275,MANJU.B,GS,09:09,20:12
53,10-03-2017,277,N.CHANDRASHEKAR,GS,00:00,00:00
54,10-03-2017,279,MALLESH,GS,00:00,00:00
55,10-03-2017,282,NAVIN KUMAR.B.R,GS,00:00,00:00
56,10-03-2017,290,NARAYANA REDDY.M,GS,08:58,19:33
57,10-03-2017,293,VENKAT RAMANAIAH YETURU,GS,09:06,20:12
58,10-03-2017,296,NANDEESHA.K,GS,00:00,00:00
59,10-03-2017,300,KEMPARAJU.N.S,GS,08:53,08:53
60,10-03-2017,302,HARSHA KUMAR.H.R,GS,00:00,00:00
61,10-03-2017,303,PRITHVI KUMAR.C.A,GS,10:03,00:00
62,10-03-2017,304,SANTOSH NARAYAN,GS,11:21,19:18
63,10-03-2017,311,RAKESH.A.M,GS,00:00,00:00
64,10-03-2017,314,VIJAYASHREE.S.ANAND,GS,09:07,18:11
65,10-03-2017,315,BALAJI,GS,09:00,18:00
66,10-03-2017,317,MAHESH GOWDA.C.S,GS,09:07,18:28
67,10-03-2017,321,PALLAVI.K,GS,09:01,18:37
68,10-03-2017,322,SURESH.K,GS,09:04,18:08
69,10-03-2017,323,CHELUVEGOWDA.H.S,GS,07:41,17:37
70,10-03-2017,327,BINDU RANI,GS,10:41,17:42
71,10-03-2017,328,DHANASHEKAR.M,GS,09:09,18:07
72,10-03-2017,329,Kaliprasad(NOT IN PAYROLL),GS,00:00,00:00
73,10-03-2017,330,THIMMAPPA,GS,00:00,00:00
74,10-03-2017,331,ALTAF,GS,00:00,00:00
75,10-03-2017,332,ANIL KUMAR.H.R,GS,00:00,19:17
76,10-03-2017,334,SHIVAPRASAD,GS,07:56,19:07
77,10-03-2017,324,Madan.V(NOT IN PAYROLL),GS,00:00,00:00
78,10-03-2017,336,SHWETHA.H.G,GS,08:44,10:59
79,10-03-2017,338,NANDINI.S.L,GS,09:19,19:21
80,10-03-2017,1010,RAMU.H.M,GS,07:40,18:51
81,10-03-2017,1011,NIRANJAN.K.B,GS,08:31,00:00
82,10-03-2017,189,K.N.RAJU,GS,00:00,00:00
