SNo,Date,E. Code,Name,Shift, InTime, OutTime
1,10-05-2017,123,K.N.SURENDRA,GS,09:00,18:00
2,10-05-2017,124,K.N.SOWMYA,GS,09:00,18:00
3,10-05-2017,125,K.N.BOREGOWDA,GS,09:00,18:00
4,10-05-2017,127,SRINIVAS.H.C,GS,09:00,18:00
5,10-05-2017,128,KUMAR.H.S,GS,09:00,18:00
6,10-05-2017,130,A.H.PRASAD KUMAR,GS,09:00,18:00
7,10-05-2017,131,GIRISH SHETTY,GS,08:53,18:54
8,10-05-2017,135,KUMAR.B.S,GS,09:09,18:05
9,10-05-2017,136,SUDHIR SHETTY,GS,00:00,00:00
10,10-05-2017,138,PRASANNA KUMAR.S,GS,00:00,19:15
11,10-05-2017,139,MITHUN.G.SHETTY,GS,09:24,19:49
12,10-05-2017,140,VENKATESH.K,GS,09:58,20:15
13,10-05-2017,143,JAGANNATH JAKKA,GS,09:57,19:49
14,10-05-2017,147,UMESH.B.V,GS,09:15,18:00
15,10-05-2017,149,C.V.HARISH,GS,09:00,18:00
16,10-05-2017,152,CHANDRASHEKAR.M.B,GS,00:00,00:00
17,10-05-2017,157,SANTOSH.K.NAIK,GS,00:00,00:00
18,10-05-2017,158,NANJEGOWDA,GS,09:00,18:00
19,10-05-2017,170,VAISHNAVI.R.AITHAL,GS,09:03,18:47
20,10-05-2017,171,SHIVANNA,GS,00:00,00:00
21,10-05-2017,175,BHANUPRAKASH DG,GS,09:23,19:02
22,10-05-2017,197,SHIVA KUMAR.N,GS,09:06,19:52
23,10-05-2017,199,HEMANTH.V.G,GS,09:00,19:11
24,10-05-2017,201,SUNIL KUMAR.B.B,GS,09:11,18:42
25,10-05-2017,202,MAHESH RAJ URS,GS,00:00,00:00
26,10-05-2017,206,PRASANNA.N.M,GS,14:23,19:13
27,10-05-2017,207,PRIYA NAGARAJ,GS,00:00,00:00
28,10-05-2017,208,K.P.RAGHAVENDRA,GS,09:00,18:00
29,10-05-2017,210,KAVYA.B.K,GS,09:59,18:57
30,10-05-2017,211,BASAVARAJU.K.N,GS,00:00,00:00
31,10-05-2017,213,AJITH ASHOKAN,GS,09:02,18:49
32,10-05-2017,217,C.SHASHIDHAR,GS,00:00,00:00
33,10-05-2017,218,KISHORE.B.N,GS,00:00,00:00
34,10-05-2017,223,CHETAN.G.K,GS,00:00,13:12
35,10-05-2017,230,KEERTHI KUMAR.K.R,GS,08:52,19:13
36,10-05-2017,243,ABBUBAKARSIDEEK.K,GS,00:00,00:00
37,10-05-2017,250,YOGESH.A.N,GS,07:59,18:33
38,10-05-2017,252,SRILATHA BOLLADY,GS,00:00,00:00
39,10-05-2017,254,PAVAN KUMAR.H.N,GS,00:00,00:00
40,10-05-2017,257,CHANDRAPPA,GS,00:00,00:00
41,10-05-2017,258,THIPPESWAMY.B.C,GS,09:09,17:59
42,10-05-2017,262,REKHA,GS,09:00,18:00
43,10-05-2017,263,YOGESH GOWDA.M.L,GS,07:34,23:58
44,10-05-2017,265,NAGARAJ PRAKASH,GS,09:10,18:17
45,10-05-2017,268,AVIN KUMAR,GS,00:00,00:00
46,10-05-2017,269,PRADEEP.B.R,GS,00:00,00:00
47,10-05-2017,273,KUSHALA.G.V,GS,09:00,18:00
48,10-05-2017,274,Abhinandan.K.M,GS,09:00,19:52
49,10-05-2017,275,MANJU.B,GS,09:09,18:53
50,10-05-2017,277,N.CHANDRASHEKAR,GS,00:00,00:00
51,10-05-2017,279,MALLESH,GS,00:00,00:00
52,10-05-2017,282,NAVIN KUMAR.B.R,GS,00:00,00:00
53,10-05-2017,290,NARAYANA REDDY.M,GS,09:08,18:59
54,10-05-2017,293,VENKAT RAMANAIAH YETURU,GS,09:09,10:26
55,10-05-2017,296,NANDEESHA.K,GS,00:00,00:00
56,10-05-2017,300,KEMPARAJU.N.S,GS,08:57,19:36
57,10-05-2017,302,HARSHA KUMAR.H.R,GS,00:00,00:00
58,10-05-2017,303,PRITHVI KUMAR.C.A,GS,00:00,00:00
59,10-05-2017,304,SANTOSH NARAYAN,GS,15:32,23:56
60,10-05-2017,314,VIJAYASHREE.S.ANAND,GS,09:08,18:24
61,10-05-2017,315,BALAJI,GS,09:00,18:00
62,10-05-2017,317,MAHESH GOWDA.C.S,GS,08:50,18:11
63,10-05-2017,321,PALLAVI.K,GS,09:08,18:02
64,10-05-2017,322,SURESH.K,GS,09:06,18:05
65,10-05-2017,323,CHELUVEGOWDA.H.S,GS,00:00,00:00
66,10-05-2017,327,BINDU RANI,GS,10:42,17:26
67,10-05-2017,328,DHANASHEKAR.M,GS,09:02,13:18
68,10-05-2017,330,THIMMAPPA,GS,00:00,00:00
69,10-05-2017,331,ALTAF,GS,00:00,00:00
70,10-05-2017,332,ANIL KUMAR.H.R,GS,08:49,19:13
71,10-05-2017,334,SHIVAPRASAD,GS,08:39,20:04
72,10-05-2017,324,Madan.V(NOT IN PAYROLL),GS,00:00,00:00
73,10-05-2017,336,SHWETHA.H.G,GS,09:27,18:01
74,10-05-2017,338,NANDINI.S.L,GS,08:56,18:49
75,10-05-2017,1010,RAMU.H.M,GS,07:34,19:32
76,10-05-2017,1011,NIRANJAN.K.B,GS,00:00,00:00
77,10-05-2017,189,K.N.RAJU,GS,00:00,00:00
78,10-05-2017,339,MADEVAPPA BHAJANTRI,GS,08:21,00:00
79,10-05-2017,5002,Madhu sudhan.B,GS,00:00,00:00
80,10-05-2017,5004,SHIVANNA JUNIOR,GS,09:00,18:00
81,10-05-2017,5005,Sarath kumar.R,GS,09:00,18:00
82,10-05-2017,5006,Ritish Kiran.,GS,09:00,18:00
