SNo,Date,E. Code,Name,Shift, InTime, OutTime
1,10-11-2017,123,K.N.SURENDRA,GS,09:00,18:00
2,10-11-2017,124,K.N.SOWMYA,GS,09:00,18:00
3,10-11-2017,125,K.N.BOREGOWDA,GS,09:00,18:00
4,10-11-2017,127,SRINIVAS.H.C,GS,09:00,18:00
5,10-11-2017,128,KUMAR.H.S,GS,09:00,18:00
6,10-11-2017,130,A.H.PRASAD KUMAR,GS,09:00,18:00
7,10-11-2017,131,GIRISH SHETTY,GS,08:52,18:12
8,10-11-2017,135,KUMAR.B.S,GS,09:03,18:04
9,10-11-2017,136,SUDHIR SHETTY,GS,09:11,18:15
10,10-11-2017,138,PRASANNA KUMAR.S,GS,09:04,00:00
11,10-11-2017,139,MITHUN.G.SHETTY,GS,00:00,00:00
12,10-11-2017,140,VENKATESH.K,GS,10:28,17:41
13,10-11-2017,143,JAGANNATH JAKKA,GS,00:00,00:00
14,10-11-2017,147,UMESH.B.V,GS,09:07,18:03
15,10-11-2017,149,C.V.HARISH,GS,00:00,00:00
16,10-11-2017,157,SANTOSH.K.NAIK,GS,00:00,00:00
17,10-11-2017,158,NANJEGOWDA,GS,00:00,00:00
18,10-11-2017,170,VAISHNAVI.R.AITHAL,GS,08:42,20:49
19,10-11-2017,171,SHIVANNA,GS,08:11,18:59
20,10-11-2017,175,BHANUPRAKASH DG,GS,08:40,19:15
21,10-11-2017,197,SHIVA KUMAR.N,GS,09:13,19:00
22,10-11-2017,199,HEMANTH.V.G,GS,09:00,18:29
23,10-11-2017,201,SUNIL KUMAR.B.B,GS,09:10,18:07
24,10-11-2017,202,MAHESH RAJ URS,GS,18:12,19:49
25,10-11-2017,206,PRASANNA.N.M,GS,00:00,00:00
26,10-11-2017,207,PRIYA NAGARAJ,GS,12:10,18:29
27,10-11-2017,208,K.P.RAGHAVENDRA,GS,09:00,18:00
28,10-11-2017,210,KAVYA.B.K,GS,00:00,00:00
29,10-11-2017,211,BASAVARAJU.K.N,GS,00:00,00:00
30,10-11-2017,213,AJITH ASHOKAN,GS,09:04,19:37
31,10-11-2017,217,C.SHASHIDHAR,GS,00:00,00:00
32,10-11-2017,223,CHETAN.G.K,GS,00:00,00:00
33,10-11-2017,243,ABBUBAKARSIDEEK.K,GS,00:00,00:00
34,10-11-2017,250,YOGESH.A.N,GS,08:08,19:44
35,10-11-2017,252,SRILATHA BOLLADY,GS,09:23,18:56
36,10-11-2017,254,PAVAN KUMAR.H.N,GS,08:26,17:49
37,10-11-2017,257,CHANDRAPPA,GS,00:00,00:00
38,10-11-2017,262,REKHA,GS,00:00,00:00
39,10-11-2017,263,YOGESH GOWDA.M.L,GS,00:16,21:02
40,10-11-2017,265,NAGARAJ PRAKASH,GS,09:09,18:21
41,10-11-2017,268,AVIN KUMAR,GS,00:00,00:00
42,10-11-2017,269,PRADEEP.B.R,GS,00:00,00:00
43,10-11-2017,273,KUSHALA.G.V,GS,09:00,18:00
44,10-11-2017,274,Abhinandan.K.M,GS,09:01,19:23
45,10-11-2017,275,MANJU.B,GS,09:32,18:53
46,10-11-2017,277,N.CHANDRASHEKAR,GS,00:00,00:00
47,10-11-2017,279,MALLESH,GS,00:00,00:00
48,10-11-2017,282,NAVIN KUMAR.B.R,GS,00:00,00:00
49,10-11-2017,290,NARAYANA REDDY.M,GS,09:05,18:05
50,10-11-2017,293,VENKAT RAMANAIAH YETURU,GS,01:35,11:16
51,10-11-2017,296,NANDEESHA.K,GS,00:00,18:30
52,10-11-2017,300,KEMPARAJU.N.S,GS,09:05,18:20
53,10-11-2017,302,HARSHA KUMAR.H.R,GS,00:00,00:00
54,10-11-2017,303,PRITHVI KUMAR.C.A,GS,00:00,19:49
55,10-11-2017,304,SANTOSH NARAYAN,GS,11:06,18:56
56,10-11-2017,314,VIJAYASHREE.S.ANAND,GS,08:10,18:12
57,10-11-2017,317,MAHESH GOWDA.C.S,GS,09:10,18:12
58,10-11-2017,322,SURESH.K,GS,09:29,18:07
59,10-11-2017,323,CHELUVEGOWDA.H.S,GS,08:06,18:51
60,10-11-2017,327,BINDU RANI,GS,10:49,17:43
61,10-11-2017,328,DHANASHEKAR.M,GS,09:05,18:45
62,10-11-2017,330,THIMMAPPA,GS,00:00,09:05
63,10-11-2017,331,ALTAF,GS,00:00,00:00
64,10-11-2017,332,ANIL KUMAR.H.R,GS,00:00,00:00
65,10-11-2017,334,SHIVAPRASAD,GS,09:09,18:29
66,10-11-2017,336,SHWETHA.H.G,GS,09:15,18:45
67,10-11-2017,1011,NIRANJAN.K.B,GS,00:00,00:00
68,10-11-2017,189,K.N.RAJU,GS,00:00,00:00
69,10-11-2017,339,MADEVAPPA BHAJANTRI,GS,07:30,18:36
70,10-11-2017,5002,Madhu sudhan.B,GS,00:00,00:00
71,10-11-2017,5004,SHIVANNA JUNIOR,GS,09:00,18:00
72,10-11-2017,5005,Sarath kumar.R,GS,00:00,00:00
73,10-11-2017,5006,Ritish Kiran.,GS,00:00,00:00
74,10-11-2017,5008,Vinay.K.C,GS,00:00,00:00
75,10-11-2017,346,SARANDEEP.S,GS,09:31,18:00
76,10-11-2017,342,NETHRAVATHI.T,GS,09:21,18:29
77,10-11-2017,344,J.K.SRINIVASA,GS,08:39,19:07
78,10-11-2017,5015,SANDEEPA.V.P,GS,00:00,00:00
79,10-11-2017,347,DEEPAK.T.N,GS,10:02,18:26
80,10-11-2017,348,VINAY BHARGAVA.K.N,GS,09:21,18:50
81,10-11-2017,5016,Praveen kumar.H.M,GS,00:00,00:00
82,10-11-2017,351,RAGHUVEER.R,GS,08:59,18:36
83,10-11-2017,349,RATHNA,GS,09:00,18:00
84,10-11-2017,5017,NITHIN KUMAR K,GS,00:00,00:00
85,10-11-2017,5018,KIRAN.M,GS,00:00,00:00
86,10-11-2017,5019,NIVEDITHA.K.S,GS,09:19,18:20
87,10-11-2017,4001,ARPITHA.M,GS,09:19,18:20
88,10-11-2017,4002,CHAITRA.V,GS,09:31,18:24
89,10-11-2017,4003,B.BHAVYASHREE,GS,09:21,18:50
90,10-11-2017,4004,SANTOSHIMATA.S.B,GS,09:40,18:50
91,10-11-2017,5020,LAKSHMIKANTH.C.S,GS,00:00,00:00
92,10-11-2017,4005,KEMPEGOWDA.G,GS,09:00,18:00
93,10-11-2017,5021,MENAKA.N,GS,09:00,18:00
