SNo,Date,E. Code,Name,Shift, InTime, OutTime
1,10-06-2017,123,K.N.SURENDRA,GS,09:00,18:00
2,10-06-2017,124,K.N.SOWMYA,GS,09:00,18:00
3,10-06-2017,125,K.N.BOREGOWDA,GS,09:00,18:00
4,10-06-2017,127,SRINIVAS.H.C,GS,09:00,18:00
5,10-06-2017,128,KUMAR.H.S,GS,09:00,18:00
6,10-06-2017,130,A.H.PRASAD KUMAR,GS,09:00,18:00
7,10-06-2017,131,GIRISH SHETTY,GS,08:56,18:08
8,10-06-2017,135,KUMAR.B.S,GS,09:09,18:04
9,10-06-2017,136,SUDHIR SHETTY,GS,09:14,18:12
10,10-06-2017,138,PRASANNA KUMAR.S,GS,09:10,18:48
11,10-06-2017,139,MITHUN.G.SHETTY,GS,09:07,14:45
12,10-06-2017,140,VENKATESH.K,GS,09:48,19:28
13,10-06-2017,143,JAGANNATH JAKKA,GS,10:24,00:00
14,10-06-2017,147,UMESH.B.V,GS,09:15,00:00
15,10-06-2017,149,C.V.HARISH,GS,00:00,00:00
16,10-06-2017,152,CHANDRASHEKAR.M.B,GS,00:00,00:00
17,10-06-2017,157,SANTOSH.K.NAIK,GS,00:00,00:00
18,10-06-2017,158,NANJEGOWDA,GS,09:00,18:00
19,10-06-2017,170,VAISHNAVI.R.AITHAL,GS,08:31,17:59
20,10-06-2017,171,SHIVANNA,GS,09:31,19:56
21,10-06-2017,175,BHANUPRAKASH DG,GS,09:35,15:56
22,10-06-2017,197,SHIVA KUMAR.N,GS,00:00,00:00
23,10-06-2017,199,HEMANTH.V.G,GS,00:00,00:00
24,10-06-2017,201,SUNIL KUMAR.B.B,GS,09:05,17:57
25,10-06-2017,202,MAHESH RAJ URS,GS,00:00,00:00
26,10-06-2017,206,PRASANNA.N.M,GS,00:00,00:00
27,10-06-2017,207,PRIYA NAGARAJ,GS,16:43,16:51
28,10-06-2017,208,K.P.RAGHAVENDRA,GS,09:00,18:00
29,10-06-2017,210,KAVYA.B.K,GS,09:59,18:30
30,10-06-2017,211,BASAVARAJU.K.N,GS,00:00,00:00
31,10-06-2017,213,AJITH ASHOKAN,GS,09:02,16:42
32,10-06-2017,217,C.SHASHIDHAR,GS,00:00,00:00
33,10-06-2017,218,KISHORE.B.N,GS,00:00,00:00
34,10-06-2017,223,CHETAN.G.K,GS,09:55,20:06
35,10-06-2017,230,KEERTHI KUMAR.K.R,GS,00:00,00:00
36,10-06-2017,243,ABBUBAKARSIDEEK.K,GS,00:00,00:00
37,10-06-2017,250,YOGESH.A.N,GS,00:00,00:00
38,10-06-2017,252,SRILATHA BOLLADY,GS,00:00,00:00
39,10-06-2017,254,PAVAN KUMAR.H.N,GS,09:00,17:53
40,10-06-2017,257,CHANDRAPPA,GS,00:00,00:00
41,10-06-2017,258,THIPPESWAMY.B.C,GS,09:11,00:00
42,10-06-2017,262,REKHA,GS,09:00,18:00
43,10-06-2017,263,YOGESH GOWDA.M.L,GS,06:58,17:32
44,10-06-2017,265,NAGARAJ PRAKASH,GS,09:20,18:01
45,10-06-2017,268,AVIN KUMAR,GS,00:00,00:00
46,10-06-2017,269,PRADEEP.B.R,GS,00:00,00:00
47,10-06-2017,273,KUSHALA.G.V,GS,00:00,00:00
48,10-06-2017,274,Abhinandan.K.M,GS,09:08,20:18
49,10-06-2017,275,MANJU.B,GS,09:18,18:28
50,10-06-2017,277,N.CHANDRASHEKAR,GS,00:00,00:00
51,10-06-2017,279,MALLESH,GS,00:00,00:00
52,10-06-2017,282,NAVIN KUMAR.B.R,GS,00:00,00:00
53,10-06-2017,290,NARAYANA REDDY.M,GS,09:07,18:05
54,10-06-2017,293,VENKAT RAMANAIAH YETURU,GS,09:01,18:52
55,10-06-2017,296,NANDEESHA.K,GS,00:00,00:00
56,10-06-2017,300,KEMPARAJU.N.S,GS,09:14,18:10
57,10-06-2017,302,HARSHA KUMAR.H.R,GS,00:00,00:00
58,10-06-2017,303,PRITHVI KUMAR.C.A,GS,09:50,10:19
59,10-06-2017,304,SANTOSH NARAYAN,GS,12:03,23:03
60,10-06-2017,314,VIJAYASHREE.S.ANAND,GS,00:00,00:00
61,10-06-2017,317,MAHESH GOWDA.C.S,GS,08:29,14:47
62,10-06-2017,321,PALLAVI.K,GS,09:06,18:14
63,10-06-2017,322,SURESH.K,GS,09:07,17:17
64,10-06-2017,323,CHELUVEGOWDA.H.S,GS,09:02,18:27
65,10-06-2017,327,BINDU RANI,GS,10:55,17:34
66,10-06-2017,328,DHANASHEKAR.M,GS,09:05,18:12
67,10-06-2017,330,THIMMAPPA,GS,00:00,00:00
68,10-06-2017,331,ALTAF,GS,09:00,18:00
69,10-06-2017,332,ANIL KUMAR.H.R,GS,00:00,18:25
70,10-06-2017,334,SHIVAPRASAD,GS,08:55,18:27
71,10-06-2017,324,Madan.V,GS,00:00,00:00
72,10-06-2017,336,SHWETHA.H.G,GS,09:03,18:14
73,10-06-2017,338,NANDINI.S.L,GS,09:07,18:37
74,10-06-2017,1010,RAMU.H.M,GS,08:12,23:09
75,10-06-2017,1011,NIRANJAN.K.B,GS,00:00,00:00
76,10-06-2017,189,K.N.RAJU,GS,00:00,00:00
77,10-06-2017,339,MADEVAPPA BHAJANTRI,GS,09:01,20:07
78,10-06-2017,5002,Madhu sudhan.B,GS,09:00,18:00
79,10-06-2017,5004,SHIVANNA JUNIOR,GS,09:00,18:00
80,10-06-2017,5005,Sarath kumar.R,GS,09:00,18:00
81,10-06-2017,5006,Ritish Kiran.,GS,09:00,18:00
82,10-06-2017,5007,Sanjay Prabhakar Balli,GS,09:00,18:00
83,10-06-2017,5008,Vinay.K.C,GS,09:00,18:00
84,10-06-2017,5010,SARANDEEP.S,GS,09:23,18:04
