SNo,Date,E. Code,Name,Shift, InTime, OutTime
1,12-06-2017,123,K.N.SURENDRA,GS,09:00,18:00
2,12-06-2017,124,K.N.SOWMYA,GS,09:00,18:00
3,12-06-2017,125,K.N.BOREGOWDA,GS,09:00,18:00
4,12-06-2017,127,SRINIVAS.H.C,GS,09:00,18:00
5,12-06-2017,128,KUMAR.H.S,GS,09:00,18:00
6,12-06-2017,130,A.H.PRASAD KUMAR,GS,09:00,18:00
7,12-06-2017,131,GIRISH SHETTY,GS,08:52,18:09
8,12-06-2017,135,KUMAR.B.S,GS,09:06,18:10
9,12-06-2017,136,SUDHIR SHETTY,GS,09:22,18:16
10,12-06-2017,138,PRASANNA KUMAR.S,GS,09:55,18:53
11,12-06-2017,139,MITHUN.G.SHETTY,GS,09:07,19:54
12,12-06-2017,140,VENKATESH.K,GS,15:06,16:15
13,12-06-2017,143,JAGANNATH JAKKA,GS,00:00,19:54
14,12-06-2017,147,UMESH.B.V,GS,09:40,18:05
15,12-06-2017,149,C.V.HARISH,GS,00:00,00:00
16,12-06-2017,152,CHANDRASHEKAR.M.B,GS,00:00,00:00
17,12-06-2017,157,SANTOSH.K.NAIK,GS,00:00,00:00
18,12-06-2017,158,NANJEGOWDA,GS,09:00,18:00
19,12-06-2017,170,VAISHNAVI.R.AITHAL,GS,08:51,17:56
20,12-06-2017,171,SHIVANNA,GS,09:34,15:31
21,12-06-2017,175,BHANUPRAKASH DG,GS,09:00,18:11
22,12-06-2017,197,SHIVA KUMAR.N,GS,10:52,18:20
23,12-06-2017,199,HEMANTH.V.G,GS,12:17,19:46
24,12-06-2017,201,SUNIL KUMAR.B.B,GS,09:04,18:10
25,12-06-2017,202,MAHESH RAJ URS,GS,00:00,00:00
26,12-06-2017,206,PRASANNA.N.M,GS,00:00,00:00
27,12-06-2017,207,PRIYA NAGARAJ,GS,00:00,00:00
28,12-06-2017,208,K.P.RAGHAVENDRA,GS,09:00,18:00
29,12-06-2017,210,KAVYA.B.K,GS,10:02,19:06
30,12-06-2017,211,BASAVARAJU.K.N,GS,00:00,00:00
31,12-06-2017,213,AJITH ASHOKAN,GS,09:05,18:02
32,12-06-2017,217,C.SHASHIDHAR,GS,00:00,00:00
33,12-06-2017,218,KISHORE.B.N,GS,00:00,00:00
34,12-06-2017,223,CHETAN.G.K,GS,00:00,00:00
35,12-06-2017,230,KEERTHI KUMAR.K.R,GS,09:01,19:35
36,12-06-2017,243,ABBUBAKARSIDEEK.K,GS,00:00,00:00
37,12-06-2017,250,YOGESH.A.N,GS,08:24,18:22
38,12-06-2017,252,SRILATHA BOLLADY,GS,09:38,18:37
39,12-06-2017,254,PAVAN KUMAR.H.N,GS,08:49,17:55
40,12-06-2017,257,CHANDRAPPA,GS,00:00,00:00
41,12-06-2017,258,THIPPESWAMY.B.C,GS,09:15,17:54
42,12-06-2017,262,REKHA,GS,09:00,18:00
43,12-06-2017,263,YOGESH GOWDA.M.L,GS,00:00,00:00
44,12-06-2017,265,NAGARAJ PRAKASH,GS,09:07,18:06
45,12-06-2017,268,AVIN KUMAR,GS,00:00,00:00
46,12-06-2017,269,PRADEEP.B.R,GS,00:00,00:00
47,12-06-2017,273,KUSHALA.G.V,GS,00:00,00:00
48,12-06-2017,274,Abhinandan.K.M,GS,09:10,18:20
49,12-06-2017,275,MANJU.B,GS,09:36,19:51
50,12-06-2017,277,N.CHANDRASHEKAR,GS,00:00,00:00
51,12-06-2017,279,MALLESH,GS,00:00,00:00
52,12-06-2017,282,NAVIN KUMAR.B.R,GS,00:00,00:00
53,12-06-2017,290,NARAYANA REDDY.M,GS,08:59,19:04
54,12-06-2017,293,VENKAT RAMANAIAH YETURU,GS,09:05,15:07
55,12-06-2017,296,NANDEESHA.K,GS,00:00,00:00
56,12-06-2017,300,KEMPARAJU.N.S,GS,08:57,18:17
57,12-06-2017,302,HARSHA KUMAR.H.R,GS,00:00,00:00
58,12-06-2017,303,PRITHVI KUMAR.C.A,GS,10:14,12:44
59,12-06-2017,304,SANTOSH NARAYAN,GS,12:59,18:36
60,12-06-2017,314,VIJAYASHREE.S.ANAND,GS,09:10,18:18
61,12-06-2017,317,MAHESH GOWDA.C.S,GS,00:00,00:00
62,12-06-2017,321,PALLAVI.K,GS,09:14,18:01
63,12-06-2017,322,SURESH.K,GS,09:16,18:12
64,12-06-2017,323,CHELUVEGOWDA.H.S,GS,09:01,20:02
65,12-06-2017,327,BINDU RANI,GS,10:30,18:04
66,12-06-2017,328,DHANASHEKAR.M,GS,09:06,18:14
67,12-06-2017,330,THIMMAPPA,GS,00:00,00:00
68,12-06-2017,331,ALTAF,GS,09:00,18:00
69,12-06-2017,332,ANIL KUMAR.H.R,GS,08:59,19:47
70,12-06-2017,334,SHIVAPRASAD,GS,08:47,19:46
71,12-06-2017,324,Madan.V,GS,00:00,00:00
72,12-06-2017,336,SHWETHA.H.G,GS,09:15,13:39
73,12-06-2017,338,NANDINI.S.L,GS,00:00,18:31
74,12-06-2017,1010,RAMU.H.M,GS,07:25,20:02
75,12-06-2017,1011,NIRANJAN.K.B,GS,00:00,00:00
76,12-06-2017,189,K.N.RAJU,GS,00:00,00:00
77,12-06-2017,339,MADEVAPPA BHAJANTRI,GS,08:49,20:00
78,12-06-2017,5002,Madhu sudhan.B,GS,09:00,18:00
79,12-06-2017,5004,SHIVANNA JUNIOR,GS,00:00,15:43
80,12-06-2017,5005,Sarath kumar.R,GS,09:00,18:00
81,12-06-2017,5006,Ritish Kiran.,GS,09:00,18:00
82,12-06-2017,5007,Sanjay Prabhakar Balli,GS,09:00,18:00
83,12-06-2017,5008,Vinay.K.C,GS,09:00,18:00
84,12-06-2017,5010,SARANDEEP.S,GS,09:44,16:39
85,12-06-2017,5011,NETHRAVATHI.T,GS,09:00,16:37
