SNo,Date,E. Code,Name,Shift, InTime, OutTime
1,12-09-2017,123,K.N.SURENDRA,GS,09:00,18:00
2,12-09-2017,124,K.N.SOWMYA,GS,09:00,18:00
3,12-09-2017,125,K.N.BOREGOWDA,GS,09:00,18:00
4,12-09-2017,127,SRINIVAS.H.C,GS,09:00,18:00
5,12-09-2017,128,KUMAR.H.S,GS,09:00,18:00
6,12-09-2017,130,A.H.PRASAD KUMAR,GS,09:00,18:00
7,12-09-2017,131,GIRISH SHETTY,GS,09:04,18:19
8,12-09-2017,135,KUMAR.B.S,GS,09:03,19:14
9,12-09-2017,136,SUDHIR SHETTY,GS,09:03,18:22
10,12-09-2017,138,PRASANNA KUMAR.S,GS,08:06,00:00
11,12-09-2017,139,MITHUN.G.SHETTY,GS,00:00,00:00
12,12-09-2017,140,VENKATESH.K,GS,10:23,18:56
13,12-09-2017,143,JAGANNATH JAKKA,GS,00:00,00:00
14,12-09-2017,147,UMESH.B.V,GS,09:04,18:03
15,12-09-2017,149,C.V.HARISH,GS,00:00,00:00
16,12-09-2017,157,SANTOSH.K.NAIK,GS,00:00,00:00
17,12-09-2017,158,NANJEGOWDA,GS,09:00,18:00
18,12-09-2017,170,VAISHNAVI.R.AITHAL,GS,08:40,18:09
19,12-09-2017,171,SHIVANNA,GS,08:23,18:17
20,12-09-2017,175,BHANUPRAKASH DG,GS,08:44,08:58
21,12-09-2017,197,SHIVA KUMAR.N,GS,09:00,19:15
22,12-09-2017,199,HEMANTH.V.G,GS,09:00,18:00
23,12-09-2017,201,SUNIL KUMAR.B.B,GS,09:04,18:28
24,12-09-2017,202,MAHESH RAJ URS,GS,00:00,00:00
25,12-09-2017,206,PRASANNA.N.M,GS,18:07,18:45
26,12-09-2017,207,PRIYA NAGARAJ,GS,08:50,20:02
27,12-09-2017,208,K.P.RAGHAVENDRA,GS,09:00,18:00
28,12-09-2017,210,KAVYA.B.K,GS,09:35,18:38
29,12-09-2017,211,BASAVARAJU.K.N,GS,00:00,00:00
30,12-09-2017,213,AJITH ASHOKAN,GS,09:00,17:47
31,12-09-2017,217,C.SHASHIDHAR,GS,00:00,00:00
32,12-09-2017,223,CHETAN.G.K,GS,11:11,17:46
33,12-09-2017,230,KEERTHI KUMAR.K.R,GS,00:00,00:00
34,12-09-2017,243,ABBUBAKARSIDEEK.K,GS,00:00,00:00
35,12-09-2017,250,YOGESH.A.N,GS,08:45,18:17
36,12-09-2017,252,SRILATHA BOLLADY,GS,08:37,18:27
37,12-09-2017,254,PAVAN KUMAR.H.N,GS,09:02,18:22
38,12-09-2017,257,CHANDRAPPA,GS,00:00,00:00
39,12-09-2017,262,REKHA,GS,09:00,18:00
40,12-09-2017,263,YOGESH GOWDA.M.L,GS,07:15,20:22
41,12-09-2017,265,NAGARAJ PRAKASH,GS,09:22,18:22
42,12-09-2017,268,AVIN KUMAR,GS,00:00,00:00
43,12-09-2017,269,PRADEEP.B.R,GS,00:00,00:00
44,12-09-2017,273,KUSHALA.G.V,GS,09:00,18:00
45,12-09-2017,274,Abhinandan.K.M,GS,09:13,19:20
46,12-09-2017,275,MANJU.B,GS,09:06,15:58
47,12-09-2017,277,N.CHANDRASHEKAR,GS,00:00,00:00
48,12-09-2017,279,MALLESH,GS,00:00,00:00
49,12-09-2017,282,NAVIN KUMAR.B.R,GS,00:00,00:00
50,12-09-2017,290,NARAYANA REDDY.M,GS,08:49,18:32
51,12-09-2017,293,VENKAT RAMANAIAH YETURU,GS,07:54,20:13
52,12-09-2017,296,NANDEESHA.K,GS,00:00,00:00
53,12-09-2017,300,KEMPARAJU.N.S,GS,09:06,18:22
54,12-09-2017,302,HARSHA KUMAR.H.R,GS,00:00,00:00
55,12-09-2017,303,PRITHVI KUMAR.C.A,GS,00:00,00:00
56,12-09-2017,304,SANTOSH NARAYAN,GS,10:11,19:39
57,12-09-2017,314,VIJAYASHREE.S.ANAND,GS,09:15,18:12
58,12-09-2017,317,MAHESH GOWDA.C.S,GS,00:00,00:00
59,12-09-2017,322,SURESH.K,GS,09:20,12:36
60,12-09-2017,323,CHELUVEGOWDA.H.S,GS,08:19,17:39
61,12-09-2017,327,BINDU RANI,GS,00:00,00:00
62,12-09-2017,328,DHANASHEKAR.M,GS,09:05,18:13
63,12-09-2017,330,THIMMAPPA,GS,00:00,00:00
64,12-09-2017,331,ALTAF,GS,09:00,18:00
65,12-09-2017,332,ANIL KUMAR.H.R,GS,00:00,19:06
66,12-09-2017,334,SHIVAPRASAD,GS,09:00,19:06
67,12-09-2017,324,Madan.V(NOT IN PAYROLL),GS,09:00,18:00
68,12-09-2017,336,SHWETHA.H.G,GS,09:12,18:05
69,12-09-2017,338,NANDINI.S.L,GS,09:01,18:32
70,12-09-2017,1010,RAMU.H.M,GS,07:58,19:54
71,12-09-2017,1011,NIRANJAN.K.B,GS,00:00,00:00
72,12-09-2017,189,K.N.RAJU,GS,00:00,00:00
73,12-09-2017,339,MADEVAPPA BHAJANTRI,GS,08:51,19:03
74,12-09-2017,5002,Madhu sudhan.B,GS,00:00,00:00
75,12-09-2017,5004,SHIVANNA JUNIOR,GS,09:00,18:00
76,12-09-2017,5005,Sarath kumar.R,GS,00:00,00:00
77,12-09-2017,5006,Ritish Kiran.,GS,00:00,00:00
78,12-09-2017,5007,Sanjay Prabhakar Balli,GS,00:00,00:00
79,12-09-2017,5008,Vinay.K.C,GS,00:00,00:00
80,12-09-2017,346,SARANDEEP.S,GS,09:10,18:06
81,12-09-2017,342,NETHRAVATHI.T,GS,00:00,00:00
82,12-09-2017,344,J.K.SRINIVASA,GS,09:43,19:15
83,12-09-2017,5015,SANDEEPA.V.P,GS,00:00,00:00
84,12-09-2017,347,DEEPAK.T.N,GS,09:58,18:21
85,12-09-2017,348,VINAY BHARGAVA.K.N,GS,15:36,18:23
86,12-09-2017,5016,Praveen kumar.H.M,GS,00:00,00:00
87,12-09-2017,351,RAGHUVEER.R,GS,09:05,18:13
88,12-09-2017,349,RATHNA,GS,09:00,18:00
89,12-09-2017,5017,NITHIN KUMAR K,GS,09:00,18:00
90,12-09-2017,5018,KIRAN.M,GS,00:00,00:00
91,12-09-2017,5019,NIVEDITHA,GS,08:23,00:00
