Project,Customer Name,Mobile No,Email,Company,Location,Source,Remarks,Intrest Status,Follow up Date,Assign to,Assign By
Unnati Phase - 1,NA,9066403056,,,,VK,Call back to Schedule the S.V./Call back on 19th July/RNR,Warm,,gowthami@knsgroup.in,gowthami@knsgroup.in
Unnati Phase - 1,Sham,8892617185,pankajjo2011@gmail.com,,,Website,Client will revert back,Warm,,gowthami@knsgroup.in,gowthami@knsgroup.in
Unnati Phase - 1,Nandakumar,9741497175,likitha.alapa@gmail.com,,,Magicbricks,"Details mailed, Client will revert back",Warm,,gowthami@knsgroup.in,gowthami@knsgroup.in
Unnati Phase - 1,Abhinav,9845190064,shashi_mdesai@yahoo.co.in,,,99 Acres,"Details mailed, S.V. Scheduled on 13th June, Self Drive",Warm,,gowthami@knsgroup.in,gowthami@knsgroup.in
Unnati Phase - 1,Mohammed,9845210165,c_vasanth@hotmail.com,,,Magicbricks,Client will revert back before visiting the site,Warm,,gowthami@knsgroup.in,gowthami@knsgroup.in
Unnati Phase - 1,Narendrababu ,9611477881,shivaprasad.c@rediffmail.com,,,Magicbricks,Details mailed call back,Warm,,gowthami@knsgroup.in,gowthami@knsgroup.in
Unnati Phase - 1,Mohit,9945480167,gnmprasad@gmail.com,,,Magicbricks,"Profession:-Toyota group, Call back on Sunday to Schedule the S.V./Client will try to visit ",Warm,,gowthami@knsgroup.in,gowthami@knsgroup.in
Unnati Phase - 1,Shridhar jenni,9964962842,vageeshaithal@gmail.com,,,Magicbricks,Client will revert back,Warm,,gowthami@knsgroup.in,gowthami@knsgroup.in
Anirvan Phase - 1,Naveen,9886526638,sham.sastry@gmail.com,,,Magicbricks,Client will revert back,Warm,,gowthami@knsgroup.in,gowthami@knsgroup.in
Anirvan Phase - 1,NA,9980909559,nandaram10@gmail.com,,,Magicbricks,Client will try to visit the site on 14/15th June/RNR,Warm,,gowthami@knsgroup.in,gowthami@knsgroup.in
Anirvan Phase - 1,Manjunath,9880255002,abhinova@gmail.com,,,Magicbricks,"Details mailed, Call back to Schedule the S.V.",Warm,,gowthami@knsgroup.in,gowthami@knsgroup.in
Unnati Phase - 1,Yogesh,9972753816,deepikakm.patel@gmail.com,,,Magicbricks,"Details mailed, Client will revert back",Warm,,gowthami@knsgroup.in,gowthami@knsgroup.in
Anirvan Phase - 1,Jaychandra,9901316150,shruthisampath08@gmail.com,,,Magicbricks,"Details mailed, Client will revert back",Warm,,gowthami@knsgroup.in,gowthami@knsgroup.in
Unnati Phase - 1,Naveen dixit,9916380387,tution4electronics@gmail.com,,,Magicbricks,"Details mailed, Client will revert back",Warm,,gowthami@knsgroup.in,gowthami@knsgroup.in
Unnati Phase - 1,Kishore,8884912989,,,,VK,Client will revert back,Warm,,gowthami@knsgroup.in,gowthami@knsgroup.in
Anirvan Phase - 1,Pawan,9916453418,,,,VK,Client will revert back,Warm,,gowthami@knsgroup.in,gowthami@knsgroup.in
Anirvan Phase - 1,Dinesh,8147353799,,,,VK,Client will revert back before visiting the site,Warm,,gowthami@knsgroup.in,gowthami@knsgroup.in
Anirvan Phase - 1,Prakash,9845776611,naveen.dixit@outlook.com,,,Magicbricks,"Details mailed, Client will revert back",Warm,,gowthami@knsgroup.in,gowthami@knsgroup.in
Unnati Phase - 1,Prakash c s,9740929304,,,,VK,STM to provide more details about negotiation,Warm,,gowthami@knsgroup.in,gowthami@knsgroup.in
Unnati Phase - 1,Ramprasad,8861422279,pawanms@gmail.com,,,99 Acres,Call back next week(19th June) to Schedule the S.V.,Warm,,gowthami@knsgroup.in,gowthami@knsgroup.in
Unnati Phase - 1,Yasaswi,8499007184,belegadde@gmail.com,,,Magicbricks,"Call back, Client is in a meeting",Warm,,gowthami@knsgroup.in,gowthami@knsgroup.in
Unnati Phase - 1,Jagadish,8453177888,PRAKASHVIP999@GMAIL.COM,,,99 Acres,"Client is in Mumbai, Call back on 10th June",Warm,,gowthami@knsgroup.in,gowthami@knsgroup.in
Unnati Phase - 1,Kantharaju,9448345434,mahabalesh_p@rediffmail.com,,,99 Acres,"Client resides in Kodagu, will be coming to bangalore next month and try to visit",Warm,,gowthami@knsgroup.in,gowthami@knsgroup.in
Unnati Phase - 1,Adisesha gupta,9945202450,gs.lakshmikanth@gmail.com,,,Magicbricks,Client will revert back,Warm,,gowthami@knsgroup.in,gowthami@knsgroup.in
Anirvan Phase - 1,Surendra soni,9739990279,rashmee87@yahoo.com,,,Magicbricks,Client will revert back,Warm,,gowthami@knsgroup.in,gowthami@knsgroup.in
Anirvan Phase - 1,Susil,9985414425,yasaswimr@gmail.com,,,Magicbricks,Call back at 5pm,Warm,,gowthami@knsgroup.in,gowthami@knsgroup.in
Unnati Phase - 1,Suresh,9620959564,bhaskar.ramamoorthy@gmail.com,,,99 Acres,"Call back, Client is in a busy",Warm,,gowthami@knsgroup.in,gowthami@knsgroup.in
Anirvan Phase - 1,Vinci,9980147570,maheshacs455@gmail.com,,,Magicbricks,Client will revert back/S.V. on 26th july kengeri pick up,Warm,,gowthami@knsgroup.in,gowthami@knsgroup.in
Anirvan Phase - 1,Appanna,9481244007,sureshpavana.kumar@gmail.com,,,Magicbricks,Client will revert back,Warm,,gowthami@knsgroup.in,gowthami@knsgroup.in
Unnati Phase - 1,Siddu,9611631008,,,,VK,Call back to Schedule the S.V.,Warm,,gowthami@knsgroup.in,gowthami@knsgroup.in
Unnati Phase - 1,Loganath ,9845740816,,,,VK,Client will revert back,Warm,,gowthami@knsgroup.in,gowthami@knsgroup.in
Anirvan Phase - 1,Pratesh kumar,8050866004,,,,Magicbricks,"S.V. Scheduled on 13th June, Self Drive at 2pm",Warm,,gowthami@knsgroup.in,gowthami@knsgroup.in
Unnati Phase - 1,Babu,99001074431,,,,VK,Client will revert back,Warm,,gowthami@knsgroup.in,gowthami@knsgroup.in
Unnati Phase - 1,Swamy,9008504477,gangadhar.hll@gmail.com,,,Magicbricks,Call back after 1 month due to ashaada,Warm,,gowthami@knsgroup.in,gowthami@knsgroup.in
Anirvan Phase - 1,Amruth,9176727602,gbindumadhavan@hotmail.com,,,Magicbricks,Call back on 18th at 10am,Warm,,gowthami@knsgroup.in,gowthami@knsgroup.in
Unnati Phase - 1,Yadhu,9916667132,prathamasurya@gmail.com,,,Magicbricks,Call back on 18th June,Warm,,gowthami@knsgroup.in,gowthami@knsgroup.in
Anirvan Phase - 1,Kumar,9588878887,srinivasnaidu1972@gmail.com,,,Magicbricks,Client will revert back,Warm,,gowthami@knsgroup.in,gowthami@knsgroup.in
Unnati Phase - 1,Bharath,9916938468,prateshkumar87@yahoo.in,,,Magicbricks,Client will revert back,Warm,,gowthami@knsgroup.in,gowthami@knsgroup.in
Anirvan Phase - 1,Hemanth kumar,9986733959,rajusghere@gmail.com,,,Magicbricks,"Details mailed, Call back on Friday",Warm,,gowthami@knsgroup.in,gowthami@knsgroup.in
Unnati Phase - 1,Girish,9972872455,,,,VK,Client will revert back,Warm,,gowthami@knsgroup.in,gowthami@knsgroup.in
Unnati Phase - 1,Raj,9379023318,sen1719@gmail.com,,,99 Acres,STM to provide more details about the project,Warm,,gowthami@knsgroup.in,gowthami@knsgroup.in
Unnati Phase - 1,Sheshagiri,9886755264,Bharath_5483@yahoo.com,,,Magicbricks,Client will revert back,Warm,,gowthami@knsgroup.in,gowthami@knsgroup.in
Anirvan Phase - 1,Arun kumar,9886732681,phemanthkumar74@yahoo.com,,,Magicbricks,Details mailed. Client will revert back,Warm,,gowthami@knsgroup.in,gowthami@knsgroup.in
Unnati Phase - 1,Ranjith,9686985495,giri_sha2000@yahoo.com,,,India Property,S.V. Completed,Warm,,gowthami@knsgroup.in,gowthami@knsgroup.in
Unnati Phase - 1,NA,9980414649,,,,VK,Call back to Schedule the S.V.,Warm,,gowthami@knsgroup.in,gowthami@knsgroup.in
Unnati Phase - 1,NA,8040919879,tanu_vinay@rediffmail.com,,,VK,Call back to Schedule the S.V.,Warm,,gowthami@knsgroup.in,gowthami@knsgroup.in
Unnati Phase - 1,Chowdappa,9738291073,,,,VK,Client will revert back,Warm,,gowthami@knsgroup.in,gowthami@knsgroup.in
Anirvan Phase - 1,Dharmaraj,7760622638,,,,VK,Client will revert back,Warm,,gowthami@knsgroup.in,gowthami@knsgroup.in
Unnati Phase - 1,Geetha,9739351826,,,,VK,"Client will revert back, STM to provide more details",Warm,,gowthami@knsgroup.in,gowthami@knsgroup.in
Unnati Phase - 1,Manjunath,8022381713,,,,VK,Client will visit the plot on monday/ tuesday,Warm,,gowthami@knsgroup.in,gowthami@knsgroup.in
Unnati Phase - 1,Madhu,9341556626,,,,VK,Client will visit the plot tomorrow. selfdrive,Warm,,gowthami@knsgroup.in,gowthami@knsgroup.in
Anirvan Phase - 1,Rajesh,9845295966,,,,VK,Client will visit the site after Aashada Month,Warm,,gowthami@knsgroup.in,gowthami@knsgroup.in
Unnati Phase - 1,Manjunath,9740888902,,,,VK,"Resides in RPC Layout, Client will revert back",Warm,,gowthami@knsgroup.in,gowthami@knsgroup.in
Unnati Phase - 1,Anand,9481477434,,,,VK,S.V. Completed,Warm,,gowthami@knsgroup.in,gowthami@knsgroup.in
Unnati Phase - 1,Vishwanath,8147634383,,,,SMS Blast,STM to provide more details about the project,Warm,,gowthami@knsgroup.in,gowthami@knsgroup.in
Anirvan Phase - 1,Suresh,8050050096,giriraj96@gmail.com,,,Magicbricks,Call back on 23rd June,Warm,,gowthami@knsgroup.in,gowthami@knsgroup.in
Anirvan Phase - 1,Manohar,9880288471,manojmadanas@gmail.com,,,Magicbricks,Client needs time to think about the project,Warm,,gowthami@knsgroup.in,gowthami@knsgroup.in
Anirvan Phase - 1,Vasanth,9741359049,ramun3333@rediffmail.com,,,Magicbricks,"Details mailed, Client will revert back",Warm,,gowthami@knsgroup.in,gowthami@knsgroup.in
Unnati Phase - 1,Dr. ranganth,9663070690,havishb2592@gmail.com,,,Magicbricks,No Response,Warm,,gowthami@knsgroup.in,gowthami@knsgroup.in
Unnati Phase - 1,Niloy,9880627217,,,,VK,"Resides in RT Nagar, Client will revert back",Warm,,gowthami@knsgroup.in,gowthami@knsgroup.in
Unnati Phase - 1,Bharath,9900251439,meetvishi@gmail.com,,,Magicbricks,Call back on Friday to Schedule the S.V.,Warm,,gowthami@knsgroup.in,gowthami@knsgroup.in
Anirvan Phase - 1,Bhaskar,8105926354,vajsuresh@gmail.com,,,Magicbricks,Client will revert back,Warm,,gowthami@knsgroup.in,gowthami@knsgroup.in
Unnati Phase - 1,Ashoka j salimath,9535169606,,,,VK,"Interested Client, Call back on Wed(24th June), to Schedule the S.V.",Warm,,gowthami@knsgroup.in,gowthami@knsgroup.in
Unnati Phase - 1,Venkatesh naidu,9741923548,niloy_kalna@rediffmail.com,,,Magicbricks,Call back tomorrow he is in a meeting,Warm,,gowthami@knsgroup.in,gowthami@knsgroup.in
Unnati Phase - 1,Yogendra,9880603978,kcnavada@hotmail.com,,,Magicbricks,Client will revert back before visiting the site,Warm,,gowthami@knsgroup.in,gowthami@knsgroup.in
Unnati Phase - 1,Shyamala,9342356761,siraj_blr@yahoo.com,,,Magicbricks,Client will revert back when he is free,Warm,,gowthami@knsgroup.in,gowthami@knsgroup.in
Unnati Phase - 1,Shanthakumari,9481068694,thej852009@gmail.com,,,Magicbricks,Details mailed . Client will revert back if interested,Warm,,gowthami@knsgroup.in,gowthami@knsgroup.in
Unnati Phase - 1,K t kumar,9886385520,,,,SMS Blast," Call back on friday (26th June) to Schedule the S.V, Residing in jalahalli",Warm,,gowthami@knsgroup.in,gowthami@knsgroup.in
Anirvan Phase - 1,Rishi,7022166811,pr1029@gmail.com,,,Magicbricks,Call back on Friday(26th June) to Schedule the S.V.,Warm,,gowthami@knsgroup.in,gowthami@knsgroup.in
Unnati Phase - 1,Kumar,9844384512,,,,Emailer Campaign,"Call back to Schedule the S.V., Profession:- Lokayukta Office",Warm,,gowthami@knsgroup.in,gowthami@knsgroup.in
Anirvan Phase - 1,Venkatesh,9538229807,gurunath19@gmail.com,,,Magicbricks,Client will revert back,Warm,,gowthami@knsgroup.in,gowthami@knsgroup.in
Unnati Phase - 1,Rakesh,9945381234,shyamis1919@gmail.com,,,99 Acres,Client will try to visit the plot by weekend,Warm,,gowthami@knsgroup.in,gowthami@knsgroup.in
Unnati Phase - 1,Sandeep amarnath,9916927369,bellala.a@gmail.com,,,Magicbricks,Not Reachable,Warm,,gowthami@knsgroup.in,gowthami@knsgroup.in
Anirvan Phase - 1,Mallikarjun,8904099579,rishgiprakash1109@gmail.com,,,Magicbricks,Call back after 11th July,Warm,,gowthami@knsgroup.in,gowthami@knsgroup.in
Unnati Phase - 1,Jayaraj urs,9845614292,kumar.architect@gmail.com,,,Magicbricks,Call back after 30 mins/STM to provide more details,Warm,,gowthami@knsgroup.in,gowthami@knsgroup.in
Unnati Phase - 1,Manjunath,9717352338,,,,VK,"Client is in Delhi, His cousins will be visiting the site, STM to provide more details about the project",Warm,,gowthami@knsgroup.in,gowthami@knsgroup.in
Unnati Phase - 1,Ganesan,9886308989,djjja@gmail.com,,,Magicbricks,Client will revert back,Warm,,gowthami@knsgroup.in,gowthami@knsgroup.in
Unnati Phase - 1,Rathna,8861004206,,,,Hoarding,Client will revert back,Warm,,gowthami@knsgroup.in,gowthami@knsgroup.in
Anirvan Phase - 1,Hanumantharayappa,9986982935,manoharms@gmail.com,,,Magicbricks,Client will revert back once he is free,Warm,,gowthami@knsgroup.in,gowthami@knsgroup.in
Anirvan Phase - 1,NA,9886473138,praveen2970@gmail.com,,,Magicbricks,"Detiails mailed, Call back on Friday for S.V.",Warm,,gowthami@knsgroup.in,gowthami@knsgroup.in
Unnati Phase - 1,NA,9741112349,,,,SMS Blast,"S.V. Scheduled on 25th June, Self Drive, STM to provide location details",Warm,,gowthami@knsgroup.in,gowthami@knsgroup.in
Unnati Phase - 1,Gowthami,9620539846,ganesansdurai@gmail.com,,,Magicbricks,Call back to Schedule the S.V.,Warm,,gowthami@knsgroup.in,gowthami@knsgroup.in
Unnati Phase - 1,Chandregowda,9844188932,,,,VijayaVani,Call back to Schedule the S.V.,Warm,,gowthami@knsgroup.in,gowthami@knsgroup.in
Unnati Phase - 1,Prathap,9342550724,,,,SMS Blast,Client will revert back,Warm,,gowthami@knsgroup.in,gowthami@knsgroup.in
Anirvan Phase - 1,Ramesh,9880005322,pari0007@gmail.com,,,Magicbricks,Client will revert back once he is free,Warm,,gowthami@knsgroup.in,gowthami@knsgroup.in
Unnati Phase - 1,Ranjith,9886977070,ramya.bp14@gmail.com ,,,Magicbricks,"Interested in Unnati, Call back to Schedule the S.V",Warm,,gowthami@knsgroup.in,gowthami@knsgroup.in
Unnati Phase - 1,Shridhar,9731422300,acharya_sh@yahoo.com,,,Magicbricks,"Interested, STM to provide more details about the project",Warm,,gowthami@knsgroup.in,gowthami@knsgroup.in
Unnati Phase - 1,Vijay kumar,9449830696,,,,VK,Call back next week to Schedule the S.V. ,Warm,,gowthami@knsgroup.in,gowthami@knsgroup.in
Anirvan Phase - 1,Nagesh,9845768400,,,,Deccan herald,"Client is interested, Call back to Schedule the S.V.",Warm,,gowthami@knsgroup.in,gowthami@knsgroup.in
Anirvan Phase - 1,Shankar,9535368733,ranjith.guntha@gmail.com,,,Magicbricks,Client will revert back,Warm,,gowthami@knsgroup.in,gowthami@knsgroup.in
Unnati Phase - 1,Ajay,8022195910,,,,VK,Client will revert back,Warm,,gowthami@knsgroup.in,gowthami@knsgroup.in
Unnati Phase - 1,P manjunath,9740238183,,,,VK,Client will revert back,Warm,,gowthami@knsgroup.in,gowthami@knsgroup.in
Anirvan Phase - 1,Pradeep,9986522400,,,,VK,Client will revert back,Warm,,gowthami@knsgroup.in,gowthami@knsgroup.in
Unnati Phase - 1,Manjunath,9008862999,,,,VK,"Client will revert back, Interested in Unnati Looking for 20*30 plots",Warm,,gowthami@knsgroup.in,gowthami@knsgroup.in
Unnati Phase - 1,Sridhar,9449876102,l.padhu2@gmail.com,,,VK,"Details mailed, Client will revert back",Warm,,gowthami@knsgroup.in,gowthami@knsgroup.in
Unnati Phase - 1,NA,9618786506,,,,VK,Interested in Sarjapura Project,Warm,,gowthami@knsgroup.in,gowthami@knsgroup.in
Unnati Phase - 1,Narasimha murthy,7899434212,,,,VK,S.v. Scheduled on 5th July,Warm,,gowthami@knsgroup.in,gowthami@knsgroup.in
Unnati Phase - 1,Rajendra,9880489770,,,,TOI,Call back on friday to schedule the visit,Warm,,gowthami@knsgroup.in,gowthami@knsgroup.in
Unnati Phase - 1,Murali krishna,9945488229,,,,TOI,Client will come to office to know more about the project details near Mysore Road.,Warm,,gowthami@knsgroup.in,gowthami@knsgroup.in
Anirvan Phase - 1,Devaraj,8023152018,,,,TOI,Client will revert aback at the time of S.V,Warm,,gowthami@knsgroup.in,gowthami@knsgroup.in
Anirvan Phase - 1,Vidhya,9663384586,,,,TOI,Client will revert back,Warm,,gowthami@knsgroup.in,gowthami@knsgroup.in
Unnati Phase - 1,NA,9980160892,madsangee@gmail.com,,,TOI,Details mailed client will revert back/dropped the plan,Warm,,gowthami@knsgroup.in,gowthami@knsgroup.in
Unnati Phase - 1,NA,9060378040,,,,VK,Intrested in unnati/self drive 28,Warm,,gowthami@knsgroup.in,gowthami@knsgroup.in
Anirvan Phase - 1,Aakash arora,9448107322,,,,TOI,Resides in chandarlayout. Self drive at 3.30pm on 28th June,Warm,,gowthami@knsgroup.in,gowthami@knsgroup.in
Anirvan Phase - 1,Imtiaz pasha,9538869662,,,,TOI,Resides in chandralayout. Client will revert back at the time of S.v,Warm,,gowthami@knsgroup.in,gowthami@knsgroup.in
Unnati Phase - 1,Anupam dave,9900096232,okdeshpande@gmail.com,,,Magicbricks,Client will revert back,Warm,,gowthami@knsgroup.in,gowthami@knsgroup.in
Unnati Phase - 1,Shripad kulkarni,9884423517,reachaakasharora@gmail.com,,,Magicbricks,Client will revert back,Warm,,gowthami@knsgroup.in,gowthami@knsgroup.in
Unnati Phase - 1,Prakash,9886254843,,,,SMS Blast,Client will revert back,Warm,,gowthami@knsgroup.in,gowthami@knsgroup.in
Unnati Phase - 1,Ganesh,9880010001,,,,SMS Blast,Client will revert back,Warm,,gowthami@knsgroup.in,gowthami@knsgroup.in
Unnati Phase - 1,Chandrashekar,8123470999,,,,TOI,Client will revert back,Warm,,gowthami@knsgroup.in,gowthami@knsgroup.in
Unnati Phase - 1,Saroj kumar,9900261396,,,,TOI,Client will revert back,Warm,,gowthami@knsgroup.in,gowthami@knsgroup.in
Anirvan Phase - 1,Ls singh,9880456512,,,,SMS Blast,Client will revert back,Warm,,gowthami@knsgroup.in,gowthami@knsgroup.in
Anirvan Phase - 1,Sneha,9844077945,,,,VK,Client will revert back,Warm,,gowthami@knsgroup.in,gowthami@knsgroup.in
Anirvan Phase - 1,NA,8884437772,,,,SMS Blast,Client will revert back,Warm,,gowthami@knsgroup.in,gowthami@knsgroup.in
Unnati Phase - 1,Muthanna,9886446780,dave.anupam@gmail.com,,,Magicbricks,Client will revert back before visiting the plot,Warm,,gowthami@knsgroup.in,gowthami@knsgroup.in
Unnati Phase - 1,Paramesha shetty,9845183901,,,,TOI,Resides in ring road. client will revert back at the time of s.v,Warm,,gowthami@knsgroup.in,gowthami@knsgroup.in
Anirvan Phase - 1,Girish,9740667994,986sana@gmai.com,,,Website,STM no shared. Client needs more details on project,Warm,,gowthami@knsgroup.in,gowthami@knsgroup.in
Unnati Phase - 1,Shankar,8197280703,snehanikki173@gmail.com,,,Magicbricks,Call back on Friday to schedule the  S.V.,Warm,,gowthami@knsgroup.in,gowthami@knsgroup.in
Unnati Phase - 1,Prakash,8197265056,muthanna108@gmail.com,,,Magicbricks,Client will revert back,Warm,,gowthami@knsgroup.in,gowthami@knsgroup.in
Unnati Phase - 1,Gopal,9845294187,pasha.afnan@gmail.com,,,Magicbricks,"Details mailed, Client will revert back through mail",Warm,,gowthami@knsgroup.in,gowthami@knsgroup.in
Unnati Phase - 1,Rajesh,9844005891,tanuja01@gmail.com,,,Magicbricks,Need to discuss with her husband & revert back,Warm,,gowthami@knsgroup.in,gowthami@knsgroup.in
Unnati Phase - 1,Sharada sharma,9845471463,,,,SMS Blast,"Resides in Vijayanagar, Client will revert back once he is free",Warm,,gowthami@knsgroup.in,gowthami@knsgroup.in
Anirvan Phase - 1,Arun mishra,9620092227,,,,SMS Blast,Client will revert back,Warm,,gowthami@knsgroup.in,gowthami@knsgroup.in
Unnati Phase - 1,Bharath kumar,9740011254,shanprema1998@yahoo.com,,,Magicbricks,"Details mailed, Client will revert back",Warm,,gowthami@knsgroup.in,gowthami@knsgroup.in
Anirvan Phase - 1,Mohan,8494935969,dgm.srinandiconmix@gmail.com,,,Magicbricks,No Response/RNR/Out of Service,Warm,,gowthami@knsgroup.in,gowthami@knsgroup.in
Unnati Phase - 1,Dr pradeep,9845265351,sharadaramsharma@gmail.com,,,Magicbricks,Call back on 4th July after 4pm,Warm,,gowthami@knsgroup.in,gowthami@knsgroup.in
Anirvan Phase - 1,Lakshmi narayan,8970049970,,,,Emailer Campaign,Call back on 6th July for S.V.,Warm,,gowthami@knsgroup.in,gowthami@knsgroup.in
Unnati Phase - 1,Sachin,9980658890,agaarun05@yahoo.com,,,Emailer Campaign,"Call back to Schedule the S.V., Detais mailed/RNR",Warm,,gowthami@knsgroup.in,gowthami@knsgroup.in
Unnati Phase - 1,Shanmugham,8066735000,,,,Emailer Campaign,Client will revert back ,Warm,,gowthami@knsgroup.in,gowthami@knsgroup.in
Unnati Phase - 1,Rajeev ranjan srivastava,9845408671,,,,SMS Blast,Client will revert back before visiting,Warm,,gowthami@knsgroup.in,gowthami@knsgroup.in
Anirvan Phase - 1,Nandhan,8807723712,monimoysaha@gmail.com,,,Emailer Campaign,Client will visit the site once he comes to bangalore,Warm,,gowthami@knsgroup.in,gowthami@knsgroup.in
Unnati Phase - 1,Arjun,9886382983,,,,Emailer Campaign,"Interested in Unnati, Client will revert back ",Warm,,gowthami@knsgroup.in,gowthami@knsgroup.in
Anirvan Phase - 1,Dr rani,9448217323,majormrp@gmail.com,,,Emailer Campaign,Resides in Mandya Call back next weekened.,Warm,,gowthami@knsgroup.in,gowthami@knsgroup.in
Unnati Phase - 1,NA,9000017186,,,,Emailer Campaign,"S.V. Scheduled on 4th July, Self Drive",Warm,,gowthami@knsgroup.in,gowthami@knsgroup.in
Unnati Phase - 1,Shridevi,6594518622,rrsrivastava@gmail.com,,,Emailer Campaign,STM to provide more details about the project,Warm,,gowthami@knsgroup.in,gowthami@knsgroup.in
Unnati Phase - 1,Laxman,8722234719,manju99us@gmail.com,,,Magicbricks,Call back on 9th July,Warm,,gowthami@knsgroup.in,gowthami@knsgroup.in
Unnati Phase - 1,NA,9986218187,,,,VK,Call back on 9th July,Warm,,gowthami@knsgroup.in,gowthami@knsgroup.in
Unnati Phase - 1,Santosh,9741883640,,,,VK,"Client may visit the site personally today, needs details on pricing.",Warm,,gowthami@knsgroup.in,gowthami@knsgroup.in
Unnati Phase - 1,Adhishesha,9632329877,,,,VK,Client needs to discuss with her family for Site Visit,Warm,,gowthami@knsgroup.in,gowthami@knsgroup.in
Unnati Phase - 1,Harisha,9620425492,,,,VK,Client will revert back,Warm,,gowthami@knsgroup.in,gowthami@knsgroup.in
Unnati Phase - 1,Ramesh,9035009258,,,,VK,Client will revert back,Warm,,gowthami@knsgroup.in,gowthami@knsgroup.in
Unnati Phase - 1,Mahesh,8971610551,,,,VijayaVani,Interested BDA approved.client will revert back,Warm,,gowthami@knsgroup.in,gowthami@knsgroup.in
Unnati Phase - 1,Shahjahan,9902793435,,,,VK,"Interested in Anirvan Project, Call back to Schedule the S.V. , STM no. ( Mahesh) has been shared",Warm,,gowthami@knsgroup.in,gowthami@knsgroup.in
Anirvan Phase - 1,Deepila/direndra,9886499988,,,,Prajavani,"Interested in Anirvan, STM to provide more details about project",Warm,,gowthami@knsgroup.in,gowthami@knsgroup.in
Anirvan Phase - 1,Srikanth,9741163391,,,,VijayaVani,Interested in BDA Approved projects resides in gottigere.  client will visit the plot next week,Warm,,gowthami@knsgroup.in,gowthami@knsgroup.in
Anirvan Phase - 1,Sharath,9632633486,santoshk.ltv@gmail.com,,,VijayaVani,Interested in BDA Details mailed. client will revert bacak,Warm,,gowthami@knsgroup.in,gowthami@knsgroup.in
Unnati Phase - 1,Mallikarjun,9980525456,,,,VijayaVani,"Interested in KNS Unnati, STM to provide more details",Warm,,gowthami@knsgroup.in,gowthami@knsgroup.in
Unnati Phase - 1,Ramchandra,9663323250,,,,Paper Insertion,Call back next week to schedule the S.V./Call back,Warm,,gowthami@knsgroup.in,gowthami@knsgroup.in
Unnati Phase - 1,Mohammed,8971499655,,,,Paper Insertion,Call back tomorrow,Warm,,gowthami@knsgroup.in,gowthami@knsgroup.in
Unnati Phase - 1,Tejas,9845582448,,,,Paper Insertion,Client needs time to decide,Warm,,gowthami@knsgroup.in,gowthami@knsgroup.in
Unnati Phase - 1,Nagraj,8710995925,,,,Paper Insertion,Client will revert back,Warm,,gowthami@knsgroup.in,gowthami@knsgroup.in
Unnati Phase - 1,Yogappa,8197971849,,,,Paper Insertion,Client will revert back,Warm,,gowthami@knsgroup.in,gowthami@knsgroup.in
Unnati Phase - 1,Shanthkumar,9845516348,,,,Paper Insertion,Client will revert back,Warm,,gowthami@knsgroup.in,gowthami@knsgroup.in
Unnati Phase - 1,NA,9972032505,,,,Paper Insertion,Client will revert back,Warm,,gowthami@knsgroup.in,gowthami@knsgroup.in
Unnati Phase - 1,Umesh,8904995775,,,,Paper Insertion,Client will revert back at the time of S.V,Warm,,gowthami@knsgroup.in,gowthami@knsgroup.in
Unnati Phase - 1,Chayapathi(arvind),9632817381,,,,Paper Insertion,Client will revert back at the time of visit,Warm,,gowthami@knsgroup.in,gowthami@knsgroup.in
Unnati Phase - 1,Murulidharan,9886987795,,,,Paper Insertion,Client will revert back before visiting the site,Warm,,gowthami@knsgroup.in,gowthami@knsgroup.in
Unnati Phase - 1,Rajanna,9902246059,,,,Paper Insertion,Client will visit the plot after ramzan,Warm,,gowthami@knsgroup.in,gowthami@knsgroup.in
Unnati Phase - 1,Sachin,7406851243,tejmegjul25@gmail.com,,,Live Chat,"Details mailed, Client will revert back if interested",Warm,,gowthami@knsgroup.in,gowthami@knsgroup.in
Unnati Phase - 1,Suresh,9448412698,,,,Paper Insertion,He will revert Back,Warm,,gowthami@knsgroup.in,gowthami@knsgroup.in
Unnati Phase - 1,Anand,9480551214,,,,Paper Insertion,"Interested in Unnati, He will revert back",Warm,,gowthami@knsgroup.in,gowthami@knsgroup.in
Unnati Phase - 1,NA,9141708596,,,,VK,"Need to send postal address, He would like to come by self drive/RNR",Warm,,gowthami@knsgroup.in,gowthami@knsgroup.in
Unnati Phase - 1,Prem prakash,9880027169,,,,Paper Insertion,S.V Scheduled on 5th July selfdrive,Warm,,gowthami@knsgroup.in,gowthami@knsgroup.in
Unnati Phase - 1,Anil kumar,8147525503,,,,Paper Insertion,S.V. Scheduled on 11th July,Warm,,gowthami@knsgroup.in,gowthami@knsgroup.in
Unnati Phase - 1,Sridhar bhat,9538636195,,,,Paper Insertion,S.V. Scheduled on 11th July/Call back on 11th July after 12pm/Call back,Warm,,gowthami@knsgroup.in,gowthami@knsgroup.in
Unnati Phase - 1,Renuka shekar,8147553930,,,,Paper Insertion,"Srinagar, He will revert back",Warm,,gowthami@knsgroup.in,gowthami@knsgroup.in
Unnati Phase - 1,Paramesh,9880161633,,,,VK,Call back on friday to Schedule the S.V./Client is out of bangalore till 1st august,Warm,,gowthami@knsgroup.in,gowthami@knsgroup.in
Unnati Phase - 1,Prem prakash,9414135697 ,pps0291@yahoo.in ,,,Magicbricks,"Client is in Rajasthan, Will be coming to bangalore after 1 month & visit the plot(Aug 2015)",Warm,,gowthami@knsgroup.in,gowthami@knsgroup.in
Unnati Phase - 1,NA,8971732000,,,,Emailer Campaign,Client will be back to bangalore after 2 weeks and visit the plot,Warm,,gowthami@knsgroup.in,gowthami@knsgroup.in
Unnati Phase - 1,Naresj,8748000213,,,,SMS Blast,Client will revert back,Warm,,gowthami@knsgroup.in,gowthami@knsgroup.in
Anirvan Phase - 1,Sudhindra,8892148646,,,,VK,"Interested in unnati, STM to provide availability details..",Warm,,gowthami@knsgroup.in,gowthami@knsgroup.in
Unnati Phase - 1,Rosalie,9448064804,,,,VK,S.v schedule tomorrow self drive ,Warm,,gowthami@knsgroup.in,gowthami@knsgroup.in
Unnati Phase - 1,Sangamesh,9880051206,,,,SMS Blast,S.v scheduled this weekend. call back on friday to confirm,Warm,,gowthami@knsgroup.in,gowthami@knsgroup.in
Unnati Phase - 1,Sharma,9414135697,pps0291@yahoo.in,,,Magicbricks,"Call back after 2 months, Client son stays in Gurgaon, after 2 months he ll come to bangalore and visit",Warm,,gowthami@knsgroup.in,gowthami@knsgroup.in
Unnati Phase - 1,Naveen kumar,8110989025,nareshsl228@gmail.com,,,Live Chat,Client will call back ,Warm,,gowthami@knsgroup.in,gowthami@knsgroup.in
Anirvan Phase - 1,Kamal,9945292759,sudhindra.subbarao@gmail.com,,,Magicbricks,Client will revert back,Warm,,gowthami@knsgroup.in,gowthami@knsgroup.in
Unnati Phase - 1,Srinivasan k,9448376385,crosalie09@gmail.com,,,Magicbricks,Client will revert back,Warm,,gowthami@knsgroup.in,gowthami@knsgroup.in
Unnati Phase - 1,Vigneshwara,9880730407,sangamesh.08@gmail.com,,,Live Chat,"Details mailed, Client will revert back",Warm,,gowthami@knsgroup.in,gowthami@knsgroup.in
Unnati Phase - 1,Shanthaveeraiah,9535336625,ramya90.cse@gmail.com,,,Live Chat,"Details mailed, S.V. Scheduled on Sat(11th July), Pick up from E.City/looking below 20 lakhs, referred for Archisa project",Warm,,gowthami@knsgroup.in,gowthami@knsgroup.in
Unnati Phase - 1,Sam,9663746901,nagraj.achar150@gmail.com,,,Magicbricks,"Already Visited, Client will revert back",Warm,,gowthami@knsgroup.in,gowthami@knsgroup.in
Anirvan Phase - 1,Ranjitha,8147779763,naveen87.prp@gmail.com,,,Magicbricks,"Call back on 13th July, Details mailed",Warm,,gowthami@knsgroup.in,gowthami@knsgroup.in
Anirvan Phase - 1,Khadar ,9880284204,kamal.ait403@gmail.com,,,Magicbricks,Call back to Schedule the S.V.,Warm,,gowthami@knsgroup.in,gowthami@knsgroup.in
Anirvan Phase - 1,Arun,9611806297,ksheenu26@gmail.com,,,Magicbricks,"Client will be back to bangalore after 19th July, Call back on 18th to Schedule the S.V.",Warm,,gowthami@knsgroup.in,gowthami@knsgroup.in
Anirvan Phase - 1,Kumar k,9448580258,shanthaveeraiah@gmail.com,,,Magicbricks,"Details mailed, Client will revert back",Warm,,gowthami@knsgroup.in,gowthami@knsgroup.in
Anirvan Phase - 1,Deepak,9845076983,basavarajhs31@gmail.com,,,Magicbricks,"Details mailed, Client will revert back",Warm,,gowthami@knsgroup.in,gowthami@knsgroup.in
Unnati Phase - 1,Rajesh/gigi kumar,9449879213,shivaprakash.hosur@jsw.in/shivaprakash.hosur@gmail.in,,,Magicbricks,"Details mailed, Interested in Unnati, Client will visit the plot after a week/Interested in Archisa, Will visit the plot next month(Aug) second week",Warm,,gowthami@knsgroup.in,gowthami@knsgroup.in
Anirvan Phase - 1,Vijaykumar,8197955522,lakshmisamudrika@gmail.com,,,Magicbricks,"Needs to discuss with her Sister, Call back on 17th July to Schedule the S.V.",Warm,,gowthami@knsgroup.in,gowthami@knsgroup.in
Anirvan Phase - 1,V ganesh bau ,9916069384,arunramachandar@gmail.com,,,Magicbricks,No Response,Warm,,gowthami@knsgroup.in,gowthami@knsgroup.in
Anirvan Phase - 1,Manisha kulkarni,9986025205,vasudev.lavasolutions@gmail.com,,,Magicbricks,S.V. Scheduled for next weekend(18th July),Warm,,gowthami@knsgroup.in,gowthami@knsgroup.in
Unnati Phase - 1,J.c.babu,8884499462,bandiga.durgapradeep@gmail.com,,,Magicbricks,"S.V. Scheduled on 18th July, Call back on 17th July for Confirmation",Warm,,gowthami@knsgroup.in,gowthami@knsgroup.in
Anirvan Phase - 1,Rajesh,9035450185,vgbzone@gmail.com,,,India Property,Call back on 10th July,Warm,,gowthami@knsgroup.in,gowthami@knsgroup.in
Unnati Phase - 1,Srinivasa rao,9686654434,,,,SMS Blast,Client will revert back,Warm,,gowthami@knsgroup.in,gowthami@knsgroup.in
Unnati Phase - 1,Jayshree,9740817964,shiva_shankar_a@yahoo.com,,,Magicbricks,Client will revert back before visiting the site,Warm,,gowthami@knsgroup.in,gowthami@knsgroup.in
Unnati Phase - 1,Siddartha,9343379485,saralav72@gmail.com,,,Magicbricks,"Details mailed, Call back",Warm,,gowthami@knsgroup.in,gowthami@knsgroup.in
Unnati Phase - 1,Rajesh,8095302901,prasadgowda.87@gmail.com,,,Magicbricks,"Details mailed, Client will revert back",Warm,,gowthami@knsgroup.in,gowthami@knsgroup.in
Unnati Phase - 1,B.s.praveen kumar,9420862331,manishavnn@gmail.com,,,Magicbricks,"Details mailed, Client's sister resides in Vijayanagar",Warm,,gowthami@knsgroup.in,gowthami@knsgroup.in
Unnati Phase - 1,NA,9868278903,jathikartha@yahoo.com,,,Live Chat,Exp a call back.Need to  mail the project dteails and also enq about any installment scheme. Revert soon,Warm,,gowthami@knsgroup.in,gowthami@knsgroup.in
Unnati Phase - 1,Nithin,9900094790,siddartha77@gmail.com,,,Magicbricks,Call back on 11th July after 12pm to Schedule the S.V.,Warm,,gowthami@knsgroup.in,gowthami@knsgroup.in
Unnati Phase - 1,NA,9141554600,praveen6898@gmail.com,,,Magicbricks,Client will revert back,Warm,,gowthami@knsgroup.in,gowthami@knsgroup.in
Unnati Phase - 1,Chethan,8743984750,,,,Deccan herald,Client will revert back,Warm,,gowthami@knsgroup.in,gowthami@knsgroup.in
Unnati Phase - 1,Gayathri,9844184223,karthik.shivaprakasam@gmail.com,,,Magicbricks,Client will try to visit the plot by next weeek(18th July),Warm,,gowthami@knsgroup.in,gowthami@knsgroup.in
Unnati Phase - 1,Suma,9845330134,harishsundararaju@gmail.com,,,Times Property,STM to provide more details about Pricing,Warm,,gowthami@knsgroup.in,gowthami@knsgroup.in
Unnati Phase - 1,Giridhar,9448076468,,,,VijayaVani,Client will revert back if interested,Warm,,gowthami@knsgroup.in,gowthami@knsgroup.in
Unnati Phase - 1,Mohan,9886097337,,,,VK,"Interested in BDA Projects, STM to provide more details",Warm,,gowthami@knsgroup.in,gowthami@knsgroup.in
Unnati Phase - 1,Gangaraju n,9743080338,nithinrajkuruba@gmail.com,,,Magicbricks,No Response,Warm,,gowthami@knsgroup.in,gowthami@knsgroup.in
Unnati Phase - 1,Vijay,8951660618,,,,VijayaVani,STM no shared. Client needs more details on Pricing part,Warm,,gowthami@knsgroup.in,gowthami@knsgroup.in
Anirvan Phase - 1,Raikar/Poonam,7795203562,,,,VijayaVani,STM to provide more details about Availability list ,Warm,,gowthami@knsgroup.in,gowthami@knsgroup.in
Unnati Phase - 1,Prashanth,9845483092,,,,TOI,"Client will try to visit the project on 12th July, STM No. shared(Avin)",Warm,,gowthami@knsgroup.in,gowthami@knsgroup.in
Unnati Phase - 1,Ramachandra,9886525892,,,,TOI,Interested  in unnati  call on monday,Warm,,gowthami@knsgroup.in,gowthami@knsgroup.in
Unnati Phase - 1,Murali,9448248163,,,,Paper Insertion,Interested in unnati,Warm,,gowthami@knsgroup.in,gowthami@knsgroup.in
Unnati Phase - 1,Ramesh,9743607658,,,,VijayaVani,"Intersted in unnati, He will revert back @12.30",Warm,,gowthami@knsgroup.in,gowthami@knsgroup.in
Unnati Phase - 1,Sendil,9480617821,,,,Kannada Prabha,"Already Visited, STM to provide more details about the project",Warm,,gowthami@knsgroup.in,gowthami@knsgroup.in
Unnati Phase - 1,Vipin,9845596166,rs.pradeep77@gmail.com,,,Magicbricks,Call after 6:30pm,Warm,,gowthami@knsgroup.in,gowthami@knsgroup.in
Anirvan Phase - 1,Thyagaraju,9663328328,srivatsa.p@gmail.com,,,Website,Call back on 14th July,Warm,,gowthami@knsgroup.in,gowthami@knsgroup.in
Anirvan Phase - 1,Devanand,9980139460,sandeepgopalrao@gmail.com,,,Magicbricks,Client will revert back,Warm,,gowthami@knsgroup.in,gowthami@knsgroup.in
Unnati Phase - 1,Durga ,9743356455,,,,TOI,Client will try to visit the site by next weekend(17th July)/25th july S.V.,Warm,,gowthami@knsgroup.in,gowthami@knsgroup.in
Unnati Phase - 1,Dayananda,9845197196,yugandhar.tmn@gmail.com,,,Website,"Details mailed, Call back to Schedule the S.V.",Warm,,gowthami@knsgroup.in,gowthami@knsgroup.in
Unnati Phase - 1,Robi,9448273560,,,,Paper Insertion,"Needed 10 plots, STM to provide information",Warm,,gowthami@knsgroup.in,gowthami@knsgroup.in
Unnati Phase - 1,Naveen kumar,9980627674,dhanraj.dp@gmail.com,,,Hdfc Red,Call back on 25th July to Schedule the S.V.,Warm,,gowthami@knsgroup.in,gowthami@knsgroup.in
KNS Aroha,Bharath,9019209858,dearamitesh4u@gmail.com,,,Hdfc Red,"Details mailed, Interested in Sarjapur Project",Warm,,gowthami@knsgroup.in,gowthami@knsgroup.in
Unnati Phase - 1,Bharath ,9705502845,rao_narapogu@yahoo.co.in,,,Website,Call back after 6;30pm,Warm,,gowthami@knsgroup.in,gowthami@knsgroup.in
Unnati Phase - 1,Amruth /Raghupathy,9986698933,,,,Website,Call back on 19th July,Warm,,gowthami@knsgroup.in,gowthami@knsgroup.in
Anirvan Phase - 1,Raghu ,9036798823,bhargavi2325@gmail.com,,,Magicbricks,Client will revert back,Warm,,gowthami@knsgroup.in,gowthami@knsgroup.in
Unnati Phase - 1,SridharMK,9886742186,maildipankar@gmail.com,,,Website,Client will revert back at the time of S.V,Warm,,gowthami@knsgroup.in,gowthami@knsgroup.in
Unnati Phase - 1,Amruth,8028482241,,,,VK,STM to provide more details about the project/Client will revert back,Warm,,gowthami@knsgroup.in,gowthami@knsgroup.in
Unnati Phase - 1,Rohit,9740119977,,,,Prajavani,Call back on 20th July,Warm,,gowthami@knsgroup.in,gowthami@knsgroup.in
Unnati Phase - 1,Lalitha,9972736692,,,,Prajavani,Client will revert back,Warm,,gowthami@knsgroup.in,gowthami@knsgroup.in
Anirvan Phase - 1,Bhushan,9880548422,,,,VK,Client will revert back,Warm,,gowthami@knsgroup.in,gowthami@knsgroup.in
Unnati Phase - 1,Ranganath,9845123526,,,,VK,Client will revert back,Warm,,gowthami@knsgroup.in,gowthami@knsgroup.in
Unnati Phase - 1,Ravi,9902383778,,,,Prajavani,Client will try to visit the site ,Warm,,gowthami@knsgroup.in,gowthami@knsgroup.in
Unnati Phase - 1,Ajay,8725099661,,,,Prajavani,"Resides in Nagawara, Client will try to visit the plot by next week",Warm,,gowthami@knsgroup.in,gowthami@knsgroup.in
Unnati Phase - 1,Cherian,9741126606,,,,VK,"S.V. Scheduled on 25th July, Pick up from Girinagar",Warm,,gowthami@knsgroup.in,gowthami@knsgroup.in
Unnati Phase - 1,Aditi ,8904645177,,,,Website,"STM to provide more details about the availability, Profession:-IBM",Warm,,gowthami@knsgroup.in,gowthami@knsgroup.in
Unnati Phase - 1,Seetha lakshmi,9900104007,,,,Paper Insertion,Client will try to visit the plot shortly,Warm,,gowthami@knsgroup.in,gowthami@knsgroup.in
Unnati Phase - 1,Srihari,9741089561,ankurkhanna1012@gmail.com,,,Website,Call back after 6 pm,Warm,,gowthami@knsgroup.in,gowthami@knsgroup.in
Anirvan Phase - 1,Raghavendra,9880199405,renuka.kb2014@gmail.com,,,Magicbricks,Call back tomorrow after 6 pm,Warm,,gowthami@knsgroup.in,gowthami@knsgroup.in
Anirvan Phase - 1,Mukul ,8197292522,chethan05@gmail.com,,,Addwords,Details mailed Call back on 3rd Aug. to schedule visit client is out of town ,Warm,,gowthami@knsgroup.in,gowthami@knsgroup.in
Unnati Phase - 1,Seena,9591285258,deepapawar89@gmail.com,,,India Property,Call back on 22nd July at 10am,Warm,,gowthami@knsgroup.in,gowthami@knsgroup.in
Unnati Phase - 1,Chandru,9844736853,dassrihari@gmail.com,,,India Property,Call back to Schedule the S.V./RNR,Warm,,gowthami@knsgroup.in,gowthami@knsgroup.in
Unnati Phase - 1,Sreehari,8105239155,shalini.shashidhara@gmail.com,,,India Property,Client needs to discuss with her father and revert back,Warm,,gowthami@knsgroup.in,gowthami@knsgroup.in
Unnati Phase - 1,Aby,9879556664,hirenghughu12@gmail.com,,,India Property,Client will revert back,Warm,,gowthami@knsgroup.in,gowthami@knsgroup.in
Unnati Phase - 1,Ravisha kunte,8904739748,shabeena_parvin@yahoo.com,,,India Property,Client will revert back,Warm,,gowthami@knsgroup.in,gowthami@knsgroup.in
Unnati Phase - 1,shiva ,9845704078,nambiarkpgokulam@yahoo.com,,,Addwords,Details mailed client will revert back ,Warm,,gowthami@knsgroup.in,gowthami@knsgroup.in
KNS Aroha,Latha,9632612612,chandru.gupta@gmail.com,,,Magicbricks,"Interested in Aroha project, STM to provide pricing details",Warm,,gowthami@knsgroup.in,gowthami@knsgroup.in
KNS Aroha,Nagaraju,9900988833,prasad.sjr@gmail.com,,,Magicbricks,Looking near Sarjapur Road,Warm,,gowthami@knsgroup.in,gowthami@knsgroup.in
Unnati Phase - 1,Manohar bobde b v,9986392750,nisarga.latha@gmail.com,,,Magicbricks,Client will be coming to bangalore next week & Visit/will visit after ashada,Warm,,gowthami@knsgroup.in,gowthami@knsgroup.in
Unnati Phase - 1,Prabhu,9632220534,swaroopdg@gmail.com,,,SMS Blast,Details mailed call back  ,Warm,,gowthami@knsgroup.in,gowthami@knsgroup.in
Unnati Phase - 1,Prasad,9916231512,mandeepmanu03@gmail.com,,,Website,Has planned to purchase the plots after 3 months,Warm,,gowthami@knsgroup.in,gowthami@knsgroup.in
Unnati Phase - 1,Revanna,7676778376,,,,VK,Need more details on pricing and location,Warm,,gowthami@knsgroup.in,gowthami@knsgroup.in
Unnati Phase - 1,Prasad,9535037322,nikitadawar1990@gmail.com,,,Magicbricks,Planning to purchase in december. Client will revert back,Warm,,gowthami@knsgroup.in,gowthami@knsgroup.in
Unnati Phase - 1,mkl Narayan,8152088811,manoharbobde@yahoo.com,,,Magicbricks,Client will try to visit the plot once he is free,Warm,,gowthami@knsgroup.in,gowthami@knsgroup.in
Unnati Phase - 1,Shashidhar,8867383598,,,,VijayaVani,Call back to Schedule the S.V.,Warm,,gowthami@knsgroup.in,gowthami@knsgroup.in
Unnati Phase - 1,Jayatheertha,9972440571,,,,VijayaVani,Client will try to visit the site by 25/26th July.,Warm,,gowthami@knsgroup.in,gowthami@knsgroup.in
Unnati Phase - 1,Raghavendra,9886671104,,,,VijayaVani,STM no shared. Client needs more details on Location,Warm,,gowthami@knsgroup.in,gowthami@knsgroup.in
Unnati Phase - 1,Vijayendra,9972837709, mklnarayan@gmail.com,,,India Property,STM to provide more details about the project,Warm,,gowthami@knsgroup.in,gowthami@knsgroup.in
Unnati Phase - 1,VinodKumar,9986495468,,,,99 Acres,Call back on Sat(1st Aug) to Scheduled the S.V.,Warm,,gowthami@knsgroup.in,gowthami@knsgroup.in
Unnati Phase - 1,Santosh,9986236023,,,,Paper Insertion,Client will revert back,Warm,,gowthami@knsgroup.in,gowthami@knsgroup.in
Unnati Phase - 1,Kumar,9880657594,jayatheertha@gmail.com,,,Magicbricks,Client will revert back,Warm,,gowthami@knsgroup.in,gowthami@knsgroup.in
Unnati Phase - 1,NA,9343973205,,,,Paper Insertion,"Client will revert back, Call back next week to schedule the S.v.",Warm,,gowthami@knsgroup.in,gowthami@knsgroup.in
Unnati Phase - 1,SithaRam,8023399839,,,,Paper Insertion,Call back next Sat(1st Aug) to Schedule the S.V.,Warm,,gowthami@knsgroup.in,gowthami@knsgroup.in
Unnati Phase - 1,Nagaraju,9986103329,,,,Kannada Prabha,Call back on 31st July to Schedule the S.v. on 1st Aug.,Warm,,gowthami@knsgroup.in,gowthami@knsgroup.in
Unnati Phase - 1,Arjun ,9241376951,drns06@yahoo.co.in,,,India Property,Call back on Friday(31st July) to Schedule the S.V.,Warm,,gowthami@knsgroup.in,gowthami@knsgroup.in
KNS Anagha,NA,8105011647,sumi.vels@gmail.com,,,India Property,Call disconnecting/RNR,Warm,,gowthami@knsgroup.in,gowthami@knsgroup.in
Unnati Phase - 1,Venkatesh ,9535333923,nageshna59@gmail.com,,,India Property,Call diverted,Warm,,gowthami@knsgroup.in,gowthami@knsgroup.in
Unnati Phase - 1,Manoj kumar ,9986044546,Benu.bansal@yahoo.co.in,,,India Property,Client will revert  back,Warm,,gowthami@knsgroup.in,gowthami@knsgroup.in
Unnati Phase - 1,Mrs Pallavi  Vinay Kumar,9036000466,amitkumarsingh85@gmail.com,,,India Property,Concerned person is not available,Warm,,gowthami@knsgroup.in,gowthami@knsgroup.in
Unnati Phase - 1,NA,8722062198,mahadev4@yahoo.com,,,Website,"Details mailed, Client will revert back",Warm,,gowthami@knsgroup.in,gowthami@knsgroup.in
KNS Aroha,Purushotham,9740020813,kaushal.fr@gmail.com,,,India Property,"Details mailed, Interested in Aroha Project",Warm,,gowthami@knsgroup.in,gowthami@knsgroup.in
Unnati Phase - 1,NA,9845739059,,,,Emailer Campaign,Call back next week he will be out of town for a week,Warm,,gowthami@knsgroup.in,gowthami@knsgroup.in
Anirvan Phase - 1,Naresh,8049336458,,,,Emailer Campaign,Client will revert back,Warm,,gowthami@knsgroup.in,gowthami@knsgroup.in
Unnati Phase - 1,Kamala,9845458576,,,,Emailer Campaign,Client will revert back,Warm,,gowthami@knsgroup.in,gowthami@knsgroup.in
Unnati Phase - 1,prakash,9980551592,,,,Emailer Campaign,Client will revert back at the time of visiting the project,Warm,,gowthami@knsgroup.in,gowthami@knsgroup.in
Unnati Phase - 1,Divya,9686446956,,,,Emailer Campaign,client will revert back when he comes to bangalore,Warm,,gowthami@knsgroup.in,gowthami@knsgroup.in
Unnati Phase - 1,Abhi,9886817117,g.or.manjula@gmail.com,,,Emailer Campaign,Details mailed call back on friday,Warm,,gowthami@knsgroup.in,gowthami@knsgroup.in
Unnati Phase - 1,NA,9986546243,diyageo@gmail.com,,,Addwords,No Response,Warm,,gowthami@knsgroup.in,gowthami@knsgroup.in
Unnati Phase - 1,Vijay Kumar R,8553045057,dinakar.venkatesh@federalmogul.com,,,Emailer Campaign,No Response,Warm,,gowthami@knsgroup.in,gowthami@knsgroup.in
Unnati Phase - 1,Gayasri d,8861005338,,,,Emailer Campaign,S.V scheduled next Saturday call back on Friday,Warm,,gowthami@knsgroup.in,gowthami@knsgroup.in
Unnati Phase - 1,Ashwin,8067121342,,,,Emailer Campaign,STM to call back,Warm,,gowthami@knsgroup.in,gowthami@knsgroup.in
Unnati Phase - 1,Loganathan,9886652726,,,,Emailer Campaign,"Client will be back to bangalore on Aug, Call back to Schedule the S.V.",Warm,,gowthami@knsgroup.in,gowthami@knsgroup.in
Unnati Phase - 1,Kiran,9740223849,vinay.rag.hs@gmail.com,,,Hdfc Red,"Client will be back to blore after 15 days and revert back., resides in nagarwara",Warm,,gowthami@knsgroup.in,gowthami@knsgroup.in
Unnati Phase - 1,Vijaya n,7406226436,sajujanardhanan@gmail.com,,,Hdfc Red,Client will revert back,Warm,,gowthami@knsgroup.in,gowthami@knsgroup.in
Unnati Phase - 1,Jitendra kumar sinha,9980434063,jay_adhikari@yahoo.com,,,Hdfc Red,Client will revert back,Warm,,gowthami@knsgroup.in,gowthami@knsgroup.in
Unnati Phase - 1,Vinod,8105441913,nirupama6@gmail.com,,,Hdfc Red,Client will revert back,Warm,,gowthami@knsgroup.in,gowthami@knsgroup.in
Unnati Phase - 1,Srinivas,8884455342,,,,Paper Insertion,client will revert back,Warm,,gowthami@knsgroup.in,gowthami@knsgroup.in
Unnati Phase - 1,Guru ,8885549001,anilchandankeri@hotmail.com,,,Hdfc Red,"Details mailed, client will revert back",Warm,,gowthami@knsgroup.in,gowthami@knsgroup.in
Unnati Phase - 1,Archana,9870687176,raghavbilwar@gmail.com,,,Hdfc Red,"Details mailed, stm to more provide more details looking for east facing",Warm,,gowthami@knsgroup.in,gowthami@knsgroup.in
KNS Aroha,Lakshminarayana,8884951234,tarunkumarbisht@gmail.com,,,Hdfc Red,Interested in aroha,Warm,,gowthami@knsgroup.in,gowthami@knsgroup.in
KNS Aroha,Eswaran,9886079201,pcl.nath@gmail.com,,,Hdfc Red,Interested in aroha,Warm,,gowthami@knsgroup.in,gowthami@knsgroup.in
KNS Aroha,Nachiketha,9986763465,krevankar@gmail.com,,,Hdfc Red,Interested in aroha,Warm,,gowthami@knsgroup.in,gowthami@knsgroup.in
Unnati Phase - 1,Abhishek chatterjee,9972372225,skvinu22@gmail.com,,,Hdfc Red,"Resides in basaweswarnagar, details mailed, client will revert back",Warm,,gowthami@knsgroup.in,gowthami@knsgroup.in
Unnati Phase - 1,Mohan kumar,9538181139,arrguru@gmail.com,,,India Property,Call back on 1st Aug to Schedule at 2pmto Schedule the S.V.,Warm,,gowthami@knsgroup.in,gowthami@knsgroup.in
Unnati Phase - 1,Mahesh,9986276502,archanakalligudd@gmail.com,,,Hdfc Red,Details Mailed call back next week,Warm,,gowthami@knsgroup.in,gowthami@knsgroup.in
Unnati Phase - 1,Mani,9916353883,narayana.m18@gmail.com,,,India Property,"Details mailed, Call back on Monday(3rd Aug)",Warm,,gowthami@knsgroup.in,gowthami@knsgroup.in
KNS Aroha,Sudhindra Road,9742754618,eswarkishor@gmail.com,,,India Property,Interested  in Aroha,Warm,,gowthami@knsgroup.in,gowthami@knsgroup.in
Unnati Phase - 1,Dinesh,9945108364,,,,VK,Call back on 2nd Aug to Schedule the S.V.,Warm,,gowthami@knsgroup.in,gowthami@knsgroup.in
Unnati Phase - 1,Raj ranjan behura,9066827269,,,,VK,Client will revert back,Warm,,gowthami@knsgroup.in,gowthami@knsgroup.in
Anirvan Phase - 1,Chakra,9886068478,,,,VK,Client will revert back,Warm,,gowthami@knsgroup.in,gowthami@knsgroup.in
Unnati Phase - 1,Saravanan,9448620057,,,,VK,Client will revert back,Warm,,gowthami@knsgroup.in,gowthami@knsgroup.in
Unnati Phase - 1,Lingamurthy,9739045277,,,,VijayaVani,Client will revert back at the time of S.V.,Warm,,gowthami@knsgroup.in,gowthami@knsgroup.in
Unnati Phase - 1,Muneiah,9449325046,,,,VK,Client will visit bangalore next week call back next friday,Warm,,gowthami@knsgroup.in,gowthami@knsgroup.in
Anirvan Phase - 1,Duraiswamy,9036028498,,,,VijayaVani,Client will visit the plot next weekend 9th aug call back on 8th aug,Warm,,gowthami@knsgroup.in,gowthami@knsgroup.in
Anirvan Phase - 1,Ramesh,8884580274,vision.2k5@gmail.com,,,Hdfc Red,Details mailed call back later,Warm,,gowthami@knsgroup.in,gowthami@knsgroup.in
Anirvan Phase - 1,Nadaf,8088696405,tmraj7@yahoo.co.in,,,Hdfc Red,Details mailed call back on wednesday,Warm,,gowthami@knsgroup.in,gowthami@knsgroup.in
Unnati Phase - 1,Prakash,7411119636,mahesh.bl.mech@gmail.com,,,Magicbricks,"Details mailed, Client will revert back",Warm,,gowthami@knsgroup.in,gowthami@knsgroup.in
Unnati Phase - 1,Pavan,9972584596,,,,VK,"S.V. Scheduled on 8th Aug, Self Drive",Warm,,gowthami@knsgroup.in,gowthami@knsgroup.in
Unnati Phase - 1,Kiran,9740027619,,,,VK,STM no. shared( Avin) for S.V. ,Warm,,gowthami@knsgroup.in,gowthami@knsgroup.in
Unnati Phase - 1,Rajashree S Kulkarni ,8023405894,,,,VK,STM to provide pricing detail,Warm,,gowthami@knsgroup.in,gowthami@knsgroup.in
Unnati Phase - 1,babesh bhaskar,9632697008,manjubnayak@gmail.com,,,Website,Needs details on pricing,Warm,,gowthami@knsgroup.in,gowthami@knsgroup.in
Unnati Phase - 1,Tapan Das,9731164964,,,,VK,"Resides in kengeri, he will revert back",Warm,,gowthami@knsgroup.in,gowthami@knsgroup.in
Unnati Phase - 1,Vinay,9880966669,pear824@yahoo.com,,,Magicbricks,Client will revert back,Warm,,gowthami@knsgroup.in,gowthami@knsgroup.in
Unnati Phase - 1,Smita,9022293570,babeshb@hotmail.com,,,Addwords,Needs more project details,Warm,,gowthami@knsgroup.in,gowthami@knsgroup.in
Unnati Phase - 1,Gagandeep Singh,8331026472,ramu0541@gmail.com,,,Addwords,No Response,Warm,,gowthami@knsgroup.in,gowthami@knsgroup.in
Unnati Phase - 1,D.P.Jayant,9886634445,,,,VK,"Already Visited, Client is interested in 20*30(Anirvan), STm no. Shared( Mahesh)",Warm,,gowthami@knsgroup.in,gowthami@knsgroup.in
Unnati Phase - 1,S Gopalakrishnan,9791935960,,,,Emailer Campaign,Call back to Schedule the S.V,Warm,,gowthami@knsgroup.in,gowthami@knsgroup.in
Unnati Phase - 1,Mahadevswamy,9739904260,,,,Emailer Campaign,Call back to Schedule the S.V ,Warm,,gowthami@knsgroup.in,gowthami@knsgroup.in
Unnati Phase - 1,Basavaraja T ,9845821972,,,,Emailer Campaign,"Client is interested in bulk booking, Prabhakar Sir no. shared, Will be coming to office and meeting the sales Head",Warm,,gowthami@knsgroup.in,gowthami@knsgroup.in
Unnati Phase - 1,Ashok,9879868429,kulkarnanand@gmail.com,,,Emailer Campaign,"Client resides in Baroda & Working in Baroda also, STM to provide availabilty details",Warm,,gowthami@knsgroup.in,gowthami@knsgroup.in
Unnati Phase - 1,Naveen,9880601155,bhaskar78@gmail.com,,,Emailer Campaign,Client will be coming to KNS office and then visit the plot,Warm,,gowthami@knsgroup.in,gowthami@knsgroup.in
Unnati Phase - 1,Bharath,9886602653,gupta_neha1@yahoo.co.in,,,Emailer Campaign,"Details mailed, Client will revert back",Warm,,gowthami@knsgroup.in,gowthami@knsgroup.in
Unnati Phase - 1,Peter,7710898838,rsaravanan_eee@yahoo.co.in,,,Emailer Campaign,"Details mailed, Client will revert back",Warm,,gowthami@knsgroup.in,gowthami@knsgroup.in
Unnati Phase - 1,Sivakumar,9980982455,gskrish44@gmail.com,,,Emailer Campaign,"Details mailed, Client will revert back",Warm,,gowthami@knsgroup.in,gowthami@knsgroup.in
Unnati Phase - 1,Asha,9480929547,mswamy_68@yahoo.in,,,Emailer Campaign,"Details mailed, Client will revert back",Warm,,gowthami@knsgroup.in,gowthami@knsgroup.in
Unnati Phase - 1,aditya,9741831817,drshridhar07@gmail.com,,,Emailer Campaign,"Details mailed, Client will revert back",Warm,,gowthami@knsgroup.in,gowthami@knsgroup.in
Unnati Phase - 1,Nithin Kumar M C,9535683862,,,,Emailer Campaign,"Details mailed, Client will revert back, Interested in Archisa",Warm,,gowthami@knsgroup.in,gowthami@knsgroup.in
Unnati Phase - 1,Patil,9900039692,,,,Emailer Campaign,"Details mailed, Interested in Mysore Road And Aroha, S.V. this weekend",Warm,,gowthami@knsgroup.in,gowthami@knsgroup.in
Unnati Phase - 1,Saharsh,7799005577,bharathsd85@gmail.com,,,99 Acres,"Details mailed, STM to provide location detais,  Self Drive on 9th Aug",Warm,,gowthami@knsgroup.in,gowthami@knsgroup.in
Unnati Phase - 1,Paramesh,9845075155,peterjv26@gmail.com,,,Emailer Campaign,"Interested in Aroha, S.V. Scheduled next week",Warm,,gowthami@knsgroup.in,gowthami@knsgroup.in
Unnati Phase - 1,Ramesh Nadiger,9980072444,asha.mudragada@gmail.com,,,Emailer Campaign,"Need to discuss with her family, Call back to Schedule the S.V.",Warm,,gowthami@knsgroup.in,gowthami@knsgroup.in
Unnati Phase - 1,Prashant,9686690061,reddy.purushottam@gmail.com,,,Emailer Campaign,S.V. Completed,Warm,,gowthami@knsgroup.in,gowthami@knsgroup.in
Unnati Phase - 1,Santhosh,9945722997,,,,Emailer Campaign,STM to provide more details about pricing ( Santosh),Warm,,gowthami@knsgroup.in,gowthami@knsgroup.in
Unnati Phase - 1,Naveen.R.P,9986949782,mailmegoodies@gmail.com,,,99 Acres,Call back,Warm,,gowthami@knsgroup.in,gowthami@knsgroup.in
Unnati Phase - 1,Pavithra,9739098844,,,,99 Acres,Call on Saturday evening(8th Aug)  for S.V.,Warm,,gowthami@knsgroup.in,gowthami@knsgroup.in
Unnati Phase - 1,Bala,7411705739,,,,Emailer Campaign,client will revert back,Warm,,gowthami@knsgroup.in,gowthami@knsgroup.in
Unnati Phase - 1,Ravindran,9845368447,,,,99 Acres,Client will revert back,Warm,,gowthami@knsgroup.in,gowthami@knsgroup.in
Anirvan Phase - 1,Raj Kumar,7259289054,rsnandy@yahoo.com,,,Magicbricks,"Details mailed, Call back after 16th Aug to Schedule the S.V.",Warm,,gowthami@knsgroup.in,gowthami@knsgroup.in
Unnati Phase - 1,Deepak Raykar,9886499156,namratha.07ashtkar@gmail.com,,,99 Acres,"Details mailed, Client will revert back",Warm,,gowthami@knsgroup.in,gowthami@knsgroup.in
Unnati Phase - 1,Lisa benford,9986257999,,,,99 Acres,"Details mailed, Client will revert back",Warm,,gowthami@knsgroup.in,gowthami@knsgroup.in
Unnati Phase - 1,Anjali,7676944555,deepak_decor@yahoo.com,,,Magicbricks,"S.V. Scheduled on 9th Aug, Call back for Confirmation",Warm,,gowthami@knsgroup.in,gowthami@knsgroup.in
Unnati Phase - 1,Thomas,8183898269, prakashvip999@gmail.com,,,99 Acres,"Broker, STM to provide location details",Warm,,gowthami@knsgroup.in,gowthami@knsgroup.in
Unnati Phase - 1,Srinivas,8071199769,,,,99 Acres,Call back to Schedule the S.V.,Warm,,gowthami@knsgroup.in,gowthami@knsgroup.in
Unnati Phase - 1,Sheethal,8886964448,k.anandmurali@gmail.com,,,India Property,Client will be back to bangalore after 1 week and visit the site,Warm,,gowthami@knsgroup.in,gowthami@knsgroup.in
Unnati Phase - 1,Shekhar B S,9900159614,muralimk123@gmail.com,,,Magicbricks,Client will revert back,Warm,,gowthami@knsgroup.in,gowthami@knsgroup.in
Unnati Phase - 1,Balraj,9945557055,,,,Deccan herald,"Client will try to visit the plot by 9th Aug, Self Drive",Warm,,gowthami@knsgroup.in,gowthami@knsgroup.in
Unnati Phase - 1,Sowbagya,9731151862,,,,VK,Call back to schedule the S.V for Archisa Project,Warm,,gowthami@knsgroup.in,gowthami@knsgroup.in
Unnati Phase - 1,Jeone,9008828695,,,,VK,Call back to schedule the S.V.,Warm,,gowthami@knsgroup.in,gowthami@knsgroup.in
Unnati Phase - 1,Sreenivas,7795373775,,,,VK,Client is on the way to site,Warm,,gowthami@knsgroup.in,gowthami@knsgroup.in
Unnati Phase - 1,NA,9482500890,,,,VK,Client will revert back at the time of S.V.,Warm,,gowthami@knsgroup.in,gowthami@knsgroup.in
Unnati Phase - 1,Ranganath,9886438025,business.rizwan.khan@gmail.com,,,Magicbricks,"Details mailed, Client will revert back",Warm,,gowthami@knsgroup.in,gowthami@knsgroup.in
Unnati Phase - 1,Siddalingappa,9980559735,,,,Paper Insertion,"S.V. Scheduled on 8th Aug, Self Drive",Warm,,gowthami@knsgroup.in,gowthami@knsgroup.in
Unnati Phase - 1,Guru,9900123376,,,,Paper Insertion,Call back in month end,Warm,,gowthami@knsgroup.in,gowthami@knsgroup.in
Unnati Phase - 1,Vinay,9845269876,,,,VK,Call back to Schedule the S.V,Warm,,gowthami@knsgroup.in,gowthami@knsgroup.in
Unnati Phase - 1,Manoj,8277025492,,,,Paper Insertion,Call back to Schedule the S.V.,Warm,,gowthami@knsgroup.in,gowthami@knsgroup.in
Unnati Phase - 1,Yogesh,9620044749,,,,VK,Client will revert back,Warm,,gowthami@knsgroup.in,gowthami@knsgroup.in
Unnati Phase - 1,Rao,9663215009,,,,Paper Insertion,Client will revert back before S.V,Warm,,gowthami@knsgroup.in,gowthami@knsgroup.in
Unnati Phase - 1,Shankar,9986659177,,,,VK,Client will revert back before visiting the site,Warm,,gowthami@knsgroup.in,gowthami@knsgroup.in
Unnati Phase - 1,Krishnappa,8039520916,,,,VK,Client will revertback,Warm,,gowthami@knsgroup.in,gowthami@knsgroup.in
Unnati Phase - 1,Madhu,9901001437,,,,VK,Client will try to visit the site by self drive,Warm,,gowthami@knsgroup.in,gowthami@knsgroup.in
Unnati Phase - 1,Neelakanta,9620586858,,,,VK,Client will try to visit the site next week(15th Aug),Warm,,gowthami@knsgroup.in,gowthami@knsgroup.in
Unnati Phase - 1,Girish,8971555356,,,,VK,Client will try to visit the site on 15th Aug,Warm,,gowthami@knsgroup.in,gowthami@knsgroup.in
Unnati Phase - 1,Chandregowda,9740800037,,,,VK,Client will try to visit the site shortly,Warm,,gowthami@knsgroup.in,gowthami@knsgroup.in
Unnati Phase - 1,Mahadesh,9886031107,,,,VK,Client will visit the project today/tomorrow,Warm,,gowthami@knsgroup.in,gowthami@knsgroup.in
Unnati Phase - 1,Namatha,9901204856,shivanand.bu@gmail.com,,,Paper Insertion,deatiles mailed sv schedule on 15 th august ,Warm,,gowthami@knsgroup.in,gowthami@knsgroup.in
Unnati Phase - 1,Raghav Rao,9742047744,,,,VK,"Details need to be mailed, Client will revert back",Warm,,gowthami@knsgroup.in,gowthami@knsgroup.in
Unnati Phase - 1,Basavaraj,8041511371,,,,VK,"Interested in Archisa, Call back on 12th Aug to Schedule the S.V.",Warm,,gowthami@knsgroup.in,gowthami@knsgroup.in
Unnati Phase - 1,Praveen,9972045751,,,,VK,"Resides in Jaynagar, He will revert back",Warm,,gowthami@knsgroup.in,gowthami@knsgroup.in
Unnati Phase - 1,Nataraj,9663203958,,,,VK,S.v Scheduled on 9th Aug call back  to confirm,Warm,,gowthami@knsgroup.in,gowthami@knsgroup.in
Unnati Phase - 1,Kiran,7259283330,,,,VK,S.V. Completed,Warm,,gowthami@knsgroup.in,gowthami@knsgroup.in
Unnati Phase - 1,Balaji Sharma,9845432089,,,,VK,"S.v. Scheduled on 9th Aug, Self Drive",Warm,,gowthami@knsgroup.in,gowthami@knsgroup.in
Unnati Phase - 1,Vinay,9901077900,,,,Paper Insertion,STM no. has been provided(Avin),Warm,,gowthami@knsgroup.in,gowthami@knsgroup.in
Unnati Phase - 1,Chetan,8139944444,,,,VK,STM to provide location details,Warm,,gowthami@knsgroup.in,gowthami@knsgroup.in
Unnati Phase - 1,Ramesh,9611347191,,,,VK,STM to provide location details,Warm,,gowthami@knsgroup.in,gowthami@knsgroup.in
Unnati Phase - 1,Mahesh n l ,9986586791,rameshrajubn@gmail.com,,,Magicbricks,Call back on 14th Aug to Schedule the S.V.,Warm,,gowthami@knsgroup.in,gowthami@knsgroup.in
Unnati Phase - 1,Jayachanadra ,9886890937,vishwanath.9997@gmail.com,,,Addwords,Call back to Schedule the S.V,Warm,,gowthami@knsgroup.in,gowthami@knsgroup.in
Unnati Phase - 1,Sakthivel ,9845662773,vm.kiran26@gmail.com,,,Addwords,Call back to Schedule the S.V,Warm,,gowthami@knsgroup.in,gowthami@knsgroup.in
Unnati Phase - 1,Rajesh A G ,9686168430,vineethcv5@gmail.com,,,India Property,Client will revert back,Warm,,gowthami@knsgroup.in,gowthami@knsgroup.in
Unnati Phase - 1,Ramesh,9886257575,sharakavi@gmail.com,,,India Property,"Details mailed, Interested in Unnati, Call back to Schedule the S.V.",Warm,,gowthami@knsgroup.in,gowthami@knsgroup.in
Unnati Phase - 1,Subbarayudu,9900055514,balajifos@gmail.com,,,99 Acres,"Details mailed, STM to provide details about negotiation",Warm,,gowthami@knsgroup.in,gowthami@knsgroup.in
Unnati Phase - 1,Oliver kevin,9035444178,agrajesh07@gmail.com,,,India Property,STM to share more details,Warm,,gowthami@knsgroup.in,gowthami@knsgroup.in
Unnati Phase - 1,Purush,9880786107,,,,Website,Call back on Friday evening to Schedule the S.V.,Warm,,gowthami@knsgroup.in,gowthami@knsgroup.in
Anirvan Phase - 1,Satish,8806999865,,,,Existing Client,Client will be coming to bangalore by Aug Month end..,Warm,,gowthami@knsgroup.in,gowthami@knsgroup.in
Unnati Phase - 1,KRISHNA,9886263575,charles_2peter@yahoo.com,,,Addwords,Client will revert back by 11th Aug Evening for S.V.,Warm,,gowthami@knsgroup.in,gowthami@knsgroup.in
Unnati Phase - 1,Sandeep sharma,9845284589,yogananda.arch@gmail.com,,,Emailer Campaign,"Client needs 20*30, STM to availabilty details",Warm,,gowthami@knsgroup.in,gowthami@knsgroup.in
Unnati Phase - 1,Subrat kumar das,9986104981,sonyanto32@gmail.com,,,Hdfc Red,"Detaila mailed, S.V. Scheduled on 15th Aug(Sat)",Warm,,gowthami@knsgroup.in,gowthami@knsgroup.in
Unnati Phase - 1,Rksingh ,8041594582,rksm3802@gmail.com,,,Emailer Campaign,"Details mailed, Client will revert back.",Warm,,gowthami@knsgroup.in,gowthami@knsgroup.in
Unnati Phase - 1,Gopinath ,9449084522,,,,Emailer Campaign,"Looking for investment purpose, Client will revert back.",Warm,,gowthami@knsgroup.in,gowthami@knsgroup.in
KNS Anagha,Yusuf,8105988372, rddymsr@gmail.com,,,Addwords,"STM to provide more details about negotiation, Interested in Anagha",Warm,,gowthami@knsgroup.in,gowthami@knsgroup.in
Unnati Phase - 1,Srinesh BP,8722259874,0426abhishek@gmail.com,,,Hdfc Red,Call back on Saturday.  Details mailed,Warm,,gowthami@knsgroup.in,gowthami@knsgroup.in
Unnati Phase - 1,Anup Patel,9448382350,,,,Expo,Call back on 17th Aug,Warm,,gowthami@knsgroup.in,gowthami@knsgroup.in
Unnati Phase - 1,R Kumar,9611929020,kirthikumar.salunke@gmail.com,,,Expo,Call back on 17th Aug,Warm,,gowthami@knsgroup.in,gowthami@knsgroup.in
Unnati Phase - 1,Jyotirmoy dey,9663968007,chand.jagga@gmail.com,,,Expo,Call back on Friday to Schedule the S.V.,Warm,,gowthami@knsgroup.in,gowthami@knsgroup.in
Unnati Phase - 1,Rajeshwari,9620253971,Richa.shree02@gmail.com,,,India Property,"Client is interested in Unnati, STM to provide more details about the prohject",Warm,,gowthami@knsgroup.in,gowthami@knsgroup.in
Unnati Phase - 1,Nazir,7353770666,,,,VK,Client will revert back,Warm,,gowthami@knsgroup.in,gowthami@knsgroup.in
Unnati Phase - 1,Prakash,9538966002,cvr_murty@yahoo.co.in,,,Hdfc Red,Client will revert back,Warm,,gowthami@knsgroup.in,gowthami@knsgroup.in
Unnati Phase - 1,Naveen,9741779979,anoopnpatel@yahoo.com,,,VK,"Details mailed, Client will revert back",Warm,,gowthami@knsgroup.in,gowthami@knsgroup.in
Unnati Phase - 1,Shantappa wali,8050000265,dilip.vishwakarma10@gmail.com,,,99 Acres,Call back on Wednesday. Interested in BDA,Warm,,gowthami@knsgroup.in,gowthami@knsgroup.in
Unnati Phase - 1,Supriya Karkra,9449534792,hebsur.krishna@gmail.com,,,Website,needs more details on pricing and location,Warm,,gowthami@knsgroup.in,gowthami@knsgroup.in
Unnati Phase - 1,Gangeiah,9164653389,Sambrambs@gmail.com,,,99 Acres,SV Scheduled on Saturday 22/8/2015 Call back on Friday,Warm,,gowthami@knsgroup.in,gowthami@knsgroup.in
Unnati Phase - 1,Pramod,9844955013,,,,99 Acres,Call back to Schedule the S.V.,Warm,,gowthami@knsgroup.in,gowthami@knsgroup.in
Unnati Phase - 1,Neha Singh,8050667945,raj.241288@gmail.com,,,Hdfc Red,Client will revert back,Warm,,gowthami@knsgroup.in,gowthami@knsgroup.in
Unnati Phase - 1,Mohan Kumar K,9643006269,,,,Website,STM to provide more details on Availability,Warm,,gowthami@knsgroup.in,gowthami@knsgroup.in
Unnati Phase - 1,Prasad Gs,080-25542316,,,,Expo,"Call back on 21st Aug, Client will be back to Bangalore",Warm,,gowthami@knsgroup.in,gowthami@knsgroup.in
Unnati Phase - 1,Ah Kinder,9591250020,nagarajumg123@gmail.com,,,Magicbricks,"Call back to Schedule the S.V., Interested in Unnati",Warm,,gowthami@knsgroup.in,gowthami@knsgroup.in
Unnati Phase - 1,Vijay,9620722446,sachin.shenoy@hotmail.com,,,Expo,"Details mailed, Client will revert back if interested",Warm,,gowthami@knsgroup.in,gowthami@knsgroup.in
Unnati Phase - 1,Ravi Y.T,9620818882,hanuman.kedia@gmail.com,,,Expo,"Details mailed, Client will revert back if interested",Warm,,gowthami@knsgroup.in,gowthami@knsgroup.in
Unnati Phase - 1,Abhiuiov P,9900093732,mhnkumarkannan@gmail.com,,,Expo,"Details mailed, Client wll revert back if interested",Warm,,gowthami@knsgroup.in,gowthami@knsgroup.in
Unnati Phase - 1,Mukesh,9440295874,venkateshbabu_amd@yahoo.co.in,,,Addwords,"Details mailed, Client is working in Andhra(Kadapa District), Interested in Sarjapur Project.. Looking plots for his son",Warm,,gowthami@knsgroup.in,gowthami@knsgroup.in
Unnati Phase - 1,Raghunandan,9001246111,avishek.sanudgp@gmail.com,,,Addwords,"Details mailed, Client will coming to bangalore after 3-4 months",Warm,,gowthami@knsgroup.in,gowthami@knsgroup.in
Unnati Phase - 1,Shweta,9740954111,cheenu.g@gmail.com,,,Magicbricks,Call back after 6pm,Warm,,gowthami@knsgroup.in,gowthami@knsgroup.in
Unnati Phase - 1,Jayesh,8952006669,deepak.jayakumar@hotmail.com,,,Expo,Details mailed for Aroha,Warm,,gowthami@knsgroup.in,gowthami@knsgroup.in
Unnati Phase - 1,Bhanuprasad,8026643442,varshaa939@gmail.com,,,Expo,"Details mailed, Client will revert back",Warm,,gowthami@knsgroup.in,gowthami@knsgroup.in
Unnati Phase - 1,manjanna,9845020206,sheraghu@gmail.com,,,Expo,"Details mailed, Looking for investment ",Warm,,gowthami@knsgroup.in,gowthami@knsgroup.in
Unnati Phase - 1,Naveen,9493253794,prasannavg22@gmail.com,,,India Property,Call back on 28th Aug to Schedule the S.V.,Warm,,gowthami@knsgroup.in,gowthami@knsgroup.in
Unnati Phase - 1,B C Patil,9448287485,,,,Emailer Campaign,Call back to Schedule the S.V.,Warm,,gowthami@knsgroup.in,gowthami@knsgroup.in
Unnati Phase - 1,M ANANTHA RAMAN,8939814950,kotreshym@gmail.com,,,Addwords,Client is in chenni coming to bangalore on september 5 ,Warm,,gowthami@knsgroup.in,gowthami@knsgroup.in
Unnati Phase - 1,Vijaykumar,9886202323,sridharsg@yahoo.com,,,Magicbricks,Client will revert back,Warm,,gowthami@knsgroup.in,gowthami@knsgroup.in
Unnati Phase - 1,Chethan,8066581500,,,,Emailer Campaign,Client will revert back,Warm,,gowthami@knsgroup.in,gowthami@knsgroup.in
Unnati Phase - 1,Jayaram,9900328417,sumakamalakar@rediffmail.com,,,India Property,Client will try to Schedule the 23rd Aug,Warm,,gowthami@knsgroup.in,gowthami@knsgroup.in
KNS Anagha,Soumya,6477397603,naveen.innovator@gmail.com,,,Emailer Campaign,"Details mailed, Client will revert back",Warm,,gowthami@knsgroup.in,gowthami@knsgroup.in
Unnati Phase - 1,Basavraj,8612303404,kncncs@gmail.com,,,Emailer Campaign,"Details mailed, Client will revert back",Warm,,gowthami@knsgroup.in,gowthami@knsgroup.in
Unnati Phase - 1,Manohar bobde B V,9739067359,basupatil.10@gmail.com,,,India Property,"Details mailed, Client will revert back",Warm,,gowthami@knsgroup.in,gowthami@knsgroup.in
Unnati Phase - 1,Divay,8152088811,manoharbobde@yahoo.com,,,Magicbricks,Call back after 6pm,Warm,,gowthami@knsgroup.in,gowthami@knsgroup.in
Unnati Phase - 1,Suresh,9448188832,,,,VijayaVani,Call back to Schedule the S.V. on 23rd Aug,Warm,,gowthami@knsgroup.in,gowthami@knsgroup.in
Unnati Phase - 1,Satish,9481964814,,,,VijayaVani,Client will revert back,Warm,,gowthami@knsgroup.in,gowthami@knsgroup.in
Unnati Phase - 1,Prashant Kumar,9449595661,,,,VijayaVani,Client will try to visit the site 29th Aug.,Warm,,gowthami@knsgroup.in,gowthami@knsgroup.in
Unnati Phase - 1,Nagaraj,9972121186,bsvenkpapu@yahoo.in,,,India Property,Call back after 2 days ,Warm,,gowthami@knsgroup.in,gowthami@knsgroup.in
KNS Archisa,Pratap ,9986013241,,,,VijayaVani,Call back on Wed(26th Aug) to Schedule the S.V.,Warm,,gowthami@knsgroup.in,gowthami@knsgroup.in
Unnati Phase - 1,Shankar,8023158811,,,,Reference,Client will revert back if interested,Warm,,gowthami@knsgroup.in,gowthami@knsgroup.in
Unnati Phase - 1,Jasbir,9739864452,,,,VijayaVani,Client will try to visit the site by 25th/26th Aug.,Warm,,gowthami@knsgroup.in,gowthami@knsgroup.in
Unnati Phase - 1,Praveen ,9448611665,,,,VijayaVani,Call back on Friday to Schedule the S.V.,Warm,,gowthami@knsgroup.in,gowthami@knsgroup.in
Unnati Phase - 1,S ganesh,9980369618,shankar_g_shankar@yahoo.com,,,Magicbricks,Call back to Schedule the S.V.,Warm,,gowthami@knsgroup.in,gowthami@knsgroup.in
Unnati Phase - 1,Bhargava,9845585157,jassi_blr@yahoo.com,,,Magicbricks,Call back to Schedule the S.V. on 29th Aug,Warm,,gowthami@knsgroup.in,gowthami@knsgroup.in
Unnati Phase - 1,Dilip ,9019150555,chethan555@gmail.com,,,Magicbricks,Client will revert back,Warm,,gowthami@knsgroup.in,gowthami@knsgroup.in
Unnati Phase - 1,Venuprasad,9980932648,,,,Reference,Client will revert back,Warm,,gowthami@knsgroup.in,gowthami@knsgroup.in
Unnati Phase - 1,ASHWINI JANAGAL,8105650687,dpreddyind@yahoo.co.in,,,99 Acres,Client will revert back,Warm,,gowthami@knsgroup.in,gowthami@knsgroup.in
Unnati Phase - 1,Khaleel,9902322558,nagarajreddy21@gmail.com,,,Magicbricks,details mailed call back,Warm,,gowthami@knsgroup.in,gowthami@knsgroup.in
Unnati Phase - 1,Raj kumar,9482043176, bhataggashi@yahoo.com,,,India Property,planning to purchase after 6 months,Warm,,gowthami@knsgroup.in,gowthami@knsgroup.in
Unnati Phase - 1,Krishna,9741708522,sundar.abbs@gmail.com,,,Magicbricks,Call back on 2nd Sept,Warm,,gowthami@knsgroup.in,gowthami@knsgroup.in
Unnati Phase - 1,Raghavendra,9538182710,mohammed.rizwan@indiainfoline.com,,,Magicbricks,Channel partner,Warm,,gowthami@knsgroup.in,gowthami@knsgroup.in
Unnati Phase - 1,Madan Kumar,9945460353,menaka.090509@gmail.com,,,Magicbricks,"Client is out of bangalore, Call back after 1st week of september",Warm,,gowthami@knsgroup.in,gowthami@knsgroup.in
Unnati Phase - 1,Babu,9008150085,kiran1.ckm@gmail.com,,,99 Acres,Client needs time to think about the project,Warm,,gowthami@knsgroup.in,gowthami@knsgroup.in
Unnati Phase - 1,Divesh,9986630118,sathyaksh@gmail.com,,,Magicbricks,Client will revert back,Warm,,gowthami@knsgroup.in,gowthami@knsgroup.in
Unnati Phase - 1,M Ramesh,9900925341,hv.gayatri@gmail.com,,,Magicbricks,Client will revert back,Warm,,gowthami@knsgroup.in,gowthami@knsgroup.in
Unnati Phase - 1,Mr Jayaprakash k,7569373813,abhishekrajmeena1995@gmail.com,,,Magicbricks,Client will revert back,Warm,,gowthami@knsgroup.in,gowthami@knsgroup.in
Unnati Phase - 1,Madhusudhan t k,9886315843,tajudeensk@gmail.com,,,Magicbricks,Client will revert back,Warm,,gowthami@knsgroup.in,gowthami@knsgroup.in
Unnati Phase - 1,Raghav,9741011700,bpsavi123@gmail.com,,,India Property,Client will revert back,Warm,,gowthami@knsgroup.in,gowthami@knsgroup.in
Unnati Phase - 1,Pampapathi K,9980338536,krishnaiah84@gmail.com,,,99 Acres,Client will revert back before visiting the site,Warm,,gowthami@knsgroup.in,gowthami@knsgroup.in
Unnati Phase - 1,Kiran  Reddy,9686526807,ragsarode@gmail.com,,,Magicbricks,Client will try to visit the site by self with his friend,Warm,,gowthami@knsgroup.in,gowthami@knsgroup.in
Unnati Phase - 1,Vivek,7411440350,madanbaldwins@gmail.com,,,India Property,"Details mailed, Call back on Friday ",Warm,,gowthami@knsgroup.in,gowthami@knsgroup.in
Unnati Phase - 1,Vasuki,8867073535,babukanak@gmail.com,,,India Property,"Details mailed, Call back to Schedule the S.V.",Warm,,gowthami@knsgroup.in,gowthami@knsgroup.in
Unnati Phase - 1,Somashekhar,9986331858,diveshgaur@yahoo.co.in,,,Magicbricks,"Details mailed, Client will revert back",Warm,,gowthami@knsgroup.in,gowthami@knsgroup.in
Unnati Phase - 1,kumar shashank,8394927502,ramesh.madamsetty@gmail.com,,,99 Acres,"Details mailed, Client will revert back",Warm,,gowthami@knsgroup.in,gowthami@knsgroup.in
Unnati Phase - 1,Padmanabha,9686647296,jayaprakashkempaiah@gmail.com,,,Magicbricks,"Details mailed, S.V. scheduled on 5th Sept",Warm,,gowthami@knsgroup.in,gowthami@knsgroup.in
Unnati Phase - 1,Lakshmi,8826152797,nagarajdr@rediffmail.com,,,99 Acres,STM no. has been shared for more clarifications,Warm,,gowthami@knsgroup.in,gowthami@knsgroup.in
Unnati Phase - 1,Lakshman Gowda LG,9845716988,,,,Reference,STM no. shared( Shivakumar) for S.V. ,Warm,,gowthami@knsgroup.in,gowthami@knsgroup.in
Unnati Phase - 1,Manjunath NL,9632915480,akhilabelgur@gmail.com,,,Magicbricks,Call back on 28th Aug     ,Warm,,gowthami@knsgroup.in,gowthami@knsgroup.in
Unnati Phase - 1,Shrikanatha Rao B,9449374354,umeshappa.m@gmail.com,,,Magicbricks,Call back on 30th Aug for S.V.,Warm,,gowthami@knsgroup.in,gowthami@knsgroup.in
Anirvan Phase - 1,prasad,9620827772,vinaykumark.129@gmail.com,,,Magicbricks,Client will be visiting the project in 1st week of Sept,Warm,,gowthami@knsgroup.in,gowthami@knsgroup.in
Unnati Phase - 1,Varun,9591503822,katewal.gh@gmail.com,,,Magicbricks,Client will revert back,Warm,,gowthami@knsgroup.in,gowthami@knsgroup.in
Unnati Phase - 1,Ram,8041499225,,,,Website,Client will revert back,Warm,,gowthami@knsgroup.in,gowthami@knsgroup.in
Unnati Phase - 1,pk adhikary,9845693317,arun27babu@gmail.com,,,Magicbricks,"Client will visit the site after 19th Sept, visited Archisa",Warm,,gowthami@knsgroup.in,gowthami@knsgroup.in
KNS Archisa,T R Gangadhora ,9036938764,lakshmigoutam@gmail.com,,,Magicbricks,"Details mailed, Client will revert back",Warm,,gowthami@knsgroup.in,gowthami@knsgroup.in
Anirvan Phase - 1,Tr Raja,9620038553,Lakshmanlikku@gmail.com,,,Expo,"Details mailed, Client will rvert back if interested",Warm,,gowthami@knsgroup.in,gowthami@knsgroup.in
Unnati Phase - 1,Ganesh,9900003728,,,,Website,STM to provide more details about Availability list ,Warm,,gowthami@knsgroup.in,gowthami@knsgroup.in
Unnati Phase - 1,Vinodraj,9032083193,,,,SMS Blast,STM to provide more details about the project,Warm,,gowthami@knsgroup.in,gowthami@knsgroup.in
Unnati Phase - 1,Ramesh Yallur,9738084346,,,,Addwords,"Call back on 29th Aug, STM to provide more details",Warm,,gowthami@knsgroup.in,gowthami@knsgroup.in
Unnati Phase - 1,Giri,9743373637,vinodmalothkar@gmail.com,,,India Property,"STm no. shared, Client will visit the plot personally",Warm,,gowthami@knsgroup.in,gowthami@knsgroup.in
Unnati Phase - 1,Jayaramtd,9845533937,,,,VK,Call back to Schedule the S.V. on 30th Aug.,Warm,,gowthami@knsgroup.in,gowthami@knsgroup.in
Unnati Phase - 1,Yogish,9980049860,,,,VK,Client is on the way to site,Warm,,gowthami@knsgroup.in,gowthami@knsgroup.in
Unnati Phase - 1,Nagareddy .Parle,9902188158,arajkamal19@gmail.com,,,Reference,"Details mailed, Client will revert back",Warm,,gowthami@knsgroup.in,gowthami@knsgroup.in
KNS Aroha,J NANDA KISHORE,9742264969,parthsahoo@ymail.com,,,Addwords,"Details mailed, S.v. Scheduled next week for anagha",Warm,,gowthami@knsgroup.in,gowthami@knsgroup.in
Unnati Phase - 1,Sudhakar Kota,9448052944,,,,VK,"Interested in all 4 projects, Client will revert back",Warm,,gowthami@knsgroup.in,gowthami@knsgroup.in
Unnati Phase - 1,Uguihoi ,9481368371,,,,Paper Insertion,Client will revert back,Warm,,gowthami@knsgroup.in,gowthami@knsgroup.in
Unnati Phase - 1,Appa saheb,9880651336,kc040859@gmail.com,,,99 Acres,"Details mailed, Client will revert back",Warm,,gowthami@knsgroup.in,gowthami@knsgroup.in
Unnati Phase - 1,Nagaraj,8861412453,manjugornal@gmail.com,,,99 Acres,"Details mailed, Client will revert back",Warm,,gowthami@knsgroup.in,gowthami@knsgroup.in
Unnati Phase - 1,Ashwini,9886606717,ananth.vellal@gmail.com,,,Paper Insertion,"Details Mailed, Client will revert back",Warm,,gowthami@knsgroup.in,gowthami@knsgroup.in
Unnati Phase - 1,Arun Kumar,9663833755,ashumysore@gmail.com,,,99 Acres,"Call back after 6pm, needs to discuss with her father",Warm,,gowthami@knsgroup.in,gowthami@knsgroup.in
Unnati Phase - 1,Balaji,9945407470,nandaferari@gmail.com,,,99 Acres,Client will revert back,Warm,,gowthami@knsgroup.in,gowthami@knsgroup.in
Unnati Phase - 1,Deepratna,8884407222,sophydom@gmail.com,,,99 Acres,Client will revert back,Warm,,gowthami@knsgroup.in,gowthami@knsgroup.in
Unnati Phase - 1,shivraj patil,7022257963,vijay.krj@gmail.com,,,99 Acres,"Details mailed, Client will revert back",Warm,,gowthami@knsgroup.in,gowthami@knsgroup.in
Unnati Phase - 1,Ranjitha,9591896222,naga.guru1986@gmail.com,,,99 Acres,"Interested in Anagha project , Client will revert back",Warm,,gowthami@knsgroup.in,gowthami@knsgroup.in
Unnati Phase - 1,NA,9985338286,msram999@yahoo.com,,,Addwords,Client will revert back,Warm,,gowthami@knsgroup.in,gowthami@knsgroup.in
Unnati Phase - 1,Deepak,9945253120,ranjithakrish@gmail.com,,,India Property,Client will revert back,Warm,,gowthami@knsgroup.in,gowthami@knsgroup.in
Unnati Phase - 1,Guaurav Jindal,9980100670,,,,SMS Blast,STM to provide more details about booking procedure,Warm,,gowthami@knsgroup.in,gowthami@knsgroup.in
Unnati Phase - 1,Supriya R Rao,9341962151,,,,SMS Blast,"Client is looking plot for his friend, Client will revert back",Warm,,gowthami@knsgroup.in,gowthami@knsgroup.in
Unnati Phase - 1,M.S Yatnalti,970787865,,,,SMS Blast,Client will be coming to bangalore next week & Visit,Warm,,gowthami@knsgroup.in,gowthami@knsgroup.in
Unnati Phase - 1,Magaraj Bl,9008433455,,,,SMS Blast,Client needs time to think about the project,Warm,,gowthami@knsgroup.in,gowthami@knsgroup.in
Unnati Phase - 1,Shakthi,9964343400,,,,Reference,Intrested in 20*30 and 30*40 he will revert,Warm,,gowthami@knsgroup.in,gowthami@knsgroup.in
Anirvan Phase - 1,Sushil,9901436633,sowmya.twej@gmail.com,,,Magicbricks,Call 9845710107.her husband (bhaskar) tomorrow to provide more project details,Warm,,gowthami@knsgroup.in,gowthami@knsgroup.in
Unnati Phase - 1,Mayur Anvekar,8308803245,shrishup@yahoo.co.in,,,Magicbricks,"Details mailed, Client will revert back",Warm,,gowthami@knsgroup.in,gowthami@knsgroup.in
KNS Aroha,Murali,9980018338,sushilchoudri@gmail.com,,,99 Acres,"Details mailed, Client will revert back",Warm,,gowthami@knsgroup.in,gowthami@knsgroup.in
Unnati Phase - 1,Mahesh,9449670156,chakravarthi.m@gmail.com,,,99 Acres,Call back next week to Schedule the S.V.,Warm,,gowthami@knsgroup.in,gowthami@knsgroup.in
KNS Aroha,Lingaraj Behara,8861340277,mayur.anvekar@gmail.com,,,99 Acres,"Client will revert back, Interested in Visiting",Warm,,gowthami@knsgroup.in,gowthami@knsgroup.in
KNS Aroha,Ram Kumar Yadav,8455885401,manashpoddar@rediffmail.com,,,99 Acres,"Details mailed, Client will revert back",Warm,,gowthami@knsgroup.in,gowthami@knsgroup.in
KNS Aroha,Sunil Agarwal,9741044336,guruandro58@gmail.com,,,99 Acres,Client will revert back,Warm,,gowthami@knsgroup.in,gowthami@knsgroup.in
KNS Aroha,Arshad,9538464650,vinuvd.tdl@gmail.com,,,99 Acres,"Details mailed, Looking for 2 plots",Warm,,gowthami@knsgroup.in,gowthami@knsgroup.in
KNS Aroha,Amruth,9447713784,rahulanandgunjan@gmail.com,,,99 Acres,"Details mailed, Client will revert back through mail",Warm,,gowthami@knsgroup.in,gowthami@knsgroup.in
Unnati Phase - 1,Anup Kumar Sahu,9901520150,tnshivakumar49@gmail.com,,,99 Acres,Call back on Friday to Schedule the S.V.,Warm,,gowthami@knsgroup.in,gowthami@knsgroup.in
KNS Aroha,Sandeep,8971335656,saraswat842003@gmail.com,,,99 Acres,"Works in Wipro, Details mailed Client will revert back",Warm,,gowthami@knsgroup.in,gowthami@knsgroup.in
KNS Aroha,Kumaresh,9886123292,kshailesh83@gmail.com,,,99 Acres,"Details mailed, Call back on fri(4th Sept) to Schedule the S.V.",Warm,,gowthami@knsgroup.in,gowthami@knsgroup.in
KNS Aroha,Nanjundappa,8971388244,joseph.antoneose@gmail.com,,,99 Acres,Client will revert back,Warm,,gowthami@knsgroup.in,gowthami@knsgroup.in
Unnati Phase - 1,Kumar G,9886803998,ajithprasadas@gmail.com,,,Addwords,Client will revert back,Warm,,gowthami@knsgroup.in,gowthami@knsgroup.in
Unnati Phase - 1,Sachin,9538532343,suman.senapati@gmail.com,,,Addwords,Client will revert back,Warm,,gowthami@knsgroup.in,gowthami@knsgroup.in
KNS Aroha,Daniel,9845374411,Shankar_daya@yahoo.com,,,Addwords,"Details mailed, Client will revertback if interested",Warm,,gowthami@knsgroup.in,gowthami@knsgroup.in
KNS Archisa,Zakir,9686665655,s.subramanyam.mca@gmail.com,,,Addwords,"S.V. Scheduled on 9th Sept for Archisa, Call back for confirmation",Warm,,gowthami@knsgroup.in,gowthami@knsgroup.in
Unnati Phase - 1,NOORULLA KHAN,9538069992,murthymurthy930@gmail.com,,,Addwords,"Client is a LIC agent, STM to provide more details",Warm,,gowthami@knsgroup.in,gowthami@knsgroup.in
Unnati Phase - 1,VINAY RAMEGOWDA,9731039024,sachin_951@yahoo.co.in,,,Addwords,"Details mailed, Client will revert back ",Warm,,gowthami@knsgroup.in,gowthami@knsgroup.in
Unnati Phase - 1,SOORAJ,9731118443,rdaniel1614@gmail.com,,,Addwords,Client will revert back,Warm,,gowthami@knsgroup.in,gowthami@knsgroup.in
Unnati Phase - 1,ANAND,9739990584,cmohan.harihar@gmail.com,,,Hdfc Red,Details mailed client will revert if interested,Warm,,gowthami@knsgroup.in,gowthami@knsgroup.in
Unnati Phase - 1,SUBIKSHA,8861560111,pkadhikary@gmail.com,,,Hdfc Red,Details mailed client will revert if interested,Warm,,gowthami@knsgroup.in,gowthami@knsgroup.in
Unnati Phase - 1,Zaheer,9980303115,subiksha.pooncholai@gmail.com,,,Hdfc Red,Details mailed client will revert if interested,Warm,,gowthami@knsgroup.in,gowthami@knsgroup.in
Unnati Phase - 1,NA,8904266017,,,,SMS Blast,Client will revert back,Warm,,gowthami@knsgroup.in,gowthami@knsgroup.in
Unnati Phase - 1,NA,9743708719,,,,SMS Blast,Clent will revert back,Warm,,gowthami@knsgroup.in,gowthami@knsgroup.in
Unnati Phase - 1,NA,8041690142,,,,TOI,"Client is interested in visiting anirvan, Unnati & Aroha, STM to provide more details",Warm,,gowthami@knsgroup.in,gowthami@knsgroup.in
KNS Aroha,AnilKumar,9036383007,,,,TOI,STM to provide more details about Pricing,Warm,,gowthami@knsgroup.in,gowthami@knsgroup.in
KNS Aroha,Manjunath,9886537580,,,,TOI,STM to provide location details,Warm,,gowthami@knsgroup.in,gowthami@knsgroup.in
KNS Aroha,Gopal,9663405643,,,,TOI,"Call back to Schedule the S.V., Pick up from Bangalore University",Warm,,gowthami@knsgroup.in,gowthami@knsgroup.in
KNS Aroha,Askash,8095507553,,,,TOI,Client will try to visit the site by next week,Warm,,gowthami@knsgroup.in,gowthami@knsgroup.in
KNS Aroha,Ramesh,9945244415,radha_anilkumar@yahoo.com,,,TOI,Needs to discuss with his son revert back,Warm,,gowthami@knsgroup.in,gowthami@knsgroup.in
KNS Aroha,Soujanya,9844206339,,,,VK,Client will try to visit the plot once he is free,Warm,,gowthami@knsgroup.in,gowthami@knsgroup.in
KNS Aroha,NA,9886378847,,,,TOI,Client will revert back,Warm,,gowthami@knsgroup.in,gowthami@knsgroup.in
KNS Aroha,srinath,9986679622,,,,TOI,Client will revert back before going to S.V. ,Warm,,gowthami@knsgroup.in,gowthami@knsgroup.in
Unnati Phase - 1,Vikas,9611201797,,,,TOI,Needs to discuss with her family and revert back,Warm,,gowthami@knsgroup.in,gowthami@knsgroup.in
KNS Aroha,Gayathri Rangarajan,7026621474,,,,TOI,STM to provide details about payment,Warm,,gowthami@knsgroup.in,gowthami@knsgroup.in
KNS Aroha,Rohith Achar,9916800444,,,,TOI,Client needs to discuss with her husband and revert back,Warm,,gowthami@knsgroup.in,gowthami@knsgroup.in
KNS Aroha,K V Chandrashekaran,9379638229,,,,TOI,client will visit the plot next week. selfdrive,Warm,,gowthami@knsgroup.in,gowthami@knsgroup.in
KNS Aroha,Keshav Murthy,9448116927,,,,VK,call back tomorrow to schedule the S V,Warm,,gowthami@knsgroup.in,gowthami@knsgroup.in
KNS Aroha,chowhan,9742888320,vikash007.rajput@gmail.com,,,TOI,"Details mailed, Client will revert back",Warm,,gowthami@knsgroup.in,gowthami@knsgroup.in
KNS Aroha,Govinda,9900024116,gr_55@redifmail.com,,,TOI,"Details mailed, Client will revert back",Warm,,gowthami@knsgroup.in,gowthami@knsgroup.in
KNS Aroha,Nagaraj IAS,8904035900,Warm,,,TOI,Client will revert back,Warm,,gowthami@knsgroup.in,gowthami@knsgroup.in
KNS Aroha,Mahendra,8041220140,,,,TOI,Client will revert back,Warm,,gowthami@knsgroup.in,gowthami@knsgroup.in
KNS Aroha,Ramesh,9382848640,,,,TOI,Client will revert back ,Warm,,gowthami@knsgroup.in,gowthami@knsgroup.in
KNS Aroha,NA,9611506456,,,,VK,call on sunday to confirm sv,Warm,,gowthami@knsgroup.in,gowthami@knsgroup.in
KNS Aroha,Kamashaiya,9886245311,,,,VK,Client will revert back,Warm,,gowthami@knsgroup.in,gowthami@knsgroup.in
KNS Anagha,NA,9880053252,,,,99 Acres,"S.V. Scheduled on 4th Sept, STM(Mr. Shivakumar)  to provide more details about RR & DR Plots",Warm,,gowthami@knsgroup.in,gowthami@knsgroup.in
KNS Aroha,Senthil Nathan,8023683312,,,,TOI,Client will revert back,Warm,,gowthami@knsgroup.in,gowthami@knsgroup.in
KNS Aroha,Rizvi,7848887888,,,,TOI,Client will revertback,Warm,,gowthami@knsgroup.in,gowthami@knsgroup.in
KNS Aroha,NA,9880020865,Warm,,,TOI,STM to Call back on Sun(6th Sept) & provide more information,Warm,,gowthami@knsgroup.in,gowthami@knsgroup.in
KNS Aroha,Vibhor,9844066077,Warm,,,The Hindu,Client will revert back,Warm,,gowthami@knsgroup.in,gowthami@knsgroup.in
KNS Aroha,Alex,9448466868,rao_gururaja@hotmail.com,,,VK,Details mailed client will revert at the time of S V,Warm,,gowthami@knsgroup.in,gowthami@knsgroup.in
KNS Aroha,Girish,9916988699,,,,TOI,STM Should Provide more Details ,Warm,,gowthami@knsgroup.in,gowthami@knsgroup.in
KNS Aroha,Sharath,8095849664,,,,TOI,Client will revert back,Warm,,gowthami@knsgroup.in,gowthami@knsgroup.in
KNS Aroha,Alop Kumar,9448239310,vibshere@gmail.com,,,TOI,"Details mailed, Sv Scheduled on 12/9",Warm,,gowthami@knsgroup.in,gowthami@knsgroup.in
KNS Aroha,Seemashetty,9845001509,,,,TOI,"S.V. Scheduled on 6th Sept, Self Drive, STM no(Mr. Shivaraj) shared for lacation details",Warm,,gowthami@knsgroup.in,gowthami@knsgroup.in
KNS Aroha,Kumar,8049587242,,,,TOI,Client will revert back before visiting the site,Warm,,gowthami@knsgroup.in,gowthami@knsgroup.in
KNS Aroha,Vinay,9920065946,,,,TOI,Client will be coming to bangalore next week & S.V,Warm,,gowthami@knsgroup.in,gowthami@knsgroup.in
Anirvan Phase - 1,SUNIL,9986022706,vinay_1125@yahoo.co.in,,,Magicbricks,Client will revert back,Warm,,gowthami@knsgroup.in,gowthami@knsgroup.in
Unnati Phase - 1,A S KUMAR,9986187352,daniel.picardo@target.com,,,Hdfc Red,Call back,Warm,,gowthami@knsgroup.in,gowthami@knsgroup.in
Unnati Phase - 1,Naveen,9000920204,atchunala007@gmail.com,,,Hdfc Red,Call back,Warm,,gowthami@knsgroup.in,gowthami@knsgroup.in
Unnati Phase - 1,NA,9000925136,prabhash_k@dell.com,,,Hdfc Red,Client will revert back,Warm,,gowthami@knsgroup.in,gowthami@knsgroup.in
Unnati Phase - 1,NA,9845052332,,,,SMS Blast,Client will revert back,Warm,,gowthami@knsgroup.in,gowthami@knsgroup.in
Unnati Phase - 1,MR HEMANT YADAV,9591779375,,,,SMS Blast,Client will revert back,Warm,,gowthami@knsgroup.in,gowthami@knsgroup.in
Unnati Phase - 1,BADRINATH,9343381990,,,,SMS Blast,"Client is interested in Archisa, STM to provide more details",Warm,,gowthami@knsgroup.in,gowthami@knsgroup.in
Unnati Phase - 1,VAMSI KRISHNA,9590690699,,,,SMS Blast,Looking plots for his friend. he will revert,Warm,,gowthami@knsgroup.in,gowthami@knsgroup.in
Unnati Phase - 1,Leela vijay kumar,9341841074,,,,SMS Blast,Call back on Wednesday to schedule S V,Warm,,gowthami@knsgroup.in,gowthami@knsgroup.in
Unnati Phase - 1,Amar,8095047736,,,,SMS Blast,Call back tomorrow morning 8/9,Warm,,gowthami@knsgroup.in,gowthami@knsgroup.in
Unnati Phase - 1,Chetan,9986313470,,,,SMS Blast,Client will revert back for S.V.,Warm,,gowthami@knsgroup.in,gowthami@knsgroup.in
Unnati Phase - 1,Jagadish,9844597797,parashir@gmail.com,,,Hdfc Red,call back later details mailed.,Warm,,gowthami@knsgroup.in,gowthami@knsgroup.in
Unnati Phase - 1,Manju,9620959523,ithyachellam@gmail.com,,,99 Acres,Clent will revert back,Warm,,gowthami@knsgroup.in,gowthami@knsgroup.in
Unnati Phase - 1,Lakshmi,7259565758,murugaperumal.s@gmail.com,,,99 Acres,Call back after a month,Warm,,gowthami@knsgroup.in,gowthami@knsgroup.in
Unnati Phase - 1,Jagadish ChandraBose,9449005783,vnmisale@rediffmail.com,,,99 Acres,Client will revert back,Warm,,gowthami@knsgroup.in,gowthami@knsgroup.in
KNS Aroha,Priya,8095994466,,,,TOI,STM to provide details about negotiation,Warm,,gowthami@knsgroup.in,gowthami@knsgroup.in
Unnati Phase - 1,Prasad,9844443560,,,,SMS Blast,Needs to discuss with her husband & revert back,Warm,,gowthami@knsgroup.in,gowthami@knsgroup.in
KNS Aroha,Girish soni,8147923390,linktomanish@rediffmail.com,,,FM Radio,"Details mailed, Client will revert back",Warm,,gowthami@knsgroup.in,gowthami@knsgroup.in
Unnati Phase - 1,Balasundari,9449473780,,,,VK,Client will revert back(Mahesh),Warm,,gowthami@knsgroup.in,gowthami@knsgroup.in
Unnati Phase - 1,Narendra,9980707905,,,,SMS Blast,Client will revert back,Warm,,gowthami@knsgroup.in,gowthami@knsgroup.in
Unnati Phase - 1,SRI RAM NADH,9742053399,angelbalar3184@gmai.com,,,Magicbricks,Client will revert back,Warm,,gowthami@knsgroup.in,gowthami@knsgroup.in
Anirvan Phase - 1,Krishna,9900245072,,,,Prajavani,STM to provide details about negotiation,Warm,,gowthami@knsgroup.in,gowthami@knsgroup.in
KNS Anagha,Jayashankar,7204498160,rvveena21@gmail.com,,,Magicbricks,"Details mailed, Client will revert back",Warm,,gowthami@knsgroup.in,gowthami@knsgroup.in
Unnati Phase - 1,Syed sameer,9725544949,ramnadh80@gmail.com,,,Magicbricks,Client will revert back next month,Warm,,gowthami@knsgroup.in,gowthami@knsgroup.in
Unnati Phase - 1,NA,9448747292,shachalam@gmail.com,,,Magicbricks,Client will revert back,Warm,,gowthami@knsgroup.in,gowthami@knsgroup.in
Unnati Phase - 1,Shalil,9611334343,veeraprasad.bandam@gmail.com,,,Magicbricks,Call back on 18th Sept ,Warm,,gowthami@knsgroup.in,gowthami@knsgroup.in
Unnati Phase - 1,NA,9986603757,lakshmidsetty@gmail.com,,,Magicbricks,"Details mailed, Client wil revert back",Warm,,gowthami@knsgroup.in,gowthami@knsgroup.in
Unnati Phase - 1,Subratha Rao,8041110992,,,,SMS Blast,9880446354-Client will revert back before S.V.,Warm,,gowthami@knsgroup.in,gowthami@knsgroup.in
Unnati Phase - 1,NA,9538314080,,,,SMS Blast,S.V scheduled tomorrow call back in morning ,Warm,,gowthami@knsgroup.in,gowthami@knsgroup.in
Unnati Phase - 1,chirag,7022900539,,,,SMS Blast,client is in meeting he will revert ,Warm,,gowthami@knsgroup.in,gowthami@knsgroup.in
Unnati Phase - 1,Chetan,9886788824,,,,SMS Blast,STM To call back on saturday 12/9 to provide detailed information,Warm,,gowthami@knsgroup.in,gowthami@knsgroup.in
Unnati Phase - 1,Mohan,9035261612,,,,SMS Blast,STM to provide with more details,Warm,,gowthami@knsgroup.in,gowthami@knsgroup.in
Unnati Phase - 1,Raghu,9742320786,farook.ahmed31@yahoo.in,,,SMS Blast,Realtor. Stm to share details on location,Warm,,gowthami@knsgroup.in,gowthami@knsgroup.in
KNS Aroha,satish,9844002347,sripadvrao@gmail.com,,,99 Acres,STM to provide more details,Warm,,gowthami@knsgroup.in,gowthami@knsgroup.in
KNS Archisa,Amith,9164626499,shobhar2010@gmail.com,,,99 Acres,Details call back tomorrow 11/9/2015,Warm,,gowthami@knsgroup.in,gowthami@knsgroup.in
Anirvan Phase - 1,Nagesh,9008900067,geethaprasad0@gmail.com,,,99 Acres,call back tomorrow,Warm,,gowthami@knsgroup.in,gowthami@knsgroup.in
Anirvan Phase - 1,Manohar Shetty,9900079779,moni_3132@rediffmail.com,,,99 Acres,call back tomorrow to confirm the S V,Warm,,gowthami@knsgroup.in,gowthami@knsgroup.in
KNS Aroha,Anand,8105432932,nageshkp1@gmail.com,,,Addwords,Client will revert back,Warm,,gowthami@knsgroup.in,gowthami@knsgroup.in
Unnati Phase - 1,Kishore,9845026376,mnhr_shetty@yahoo.co.in,,,Addwords,Call back next week   ,Warm,,gowthami@knsgroup.in,gowthami@knsgroup.in
Unnati Phase - 1,Uday,9164164219,udayk578@gmail.com,,,Addwords,Client will revert back,Warm,,gowthami@knsgroup.in,gowthami@knsgroup.in
Unnati Phase - 1,Vapathuri,8867490798,g.thendral@gmail.com,,,Addwords,Client will revert back,Warm,,gowthami@knsgroup.in,gowthami@knsgroup.in
Unnati Phase - 1,NA,9731278863,vijay.rulz15@gmail.com,,,Addwords,"Call back to Schedule the S.V., need to discuss with his family",Warm,,gowthami@knsgroup.in,gowthami@knsgroup.in
Unnati Phase - 1,Jyothi Shivayogi,9845269691,sadha4u@rediffmail.com,,,Addwords,"Client is in a meeting, cal back",Warm,,gowthami@knsgroup.in,gowthami@knsgroup.in
Unnati Phase - 1,NA,9731118515,udayadav@yahoo.in,,,Addwords,Call back on 12th Sept,Warm,,gowthami@knsgroup.in,gowthami@knsgroup.in
Unnati Phase - 1,Sushma,9980000936,venkatesh.d_1954@yahoo.co.in,,,India Property,Call back on 17th Sept(thurs),Warm,,gowthami@knsgroup.in,gowthami@knsgroup.in
Unnati Phase - 1,NA,7353333555,,,,SMS Blast,Call back,Warm,,gowthami@knsgroup.in,gowthami@knsgroup.in
Unnati Phase - 1,NA,9880213588,dineshrtr@yahoo.co.in,,,SMS Blast,"Details mailed, Client will revert back",Warm,,gowthami@knsgroup.in,gowthami@knsgroup.in
Unnati Phase - 1,Jeevan,9740333331,,,,SMS Blast,STM to provide more details about the project,Warm,,gowthami@knsgroup.in,gowthami@knsgroup.in
KNS Aroha,Abhishek,8050067550,,,,SMS Blast,"Call back after 15th Sept, Client needs time to think",Warm,,gowthami@knsgroup.in,gowthami@knsgroup.in
KNS Aroha,Venkat,9448050681,ssvenkatesh2011@gmail.com,,,Magicbricks,Call back on 14th Sept,Warm,,gowthami@knsgroup.in,gowthami@knsgroup.in
KNS Aroha,Mahesh,9986852632,cg.vignesh@gmail.com,,,Magicbricks,Client will revert back,Warm,,gowthami@knsgroup.in,gowthami@knsgroup.in
KNS Aroha,Jagadish,9886119488,sujeelunneen@gmail.com,,,Magicbricks,"Client need more details, Cal back on Monday(14th Sept)",Warm,,gowthami@knsgroup.in,gowthami@knsgroup.in
KNS Aroha,Chitra,9663035266,sn_sree@hotmail.com,,,Magicbricks,"Details mailed, S.V. Scheduled on 18th Sept",Warm,,gowthami@knsgroup.in,gowthami@knsgroup.in
KNS Aroha,Revathi KJ,9886404996,asha.reddy2@gmail.com,,,Magicbricks,Client needs time to think about the project,Warm,,gowthami@knsgroup.in,gowthami@knsgroup.in
KNS Aroha,Rajappa,9886157770,krishnakalpan@gmail.com,,,Magicbricks,"Details mailed, Client will revert back",Warm,,gowthami@knsgroup.in,gowthami@knsgroup.in
KNS Aroha,Janardhan ,9739025984,ramarao.vinjam@gmail.com,,,Magicbricks,"Details mailed, Client will revert back",Warm,,gowthami@knsgroup.in,gowthami@knsgroup.in
KNS Aroha,Rupesh Kumar,9611288533,maheshg80@gmail.com,,,Magicbricks,Call back ,Warm,,gowthami@knsgroup.in,gowthami@knsgroup.in
KNS Aroha,kolla sai baba,9742888399,,,,99 Acres,Client will revert back,Warm,,gowthami@knsgroup.in,gowthami@knsgroup.in
Unnati Phase - 1,Vikram,9449052718,kattimani@gmail.com,,,99 Acres,"Details mailed, Needs to discuss with her husband",Warm,,gowthami@knsgroup.in,gowthami@knsgroup.in
Unnati Phase - 1,Lakshmi,8050200030, ravindra.j.kumar@gmail.com,,,99 Acres,S.V. Scheduled next weekend   ,Warm,,gowthami@knsgroup.in,gowthami@knsgroup.in
Unnati Phase - 1,Ravishankar,9986068858,kolla.sai.baba@gmail.com,,,Addwords,"Details mailed, Client will revert back",Warm,,gowthami@knsgroup.in,gowthami@knsgroup.in
Unnati Phase - 1,Chethan,9900009947,vijaytjayaram@gmail.com,,,Addwords,Client will revert back,Warm,,gowthami@knsgroup.in,gowthami@knsgroup.in
Unnati Phase - 1,Raju,9611322633,nrlakshmi99@gmail.com,,,99 Acres,Client will revert back,Warm,,gowthami@knsgroup.in,gowthami@knsgroup.in
Unnati Phase - 1,Hema,9591389400,desaibheemsen@gmail.com,,,99 Acres,Call back,Warm,,gowthami@knsgroup.in,gowthami@knsgroup.in
KNS Aroha,NA,9886714949,,,,SMS Blast,Client will revert back,Warm,,gowthami@knsgroup.in,gowthami@knsgroup.in
Unnati Phase - 1,Narendra,9845205080,,,,TOI,Client is interested in Anagha Project,Warm,,gowthami@knsgroup.in,gowthami@knsgroup.in
Unnati Phase - 1,Rajesh,7411005065,,,,TOI,Client will revert back,Warm,,gowthami@knsgroup.in,gowthami@knsgroup.in
Unnati Phase - 1,NA,9845884512,,,,TOI,S.v scheduled on Sunday call onSaturday  ,Warm,,gowthami@knsgroup.in,gowthami@knsgroup.in
Unnati Phase - 1,Sagar Habib,9886211308,,,,TOI,"Call back to Schedule the S.v., Office address provided",Warm,,gowthami@knsgroup.in,gowthami@knsgroup.in
Unnati Phase - 1,Krishnamurthy,9902700001,apnarendranath@gmail.com,,,The Hindu,"Details mailed,Client will revert back ",Warm,,gowthami@knsgroup.in,gowthami@knsgroup.in
Unnati Phase - 1,Jyothi,9742278303,,,,SMS Blast,"Client will revert back, STM to provide location details",Warm,,gowthami@knsgroup.in,gowthami@knsgroup.in
Unnati Phase - 1,Saravanan Murugan,9449929751,,,,99 Acres,"Visited BDA Projects, STM to provide pricing details,  STM Karthikeya number provided",Warm,,gowthami@knsgroup.in,gowthami@knsgroup.in
Anirvan Phase - 1,Aditi Bhalla,9880400848,tcochandra78@gmail.com,,,Magicbricks,"Details mailed, Client will revert back",Warm,,gowthami@knsgroup.in,gowthami@knsgroup.in
Anirvan Phase - 1,Pradeep,9886710654,mdkmurthy@yahoo.com,,,Magicbricks,"Details mailed, Client will revert back",Warm,,gowthami@knsgroup.in,gowthami@knsgroup.in
Anirvan Phase - 1,Amarnathreddy,9731949429,jyothidath@gmail.com,,,Magicbricks,Call back on 19th Sept,Warm,,gowthami@knsgroup.in,gowthami@knsgroup.in
Anirvan Phase - 1,Deep,9916766644,mj.saravanan@gmail.com,,,Addwords,Client will revert back,Warm,,gowthami@knsgroup.in,gowthami@knsgroup.in
Anirvan Phase - 1,Madhavan ,9448447099,prathima_ramaiah@yahoo.co.in,,,99 Acres,"Details mailed, Client will revert back",Warm,,gowthami@knsgroup.in,gowthami@knsgroup.in
Anirvan Phase - 1,Sathya,9845809607,pradeep_r1@hotmail.com,,,Addwords,Call back on 15th Sept,Warm,,gowthami@knsgroup.in,gowthami@knsgroup.in
Anirvan Phase - 1,Sanjay p,9164082228,amarreddy181@gmail.com,,,Addwords,"Client is driving, Call back",Warm,,gowthami@knsgroup.in,gowthami@knsgroup.in
Anirvan Phase - 1,Dipin,9739068887,aj.suganandan@gmail.com,,,Addwords,"Details mailed, Call back to Schedule the S.V.",Warm,,gowthami@knsgroup.in,gowthami@knsgroup.in
Anirvan Phase - 1,Kumar,9886838349,nbabu11@gmail.com,,,Addwords,Call back at 7pm,Warm,,gowthami@knsgroup.in,gowthami@knsgroup.in
Anirvan Phase - 1,Ramachandra,9886637261,madhavan.ks.2008@gmail.com ,,,99 Acres,Client will revert back,Warm,,gowthami@knsgroup.in,gowthami@knsgroup.in
Anirvan Phase - 1,Aftab,9986797464,getdipins@gmail.com,,,Addwords,Client will revert back,Warm,,gowthami@knsgroup.in,gowthami@knsgroup.in
,,,,,,,,,,,
,,,,,,,,,,,
,,,,,,,,,,,
,,,,,,,,,,,
,,,,,,,,,,,
,,,,,,,,,,,
,,,,,,,,,,,
,,,,,,,,,,,
,,,,,,,,,,,
,,,, ,,,,,,,
