Project,Customer Name,Mobile No,Email,Company,Location,Source,Remarks,Intrest Status,Follow up Date,Assign to,Assign By
Unnati Phase - 1,Not Available,9916913618,,,,SMS Blast,Not Reachable ,Cold,,shobha@knsgroup.in,shobha@knsgroup.in
KNS Aroha,Dilip deshpande,9535750460,dilip.desh25@gmail.com,,BSK,SMS Blast,"Details mailed, he will revert",Warm,,shobha@knsgroup.in,shobha@knsgroup.in
Unnati Phase - 1,Chandu,8453667055,,,RR nagar,Vijaya Karnataka,Sv Scheduled on 26/10,Hot,,shobha@knsgroup.in,shobha@knsgroup.in
KNS Aroha,Not Available,9980326435,,,,SMS Blast,Not reachable ,Cold,,shobha@knsgroup.in,shobha@knsgroup.in
KNS Aroha,Not Available,9886919586,,,,SMS Blast,Switch off,Cold,,shobha@knsgroup.in,shobha@knsgroup.in
KNS Anagha,Not Available,9844805386,,,,SMS Blast,Call back,Cold,,shobha@knsgroup.in,shobha@knsgroup.in
KNS Anagha,Not Available,9845797996,,,,SMS Blast,Not Interested ,Cold,,shobha@knsgroup.in,shobha@knsgroup.in
Anirvan Phase - 2,Suraj,9341967044,,,Rajaji nagar,Paper Insertion,Sv scheduled on 24/10,Hot,,shobha@knsgroup.in,shobha@knsgroup.in
KNS Anagha,Not Available,9886421108,,,,SMS Blast,Switch off,Cold,,shobha@knsgroup.in,shobha@knsgroup.in
Unnati Phase - 1,Devraj,9060044408,,,,Vijaya Karnataka,Call back,Cold,,shobha@knsgroup.in,shobha@knsgroup.in
KNS Anagha,Not Available,9886411469,,,,SMS Blast,Not Interested ,Cold,,shobha@knsgroup.in,shobha@knsgroup.in
KNS Anagha,Not Available,9916729442,,,,SMS Blast,Not Reachable ,Cold,,shobha@knsgroup.in,shobha@knsgroup.in
KNS Anagha,Not Available,7829274020,,,,SMS Blast,Not interested  ,Cold,,shobha@knsgroup.in,shobha@knsgroup.in
KNS Anagha,Not Available,9845562464,,,,SMS Blast,Not Interested ,Cold,,shobha@knsgroup.in,shobha@knsgroup.in
KNS Anagha,Not Available,8413893766,,,,SMS Blast,Not Interested ,Cold,,shobha@knsgroup.in,shobha@knsgroup.in
KNS Anagha,Not Available,9886308295,,,,SMS Blast,No Response,Cold,,shobha@knsgroup.in,shobha@knsgroup.in
KNS Anagha,Not Available,9844803274,,,,SMS Blast,Not Interested ,Cold,,shobha@knsgroup.in,shobha@knsgroup.in
KNS Anagha,Not Available,9742320664,,,,SMS Blast,Not interested ,Cold,,shobha@knsgroup.in,shobha@knsgroup.in
KNS Anagha,Not Available,9449330922,,,,SMS Blast,Not Interested ,Cold,,shobha@knsgroup.in,shobha@knsgroup.in
KNS Anagha,Not Available,8904189382,,,,SMS Blast,Not Interested ,Cold,,shobha@knsgroup.in,shobha@knsgroup.in
KNS Aroha,Kuruppasseril Subramanian Venugopal,8861413413,venugopalks413@yahoo.co.in,,,Addwords,Not Reachable,Cold,,shobha@knsgroup.in,shobha@knsgroup.in
KNS Aroha,Rahul Udupa,8494908009,rahuludupa1988@gmail.com,,,Addwords,Not Enquired,Cold,,shobha@knsgroup.in,shobha@knsgroup.in
KNS Aroha,Shashi Kant,9582880812,sashimayanksingh@yahoo.co.in,,,Addwords,No Response,Cold,,shobha@knsgroup.in,shobha@knsgroup.in
KNS Aroha,Prafulla Nagri,9449019521,pr.nagri@gmail.com,,,Addwords,Call back,Cold,,shobha@knsgroup.in,shobha@knsgroup.in
KNS Aroha,Sandeep Ravindranathan,8050713029,sandeep003ster@gmail.com,,,Addwords,Call back,Cold,,shobha@knsgroup.in,shobha@knsgroup.in
KNS Aroha,Azhar Hussain,97477108445,azharh2009@gmail.com,,,Addwords,Number not valid,Cold,,shobha@knsgroup.in,shobha@knsgroup.in
KNS Aroha,Sachin Gs,9880477775,sachin456_g@yahoo.com,,Shimoga,Addwords,Sv Scheduled on 31/10,Hot,,shobha@knsgroup.in,shobha@knsgroup.in
KNS Aroha,Swastika Singh,9611907786,swastika81s@gmail.com,,Mallesh palya,Addwords,Sv Scheduled on 31/10,Hot,,shobha@knsgroup.in,shobha@knsgroup.in
KNS Aroha,Sankesh Jain,9449981423,rockyrocks2005@yahoo.co.in,,,Addwords,Details malied he will revert,Warm,,shobha@knsgroup.in,shobha@knsgroup.in
KNS Aroha,Ujjal Bhattacharjee,9800260150,ujjalbhattacharjee.9@gmail.com,,,Addwords,Need  flat,Unqualified,,shobha@knsgroup.in,shobha@knsgroup.in
KNS Aroha,Hyder Ali,9035852884,sevenstar.stagemanagement@gmail.com,,,Addwords,Call back,Cold,,shobha@knsgroup.in,shobha@knsgroup.in
KNS Aroha,Nagaraja Medahalli Venkatram,9448314461,nagarajmv2@gmail.com,,,Addwords,No Response,Cold,,shobha@knsgroup.in,shobha@knsgroup.in
KNS Aroha,Hassan,9066527458,hassan041@gmail.com,,,Addwords,Not Reachable,Cold,,shobha@knsgroup.in,shobha@knsgroup.in
KNS Aroha,prabhakar k ,9449075014,prabhakar0663@gmail.com,,Gulbarga,Addwords,He will revert,Warm,,shobha@knsgroup.in,shobha@knsgroup.in
KNS Aroha,VIJAY GANESHAN,9741179672,vijay.thefuturecreator@gmail.com,,,Addwords,Realtor,Unqualified,,shobha@knsgroup.in,shobha@knsgroup.in
KNS Aroha,pankaj kumar,9522917626,rajputpankaj880@gmail.com,,,India Property,Not Interested,Unqualified,,shobha@knsgroup.in,shobha@knsgroup.in
KNS Aroha,UNNIKRISHNAN,8105441964,unnikmt@gmail.com,,,India Property,Not Interested,Unqualified,,shobha@knsgroup.in,shobha@knsgroup.in
KNS Aroha,vinay,9738250523,vinay.astar@gmail.com,,,Addwords,Details malied he will revert,Warm,,shobha@knsgroup.in,shobha@knsgroup.in
KNS Aroha,Manish,9901866552,pseudo.manish@gmail.com,,,Addwords,Details malied he will revert,Warm,,shobha@knsgroup.in,shobha@knsgroup.in
KNS Aroha,Chandram,9845488903,yegapagol@gmail.com ,,BSK,Magicbricks,Call back on 27/10,Warm,,shobha@knsgroup.in,shobha@knsgroup.in
KNS Aroha,Obraju,9731740404,Obraju@gmrgroup.in,,,Addwords,Details malied he will revert,Warm,,shobha@knsgroup.in,shobha@knsgroup.in
KNS Anagha,Vasanth,9916348000,,,Electronic city,Reference,Sv Scheduled on 17/10 @ 12pm Cb morning,Hot,,shobha@knsgroup.in,shobha@knsgroup.in
KNS Aroha,shashidhar ,9886444915,shashiws@gmail.com,,,India Property,Call back,Cold,,shobha@knsgroup.in,shobha@knsgroup.in
KNS Aroha,Ramesh ,9008245352,keshavramesh@gmail.com,,Maratalli,India Property,Call back,Cold,,shobha@knsgroup.in,shobha@knsgroup.in
KNS Aroha,nitish ,9590612168,knitish102@yahoo.com,,RR nagar,India Property,"Sv Scheduled on 24/10, Cb 21/10",Hot,,shobha@knsgroup.in,shobha@knsgroup.in
KNS Aroha,sagar ,7795582313,sagark.s797@yahoo.com,,,India Property,No Response,Cold,,shobha@knsgroup.in,shobha@knsgroup.in
KNS Aroha,anil ,9945976464,sdanil82@gmail.com,,,India Property,Not Interested,Unqualified,,shobha@knsgroup.in,shobha@knsgroup.in
KNS Aroha,srinivas ,9880581325,sslu2011@rediffmail.com,,,India Property,No Response,Cold,,shobha@knsgroup.in,shobha@knsgroup.in
KNS Aroha,Laxmanrao deshpande ,9448973572,lrd.deshpande247139@gmail.com,,,India Property,Not Interested,Unqualified,,shobha@knsgroup.in,shobha@knsgroup.in
KNS Aroha,Tajinder,9886459927,deep12d@gmail.com,,,India Property,Call back,Cold,,shobha@knsgroup.in,shobha@knsgroup.in
KNS Aroha,MR SIVA,9945613613,shiv.atmakuri@gmail.com,,,Hdfc Red,No Response,Cold,,shobha@knsgroup.in,shobha@knsgroup.in
KNS Aroha,MR KURIAKOSE,9742057517,bj76681@gmail.com,,,Hdfc Red,Not Interested,Unqualified,,shobha@knsgroup.in,shobha@knsgroup.in
KNS Aroha,MAHADEVAN V S,9880141544,mahadevan.subramaniam@gmail.com,,,Hdfc Red,Not Reachable,Cold,,shobha@knsgroup.in,shobha@knsgroup.in
KNS Aroha,DINESH B,9945356891,dineshbabu.blr@gmail.com,,,Hdfc Red,Need in north blr,Unqualified,,shobha@knsgroup.in,shobha@knsgroup.in
KNS Aroha,MS PADAM THAPA,9740433777,padam.thapa@gmail.com,,,Hdfc Red,Already purchased,Unqualified,,shobha@knsgroup.in,shobha@knsgroup.in
KNS Aroha,MR SURJIT KUMAR DEY,9167832805,deysurjit07@gmail.com,,,Hdfc Red,Call back on november,Warm,,shobha@knsgroup.in,shobha@knsgroup.in
KNS Aroha,MR JAY,9591937156,jayanshu111@gmail.com,,,Hdfc Red,Call back,Cold,,shobha@knsgroup.in,shobha@knsgroup.in
KNS Aroha,MR ATRI MANDAL,9880566321,photos.atri.mandal@gmail.com,,,Hdfc Red,Call back,Cold,,shobha@knsgroup.in,shobha@knsgroup.in
KNS Aroha,MR GURU,9900466001,gurucomplete@gmail.com,,,Hdfc Red,No Response,Cold,,shobha@knsgroup.in,shobha@knsgroup.in
KNS Aroha,m v RAO,9985287613,mvrao1979@gmail.com,,,Hdfc Red,Not Reachable,Cold,,shobha@knsgroup.in,shobha@knsgroup.in
KNS Aroha,SONIA,9582064711,soniapnair@yahoo.co.in,,,Hdfc Red,Call back,Cold,,shobha@knsgroup.in,shobha@knsgroup.in
KNS Aroha,MR RAVI,9886447000,rsarista@yahoo.com,,,Hdfc Red,No Response,Cold,,shobha@knsgroup.in,shobha@knsgroup.in
KNS Aroha,MR GIRIDHARAN,8792355375,giri_19732000@yahoo.co.in,,,Hdfc Red,Not Reachable,Cold,,shobha@knsgroup.in,shobha@knsgroup.in
KNS Aroha,MR RITESH SONI,9035677900,mr.riteshsoni@gmail.com,,,Hdfc Red,Already purchased,Unqualified,,shobha@knsgroup.in,shobha@knsgroup.in
KNS Aroha,MR DINAKAR,9008100023,dndinakar@gmail.com,,,Hdfc Red,Call back,Cold,,shobha@knsgroup.in,shobha@knsgroup.in
KNS Aroha,VISHVADITYA GOLLERKERI,8722413360,vgollerkeri@hotmail.com,,,Hdfc Red,Call back,Cold,,shobha@knsgroup.in,shobha@knsgroup.in
KNS Aroha,FARHAN,9986202811,farhanquraishi@gmail.com,,,Hdfc Red,Call back,Cold,,shobha@knsgroup.in,shobha@knsgroup.in
KNS Aroha,MR KHADEER AFSHAN,9740359325,khadeerafshan@gmail.com,,,Hdfc Red,Call back,Cold,,shobha@knsgroup.in,shobha@knsgroup.in
KNS Aroha,ABHI,9986681620,abhishekmasq@gmail.com,,,Hdfc Red,He will revert,Warm,,shobha@knsgroup.in,shobha@knsgroup.in
KNS Aroha,MR BHARAT VERMA,8095025875,bk71979@gmail.com,,,Hdfc Red,Switch off,Cold,,shobha@knsgroup.in,shobha@knsgroup.in
KNS Aroha,NARASIMMAN,9742999934,laxminarasi@gmail.com,,,Hdfc Red,Not Interested,Unqualified,,shobha@knsgroup.in,shobha@knsgroup.in
KNS Aroha,MR JIBEESH,9880423317,jibeesh.ms@gmail.com,,,Hdfc Red,"Already visited to aroha, need closed to sarjapur rd",Unqualified,,shobha@knsgroup.in,shobha@knsgroup.in
KNS Aroha,JAGGANATH,9986266629,jagannathdhana@gmail.com,,,Hdfc Red,Not Reachable,Cold,,shobha@knsgroup.in,shobha@knsgroup.in
KNS Aroha,SADASIVAM,9994723831,athiganapathi@gmail.com,,,Hdfc Red,call back on April 2016,Warm,,shobha@knsgroup.in,shobha@knsgroup.in
KNS Aroha,SRINIVAS YADAV,7795999357,khushiyadav2003@gmail.com,,,Hdfc Red,He will revert,Warm,,shobha@knsgroup.in,shobha@knsgroup.in
KNS Aroha,ARVIND KUMAR,9880086890,arvind.kumar.abrol@gmail.com,,Marathalli,Hdfc Red,Sv Scheduled on 24/10,Warm,,shobha@knsgroup.in,shobha@knsgroup.in
KNS Aroha,MR KESHAV,9886740104,keshav.sg@gmail.com,,,Hdfc Red,Not Interested,Unqualified,,shobha@knsgroup.in,shobha@knsgroup.in
KNS Aroha,DEVENDRA PRASAD,9343472916,prasad8600@gmail.com,,,Hdfc Red,No Response,Cold,,shobha@knsgroup.in,shobha@knsgroup.in
KNS Aroha,MR PRASHANTH,9945739764,prashanth.bluelake@gmail.com,,,Hdfc Red,Not Interested,Unqualified,,shobha@knsgroup.in,shobha@knsgroup.in
KNS Aroha,MANOHARCA,9986032145,manohar.chinchandlahally@hibu.com,,BTM Layout,Hdfc Red,Sv Scheduled on 14/11/ No Response/ ,Hot,,shobha@knsgroup.in,shobha@knsgroup.in
KNS Aroha,GIRISH B A,9845518094,girish.ba@sc.com,,Sanjay nagar,Hdfc Red,HE will revert,Warm,,shobha@knsgroup.in,shobha@knsgroup.in
KNS Aroha,MR SARVESH,9731503109,sarvesh189@gmail.com,,,Hdfc Red,No Response,Cold,,shobha@knsgroup.in,shobha@knsgroup.in
Unnati Phase - 1,Rashmi,7795545456,,,Manuvana,Channel Partner,Sv Scheduled on 17/10 @ 11am cb morning/ cb tomorrow,Hot,,shobha@knsgroup.in,shobha@knsgroup.in
KNS Anagha,Not Available,9886595365,,,,SMS Blast,Not Interested  ,Unqualified,,shobha@knsgroup.in,shobha@knsgroup.in
Unnati Phase - 1,Not Available,9066896052,,,,SMS Blast,Promotional call,Unqualified,,shobha@knsgroup.in,shobha@knsgroup.in
Unnati Phase - 1,Not Available,8960761713,,,,SMS Blast,No Response,Cold,,shobha@knsgroup.in,shobha@knsgroup.in
Unnati Phase - 1,Not Available,9916774158,,,,SMS Blast,Not Interested ,Unqualified,,shobha@knsgroup.in,shobha@knsgroup.in
Unnati Phase - 1,Not Available,9448902606,,,,SMS Blast,Not Interested,Unqualified,,shobha@knsgroup.in,shobha@knsgroup.in
Unnati Phase - 1,Not Available,8147508856,,,,SMS Blast,Not Interested,Unqualified,,shobha@knsgroup.in,shobha@knsgroup.in
Unnati Phase - 1,Ramu,8453464672,,,Giri nagar,SMS Blast,Sv Scheduled @ 3Pm ,Hot,,shobha@knsgroup.in,shobha@knsgroup.in
Unnati Phase - 1,Not Available,8722731269,,,,SMS Blast,Not Interested ,Unqualified,,shobha@knsgroup.in,shobha@knsgroup.in
Unnati Phase - 1,Not Available,8147007132,,,,SMS Blast,Promotional call,Unqualified,,shobha@knsgroup.in,shobha@knsgroup.in
KNS Aroha,Vijay sharma,9845538797,,,Rajaji nagar,SMS Blast,He will revert,Warm,,shobha@knsgroup.in,shobha@knsgroup.in
KNS Aroha,Prashanth,8050001646,,,Basaweshar nagar,Reference,Budget-20lks,Warm,,shobha@knsgroup.in,shobha@knsgroup.in
