Project,Customer Name,Mobile No,Email,Company,Location,Source,Remarks,Intrest Status,Follow up Date,Assign to,Assign By
KNS Anagha,Clyde,9620391919,noemail@plcallmeinstead.com,,Electronic city,Addwords,"Sv, call back on 21/9",Hot,,Shobha@knsgroup.in,Shobha@knsgroup.in
KNS Aroha,Tessy,9901543559,Tessa.al.francis@gmail.com,,Bangalore,Addwords,She felt price is high,Cold,,Shobha@knsgroup.in,Shobha@knsgroup.in
KNS Aroha,Hemant Singh Solanki,9738884355,hemantsolanki1@gmail.com,,Bangalore,Addwords,Call back tomorrow,Cold,,Shobha@knsgroup.in,Shobha@knsgroup.in
KNS Aroha,Sreeharsha,9886584879,kottadamane.sreeharsha@gmail.com,,Bangalore,Addwords,Call back tomorrow,Cold,,Shobha@knsgroup.in,Shobha@knsgroup.in
KNS Aroha,siddiq,9945788887,siddiqs7@gmail.com,,Bangalore,Addwords,Not Reachable,Cold,,Shobha@knsgroup.in,Shobha@knsgroup.in
KNS Aroha,O.P.Singh/Gowrav Singh,9415293346,omprakash2448@gmail.com,,Marathalli,99 Acres,Busy /8050456000,Cold,,Shobha@knsgroup.in,Shobha@knsgroup.in
KNS Aroha,Akhil Anand,7259628647,akhilanand121@gmail.com,,Bangalore,India Property,Call back tomorrow,Cold,,Shobha@knsgroup.in,Shobha@knsgroup.in
KNS Aroha,shruti,8861257575,shruti.angarkar@gmail.com,,Bangalore,India Property,No Response,Cold,,Shobha@knsgroup.in,Shobha@knsgroup.in
KNS Aroha,RAVI,9448412630, ravijjcl@gmail.com,,Bangalore,99 Acres,Budget 12lks,Cold,,Shobha@knsgroup.in,Shobha@knsgroup.in
KNS Aroha,raguram,9739904214,mvram2002@gmail.com,,Bangalore,99 Acres,Not Interested,Cold,,Shobha@knsgroup.in,Shobha@knsgroup.in
KNS Aroha,Uttam Kumar,8105391149,kumaru32@gmail.com,,kORAMANGALA,99 Acres,Sv Scheduled on 19/9,Hot,,Shobha@knsgroup.in,Shobha@knsgroup.in
KNS Anagha,Praveen Kumar,9362102141,praveensalem74@yahoo.com,,Selam,99 Acres,Sv Scheduled on 28/9,Hot,,Shobha@knsgroup.in,Shobha@knsgroup.in
KNS Aroha,Joseph Mathew,9840132625,joseph7sep@yahoo.com,,Bangalore,99 Acres,Budget-1000/-,Cold,,Shobha@knsgroup.in,Shobha@knsgroup.in
KNS Aroha,Sowmyashree,7760915730,sowmyashree123@yahoo.com,,Bangalore,99 Acres,Plan has postponed for 6months,Cold,,Shobha@knsgroup.in,Shobha@knsgroup.in
KNS Aroha,Sanjeev,9902383439,sanjeevhulyalkar@gmail.com,,Bangalore,99 Acres,Not Interested,Cold,,Shobha@knsgroup.in,Shobha@knsgroup.in
KNS Aroha,Gururaj,9448153848,gururajasetty@gmail.com,,Bangalore,99 Acres,He droped the plan,Cold,,Shobha@knsgroup.in,Shobha@knsgroup.in
Unnati Phase - 1,Prashanth Raj,9591521567,prashanthask@yahoo.co.in,,Vijay nagar,99 Acres,Sv scheduled on 19/6,Hot,,Shobha@knsgroup.in,Shobha@knsgroup.in
KNS Aroha,Nagendra,9036379888,nagendra123.hr@gmail.com,,Bangalore,99 Acres,Already Finalised,Cold,,Shobha@knsgroup.in,Shobha@knsgroup.in
KNS Aroha,Gopinath Raju,9739228822,goparc10@gmail.com,,Bangalore,99 Acres,Not Interested,Cold,,Shobha@knsgroup.in,Shobha@knsgroup.in
KNS Aroha,vinay patel,9686657223,vinaysmpatel@gmail.com,,Bangalore,Addwords,Call back tomorrow,Cold,,Shobha@knsgroup.in,Shobha@knsgroup.in
KNS Archisa,karibasappa kt,9980168907,karibasappa608@gmail.com,,Bangalore,Addwords,Details mailed He will revert,Warm,,Shobha@knsgroup.in,Shobha@knsgroup.in
KNS Aroha,Benne Jayaram,9066493906,benne_jayaram@yahoo.com,,Hebbal,Addwords,Sv scheduled on 19/6,Hot,,Shobha@knsgroup.in,Shobha@knsgroup.in
KNS Aroha,gopal,8867700446,gopalaar@gmail.com,,Vijay bank Layout,Addwords,Details mailed he will revert,Warm,,Shobha@knsgroup.in,Shobha@knsgroup.in
Unnati Phase - 1,Saravanan,9916766644,mj.saravanan@gmail.com,,Rajaji nagar,Addwords,Already spoke with some one Sv Scheduled on 17/9,Hot,,Shobha@knsgroup.in,Shobha@knsgroup.in
KNS Aroha,Vikash Jain,9740877133,vikkashjain01@gmail.com,,Bangalore,Addwords,Need colse to city for construction,Cold,,Shobha@knsgroup.in,Shobha@knsgroup.in
KNS Aroha,Manoj Kumar Mishra,7411472722,guddumkmishra@rediffmail.com,,Bangalore,Addwords,Call back tomorrow,Cold,,Shobha@knsgroup.in,Shobha@knsgroup.in
KNS Aroha,Prabir Singh,9437159270,singhprabir@yahoo.com,,Bangalore,India Property,No response,Cold,,Shobha@knsgroup.in,Shobha@knsgroup.in
KNS Aroha,Suresh BN Gowda,9686916223,sureshbn2006@gmail.com,,Bangalore,India Property,Need in hebbal,Cold,,Shobha@knsgroup.in,Shobha@knsgroup.in
KNS Aroha,madhavan,8861246731,madhavanukresearch@gmail.com,,Bangalore,India Property,No Response,Cold,,Shobha@knsgroup.in,Shobha@knsgroup.in
KNS Aroha,Krishna,9980338536,krishnaiah84@gmail.com,,Bangalore,India Property,Not Interested,Cold,,Shobha@knsgroup.in,Shobha@knsgroup.in
KNS Aroha,R.V.Chalapathi,9989162028,Sobharaya@yahoo.com,,Hydrabad,99 Acres,Details mailed He will revert,Warm,,Shobha@knsgroup.in,Shobha@knsgroup.in
Unnati Phase - 1,Mahesh,8023367722,,,Malleshwaram,SMS Blast,"Sv, call back on 17/9",Hot,,Shobha@knsgroup.in,Shobha@knsgroup.in
Unnati Phase - 1,Gopal,7411011009,,,Bangalore,SMS Blast,He will revert,Warm,,Shobha@knsgroup.in,Shobha@knsgroup.in
KNS Aroha,,9700879556,,,Bangalore,SMS Blast,Not Interested,Unqualified,,Shobha@knsgroup.in,Shobha@knsgroup.in
KNS Aroha,Janardhan,9035897397,,,Bangalore,SMS Blast,Call back tomorrow,Cold,,Shobha@knsgroup.in,Shobha@knsgroup.in
Unnati Phase - 1,,8884384791,,,Bangalore,SMS Blast,Not Interested,Unqualified,,Shobha@knsgroup.in,Shobha@knsgroup.in
KNS Aroha,,9243750035,,,Bangalore,SMS Blast,Not Interested,Unqualified,,Shobha@knsgroup.in,Shobha@knsgroup.in
Unnati Phase - 1,Nagana gowda,8050055551,,,Ballari,SMS Blast,He will revert,Cold,,Shobha@knsgroup.in,Shobha@knsgroup.in
Unnati Phase - 1,,9035001432,,,Bangalore,SMS Blast,Unqualified,Unqualified,,Shobha@knsgroup.in,Shobha@knsgroup.in
KNS Aroha,Ram,9741188415,,,Bangalore,SMS Blast,Just Enquired ,Cold,,Shobha@knsgroup.in,Shobha@knsgroup.in
Unnati Phase - 1,LN Rao,8762647890,avantkarlnrao2@gmail.com,,Vijay nagar,TOI,Self drive he will revert,Warm,,Shobha@knsgroup.in,Shobha@knsgroup.in
KNS Aroha,Shivaji rao,8050614468,,,Bangalore,SMS Blast,He will revert,Warm,,Shobha@knsgroup.in,Shobha@knsgroup.in
Unnati Phase - 1,Shobha,9066095148,,,BSK,Magicbricks,She will revert,Warm,,Shobha@knsgroup.in,Shobha@knsgroup.in
KNS Aroha,Dr Prasad,9341233626,,,Bangalore,SMS Blast,Will try to visit next weekend,Hot,,Shobha@knsgroup.in,Shobha@knsgroup.in
KNS Aroha,Ashirvad,8494921430,ashirwadshetty@gmail.com,,Bangalore,FM Radio,He will revert,Warm,,Shobha@knsgroup.in,Shobha@knsgroup.in
KNS Aroha,Mandhar,9535255442,mandarn@gmail.com,,Bangalore,SMS Blast,Scheduled on 19/9,Hot,,Shobha@knsgroup.in,Shobha@knsgroup.in
