Project,Customer Name,Mobile No,Email,Company,Location,Source,Remarks,Intrest Status,Follow up date,Assign to,Assign By
Anirvan Phase - 2,Shakurlila Mohan,9243100339,,,,Others,Out of town,Unqualified,03-10-2016,priya@knsgroup.in,pallavi@knsgroup.in
Anirvan Phase - 2,Srinivasa,9945600745,,,,Others,Wrong Number,Unqualified,03-10-2016,priya@knsgroup.in,pallavi@knsgroup.in
Anirvan Phase - 2,Krishna,9844070923,,,,Others,Wrong Number,Unqualified,03-10-2016,priya@knsgroup.in,pallavi@knsgroup.in
Anirvan Phase - 2,Vijay,9972120596,,,,Others,NAC,TBF,03-10-2016,priya@knsgroup.in,pallavi@knsgroup.in
Anirvan Phase - 2,Vishal lakshmi,8095107484,,,,Others,Price,Unqualified,03-10-2016,priya@knsgroup.in,pallavi@knsgroup.in
Anirvan Phase - 2,Gurupad,8951145372,,,,Others,Just enquired (Wasted our time),Unqualified,03-10-2016,priya@knsgroup.in,pallavi@knsgroup.in
Anirvan Phase - 2,Girish,9886701366,,,,Others,NAC,TBF,03-10-2016,priya@knsgroup.in,pallavi@knsgroup.in
Anirvan Phase - 2,Rajiv,9844590043,,,,Others,Budget Constraint,Unqualified,03-10-2016,priya@knsgroup.in,pallavi@knsgroup.in
Anirvan Phase - 2,Shivarudraiah,9844756554,,,,Others,Wrong Number,Unqualified,03-10-2016,priya@knsgroup.in,pallavi@knsgroup.in
Anirvan Phase - 2,Dayanand,9740711788,,,,Others,Budget Constraint,Unqualified,03-10-2016,priya@knsgroup.in,pallavi@knsgroup.in
Anirvan Phase - 2,Appegowda,9448533324,,,,Others,Budget Constraint,Unqualified,03-10-2016,priya@knsgroup.in,pallavi@knsgroup.in
Anirvan Phase - 2,Prakash,9742203848,,,,Others,Just enquired (Wasted our time),Unqualified,03-10-2016,priya@knsgroup.in,pallavi@knsgroup.in
Anirvan Phase - 2,Dinesh Kumar,9845431113,,,,Others,Interested but I will revisit when I am free,TBF,03-10-2016,priya@knsgroup.in,pallavi@knsgroup.in
Anirvan Phase - 2,Ragvendra Shetti,9844039751,,,,Others,Just enquired (Wasted our time),Unqualified,03-10-2016,priya@knsgroup.in,pallavi@knsgroup.in
Anirvan Phase - 2,Kumar,9945085080,,,,Others,Need more time to decide,TBF,03-10-2016,priya@knsgroup.in,pallavi@knsgroup.in
Anirvan Phase - 2,Harsha,9611411911,,,,Others,Need more time to decide,TBF,03-10-2016,priya@knsgroup.in,pallavi@knsgroup.in
Anirvan Phase - 2,Ravindra,9845674444,,,,Others,Need more time to decide,TBF,03-10-2016,priya@knsgroup.in,pallavi@knsgroup.in
Anirvan Phase - 2,Manjappa,9448852715,,,,Others,Just enquired (Wasted our time),Unqualified,03-10-2016,priya@knsgroup.in,pallavi@knsgroup.in
Anirvan Phase - 2,Venkatesh,8971484145,,,,Others,Just enquired (Wasted our time),Unqualified,03-10-2016,priya@knsgroup.in,pallavi@knsgroup.in
Anirvan Phase - 2,Ramesh,9886806241,,,,Others,Wrong Number,Unqualified,03-10-2016,priya@knsgroup.in,pallavi@knsgroup.in
Anirvan Phase - 2,Puttaswamy,9910084012,,,,Others,Wrong number,Unqualified,03-10-2016,priya@knsgroup.in,pallavi@knsgroup.in
Anirvan Phase - 2,Nikitha,9449312391,,,,Others,Just enquired (Wasted our time),Unqualified,03-10-2016,priya@knsgroup.in,pallavi@knsgroup.in
Anirvan Phase - 2,Avinath,9844363558,,,,Others,Project Location,TBF,03-10-2016,priya@knsgroup.in,pallavi@knsgroup.in
Anirvan Phase - 2,Manoj,8095463521,,,,Others,Price,TBF,03-10-2016,priya@knsgroup.in,pallavi@knsgroup.in
Anirvan Phase - 2,Nagaraj,9483861755,,,,Others,NAC,TBF,03-10-2016,priya@knsgroup.in,pallavi@knsgroup.in
Anirvan Phase - 2,Manjunath,9483322761,,,,Others,Need more time to decide,TBF,03-10-2016,priya@knsgroup.in,pallavi@knsgroup.in
Anirvan Phase - 2,Sunil Kumar,9945350507,,,,Others,Alternate investment,Unqualified,03-10-2016,priya@knsgroup.in,pallavi@knsgroup.in
Anirvan Phase - 2,Nadgir,9482672500,,,,Others,Need more time to decide,TBF,03-10-2016,priya@knsgroup.in,pallavi@knsgroup.in
Anirvan Phase - 2,Prakash,9886658035,,,,Others,Wrong Number,Unqualified,03-10-2016,priya@knsgroup.in,pallavi@knsgroup.in
Anirvan Phase - 2,Prasad ,8880134571,,,,Others,Alternate investment,Unqualified,03-10-2016,priya@knsgroup.in,pallavi@knsgroup.in
Anirvan Phase - 2,Ramesh,9901137116,,,,Others,Just enquired (Wasted our time),Unqualified,03-10-2016,priya@knsgroup.in,pallavi@knsgroup.in
Anirvan Phase - 2,Arun Kumar,9066099099,,,,Others,Alternate investment,Unqualified,03-10-2016,priya@knsgroup.in,pallavi@knsgroup.in
Anirvan Phase - 2,Sai Ram Prem Kumar,9731033699,,,,Others,Wrong Number,Unqualified,03-10-2016,priya@knsgroup.in,pallavi@knsgroup.in
Anirvan Phase - 2,Mahadevappa,9972699108,,,,Others,Alternate investment,Unqualified,03-10-2016,priya@knsgroup.in,pallavi@knsgroup.in
Anirvan Phase - 2,Raghavendra,9986178601,,,,Others,Alternate investment,Unqualified,03-10-2016,priya@knsgroup.in,pallavi@knsgroup.in
Anirvan Phase - 2,Ashok Kumar,9448993278,,,,Others,Time Constraint due to sale another property,Unqualified,03-10-2016,priya@knsgroup.in,pallavi@knsgroup.in
Anirvan Phase - 2,Sowmya,9632275804,,,,Others,Need more time to decide,TBF,03-10-2016,priya@knsgroup.in,pallavi@knsgroup.in
Anirvan Phase - 2,G.BADRI RAI,9916670622,,,,Others,Interested but I will revisit when I am free,TBF,03-10-2016,avinkumar@knsgroup.in,pallavi@knsgroup.in
Anirvan Phase - 2,CHANDRAPPA,9880589920,,,,Others,Project Location,Unqualified,03-10-2016,avinkumar@knsgroup.in,pallavi@knsgroup.in
Anirvan Phase - 2,G.K. DESAI,9448010399,,,,Others,Project Location,Unqualified,03-10-2016,avinkumar@knsgroup.in,pallavi@knsgroup.in
Anirvan Phase - 2,SHANKAREGOWDA,9632816624,,,,Others,STP constraint,Unqualified,03-10-2016,avinkumar@knsgroup.in,pallavi@knsgroup.in
Anirvan Phase - 2,YATHISHE,9880123406,,,,Others,Wrong Number,Unqualified,03-10-2016,avinkumar@knsgroup.in,pallavi@knsgroup.in
Anirvan Phase - 2,RAMESH BELAGERE,9449357505,,,,Others,Interested but I will revisit when I am free,TBF,03-10-2016,avinkumar@knsgroup.in,pallavi@knsgroup.in
Anirvan Phase - 2,YATISH KUMAR,9739998511,,,,Others,Project Location,Unqualified,03-10-2016,avinkumar@knsgroup.in,pallavi@knsgroup.in
Anirvan Phase - 2,MALLESHA,9900426580,,,,Others,Project Location,Unqualified,03-10-2016,avinkumar@knsgroup.in,pallavi@knsgroup.in
Anirvan Phase - 2,M.CHOWDAIAH,8762315483,,,,Others,Need more time to decide,TBF,03-10-2016,avinkumar@knsgroup.in,pallavi@knsgroup.in
Anirvan Phase - 2,HAMPRASAD,7406402277,,,,Others,NAC,TBF,03-10-2016,avinkumar@knsgroup.in,pallavi@knsgroup.in
Anirvan Phase - 2,DR SRISHAILA,9448506940,,,,Others,STP constraint,Unqualified,03-10-2016,avinkumar@knsgroup.in,pallavi@knsgroup.in
Anirvan Phase - 2,HANUMANTHAPPA D B,9845696690,,,,Others,Need more time to decide,TBF,03-10-2016,avinkumar@knsgroup.in,pallavi@knsgroup.in
