Project,Customer Name,Mobile No,Email,Company,Location,Source,Remarks,Intrest Status,Follow up Date,Assign to,Assign By
KNS Aroha,Rajashekar G HOTAGI ,9741146287,rajaskr_008@yahoo.com,,,Addwords,Call back,Cold,,shobha@knsgroup.in,shobha@knsgroup.in
KNS Aroha,Aditya,9986010228,Aditya.kumar@igate.com,,,Addwords,Details mailed he will revert,Warm,,shobha@knsgroup.in,shobha@knsgroup.in
KNS Aroha,Naresh,9916992396,naresh1249@gmail.com,,,99 Acres,No Response,Cold,,shobha@knsgroup.in,shobha@knsgroup.in
KNS Anagha,Karthikeyan,9789464620,rnkarthikeyan@gmail.com,,,99 Acres,Details mailed he will revert,Warm,,shobha@knsgroup.in,shobha@knsgroup.in
Anirvan Phase - 1,mallesh,9900020225,malleshm27@gmail.com,,,99 Acres,No Response,Cold,,shobha@knsgroup.in,shobha@knsgroup.in
KNS Aroha,Prathap Purimetla,9986258666,chprathap.p@gmail.com,,,99 Acres,Need in sarjapur rd,Unqualified,,shobha@knsgroup.in,shobha@knsgroup.in
KNS Archisa,Mahesha,9986404154,hande_mahesh@rediffmail.com,,,99 Acres,Not Reachable,Cold,,shobha@knsgroup.in,shobha@knsgroup.in
KNS Anagha,Shardanand,9739084365,shardanandt84@gmail.com,,Indra nagar,99 Acres,Sv Scheduled on 11/10,Hot,,shobha@knsgroup.in,shobha@knsgroup.in
KNS Aroha,Asif,8880317099,asifbasha.honey@gmail.com,,,99 Acres,Not Reachable,Cold,,shobha@knsgroup.in,shobha@knsgroup.in
Unnati Phase - 2,Lokesh,8553150704,lokeshachar@gmial.com,,,99 Acres,Need Flat,Unqualified,,shobha@knsgroup.in,shobha@knsgroup.in
Anirvan Phase - 1,Harish,9880147687,harish.99acres@gmail.com ,,,99 Acres,Call back,Cold,,shobha@knsgroup.in,shobha@knsgroup.in
KNS Aroha,Haris,9731430438,hmanovah@gmail.com,,,99 Acres,Not Reachable,Cold,,shobha@knsgroup.in,shobha@knsgroup.in
KNS Anagha,Amit,7353851048,amitkrmgr@gmail.com,,,99 Acres,"Sv Scheduled on 10/10, cb moring",Hot,,shobha@knsgroup.in,shobha@knsgroup.in
KNS Aroha,Muniyappa Mattam,9964208461,mattam_muniyappa@yahoo.co.in,,,99 Acres,No Response,Cold,,shobha@knsgroup.in,shobha@knsgroup.in
KNS Aroha,Prasad,9901909029,rohiniprasadmaths@gmail.com,,,99 Acres,Need in bellandur,Unqualified,,shobha@knsgroup.in,shobha@knsgroup.in
Unnati Phase - 2,Nagarjun Reddy,7353773777,reddytnforme@gmail.com,,,99 Acres,Not Interested,Unqualified,,shobha@knsgroup.in,shobha@knsgroup.in
KNS Archisa,Sandeep,8892206539,l.sandeep3555@gmail.com,,,99 Acres,Already purchased,Unqualified,,shobha@knsgroup.in,shobha@knsgroup.in
KNS Aroha,Veena,9008429254,Veena.r@rediffmail.com,,,India Property,No Response,Cold,,shobha@knsgroup.in,shobha@knsgroup.in
KNS Aroha,Swathi bojja,974-70125490,Nancy.disilva@gmail.com,,,India Property,Details mailed ISD Num,Warm,,shobha@knsgroup.in,shobha@knsgroup.in
KNS Anagha,Not Available,8042283064,,,,SMS Blast,Called for job,Unqualified,,shobha@knsgroup.in,shobha@knsgroup.in
KNS Aroha,Ravi,9945513130,,,JP nagar,SMS Blast,He will revert,Warm,,shobha@knsgroup.in,shobha@knsgroup.in
KNS Anagha,venkatesh,9916951154,,,,SMS Blast,Sv Scheduled on 12/10 ,Hot,,shobha@knsgroup.in,shobha@knsgroup.in
KNS Aroha,Uday,9731299411,udaynhegde@gmail.com,,Basaveswara  nagar,SMS Blast,Sv Scheduled on 11/10,Hot,,shobha@knsgroup.in,shobha@knsgroup.in
Anirvan Phase - 1,Swapna,9538094741,,,,99 Acres,He will revert ,Warm,,shobha@knsgroup.in,shobha@knsgroup.in
Unnati Phase - 2,Not Available,8049050505,,,,SMS Blast,No Response,Cold,,shobha@knsgroup.in,shobha@knsgroup.in
Anirvan Phase - 1,Not Available,9164215472,,,,SMS Blast,No Response,Cold,,shobha@knsgroup.in,shobha@knsgroup.in
KNS Aroha,Not Available,9844577514,,,,SMS Blast,No Response,Cold,,shobha@knsgroup.in,shobha@knsgroup.in
KNS Aroha,Not Available,9845208746,,,,SMS Blast,Not Interested ,Unqualified,,shobha@knsgroup.in,shobha@knsgroup.in
KNS Aroha,Asha,8951070009,,,,SMS Blast,She will revert,Warm,,shobha@knsgroup.in,shobha@knsgroup.in
KNS Aroha,Not Available,9886052881,,,,SMS Blast,Not Interested ,Unqualified,,shobha@knsgroup.in,shobha@knsgroup.in
KNS Aroha,Not Available,7829113187,,,,SMS Blast,Not Interesed,Unqualified,,shobha@knsgroup.in,shobha@knsgroup.in
KNS Aroha,Not Available,9845541876,,,,SMS Blast,Not Interested ,Unqualified,,shobha@knsgroup.in,shobha@knsgroup.in
KNS Aroha,Not Available,9740298395,,,,SMS Blast,Not Interested ,Unqualified,,shobha@knsgroup.in,shobha@knsgroup.in
KNS Aroha,Raju,9845467278,,,,SMS Blast,Call back,Cold,,shobha@knsgroup.in,shobha@knsgroup.in
Unnati Phase - 2,Not Available,9481785696,,,,SMS Blast,Not Reachable,Cold,,shobha@knsgroup.in,shobha@knsgroup.in
Unnati Phase - 2,Sarvanan,9739700027,,,RR Nagar,SMS Blast,Sv Scheduled on 10/10 cb morning / Sv pp for 17/10,Hot,,shobha@knsgroup.in,shobha@knsgroup.in
Unnati Phase - 2,Not Available,9964123284,,,,SMS Blast,Not Reachable ,Cold,,shobha@knsgroup.in,shobha@knsgroup.in
KNS Anagha,Surendra,9036602755,,,,SMS Blast,Called for Job,Unqualified,,shobha@knsgroup.in,shobha@knsgroup.in
Unnati Phase - 2,Not Available,1244604343,,,,SMS Blast,Call not Connecting ,Cold,,shobha@knsgroup.in,shobha@knsgroup.in
KNS Anagha,Not Available,9886706792,,,,SMS Blast,Just Enquired ,Cold,,shobha@knsgroup.in,shobha@knsgroup.in
