Project,Customer Name,Mobile No,Email,Company,Location,Source,Remarks,Intrest Status,Follow up Date,Assign to,Assign By
Anirvan Phase - 1,Sara Javeriya,71552367648,sarajaveriya@rediffmail.com,,,Facebook,,,,mahesh@knsgroup.in,priya@knsgroup.in
Anirvan Phase - 1,Umme Salma,7899915177,salmashazad@gmail.com,,,Facebook,,,,mahesh@knsgroup.in,priya@knsgroup.in
Anirvan Phase - 1,Mahalakshmi R Shanka,9741522711,mahasuni@yahoo.co.in,,,Facebook,,,,mahesh@knsgroup.in,priya@knsgroup.in
Anirvan Phase - 1,Kanak Narasimhan,9845726010,kanakalakshmy@rediffmail.com,,,Facebook,,,,nandeesha.k@knsgroup.in,priya@knsgroup.in
Anirvan Phase - 1,Rama Girohtra,9820828249,rama.girohtra0912@gmail.com,,BSK,Facebook,,,,nandeesha.k@knsgroup.in,priya@knsgroup.in
Anirvan Phase - 1,Muniraja Bangalore,9481924357,rmuniraja1974@yahoo.com,,,Facebook,,,,nandeesha.k@knsgroup.in,priya@knsgroup.in
Anirvan Phase - 1,Anita Kulkarni,9676972423,anitak.kulkarni@gmail.com,,,Facebook,,,,prithvi@knsgroup.in,priya@knsgroup.in
Anirvan Phase - 1,Syed Mujeeb,9986680546,syedmujeeb185@yahoo.in,,,Facebook,,,,prithvi@knsgroup.in,priya@knsgroup.in
Anirvan Phase - 1,Krishna Kumar,9845190542,krishnakumar.a@airtel.com,,,Facebook,,,,prithvi@knsgroup.in,priya@knsgroup.in
