Project,Customer Name,Mobile No,Email,Company,Location,Source,Remarks,Intrest Status,Follow up Date,Assign to,Assign By
Anirvan Phase - 2,sham,8880843750,,,,Click India,,TBF,12-Apr-16,rama@knsgroup.in,lakshmana@knsgroup.in
Anirvan Phase - 2,vijay,9035127645,,,,Click India,,TBF,12-Apr-16,rama@knsgroup.in,lakshmana@knsgroup.in
Anirvan Phase - 2,Anandha Reddy,8123412134,,,,Facebook,,TBF,12-Apr-16,rama@knsgroup.in,lakshmana@knsgroup.in
Anirvan Phase - 2,Chetan Jain,9632525786,,,,Facebook,,TBF,12-Apr-16,rama@knsgroup.in,lakshmana@knsgroup.in
Anirvan Phase - 2,Venkat,9036065856,venky3788709@gmail.com,,,Website,,TBF,12-Apr-16,rama@knsgroup.in,lakshmana@knsgroup.in
Anirvan Phase - 2,Nadeemsahil,9906808308,nadeemsahil0442@gmail.com,,,Quickr,,TBF,12-Apr-16,rama@knsgroup.in,lakshmana@knsgroup.in
Anirvan Phase - 2,Swaroop,9980220220,swaroopdc@gmail.com,,,Quickr,,TBF,12-Apr-16,rama@knsgroup.in,lakshmana@knsgroup.in
Anirvan Phase - 2,Rammurthy,9632822705,praexpress@gmail.com ,,,Quickr,,TBF,12-Apr-16,rama@knsgroup.in,lakshmana@knsgroup.in
Anirvan Phase - 2,padmanabha,9880570203,padmanabhas22@gmail.com,,,Quickr,,TBF,12-Apr-16,rama@knsgroup.in,lakshmana@knsgroup.in
KNS Aroha Phase - A,Anand,9900567951,anandvcd@yahoo.co.in,,,Quickr,,TBF,12-Apr-16,rama@knsgroup.in,lakshmana@knsgroup.in
KNS Aroha Phase - A,Keshav,9880785000,keshu001@yahoo.com,,,Quickr,,TBF,12-Apr-16,rama@knsgroup.in,lakshmana@knsgroup.in
Anirvan Phase - 2,Nagesh,8277023421,nageshanne877@yahoo.com,,,Quickr,,TBF,12-Apr-16,rama@knsgroup.in,lakshmana@knsgroup.in
Anirvan Phase - 2,Pradeepkumar Rao M K,9845004534,raokpradeep@gmail.com,,,Facebook,,TBF,12-Apr-16,rama@knsgroup.in,lakshmana@knsgroup.in
Anirvan Phase - 2,Ashwini Jnanavi,8892356596,ashwini.dancelife09@gmail.com,,,Facebook,,TBF,12-Apr-16,rama@knsgroup.in,lakshmana@knsgroup.in
Anirvan Phase - 2,Ramesh Aralikatte Subramanya,9980156500,test.czar@gmail.com,,,Facebook,,TBF,12-Apr-16,rama@knsgroup.in,lakshmana@knsgroup.in
Anirvan Phase - 2,Raju David,9902709466,raju04.lokesh@gmail.com,,,Facebook,,TBF,12-Apr-16,rama@knsgroup.in,lakshmana@knsgroup.in
Anirvan Phase - 2,Amesha Amesha,9964018999,ameshscool99@gmail.com,,,Facebook,,TBF,12-Apr-16,rama@knsgroup.in,lakshmana@knsgroup.in
Anirvan Phase - 2,Drbhagavathi Prakash,8880289536,drprakashbhagavathi@gmail.com,,,Facebook,,TBF,12-Apr-16,rama@knsgroup.in,lakshmana@knsgroup.in
Anirvan Phase - 2,Lokesh Raju,9880990755,raju.lokesh@gmail.com,,,Facebook,,TBF,12-Apr-16,rama@knsgroup.in,lakshmana@knsgroup.in
Anirvan Phase - 2,Susheeb k,9743259350,susheeb.1902@gmail.com,,,Live Chat,,TBF,12-Apr-16,priya@knsgroup.in,lakshmana@knsgroup.in
Anirvan Phase - 2,Nill,9243068552,manjumala2009@gmail.com,,,Live Chat,,TBF,12-Apr-16,priya@knsgroup.in,lakshmana@knsgroup.in
Anirvan Phase - 2,Indra PRAKASH,9243580322,indraprakashmys@yahoo.com,,,Live Chat,,TBF,12-Apr-16,priya@knsgroup.in,lakshmana@knsgroup.in
Anirvan Phase - 2,Kishore,9886342832,Nill,,,Live Chat,,TBF,12-Apr-16,priya@knsgroup.in,lakshmana@knsgroup.in
Anirvan Phase - 2,Suresh ,9972399413,,,,Click India,,TBF,12-Apr-16,rama@knsgroup.in,lakshmana@knsgroup.in
Anirvan Phase - 2,badri,7814725869,,,,Click India,,TBF,12-Apr-16,rama@knsgroup.in,lakshmana@knsgroup.in
Anirvan Phase - 2,Prashanth,9986555579,,,,Facebook,,TBF,12-Apr-16,rama@knsgroup.in,lakshmana@knsgroup.in
Anirvan Phase - 2,sujith ram,9886341246,,,,Facebook,,TBF,12-Apr-16,rama@knsgroup.in,lakshmana@knsgroup.in
Anirvan Phase - 2,Anandha Reddy,8123412134,,,,Facebook,,TBF,12-Apr-16,rama@knsgroup.in,lakshmana@knsgroup.in
Anirvan Phase - 2,Chetan Jain,9632525786,,,,Facebook,,TBF,12-Apr-16,rama@knsgroup.in,lakshmana@knsgroup.in
Anirvan Phase - 2,Ashish Agarwal,8105665685,,,,Facebook,,TBF,12-Apr-16,rama@knsgroup.in,lakshmana@knsgroup.in
Anirvan Phase - 2,Vinod Kumar,9686235792,,,,Facebook,,TBF,12-Apr-16,rama@knsgroup.in,lakshmana@knsgroup.in
Anirvan Phase - 2,MG Realtors,9845009189,,,,Facebook,,TBF,12-Apr-16,rama@knsgroup.in,lakshmana@knsgroup.in
Anirvan Phase - 2,Sateesh N Viswanath,9986300002,,,,Facebook,,TBF,12-Apr-16,rama@knsgroup.in,lakshmana@knsgroup.in
Anirvan Phase - 2,Derek Joseph,9845697833,,,,Facebook,,TBF,12-Apr-16,rama@knsgroup.in,lakshmana@knsgroup.in
Anirvan Phase - 2,Khusrau Ahmed,9900999634,,,,Facebook,,TBF,12-Apr-16,rama@knsgroup.in,lakshmana@knsgroup.in
Anirvan Phase - 2,NK Kumar,9945904590,,,,Facebook,,TBF,12-Apr-16,rama@knsgroup.in,lakshmana@knsgroup.in
Anirvan Phase - 2,Jayashree A,9916224596,jayashreemanjunath2@gmail.com,,,Website,,TBF,12-Apr-16,rama@knsgroup.in,lakshmana@knsgroup.in
KNS Aroha Phase - A,Keshav,9880785000,keshu001@yahoo.com ,,,Quickr,,TBF,12-Apr-16,rama@knsgroup.in,lakshmana@knsgroup.in
KNS Aroha Phase - A,Veeru,9845346347,murala.veeru@gmail.com,,,Magicbricks,,TBF,12-Apr-16,rama@knsgroup.in,lakshmana@knsgroup.in
Anirvan Phase - 2,Gowda,8971703920,gowdads16@gmail.com,,,Quickr,,TBF,12-Apr-16,rama@knsgroup.in,lakshmana@knsgroup.in
KNS Aroha Phase - A,manoj,9743153404,manukeerthi@gmail.com,,,Quickr,,TBF,12-Apr-16,rama@knsgroup.in,lakshmana@knsgroup.in
KNS Aroha Phase - A,Messi Jacob ,8754825448,meffinjacob@gmail.com,,,Quickr,,TBF,12-Apr-16,rama@knsgroup.in,lakshmana@knsgroup.in
KNS Aroha Phase - A,Giri,9765093366,giri_karumuri@yahoo.com,,,Quickr,,TBF,12-Apr-16,rama@knsgroup.in,lakshmana@knsgroup.in
KNS Aroha Phase - A,Mala,9742129915,gabriearul@gamil.com,,,Quickr,,TBF,12-Apr-16,rama@knsgroup.in,lakshmana@knsgroup.in
Anirvan Phase - 2,Vijay,9743003026,vijii1986@gmail.com,,,Quickr,,TBF,12-Apr-16,rama@knsgroup.in,lakshmana@knsgroup.in
KNS Aroha Phase - A,Venkatesh,9845835856,venkatesh_tJ@yahoo.com ,,,Quickr,,TBF,12-Apr-16,rama@knsgroup.in,lakshmana@knsgroup.in
KNS Aroha Phase - A,Vardhan,9036149072,vardhansyn@yahoo.com ,,,Quickr,,TBF,12-Apr-16,rama@knsgroup.in,lakshmana@knsgroup.in
Anirvan Phase - 2,Prasad Bk ,9916129941,docprasadbk@rediffmail.com,,,Quickr,,TBF,12-Apr-16,rama@knsgroup.in,lakshmana@knsgroup.in
Anirvan Phase - 2,Dinesh Raj G,9008752143,drajblue38@gmail.com.com,,,Facebook,,TBF,12-Apr-16,rama@knsgroup.in,lakshmana@knsgroup.in
Anirvan Phase - 2,Gavirangappa Gavi,9663374314,gavi1985b@gmail.com,,,Facebook,,TBF,12-Apr-16,rama@knsgroup.in,lakshmana@knsgroup.in
Anirvan Phase - 2,Syed Mukaram,9886274865,muk.pasha@gmail.com,,,Facebook,,TBF,12-Apr-16,rama@knsgroup.in,lakshmana@knsgroup.in
Anirvan Phase - 2,Mohammed Sabeel,8088890702,mohammed.sabeel89@gmail.com,,,Facebook,,TBF,12-Apr-16,rama@knsgroup.in,lakshmana@knsgroup.in
Anirvan Phase - 2,Srinivas Gr,9449128082,srinivasbaba113@gmail.com,,,Facebook,,TBF,12-Apr-16,rama@knsgroup.in,lakshmana@knsgroup.in
Unnati Phase - 2,Srinivas,9449128082,srini_advocate@yahoo.co.in,,,Live Chat,,TBF,12-Apr-16,priya@knsgroup.in,lakshmana@knsgroup.in
Unnati Phase - 2,Gopal,Nill,gops_kb@gmail.com,,,Live Chat,,TBF,12-Apr-16,priya@knsgroup.in,lakshmana@knsgroup.in
Unnati Phase - 2,Virat kohli,9415478548,rctbah123@gmail.com,,,Live Chat,,TBF,12-Apr-16,priya@knsgroup.in,lakshmana@knsgroup.in
KNS Aroha Phase - A,Vikesh,4083455091,vikeshbhat@gmail.com,,,Live Chat,,TBF,12-Apr-16,priya@knsgroup.in,lakshmana@knsgroup.in
Unnati Phase - 2,Nagesh,8277023421,nageshanne877@yahoo.com,,,Quickr,,TBF,12-Apr-16,rama@knsgroup.in,lakshmana@knsgroup.in
Unnati Phase - 2,Girish,9886849747,coorghitler@gmail.com,,,Quickr,,TBF,12-Apr-16,rama@knsgroup.in,lakshmana@knsgroup.in
KNS Aroha Phase - A,Giri ,9765093366,giri_karumuri@yahoo.com,,,Quickr,,TBF,12-Apr-16,rama@knsgroup.in,lakshmana@knsgroup.in
KNS Aroha Phase - A,Raju,9524425239,mln01617@yahoo.co.in,,,Quickr,,TBF,12-Apr-16,rama@knsgroup.in,lakshmana@knsgroup.in
KNS Aroha Phase - A,AJITH,9741582727,bhau2727@gmail.com,,,Quickr,,TBF,12-Apr-16,rama@knsgroup.in,lakshmana@knsgroup.in
KNS Aroha Phase - A,Vijay,9972517689,vijay.chage@gmail.com,,,Quickr,,TBF,12-Apr-16,rama@knsgroup.in,lakshmana@knsgroup.in
KNS Aroha Phase - A,Ramakrishna,9986878793,ramki_mech@yahoo.com,,,Quickr,,TBF,12-Apr-16,rama@knsgroup.in,lakshmana@knsgroup.in
KNS Aroha Phase - A,Kiran,9980301495,kiran2861@gmail.com,,,Quickr,,TBF,12-Apr-16,rama@knsgroup.in,lakshmana@knsgroup.in
KNS Aroha Phase - A,Avinash,9886553268,kamkaravinash@gmail.com,,,Quickr,,TBF,12-Apr-16,rama@knsgroup.in,lakshmana@knsgroup.in
KNS Aroha Phase - A,Vinod,8971946644,avatala.zereddy@gmail.com,,,Quickr,,TBF,12-Apr-16,rama@knsgroup.in,lakshmana@knsgroup.in
KNS Aroha Phase - A,Ravish,8105027672,Ravish@gmail.com,,,Quickr,,TBF,12-Apr-16,rama@knsgroup.in,lakshmana@knsgroup.in
KNS Aroha Phase - A,Divya,9620888037,avyakrita@gmail.com,,,Quickr,,TBF,12-Apr-16,rama@knsgroup.in,lakshmana@knsgroup.in
KNS Aroha Phase - A,Suman,9972933365,sumansing@gmail.com,,,Quickr,,TBF,12-Apr-16,rama@knsgroup.in,lakshmana@knsgroup.in
Anirvan Phase - 2,Abhishek Yadav,9886779119,ayadav227@gmail.com,,,Facebook,,TBF,12-Apr-16,rama@knsgroup.in,lakshmana@knsgroup.in
Anirvan Phase - 2,Shadakshari Ks,9611572956,kssswamy45@gmail.com,,,Facebook,,TBF,12-Apr-16,rama@knsgroup.in,lakshmana@knsgroup.in
Anirvan Phase - 2,Ramachandra Panchanatham,9845483530,pramachandra@rediffmail.com,,,Facebook,,TBF,12-Apr-16,rama@knsgroup.in,lakshmana@knsgroup.in
Anirvan Phase - 2,Veera Raghavan PS,9986737140,srikanthraghavanps@yahoo.com,,,Facebook,,TBF,12-Apr-16,rama@knsgroup.in,lakshmana@knsgroup.in
Anirvan Phase - 2,Muniya Samy,9880785149,munis82@gmail.com,,,Facebook,,TBF,12-Apr-16,rama@knsgroup.in,lakshmana@knsgroup.in
Anirvan Phase - 2,Mrs.Hema,Nill,mailhemanatraj@rediffmail.com,,,Live Chat,,TBF,12-Apr-16,priya@knsgroup.in,lakshmana@knsgroup.in
Anirvan Phase - 2,Ajay,Nill,sushmajaykumar@gmail.com,,,Live Chat,,TBF,12-Apr-16,priya@knsgroup.in,lakshmana@knsgroup.in
Anirvan Phase - 2,Surendra naik,9343716192,surendranaik@bfw.co.in,,,Live Chat,,TBF,12-Apr-16,priya@knsgroup.in,lakshmana@knsgroup.in
KNS Aroha Phase - A,Keshav,8971611611,keshav.2011@gmail.com,,,Live Chat,,TBF,12-Apr-16,priya@knsgroup.in,lakshmana@knsgroup.in
Anirvan Phase - 2,Rahul,9886258895,chattarahul@gmail.com,,,Website,,TBF,12-Apr-16,rama@knsgroup.in,lakshmana@knsgroup.in
Anirvan Phase - 2,Krishna Chaitanya,9986796332,chaitu.dec14@gmail.com,,,Website,,TBF,12-Apr-16,rama@knsgroup.in,lakshmana@knsgroup.in
KNS Aroha Phase - A,Suman,9972933365,sumansing@gmail.com,,,Quickr,,TBF,12-Apr-16,rama@knsgroup.in,lakshmana@knsgroup.in
KNS Aroha Phase - A,Kiran,9980301495,kiran2861@gmail.com ,,,Quickr,,TBF,12-Apr-16,rama@knsgroup.in,lakshmana@knsgroup.in
KNS Aroha Phase - A,Samba,9900755476,latha.dheemaneni@gmail.com ,,,Quickr,,TBF,12-Apr-16,rama@knsgroup.in,lakshmana@knsgroup.in
KNS Aroha Phase - A,Venkat,9845927748,touchvenky@gmail.com,,,Quickr,,TBF,12-Apr-16,rama@knsgroup.in,lakshmana@knsgroup.in
KNS Aroha Phase - A,Divya,9620888037,avyakrita@gmail.com,,,Quickr,,TBF,12-Apr-16,rama@knsgroup.in,lakshmana@knsgroup.in
Unnati Phase - 2,Avinash,9538087328,ahamofoundation@gmail.com,,,Quickr,,TBF,12-Apr-16,rama@knsgroup.in,lakshmana@knsgroup.in
Anirvan Phase - 2,Vijay,9972517689,vijay.chage@gmail.com,,,Quickr,,TBF,12-Apr-16,rama@knsgroup.in,lakshmana@knsgroup.in
KNS Aroha Phase - A,Harsh,8412031911,harsh.nairr@gmail.com,,,Quickr,,TBF,12-Apr-16,rama@knsgroup.in,lakshmana@knsgroup.in
Unnati Phase - 2,Kamlesh,9739127466,kamlesh_cmrit@yahoo.co.in,,,Magicbricks,,TBF,12-Apr-16,rama@knsgroup.in,lakshmana@knsgroup.in
KNS Aroha Phase - A,Ramesh,9886997213,rams_nitw@yahoo.co.in,,,Quickr,,TBF,12-Apr-16,rama@knsgroup.in,lakshmana@knsgroup.in
Unnati Phase - 2,ArunKumar,9886825722,jgarun16@gmail.com ,,,Quickr,,TBF,12-Apr-16,rama@knsgroup.in,lakshmana@knsgroup.in
KNS Aroha Phase - A,Vijay,9972517689,vijay.chage@gmail.com ,,,Quickr,,TBF,12-Apr-16,rama@knsgroup.in,lakshmana@knsgroup.in
Anirvan Phase - 2,Veena,9538231027,veenahitha@gmail.com,,,Quickr,,TBF,12-Apr-16,rama@knsgroup.in,lakshmana@knsgroup.in
KNS Aroha Phase - A,Nagarjuna,9632337455,nagarjuna.bpc@gmail.com,,,Quickr,,TBF,12-Apr-16,rama@knsgroup.in,lakshmana@knsgroup.in
Anirvan Phase - 2,Shashidhar,8971119321,shashi4jc@gmail.com,,,Quickr,,TBF,12-Apr-16,rama@knsgroup.in,lakshmana@knsgroup.in
Anirvan Phase - 2,Raghava Reddy,9742468068,raghavreddy_r@yahoo.co.in,,,Facebook,,TBF,12-Apr-16,rama@knsgroup.in,lakshmana@knsgroup.in
Anirvan Phase - 2,Aravind Charan,9035777553,arvind.bindu143@gmail.com,,,Facebook,,TBF,12-Apr-16,rama@knsgroup.in,lakshmana@knsgroup.in
Anirvan Phase - 2,Karthik Gowda,9886216322,karthikgowda1@gmail.com,,,Facebook,,TBF,12-Apr-16,rama@knsgroup.in,lakshmana@knsgroup.in
Anirvan Phase - 2,Imran.a.s,9448419039,imran7sheikh@gmail.com,,,Facebook,,TBF,12-Apr-16,rama@knsgroup.in,lakshmana@knsgroup.in
Anirvan Phase - 2,Arvind Dwarak,9945333693,arvinddwarak@gmail.com,,,Facebook,,TBF,12-Apr-16,rama@knsgroup.in,lakshmana@knsgroup.in
Anirvan Phase - 2,Anand Shetty,7353568566,sam_she7me@yahoo.co.in,,,Facebook,,TBF,12-Apr-16,rama@knsgroup.in,lakshmana@knsgroup.in
Unnati Phase - 2,Sangeetha,9972216535,puppypoky1@gmail.com,,,Live Chat,,TBF,12-Apr-16,priya@knsgroup.in,lakshmana@knsgroup.in
Unnati Phase - 2,Srikanth,9535624147,srikanth.kantha13@gmail.com,,,Live Chat,,TBF,12-Apr-16,priya@knsgroup.in,lakshmana@knsgroup.in
KNS Aroha Phase - A,Nill,Nill,hmtuma@rediffmail.com,,,Live Chat,,TBF,12-Apr-16,priya@knsgroup.in,lakshmana@knsgroup.in
Anirvan Phase - 2,CG Raghavendra Rao,9845031330,,,,Click India,,TBF,12-Apr-16,rama@knsgroup.in,lakshmana@knsgroup.in
Anirvan Phase - 2,Sharath kashyap,9880696164,,,,Click India,,TBF,12-Apr-16,rama@knsgroup.in,lakshmana@knsgroup.in
Anirvan Phase - 2,madhavan,7338324659,,,,Click India,,TBF,12-Apr-16,rama@knsgroup.in,lakshmana@knsgroup.in
Anirvan Phase - 2,jagannath,9845021401,,,,Click India,,TBF,12-Apr-16,rama@knsgroup.in,lakshmana@knsgroup.in
Anirvan Phase - 2,Karthik,9886216322,Karthikgowda1@gmail.com,,,Live Chat,,TBF,12-Apr-16,priya@knsgroup.in,lakshmana@knsgroup.in
KNS Aroha Phase - A,Rahul,9886258895,chattarahul@gmail.com,,,Live Chat,,TBF,12-Apr-16,priya@knsgroup.in,lakshmana@knsgroup.in
Unnati Phase - 2,Srikanth,9535624147,srikanth.kantha13@gmail.com,,,Live Chat,,TBF,12-Apr-16,priya@knsgroup.in,lakshmana@knsgroup.in
KNS Aroha Phase - A,Nill,Nill,vidya.b.ct@gmail.com,,,Live Chat,,TBF,12-Apr-16,priya@knsgroup.in,lakshmana@knsgroup.in
Unnati Phase - 2,Ramesh,Nill,ah.vinod@gmail.com,,,Live Chat,,TBF,12-Apr-16,priya@knsgroup.in,lakshmana@knsgroup.in
Unnati Phase - 2,Surendra Naik,9343716192,surendranaik@bfw.co.in,,,Live Chat,,TBF,12-Apr-16,priya@knsgroup.in,lakshmana@knsgroup.in
KNS Aroha Phase - A,Pavithra,7022899271,paviraghuram54@gmail.com,,,Live Chat,,TBF,12-Apr-16,priya@knsgroup.in,lakshmana@knsgroup.in
KNS Aroha Phase - A,Veeresh,9900505120,veeresh.proyal@gmail.com,,,Live Chat,,TBF,12-Apr-16,priya@knsgroup.in,lakshmana@knsgroup.in
Anirvan Phase - 2,Deepak,8123005007,deepakdas0979@gmail.com,,,Live Chat,,TBF,12-Apr-16,priya@knsgroup.in,lakshmana@knsgroup.in
Unnati Phase - 2,Sujay,9880542277,hnsujay@gmail.com,,,Live Chat,,TBF,12-Apr-16,priya@knsgroup.in,lakshmana@knsgroup.in
Unnati Phase - 2,Manjunath,9342967574,prmshcrn@gmail.com,,,Live Chat,,TBF,12-Apr-16,priya@knsgroup.in,lakshmana@knsgroup.in
Unnati Phase - 2,Murthy,44-7448522279,bgvm674902003@yahoo.com,,,Live Chat,,TBF,12-Apr-16,priya@knsgroup.in,lakshmana@knsgroup.in
Unnati Phase - 2,Ravi,Nill,ravikamkar@rediffmail.com,,,Live Chat,,TBF,12-Apr-16,priya@knsgroup.in,lakshmana@knsgroup.in
KNS Aroha Phase - A,Vardhan,9036149072,vardhansyn@yahoo.com,,,Quickr,,TBF,12-Apr-16,rama@knsgroup.in,lakshmana@knsgroup.in
KNS Aroha Phase - A,Abhilash,9738662460,1rn08ec003@gmail.com,,,Quickr,,TBF,12-Apr-16,rama@knsgroup.in,lakshmana@knsgroup.in
KNS Aroha Phase - A,virender,7829219191,vinny1604@gmail.com,,,Quickr,,TBF,12-Apr-16,rama@knsgroup.in,lakshmana@knsgroup.in
KNS Aroha Phase - A,abishek,8008016951,tashu2305@gmail.com ,,,Quickr,,TBF,12-Apr-16,rama@knsgroup.in,lakshmana@knsgroup.in
KNS Aroha Phase - A,mahid,8050933931,mahidali@gmail.com,,,Quickr,,TBF,12-Apr-16,rama@knsgroup.in,lakshmana@knsgroup.in
Anirvan Phase - 2,Veena,9538231027,veenahitha@gmail.com,,,Quickr,,TBF,12-Apr-16,rama@knsgroup.in,lakshmana@knsgroup.in
KNS Aroha Phase - A,Sasi Kumar ,8884080123,sasikumarsatya@yahoo.co.in,,,Quickr,,TBF,12-Apr-16,rama@knsgroup.in,lakshmana@knsgroup.in
KNS Aroha Phase - A,vidhya,8884500084,Vidya.b.ct@gmail.com,,,Quickr,,TBF,12-Apr-16,rama@knsgroup.in,lakshmana@knsgroup.in
KNS Aroha Phase - A,chethana,9686108833,chethana.s@gmail.com,,,Magicbricks,,TBF,12-Apr-16,rama@knsgroup.in,lakshmana@knsgroup.in
Unnati Phase - 2,Nagaraj Upadhyaya HV ,9945567068,hvnupadhyaya@gmail.com,,,Quickr,,TBF,12-Apr-16,rama@knsgroup.in,lakshmana@knsgroup.in
KNS Aroha Phase - A,Arul,7418443369,arulsk@yahoo.com,,,Quickr,,TBF,12-Apr-16,rama@knsgroup.in,lakshmana@knsgroup.in
Anirvan Phase - 2,Prasad Bk,9916129941,docprasadbk@rediffmail.com,,,Quickr,,TBF,12-Apr-16,rama@knsgroup.in,lakshmana@knsgroup.in
Anirvan Phase - 2,Gagan Veer,9902330685,gaganveer659@gmail.com,,,Facebook,,TBF,12-Apr-16,rama@knsgroup.in,lakshmana@knsgroup.in
Anirvan Phase - 2,Lokesh Shetty,9986060012,lokisonu@gmail.com,,,Facebook,,TBF,12-Apr-16,rama@knsgroup.in,lakshmana@knsgroup.in
Anirvan Phase - 2,Veda Prakash,9448281853,vedaprakashg@gmail.com,,,Facebook,,TBF,12-Apr-16,rama@knsgroup.in,lakshmana@knsgroup.in
Anirvan Phase - 2,Amit Kapoor,9329545312,,,,Facebook,,TBF,12-Apr-16,rama@knsgroup.in,lakshmana@knsgroup.in
Anirvan Phase - 2,Mahesh,9900091733,mahesh.by@gmail.com,,,Live Chat,,TBF,12-Apr-16,priya@knsgroup.in,lakshmana@knsgroup.in
Unnati Phase - 2,Harish,8971405175,harishbabu0911@gmail.com,,,Live Chat,,TBF,12-Apr-16,priya@knsgroup.in,lakshmana@knsgroup.in
Unnati Phase - 2,Basavaraj,Nill,hkrhkr@gmail.com,,,Live Chat,,TBF,12-Apr-16,priya@knsgroup.in,lakshmana@knsgroup.in
Unnati Phase - 2,Ashwath,9731344887,ashwath012@yahoo.co.in,,,Live Chat,,TBF,12-Apr-16,priya@knsgroup.in,lakshmana@knsgroup.in
KNS Aroha Phase - A,Praveena,9880966832,nijaling.bk@gmail.com,,,Live Chat,,TBF,12-Apr-16,priya@knsgroup.in,lakshmana@knsgroup.in
unnati Phase - 2,Suvarna,9663425834,suvarna.sandeep@gmail.com,,,Live Chat,,TBF,12-Apr-16,priya@knsgroup.in,lakshmana@knsgroup.in
Anirvan Phase - 2,Sathiq,97-1505682937,sathiq99@Yahoo.com,,,Live Chat,,TBF,12-Apr-16,priya@knsgroup.in,lakshmana@knsgroup.in
Unnati Phase - 2,Rajith,9901966577,rajith.pv@gmail.com,,,Live Chat,,TBF,12-Apr-16,priya@knsgroup.in,lakshmana@knsgroup.in
Unnati Phase - 2,Preethi,9980100774,preethi_bgl@yahoo.co.in,,,Live Chat,,TBF,12-Apr-16,priya@knsgroup.in,lakshmana@knsgroup.in
Anirvan Phase - 2,Nagaraj Upadhyaya HV ,9945567068,hvnupadhyaya@gmail.com,,,Quickr,,TBF,12-Apr-16,rama@knsgroup.in,lakshmana@knsgroup.in
KNS Aroha Phase - A,Arul,7418443369,arulsk@yahoo.com,,,Quickr,,TBF,12-Apr-16,rama@knsgroup.in,lakshmana@knsgroup.in
KNS Aroha Phase - A,Kamlesh,8880748856,kamlesh.gupta82@gmail.com,,,Quickr,,TBF,12-Apr-16,rama@knsgroup.in,lakshmana@knsgroup.in
KNS Aroha Phase - A,Ravi Prasad,9035400509,sanga2008@gmail.com,,,Quickr,,TBF,12-Apr-16,rama@knsgroup.in,lakshmana@knsgroup.in
KNS Aroha Phase - A,vidhya,8884500084,Vidya.b.ct@gmail.com,,,Quickr,,TBF,12-Apr-16,rama@knsgroup.in,lakshmana@knsgroup.in
Unnati Phase - 2,karti,8970326455,ssv_hr@yahoo.co.in,,,Magicbricks,,TBF,12-Apr-16,rama@knsgroup.in,lakshmana@knsgroup.in
KNS Aroha Phase - A,Harsh,8412031911,harsh.nairr@gmail.com,,,Quickr,,TBF,12-Apr-16,rama@knsgroup.in,lakshmana@knsgroup.in
Anirvan Phase - 2,Swamy,9880600565,yeriswami@yahoo.com,,,Quickr,,TBF,12-Apr-16,rama@knsgroup.in,lakshmana@knsgroup.in
KNS Aroha Phase - A,Mariappan,9880166240,mariappan.balraj@gmail.com,,,Quickr,,TBF,12-Apr-16,rama@knsgroup.in,lakshmana@knsgroup.in
KNS Aroha Phase - A,Sujit,9573266122,sujit.das112@gmail.com,,,Quickr,,TBF,12-Apr-16,rama@knsgroup.in,lakshmana@knsgroup.in
KNS Aroha Phase - A,suresh,8904358520,sureskanchan@gmail.com,,,Quickr,,TBF,12-Apr-16,rama@knsgroup.in,lakshmana@knsgroup.in
Unnati Phase - 2,Sathish,9538066632,sathish3384@gmail.com,,,Quickr,,TBF,12-Apr-16,rama@knsgroup.in,lakshmana@knsgroup.in
KNS Aroha Phase - A,Vijay,9972517689,vijay.chage@gmail.com,,,Quickr,,TBF,12-Apr-16,rama@knsgroup.in,lakshmana@knsgroup.in
KNS Aroha Phase - A,G Kailath,9886019720,gkailath@gmail.com,,,Quickr,,TBF,12-Apr-16,rama@knsgroup.in,lakshmana@knsgroup.in
Anirvan Phase - 2,sanjeet kumar,9886240698,sanjeev.kr@gmail.com,,,Quickr,,TBF,12-Apr-16,rama@knsgroup.in,lakshmana@knsgroup.in
Anirvan Phase - 2,Suraj Deshpande,9480402800,rdsuraj@gmail.com,,,Quickr,,TBF,12-Apr-16,rama@knsgroup.in,lakshmana@knsgroup.in
Unnati Phase - 2,Naveen,9742133309,kool.navin82@gmail.com,,,Quickr,,TBF,12-Apr-16,rama@knsgroup.in,lakshmana@knsgroup.in
KNS Aroha Phase - A,Lakshmana murthy,9902966442,lmoorthy.j@gmail.com,,,Quickr,,TBF,12-Apr-16,rama@knsgroup.in,lakshmana@knsgroup.in
KNS Aroha Phase - A,Vijay,9972517689,vijay.chage@gmail.com,,,Quickr,,TBF,12-Apr-16,rama@knsgroup.in,lakshmana@knsgroup.in
KNS Aroha Phase - A,vasudha,9844408713,vasudha1002003@yahoo.co.in,,,Quickr,,TBF,12-Apr-16,rama@knsgroup.in,lakshmana@knsgroup.in
Anirvan Phase - 2,Ali,9902531969,sdasgar_5@yahoo.com,,,Quickr,,TBF,12-Apr-16,rama@knsgroup.in,lakshmana@knsgroup.in
KNS Aroha Phase - A,Ramakrishna,9986878793,ramki_mech@yahoo.com,,,Quickr,,TBF,12-Apr-16,rama@knsgroup.in,lakshmana@knsgroup.in
KNS Aroha Phase - A,Sudhakarkrishna,9972466220,sudhi_1011@hotmail.com ,,,Quickr,,TBF,12-Apr-16,rama@knsgroup.in,lakshmana@knsgroup.in
Unnati Phase - 2,ArunKumar,9886825722,jgarun16@gmail.com,,,Quickr,,TBF,12-Apr-16,rama@knsgroup.in,lakshmana@knsgroup.in
Anirvan Phase - 2,CHANDRAMOULI,9880148588,kacmouli@gmail.com,,,Quickr,,TBF,12-Apr-16,rama@knsgroup.in,lakshmana@knsgroup.in
KNS Aroha Phase - A,Anil nagaraj,9620094848,anilhnnagaraj@gmail.com,,,Quickr,,TBF,12-Apr-16,rama@knsgroup.in,lakshmana@knsgroup.in
KNS Aroha Phase - A,Ramesh,9611783487,mailrameshbabu@gmail.com,,,Quickr,,TBF,12-Apr-16,rama@knsgroup.in,lakshmana@knsgroup.in
Anirvan Phase - 2,Hemanth,9035298880,hemgeth@yahoo.co.in,,,Quickr,,TBF,12-Apr-16,rama@knsgroup.in,lakshmana@knsgroup.in
Anirvan Phase - 2,annamma,9901960185,dummy@gmail.com,,,Quickr,,TBF,12-Apr-16,rama@knsgroup.in,lakshmana@knsgroup.in
KNS Aroha Phase - A,Rajan,9886329222,rajan.bel@gmail.com,,,Quickr,,TBF,12-Apr-16,rama@knsgroup.in,lakshmana@knsgroup.in
KNS Aroha Phase - A,G Kailath,9886019720,gkailath@gmail.com,,,Quickr,,TBF,12-Apr-16,rama@knsgroup.in,lakshmana@knsgroup.in
Anirvan Phase - 2,Raj Shekar Mysore,9900245366,raj_ms11@rediffmail.com,,,Facebook,,TBF,12-Apr-16,rama@knsgroup.in,lakshmana@knsgroup.in
Anirvan Phase - 2,Billa Saru,9485290118,saravana.Aru.sr@gmail.com,,,Facebook,,TBF,12-Apr-16,rama@knsgroup.in,lakshmana@knsgroup.in
Anirvan Phase - 2,Narendra Nareen,9538383138,nareenstudio@gmail.com,,,Facebook,,TBF,12-Apr-16,rama@knsgroup.in,lakshmana@knsgroup.in
Anirvan Phase - 2,Manugowda Tg,9036958210,manutg644@gmail.com,,,Facebook,,TBF,12-Apr-16,rama@knsgroup.in,lakshmana@knsgroup.in
Anirvan Phase - 2,Lokesh Thovinakere,9066448760,lokesh_dlr@yahoo.com,,,Facebook,,TBF,12-Apr-16,rama@knsgroup.in,lakshmana@knsgroup.in
Anirvan Phase - 2,Abhilash Gowda,9632950960,abhilash.m19@gmail.com,,,Facebook,,TBF,12-Apr-16,rama@knsgroup.in,lakshmana@knsgroup.in
Anirvan Phase - 2,Preethamgowda Preethi,9886996199,preet1982.cl@gmail.com,,,Facebook,,TBF,12-Apr-16,rama@knsgroup.in,lakshmana@knsgroup.in
Anirvan Phase - 2,Kiran Poojar,9845219979,khpujar@gmail.com,,,Facebook,,TBF,12-Apr-16,rama@knsgroup.in,lakshmana@knsgroup.in
Anirvan Phase - 2,Tejash,9900450920,tejashbhel@gmail.com,,,Website,,TBF,12-Apr-16,rama@knsgroup.in,lakshmana@knsgroup.in
Anirvan Phase - 2,Krishna,9986766816,krishn.b4u@gmail.com,,,Website,,TBF,12-Apr-16,rama@knsgroup.in,lakshmana@knsgroup.in
KNS Aroha Phase - A,Venkatesh,9845835856,venkatesh_tJ@yahoo.com,,,Quickr,,TBF,12-Apr-16,rama@knsgroup.in,lakshmana@knsgroup.in
Unnati Phase - 2,Sathish,9538066632,sathish3384@gmail.com,,,Quickr,,TBF,12-Apr-16,rama@knsgroup.in,lakshmana@knsgroup.in
Anirvan Phase - 2,kamal,9880141618,kamalb205@gmail.com,,,Quickr,,TBF,12-Apr-16,rama@knsgroup.in,lakshmana@knsgroup.in
KNS Aroha Phase - A,Venkatadri,8970078644,ravuru.venkatadri@gmail.com,,,Quickr,,TBF,12-Apr-16,rama@knsgroup.in,lakshmana@knsgroup.in
Anirvan Phase - 2,ravikulkarni,9880019259,ravi-kulkarni@vsnl.net,,,Quickr,,TBF,12-Apr-16,rama@knsgroup.in,lakshmana@knsgroup.in
KNS Aroha Phase - A,Karthick,8197890177,pingfederate7.0@gmail.com,,,Quickr,,TBF,12-Apr-16,rama@knsgroup.in,lakshmana@knsgroup.in
KNS Aroha Phase - A,siva shankar,9901287031,guntupallisivasankar@gmail.com,,,Quickr,,TBF,12-Apr-16,rama@knsgroup.in,lakshmana@knsgroup.in
KNS Aroha Phase - A,krishna,7829208000,rajkrish0305@gmail.com,,,Quickr,,TBF,12-Apr-16,rama@knsgroup.in,lakshmana@knsgroup.in
KNS Aroha Phase - A,Singh,9402196434,spsingh_cpwd07@yahoo.co.in,,,Quickr,,TBF,12-Apr-16,rama@knsgroup.in,lakshmana@knsgroup.in
Anirvan Phase - 2,Mariappa,9880166240,mariappan.balraj@gmail.com,,,Quickr,,TBF,12-Apr-16,rama@knsgroup.in,lakshmana@knsgroup.in
KNS Aroha Phase - A,Hemanth,9880564778,hemanthkr78@gmail.com,,,Quickr,,TBF,12-Apr-16,rama@knsgroup.in,lakshmana@knsgroup.in
Anirvan Phase - 2,VISHNUBHARATHM,9945800230,vishnubharathm@gmail.com,,,Quickr,,TBF,12-Apr-16,rama@knsgroup.in,lakshmana@knsgroup.in
Anirvan Phase - 2,sandeep,9620614034,pramamanand.math@gmail.com,,,Quickr,,TBF,12-Apr-16,rama@knsgroup.in,lakshmana@knsgroup.in
Anirvan Phase - 2,Suganth,9986838186,suganthic4u@gmail.com,,,Quickr,,TBF,12-Apr-16,rama@knsgroup.in,lakshmana@knsgroup.in
KNS Aroha Phase - A,rupesh,9845929331,rupeshchandra@gmail.com,,,Live Chat,,TBF,12-Apr-16,priya@knsgroup.in,lakshmana@knsgroup.in
Unnati Phase - 2,Mohan,9663413506,avengerjoy@gmail.com,,,Live Chat,,TBF,12-Apr-16,priya@knsgroup.in,lakshmana@knsgroup.in
Unnati Phase - 2,Nill,Nill,vardharaju.k@gmail.com,,,Live Chat,,TBF,12-Apr-16,priya@knsgroup.in,lakshmana@knsgroup.in
KNS Aroha Phase - A,Hemant Pradhan,6582688670,hkp_pradhan@yahoo.com,,,Live Chat,,TBF,12-Apr-16,priya@knsgroup.in,lakshmana@knsgroup.in
KNS Aroha Phase - A,Satya Sriharsha,9916159424,nunnasriharsha@gmail.com,,,Quickr,,TBF,12-Apr-16,rama@knsgroup.in,lakshmana@knsgroup.in
KNS Aroha Phase - A,Kishore,9986025002,hmkishor.2006@gmail.com,,,Quickr,,TBF,12-Apr-16,rama@knsgroup.in,lakshmana@knsgroup.in
KNS Aroha Phase - A,Ramesh Naik ,9108456130,rameshnaik75@gmail.com,,,Quickr,,TBF,12-Apr-16,rama@knsgroup.in,lakshmana@knsgroup.in
KNS Aroha Phase - A,suresh,8904358520,sureskanchan@gmail.com,,,Quickr,,TBF,12-Apr-16,rama@knsgroup.in,lakshmana@knsgroup.in
Anirvan Phase - 2,Prakash,9535762233,prakashvbang@gmail.com,,,Quickr,,TBF,12-Apr-16,rama@knsgroup.in,lakshmana@knsgroup.in
KNS Aroha Phase - A,Prasanna,9483857925,koppapk@gmail.com,,,Quickr,,TBF,12-Apr-16,rama@knsgroup.in,lakshmana@knsgroup.in
KNS Aroha Phase - A,Kadambisrock,7022042653,kadambisrock@gmail.com,,,Quickr,,TBF,12-Apr-16,rama@knsgroup.in,lakshmana@knsgroup.in
KNS Aroha Phase - A,parveen,9886923555,praveenbvbian@gmail.com,,,Quickr,,TBF,12-Apr-16,rama@knsgroup.in,lakshmana@knsgroup.in
KNS Aroha Phase - A,Joseph,8884982250,josephvincent.90@gmail.com,,,Quickr,,TBF,12-Apr-16,rama@knsgroup.in,lakshmana@knsgroup.in
KNS Aroha Phase - A,Deepankar,9972900487,deepankar.gaur@gmail.com,,,Quickr,,TBF,12-Apr-16,rama@knsgroup.in,lakshmana@knsgroup.in
KNS Aroha Phase - A,Mariappan,9880166240,mariappan.balraj@gmail.com,,,Quickr,,TBF,12-Apr-16,rama@knsgroup.in,lakshmana@knsgroup.in
Anirvan Phase - 2,Vikas Kumar,9945901391,vikask066@gmail.com,,,Facebook,,TBF,12-Apr-16,rama@knsgroup.in,lakshmana@knsgroup.in
Anirvan Phase - 2,Bhaskar Bas,9886021695,bhaskar.maruthiconstructions@gmail.com,,,Facebook,,TBF,12-Apr-16,rama@knsgroup.in,lakshmana@knsgroup.in
Anirvan Phase - 2,Nandagiri Dattatreya,9449880120,datta.bsnl@gmail.com,,,Facebook,,TBF,12-Apr-16,rama@knsgroup.in,lakshmana@knsgroup.in
Unnati Phase - 2,Sunagendra V,9886229753,sunagendra.kumar@gmail.com,,,Live Chat,,TBF,12-Apr-16,priya@knsgroup.in,lakshmana@knsgroup.in
Unnati Phase - 2,pradeep,9900456127,gs.pradeep09@gmail.com,,,Live Chat,,TBF,12-Apr-16,priya@knsgroup.in,lakshmana@knsgroup.in
KNS Aroha Phase - A,Rajesha MC ,9008402946,rajeshamc1975@rediffmail.com,,,Quickr,,TBF,12-Apr-16,rama@knsgroup.in,lakshmana@knsgroup.in
Anirvan Phase - 2,Vinodh,7259044320,vinodhc.reddy@gmail.com,,,Quickr,,TBF,12-Apr-16,rama@knsgroup.in,lakshmana@knsgroup.in
KNS Aroha Phase - A,krishna,9008115544,chaitu.goteti@gmail.com,,,Quickr,,TBF,12-Apr-16,rama@knsgroup.in,lakshmana@knsgroup.in
Anirvan Phase - 2,Abhimanyu,9008307227,abhi@benir.in,,,Quickr,,TBF,12-Apr-16,rama@knsgroup.in,lakshmana@knsgroup.in
Anirvan Phase - 2,Pera Vidyullathasree ,9945552254,seri.vidyu@gmail.com,,,Quickr,,TBF,12-Apr-16,rama@knsgroup.in,lakshmana@knsgroup.in
Anirvan Phase - 2,Karthick,9591897334,karthickbalaji@gmail.com,,,Quickr,,TBF,12-Apr-16,rama@knsgroup.in,lakshmana@knsgroup.in
KNS Aroha Phase - A,Delcy,9481487112,delcydinu@gmail.com,,,Quickr,,TBF,12-Apr-16,rama@knsgroup.in,lakshmana@knsgroup.in
Anirvan Phase - 2,Chethankumar GH,9986277118,rishon744@gmail.com,,,Facebook,,TBF,12-Apr-16,rama@knsgroup.in,lakshmana@knsgroup.in
Anirvan Phase - 2,Dadapeer Nalband,8555885522,dpeers@gmail.com,,,Facebook,,TBF,12-Apr-16,rama@knsgroup.in,lakshmana@knsgroup.in
Anirvan Phase - 2,Kalashree G Ram,9742088989,kalashree30@gmail.com,,,Facebook,,TBF,12-Apr-16,rama@knsgroup.in,lakshmana@knsgroup.in
KNS Aroha Phase - A,suman,9449521708,suman.bgl@gmail.com,,,Live Chat,,TBF,12-Apr-16,priya@knsgroup.in,lakshmana@knsgroup.in
Unnati Phase - 2,Venkataraman,93410099297,vemo2525@gmail.com,,,Live Chat,,TBF,12-Apr-16,priya@knsgroup.in,lakshmana@knsgroup.in
KNS Aroha Phase - A,Pawan,9341187063,spawan123333@gmail.com,,,Live Chat,,TBF,12-Apr-16,priya@knsgroup.in,lakshmana@knsgroup.in
KNS Aroha Phase - A,Nill,Nill,mkaresh85@gmail.com,,,Live Chat,,TBF,12-Apr-16,priya@knsgroup.in,lakshmana@knsgroup.in
KNS Aroha Phase - A,Kumar,8867907973,kumara.universal@gmail.com,,,Magicbricks,,TBF,12-Apr-16,rama@knsgroup.in,lakshmana@knsgroup.in
Anirvan Phase - 2,Lakshminarayanan,9738480698,lnarayananvlr@gmail.com,,,Quickr,,TBF,12-Apr-16,rama@knsgroup.in,lakshmana@knsgroup.in
KNS Aroha Phase - A,Rajesh,9845164480,rajeshnav@yahoo.com,,,Quickr,,TBF,12-Apr-16,rama@knsgroup.in,lakshmana@knsgroup.in
KNS Aroha Phase - A,Pavan,9980156980,pavan.parimi@gmail.com,,,Quickr,,TBF,12-Apr-16,rama@knsgroup.in,lakshmana@knsgroup.in
KNS Aroha Phase - A,Sayanta,9986578469,sayanta.dandapat@gmail.com,,,Quickr,,TBF,12-Apr-16,rama@knsgroup.in,lakshmana@knsgroup.in
Unnati Phase - 2,Madhukar Rai,9430966042,madhukar.rai1951@yahoo.com,,,Quickr,,TBF,12-Apr-16,rama@knsgroup.in,lakshmana@knsgroup.in
KNS Aroha Phase - A,puja Chandra ,9845929331,pujachandra@yahoo.co.in,,,Quickr,,TBF,12-Apr-16,rama@knsgroup.in,lakshmana@knsgroup.in
KNS Aroha Phase - A,MAGESH BABU,9585819900,magesh_smr@yahoo.co.in,,,Quickr,,TBF,12-Apr-16,rama@knsgroup.in,lakshmana@knsgroup.in
Anirvan Phase - 2,Shilpa Kulkarni ,9741598022,sshilpaa.coolkarni@gmail.com,,,Quickr,,TBF,12-Apr-16,rama@knsgroup.in,lakshmana@knsgroup.in
Anirvan Phase - 2,Praveen,9886923555,praveenbvbian@gmail.com,,,Quickr,,TBF,12-Apr-16,rama@knsgroup.in,lakshmana@knsgroup.in
KNS Aroha Phase - A,Sreevani,9916319299,sreevani.medicherla@gmail.com,,,Quickr,,TBF,12-Apr-16,rama@knsgroup.in,lakshmana@knsgroup.in
Unnati Phase - 2,chandan,9886147123,chandan3339@gmail.com,,,Quickr,,TBF,12-Apr-16,rama@knsgroup.in,lakshmana@knsgroup.in
Anirvan Phase - 2,H.b. Chandrashekhar,7406667799,chandrashekhar.design@gmail.com,,,Facebook,,TBF,12-Apr-16,rama@knsgroup.in,lakshmana@knsgroup.in
Anirvan Phase - 2,Krishna Murthy,9000000000,Indiankrishnamurthy@gmail.com,,,Facebook,,TBF,12-Apr-16,rama@knsgroup.in,lakshmana@knsgroup.in
Anirvan Phase - 2,Prabhu PRabhu R,9901103035,prabhur122@gmail.com,,,Facebook,,TBF,12-Apr-16,rama@knsgroup.in,lakshmana@knsgroup.in
Anirvan Phase - 2,Vikas Devera,9343347733,vikasphotography1@gmail.com,,,Facebook,,TBF,12-Apr-16,rama@knsgroup.in,lakshmana@knsgroup.in
KNS Aroha Phase - A,pankaj dokania,9844185678,pankaj@durian.in,,,Live Chat,,TBF,12-Apr-16,priya@knsgroup.in,lakshmana@knsgroup.in
KNS Aroha Phase - A,Kaushal,Nill,it_Kaushal@rediffmail.com,,,Live Chat,,TBF,12-Apr-16,priya@knsgroup.in,lakshmana@knsgroup.in
Anirvan Phase - 2,Chandru,9902826870,Chandru196090@yahoo.co.in,,,Live Chat,,TBF,12-Apr-16,priya@knsgroup.in,lakshmana@knsgroup.in
Unnati Phase - 2,Nill,Nill,vemo2525@gmail.com,,,Live Chat,,TBF,12-Apr-16,priya@knsgroup.in,lakshmana@knsgroup.in
Anirvan Phase - 2,Jayasree,9342248119,Ecjaya@yahoo.com,,,Live Chat,,TBF,12-Apr-16,priya@knsgroup.in,lakshmana@knsgroup.in
Anirvan Phase - 2,mala badarinath,9880750012,Nill,,,Live Chat,,TBF,12-Apr-16,priya@knsgroup.in,lakshmana@knsgroup.in
Anirvan Phase - 2,Bharath,9845266287,bharath024@gmail.com,,,Live Chat,,TBF,12-Apr-16,priya@knsgroup.in,lakshmana@knsgroup.in
Anirvan Phase - 2,Kumar,8867907973,kumara.universal@gmail.com,,,Magicbricks,,TBF,12-Apr-16,rama@knsgroup.in,lakshmana@knsgroup.in
KNS Aroha Phase - A,Prabhakar,9632198713,Prabhakar.waddar@gmail.com,,,Live Chat,,TBF,12-Apr-16,priya@knsgroup.in,lakshmana@knsgroup.in
Unnati Phase - 2,Srikanth,9535624147,srikanth.kantha13@gmail.com,,,Live Chat,,TBF,12-Apr-16,priya@knsgroup.in,lakshmana@knsgroup.in
Unnati Phase - 2,Devaraj,9886165902,mr.devaraja@gmail.com,,,Live Chat,,TBF,12-Apr-16,priya@knsgroup.in,lakshmana@knsgroup.in
Anirvan Phase - 2,SUNIL,9590009699,mr.sunilkumardasari@gmail.com,,,Live Chat,,TBF,12-Apr-16,priya@knsgroup.in,lakshmana@knsgroup.in
KNS Aroha Phase - A,Duraiswami,9343547224,naga_chatur@yahoo.co.in,,,Live Chat,,TBF,12-Apr-16,priya@knsgroup.in,lakshmana@knsgroup.in
Anirvan Phase - 2,Chandrashekar,9902826870,chandru196090@yahoo.co.in,,,Live Chat,,TBF,12-Apr-16,priya@knsgroup.in,lakshmana@knsgroup.in
Anirvan Phase - 2,Deepak,23490923,deep2270@yahoo.com,,,Live Chat,,TBF,12-Apr-16,priya@knsgroup.in,lakshmana@knsgroup.in
Anirvan Phase - 2,Karthik,9742084696,karthikkpc@gmail.com,,,Live Chat,,TBF,12-Apr-16,priya@knsgroup.in,lakshmana@knsgroup.in
Anirvan Phase - 2,Ravi,9591830027,ravisuraneni80@gmail.com,,,Live Chat,,TBF,12-Apr-16,priya@knsgroup.in,lakshmana@knsgroup.in
Anirvan Phase - 2,Rajini R,7760454596,rajinir89@gmail.com,,,Facebook,,TBF,12-Apr-16,rama@knsgroup.in,lakshmana@knsgroup.in
KNS Aroha Phase - A,mohan,9886757378,g.mohanmurali@yahoo.com,,,Quickr,,TBF,12-Apr-16,rama@knsgroup.in,lakshmana@knsgroup.in
KNS Aroha Phase - A,Naresh,9741122068,nareshdadure@gmail.com,,,Quickr,,TBF,12-Apr-16,rama@knsgroup.in,lakshmana@knsgroup.in
KNS Aroha Phase - A,Sudip,7406079990,sudippaulindia@gmail.com,,,Quickr,,TBF,12-Apr-16,rama@knsgroup.in,lakshmana@knsgroup.in
Anirvan Phase - 2,Girish M S,9900100995,girish.mirle@gmail.com,,,Quickr,,TBF,12-Apr-16,rama@knsgroup.in,lakshmana@knsgroup.in
KNS Aroha Phase - A,Vasanth,9742055413,vasanthinfotech@gmail.com,,,Quickr,,TBF,12-Apr-16,rama@knsgroup.in,lakshmana@knsgroup.in
Anirvan Phase - 2,Pugal,9600650025,pugalneedhi@gmail.com,,,Quickr,,TBF,12-Apr-16,rama@knsgroup.in,lakshmana@knsgroup.in
Anirvan Phase - 2,Seema Vinay,9164333776,seema.nature149@gmail.com,,,Website,,TBF,12-Apr-16,rama@knsgroup.in,lakshmana@knsgroup.in
