Project,Customer Name,Mobile No,Email,Company,Location,Source,Remarks,Intrest Status,Follow up Date,Assign to,Assign By
Anirvan Phase - 2,Srin Ivas,91-1234567899,srinivas.si886@gmail.com,,,Facebook,,TBF,11-Feb-16,sushma@knsgroup.in,lakshmana@knsgroup.in
Anirvan Phase - 2,Nagaraju Boss,91-9972735663,nagaraj.sp89@gmail.com,,,Facebook,,TBF,11-Feb-16,sushma@knsgroup.in,lakshmana@knsgroup.in
Anirvan Phase - 2,Rohith Siddalingaiah,91-9964583311,dr.rohith.s@gmail.com,,,Facebook,,TBF,11-Feb-16,sushma@knsgroup.in,lakshmana@knsgroup.in
Anirvan Phase - 2,Srinivas Ramu,91-9845048318,srini9259@gmail.com,,,Facebook,,TBF,11-Feb-16,sushma@knsgroup.in,lakshmana@knsgroup.in
Unnati Phase - 2,Deepthi,9972938245,deepthi.holla@yahoo.in,,,India Property,,TBF,11-Feb-16,sushma@knsgroup.in,lakshmana@knsgroup.in
Anirvan Phase - 2,Ravi hiremath,9845371813,hiremath.ravi13@gmail.com,,,Magicbricks,,TBF,11-Feb-16,sushma@knsgroup.in,lakshmana@knsgroup.in
Unnati Phase - 2,Rajesh,9632741777,raju.shan@yahoo.co.in,,,Magicbricks,,TBF,11-Feb-16,sushma@knsgroup.in,lakshmana@knsgroup.in
Anirvan Phase - 2,Ranjith Rao,9880247242,jesusranjith@gmail.com,,,Magicbricks,,TBF,11-Feb-16,sushma@knsgroup.in,lakshmana@knsgroup.in
Unnati Phase - 2,Kumar,8884201613,kumarnateshan56@gmail.com,,,Magicbricks,,TBF,11-Feb-16,sushma@knsgroup.in,lakshmana@knsgroup.in
KNS Aroha Phase - A,Nipula hari prasad,-5103589693,nipula.hariprasad@gmail.com,,,Magicbricks,,TBF,11-Feb-16,sushma@knsgroup.in,lakshmana@knsgroup.in
KNS Aroha Phase - A,Sunil,980111994,sechaudhari@gmail.com,,,Quickr,,TBF,11-Feb-16,sushma@knsgroup.in,lakshmana@knsgroup.in
Anirvan Phase - 2,Santhosh,9379902524,om.santosh07@yahoo.com,,,Quickr,,TBF,11-Feb-16,sushma@knsgroup.in,lakshmana@knsgroup.in
Anirvan Phase - 2,Venkatesh,9663308058,guntupalli.venky@gmail.com,,,Quickr,,TBF,11-Feb-16,sushma@knsgroup.in,lakshmana@knsgroup.in
Anirvan Phase - 2,SASHI,8884338412,sashi.kundum@gmail.com,,,Website,,TBF,11-Feb-16,sushma@knsgroup.in,lakshmana@knsgroup.in
Anirvan Phase - 2,Raju,9611430400,rajurk@outlook.com,,,Website,,TBF,11-Feb-16,sushma@knsgroup.in,lakshmana@knsgroup.in
Anirvan Phase - 2,Vishwanatha,9916350658,vishwa.2u@gmail.com,,,Website,,TBF,11-Feb-16,sushma@knsgroup.in,lakshmana@knsgroup.in
Anirvan Phase - 2,Ganesh,9980512801,kkg.pai@gmail.com,,,Website,,TBF,11-Feb-16,sushma@knsgroup.in,lakshmana@knsgroup.in
Anirvan Phase - 2,Subin,9611368125,subinkurian50@gmail.com,,,Live Chat,,TBF,11-Feb-16,Priya@knsgroup.in,lakshmana@knsgroup.in
KNS Aroha Phase - A,Prity,9686699019,prityhr@hotmail.com,,,Live Chat,,TBF,11-Feb-16,Priya@knsgroup.in,lakshmana@knsgroup.in
KNS Aroha Phase - A,Krishna,9902888219,krishnan.v@redbus.in,,,Live Chat,,TBF,11-Feb-16,Priya@knsgroup.in,lakshmana@knsgroup.in
Anirvan Phase - 2,Pradeep,9980572765,gpradeepjain@gmail.com,,,Live Chat,,TBF,11-Feb-16,Priya@knsgroup.in,lakshmana@knsgroup.in
Unnati Phase - 2,Lohit,9886958245,luky.lohit@gmail.com,,,Live Chat,,TBF,11-Feb-16,Priya@knsgroup.in,lakshmana@knsgroup.in
Unnati Phase - 2,Vikas,9845294249,kmvikas@gmail.com,,,Live Chat,,TBF,11-Feb-16,Priya@knsgroup.in,lakshmana@knsgroup.in
Anirvan Phase - 2,Sana,9148348902,sana.sultana713@gmail.com,,,Live Chat,,TBF,11-Feb-16,Priya@knsgroup.in,lakshmana@knsgroup.in
Anirvan Phase - 2,Siddu Byakod,9.19449E+11,svbyakod@gmail.com,,,Facebook,,TBF,11-Feb-16,sushma@knsgroup.in,lakshmana@knsgroup.in
Anirvan Phase - 2,Raghu Gowda,9.19738E+11,raghavendra17@ymail.com,,,Facebook,,TBF,11-Feb-16,sushma@knsgroup.in,lakshmana@knsgroup.in
Anirvan Phase - 2,Kolachur Vishwanath,9.19008E+11,vishu2020@yahoo.com,,,Facebook,,TBF,11-Feb-16,sushma@knsgroup.in,lakshmana@knsgroup.in
Anirvan Phase - 2,Rakesh Kashyapa,9.19886E+11,rakeshdirect.1@gmail.com,,,Facebook,,TBF,11-Feb-16,sushma@knsgroup.in,lakshmana@knsgroup.in
Anirvan Phase - 2,Rajaram Ramu,9449221591,rajaram.s1591@yahoo.com,,,Facebook,,TBF,11-Feb-16,sushma@knsgroup.in,lakshmana@knsgroup.in
Anirvan Phase - 2,Shachith Puttaswamy,9.19986E+11,shachith.dpp@gmail.com,,,Facebook,,TBF,11-Feb-16,sushma@knsgroup.in,lakshmana@knsgroup.in
Anirvan Phase - 2,Ramasamynaidu Vasudevan,9.1936E+11,vasudevan.rv26@gmail.com,,,Facebook,,TBF,11-Feb-16,sushma@knsgroup.in,lakshmana@knsgroup.in
Anirvan Phase - 2,Ravi Kumar T,9.1776E+11,t.ravit@yahoo.com,,,Facebook,,TBF,11-Feb-16,sushma@knsgroup.in,lakshmana@knsgroup.in
Unnati Phase - 2,venkatv,8867791723,venktv@gmail.com,,,Magicbricks,,TBF,11-Feb-16,sushma@knsgroup.in,lakshmana@knsgroup.in
KNS Aroha Phase - A,Kiran francis,9742094222,kiranfrancis31@gmail.com,,,Magicbricks,,TBF,11-Feb-16,sushma@knsgroup.in,lakshmana@knsgroup.in
Anirvan Phase - 2,Dayanand,9886404668,mrdayanand@yahoo.co.in,,,Magicbricks,,TBF,11-Feb-16,sushma@knsgroup.in,lakshmana@knsgroup.in
KNS Aroha Phase - A,shekar,9945693840,shekar_hal@rediffmail.com,,,Quickr,,TBF,11-Feb-16,sushma@knsgroup.in,lakshmana@knsgroup.in
KNS Aroha Phase - A,Gaurav Sharma,9176875454,tdhinait@gmail.com,,,Quickr,,TBF,11-Feb-16,sushma@knsgroup.in,lakshmana@knsgroup.in
Anirvan Phase - 2,Dhanam Venkat,7299966955,dhanamvenkat63@gmail.com,,,Website,,TBF,11-Feb-16,sushma@knsgroup.in,lakshmana@knsgroup.in
Anirvan Phase - 2,Nill,7760030728,mahesh.kunigal@gmail.com,,,Live Chat,,TBF,11-Feb-16,Priya@knsgroup.in,lakshmana@knsgroup.in
KNS Aroha Phase - A,Nill,9845925505,bugsynaidu@gmail.com,,,Live Chat,,TBF,11-Feb-16,Priya@knsgroup.in,lakshmana@knsgroup.in
KNS Aroha Phase - A,Vishnu,8147672017,Konavishnu@gmail.com,,,Live Chat,,TBF,11-Feb-16,Priya@knsgroup.in,lakshmana@knsgroup.in
Unnati Phase - 2,Anil,9986074076,csanil5453@gmail.com,,,Live Chat,,TBF,11-Feb-16,Priya@knsgroup.in,lakshmana@knsgroup.in
Anirvan Phase - 2,Shivanand Pradeep,9.19664E+11,drpradeepent@rediffmail.com,,,Facebook,,TBF,11-Feb-16,sushma@knsgroup.in,lakshmana@knsgroup.in
Anirvan Phase - 2,Raj Shekar,9.17407E+11,rajashekar71.uvce@gmail.com,,,Facebook,,TBF,11-Feb-16,sushma@knsgroup.in,lakshmana@knsgroup.in
Anirvan Phase - 2,Rashmikant Tank,9.19341E+11,design23shubham@gmail.com,,,Facebook,,TBF,11-Feb-16,sushma@knsgroup.in,lakshmana@knsgroup.in
Anirvan Phase - 2,Chandan Gowda,9.19739E+11,chandank.666@gmail.com,,,Facebook,,TBF,11-Feb-16,sushma@knsgroup.in,lakshmana@knsgroup.in
Unnati Phase - 2,Ashwini,8147088858,ashu0621@gmail.com,,,India Property,,TBF,11-Feb-16,sushma@knsgroup.in,lakshmana@knsgroup.in
Anirvan Phase - 2,Amith,8050066696,jkalionheart@gmail.com,,,Magicbricks,,TBF,11-Feb-16,sushma@knsgroup.in,lakshmana@knsgroup.in
KNS Aroha Phase - A,Abhimanyu narayan,9620512300,abhimanyunarayan@gmail.com,,,Magicbricks,,TBF,11-Feb-16,sushma@knsgroup.in,lakshmana@knsgroup.in
KNS Aroha Phase - A,Vinod,9591689733,pathak_binod11@yahoo.co.in,,,Quickr,,TBF,11-Feb-16,sushma@knsgroup.in,lakshmana@knsgroup.in
KNS Aroha Phase - A,Dayanand,7795305641,lanplore@gmail.com,,,Quickr,,TBF,11-Feb-16,sushma@knsgroup.in,lakshmana@knsgroup.in
Anirvan Phase - 2,Arun kumar,6597102270,arunkumar.karuvane@anl.com,,,Others,Singapore Event,TBF,11-Feb-16,sushma@knsgroup.in,lakshmana@knsgroup.in
Anirvan Phase - 2,Prem Kumar,6597691863,prem_kumar@keysight.com,,,Others,Singapore Event,TBF,11-Feb-16,sushma@knsgroup.in,lakshmana@knsgroup.in
Anirvan Phase - 2,Nakshathriv K,9986206600,,,,Others,Singapore Event,TBF,11-Feb-16,sushma@knsgroup.in,lakshmana@knsgroup.in
Anirvan Phase - 2,Ramesh S,6583189002,ramesh.shankarmurthy@bakerhughes.com,,,Others,Singapore Event,TBF,11-Feb-16,sushma@knsgroup.in,lakshmana@knsgroup.in
Anirvan Phase - 2,M G Srinivas,6582270722,srinivas.mg62@gmail.com,,,Others,Singapore Event,TBF,11-Feb-16,sushma@knsgroup.in,lakshmana@knsgroup.in
Unnati Phase - 2,sureshdas,8961563392,beekytradingagency1@gmail.com,,,Website,,TBF,11-Feb-16,sushma@knsgroup.in,lakshmana@knsgroup.in
Anirvan Phase - 2,Poornima,9686190685,,,,Website,,TBF,11-Feb-16,sushma@knsgroup.in,lakshmana@knsgroup.in
Anirvan Phase - 2,P.Ravikumar,9901163363,Nill,,,Live Chat,,TBF,11-Feb-16,Priya@knsgroup.in,lakshmana@knsgroup.in
Anirvan Phase - 2,murali,9900343701,Nill,,,Live Chat,,TBF,11-Feb-16,Priya@knsgroup.in,lakshmana@knsgroup.in
Anirvan Phase - 2,Varalakshmi Anand,7259165295,Nill,,,Live Chat,,TBF,11-Feb-16,Priya@knsgroup.in,lakshmana@knsgroup.in
Anirvan Phase - 2,Gunesh Kumar,9.19881E+11,kumargunesh@gmail.com,,,Facebook,,TBF,11-Feb-16,sushma@knsgroup.in,lakshmana@knsgroup.in
Anirvan Phase - 2,Reetu Temkar,9.19945E+11,reetutr1987@gmail.com,,,Facebook,,TBF,11-Feb-16,sushma@knsgroup.in,lakshmana@knsgroup.in
Anirvan Phase - 2,Suresh Shetty,9.19844E+11,drasuresh_shetty@yahoo.com,,,Facebook,,TBF,11-Feb-16,sushma@knsgroup.in,lakshmana@knsgroup.in
Anirvan Phase - 2,Bhanuprasad Shamanna,9.1988E+11,s.bhanuprasad@gmail.com,,,Facebook,,TBF,11-Feb-16,sushma@knsgroup.in,lakshmana@knsgroup.in
Anirvan Phase - 2,Padma,9986767809,tiinamaya@gmail.com,,,Magicbricks,,TBF,11-Feb-16,sushma@knsgroup.in,lakshmana@knsgroup.in
Unnati Phase - 2,Supreeth,9900101010,supreethsuper@gmail.com,,,Quickr,,TBF,11-Feb-16,sushma@knsgroup.in,lakshmana@knsgroup.in
Unnati Phase - 2,Harish mc,9964069971,harimc1989@gmail.com,,,Quickr,,TBF,11-Feb-16,sushma@knsgroup.in,lakshmana@knsgroup.in
Anirvan Phase - 2,Suresh Kurtakoti,9980160361,suresh.kurtakoti@meritor.com,,,Quickr,,TBF,11-Feb-16,sushma@knsgroup.in,lakshmana@knsgroup.in
Anirvan Phase - 2,Vijaykumar Merekhor,9900516078,vijaymerekhor@gmail.com,,,Website,,TBF,11-Feb-16,sushma@knsgroup.in,lakshmana@knsgroup.in
Anirvan Phase - 2,Dcdhruvakumar,9449340870,dcdhruvakumar@gmail.com,,,Website,,TBF,11-Feb-16,sushma@knsgroup.in,lakshmana@knsgroup.in
Anirvan Phase - 2,Ravi,9632849926,kravikumar.blr@gmail.com,,,Live Chat,,TBF,11-Feb-16,Priya@knsgroup.in,lakshmana@knsgroup.in
Anirvan Phase - 2,Ravindra,9986202381,csravindra@gmail.com,,,Live Chat,,TBF,11-Feb-16,Priya@knsgroup.in,lakshmana@knsgroup.in
Anirvan Phase - 2,Nazia,9663353140,Naseerisin@gmail.com,,,Live Chat,,TBF,11-Feb-16,Priya@knsgroup.in,lakshmana@knsgroup.in
Anirvan Phase - 2,Vinay,7768802277,vinay2787@gmail.com,,,Live Chat,,TBF,11-Feb-16,Priya@knsgroup.in,lakshmana@knsgroup.in
KNS Aroha Phase - A,Surendra Kumar Jha,8884862584,skjha777@gmil.com,,,Live Chat,,TBF,11-Feb-16,Priya@knsgroup.in,lakshmana@knsgroup.in
KNS Aroha Phase - A,Raja,9448019103,rajarao@gmail.co,,,Live Chat,,TBF,11-Feb-16,Priya@knsgroup.in,lakshmana@knsgroup.in
KNS Aroha Phase - A,Shanthi,9740133599,13shanthiramesh@gmail.com,,,Live Chat,,TBF,11-Feb-16,Priya@knsgroup.in,lakshmana@knsgroup.in
Unnati Phase - 2,Irfan,8105674906,irf2k2@hotmail.com,,,Live Chat,,TBF,11-Feb-16,Priya@knsgroup.in,lakshmana@knsgroup.in
Unnati Phase - 2,Harini,9986229431,deepgulb@gmail.com,,,Live Chat,,TBF,11-Feb-16,Priya@knsgroup.in,lakshmana@knsgroup.in
Unnati Phase - 2,Sudeep,8951461530,sudee.as@gmail.com,,,Live Chat,,TBF,11-Feb-16,Priya@knsgroup.in,lakshmana@knsgroup.in
KNS Aroha Phase - A,Rama srivinivas,7795067235,saxenaa405@gmail.com,,,Quickr,,TBF,11-Feb-16,sushma@knsgroup.in,lakshmana@knsgroup.in
Anirvan Phase - 2,Manjunatha,9742284255,Nill,,,Live Chat,,TBF,11-Feb-16,Priya@knsgroup.in,lakshmana@knsgroup.in
KNS Aroha Phase - A,Sharathks,9844071162,sharathks1982@gmail.com,,,Magicbricks,,TBF,11-Feb-16,sushma@knsgroup.in,lakshmana@knsgroup.in
KNS Aroha Phase - A,Sowmya,9902005707,vijayasn1955@gmail.com,,,Magicbricks,,TBF,11-Feb-16,sushma@knsgroup.in,lakshmana@knsgroup.in
Anirvan Phase - 2,Ranganath,9845268611,ranganath.b11@gmail.com,,,Magicbricks,,TBF,11-Feb-16,sushma@knsgroup.in,lakshmana@knsgroup.in
Unnati Phase - 2,Rajiv,7795331245,rajivbs10@gmail.com,,,Quickr,,TBF,11-Feb-16,sushma@knsgroup.in,lakshmana@knsgroup.in
Unnati Phase - 2,Arun,9884996596,aks8818@gmail.com,,,Quickr,,TBF,11-Feb-16,sushma@knsgroup.in,lakshmana@knsgroup.in
Unnati Phase - 2,Umesh Shebe,9886223223,ushebe@gmail.com,,,Quickr,,TBF,11-Feb-16,sushma@knsgroup.in,lakshmana@knsgroup.in
Anirvan Phase - 2,Ravi Kumar,9844498486,saileelagroups@gmail.com,,,Quickr,,TBF,11-Feb-16,sushma@knsgroup.in,lakshmana@knsgroup.in
KNS Aroha Phase - A,Dilip,9844150025,dilipo2007@gmail.com,,,Quickr,,TBF,11-Feb-16,sushma@knsgroup.in,lakshmana@knsgroup.in
Anirvan Phase - 2,kariappa,9739266555,venkateshsrini@hotmail.com,,,Quickr,,TBF,11-Feb-16,sushma@knsgroup.in,lakshmana@knsgroup.in
Anirvan Phase - 2,dashyal,9739321887,yogeshk84@gmail.com,,,Quickr,,TBF,11-Feb-16,sushma@knsgroup.in,lakshmana@knsgroup.in
Anirvan Phase - 2,Ajay,9967776863,nair_vineeth@hotmail.com,,,Quickr,,TBF,11-Feb-16,sushma@knsgroup.in,lakshmana@knsgroup.in
Anirvan Phase - 2,Venkatesh,9901008297,ashishkuchroo@gmail.com,,,Quickr,,TBF,11-Feb-16,sushma@knsgroup.in,lakshmana@knsgroup.in
Anirvan Phase - 2,Sumithra,9844671611,skg2185@gmail.com,,,Quickr,,TBF,11-Feb-16,sushma@knsgroup.in,lakshmana@knsgroup.in
Anirvan Phase - 2,sri krishna,8088333533,ramasrinivas.b@gmail.com,,,Quickr,,TBF,11-Feb-16,sushma@knsgroup.in,lakshmana@knsgroup.in
Anirvan Phase - 2,sanjay agarval,9538452279,Ganeshhegde.ch@gmail.com,,,Quickr,,TBF,11-Feb-16,sushma@knsgroup.in,lakshmana@knsgroup.in
Anirvan Phase - 2,ganesh,9019450227,incometax341@gmail.com,,,Quickr,,TBF,11-Feb-16,sushma@knsgroup.in,lakshmana@knsgroup.in
Anirvan Phase - 2,Venkat,9986108118,sruthisiva8@gmail.com,,,Quickr,,TBF,11-Feb-16,sushma@knsgroup.in,lakshmana@knsgroup.in
Anirvan Phase - 2,uma shankar,9886663204,,,,Quickr,,TBF,11-Feb-16,sushma@knsgroup.in,lakshmana@knsgroup.in
KNS Aroha Phase - A,Sivaji,9945967789,ars@live.in,,,Quickr,,TBF,11-Feb-16,sushma@knsgroup.in,lakshmana@knsgroup.in
KNS Aroha Phase - A,Manogna,8892679455,bindue366@gmail.com,,,Quickr,,TBF,11-Feb-16,sushma@knsgroup.in,lakshmana@knsgroup.in
KNS Aroha Phase - A,manjunath,9945488557,srinivasmurth@gmail.com,,,Quickr,,TBF,11-Feb-16,sushma@knsgroup.in,lakshmana@knsgroup.in
KNS Aroha Phase - A,ramanjaneya reddy,8971113682,sanjaymaini18@gmail.com,,,Quickr,,TBF,11-Feb-16,sushma@knsgroup.in,lakshmana@knsgroup.in
KNS Aroha Phase - A,Prabhakar,9342345162,prabhakarurabayala@gmail.com,,,Quickr,,TBF,11-Feb-16,sushma@knsgroup.in,lakshmana@knsgroup.in
KNS Aroha Phase - A,amrutha,8050000994,pradeep.uppunda@gmail.com,,,Quickr,,TBF,11-Feb-16,sushma@knsgroup.in,lakshmana@knsgroup.in
KNS Aroha Phase - A,Preetham,9008602629,vaib233@gmail.com,,,Quickr,,TBF,11-Feb-16,sushma@knsgroup.in,lakshmana@knsgroup.in
KNS Aroha Phase - A,Rajendra,8451905428,chetan181986@gmail.com,,,Quickr,,TBF,11-Feb-16,sushma@knsgroup.in,lakshmana@knsgroup.in
KNS Aroha Phase - A,vaibav,9620430768,asapnak@gmail.com,,,Quickr,,TBF,11-Feb-16,sushma@knsgroup.in,lakshmana@knsgroup.in
KNS Aroha Phase - A,Chetan,9972662010,gauravmbhargava@gmail.com,,,Quickr,,TBF,11-Feb-16,sushma@knsgroup.in,lakshmana@knsgroup.in
KNS Aroha Phase - A,shiva reddy,7411121934,kkmoin@gmail.com,,,Quickr,,TBF,11-Feb-16,sushma@knsgroup.in,lakshmana@knsgroup.in
KNS Aroha Phase - A,Udaykumar ,9742474091,yourskirubakar@gmail.com,,,Quickr,,TBF,11-Feb-16,sushma@knsgroup.in,lakshmana@knsgroup.in
KNS Aroha Phase - A,Surendra,9535001999,surendrareddy58@outlook.com,,,Quickr,,TBF,11-Feb-16,sushma@knsgroup.in,lakshmana@knsgroup.in
KNS Aroha Phase - A,Arun,9916490037,osarunprasad@gmail.com,,,Quickr,,TBF,11-Feb-16,sushma@knsgroup.in,lakshmana@knsgroup.in
Anirvan Phase - 2,Srinath ,9591271234,srinatha.kv@gmail.com,,,Quickr,,TBF,11-Feb-16,sushma@knsgroup.in,lakshmana@knsgroup.in
KNS Aroha Phase - A,Suresh ,9036633986,suresh.ece28@gmail.com,,,Quickr,,TBF,11-Feb-16,sushma@knsgroup.in,lakshmana@knsgroup.in
Unnati Phase - 2,chetan suvarna,9901729725,chetansuvarna@gmail.com,,,Quickr,,TBF,11-Feb-16,sushma@knsgroup.in,lakshmana@knsgroup.in
KNS Aroha Phase - A,Suresh,7353551786,m.suresha@gmail.com,,,Quickr,,TBF,11-Feb-16,sushma@knsgroup.in,lakshmana@knsgroup.in
KNS Aroha Phase - A,Nelson,9845356356,mrnelsonalmeida@gmail.com,,,Quickr,,TBF,11-Feb-16,sushma@knsgroup.in,lakshmana@knsgroup.in
Anirvan Phase - 2,banu,9108962369,gomadhibang@gmail.com,,,Website,,TBF,11-Feb-16,sushma@knsgroup.in,lakshmana@knsgroup.in
Unnati Phase - 2,Narendra,9742170781,narendra.mumindia@gmail.com,,,Live Chat,,TBF,11-Feb-16,Priya@knsgroup.in,lakshmana@knsgroup.in
Anirvan Phase - 2,Sandip,9.7156E+11,sandiban12@gmail.com,,,Live Chat,,TBF,11-Feb-16,Priya@knsgroup.in,lakshmana@knsgroup.in
Anirvan Phase - 2,Supreeth,9.7151E+11,supreethrkumar@gmail.com,,,Live Chat,,TBF,11-Feb-16,Priya@knsgroup.in,lakshmana@knsgroup.in
KNS Aroha Phase - A,Nill,9370311590,Shankarrao_kaviraj@yahoo.com,,,Live Chat,,TBF,11-Feb-16,Priya@knsgroup.in,lakshmana@knsgroup.in
Unnati Phase - 2,Ravi kumar,7411665304,ravijnnce@gmail.com,,,Live Chat,,TBF,11-Feb-16,Priya@knsgroup.in,lakshmana@knsgroup.in
Anirvan Phase - 2,Mallikarjuna Kv,9.19686E+11,mallikarjunakv910@gmail.com,,,Facebook,,TBF,11-Feb-16,sushma@knsgroup.in,lakshmana@knsgroup.in
Anirvan Phase - 2,Ramesh N Nayaka,9.19633E+11,rameshsmg86@gmail.com,,,Facebook,,TBF,11-Feb-16,sushma@knsgroup.in,lakshmana@knsgroup.in
Anirvan Phase - 2,Nagesh,8792217987,Nill,,,Live Chat,,TBF,11-Feb-16,Priya@knsgroup.in,lakshmana@knsgroup.in
Anirvan Phase - 2,Mohinder Singh,9.19881E+11,mohindersingh917@gmail.com,,,Facebook,,TBF,11-Feb-16,sushma@knsgroup.in,lakshmana@knsgroup.in
Anirvan Phase - 2,Veer Vr,9.19739E+11,rockstarveeresh@gmail.com,,,Facebook,,TBF,11-Feb-16,sushma@knsgroup.in,lakshmana@knsgroup.in
Anirvan Phase - 2,Prakash Babu,9986004973,prakashbabu.n@gmail.com,,,Facebook,,TBF,11-Feb-16,sushma@knsgroup.in,lakshmana@knsgroup.in
Unnati Phase - 2,Priyadarshini,8553776016,Patcyjones@rediffmail.com,,,Live Chat,,TBF,11-Feb-16,Priya@knsgroup.in,lakshmana@knsgroup.in
Unnati Phase - 2,Ashutosh,9989439933,ashutosh.unix@gmail.com,,,Live Chat,,TBF,11-Feb-16,Priya@knsgroup.in,lakshmana@knsgroup.in
Anirvan Phase - 2,Nagarjuna,9008300021,tvnagarjuna@gmail.com,,,Live Chat,,TBF,11-Feb-16,Priya@knsgroup.in,lakshmana@knsgroup.in
KNS Aroha Phase - A,Nill,9740192973,Pravat.sabat@gmail.com,,,Live Chat,,TBF,11-Feb-16,Priya@knsgroup.in,lakshmana@knsgroup.in
KNS Aroha Phase - A,Raj,8197393627,rajanibheemu@yahoo.com,,,Live Chat,,TBF,11-Feb-16,Priya@knsgroup.in,lakshmana@knsgroup.in
KNS Aroha Phase - A,Sandhya,9886626006,sandhyakslv@gmail.com,,,Live Chat,,TBF,11-Feb-16,Priya@knsgroup.in,lakshmana@knsgroup.in
KNS Aroha Phase - A,Pradeep,9164307006,Padduaryans007@gmail.com,,,Live Chat,,TBF,11-Feb-16,Priya@knsgroup.in,lakshmana@knsgroup.in
Anirvan Phase - 2,Aditya,7411729974,adityakhatokar@yahoo.in,,,Live Chat,,TBF,11-Feb-16,Priya@knsgroup.in,lakshmana@knsgroup.in
KNS Aroha Phase - A,Satish N/A,9900583549,satish_prathaban@yahoo.com,,,Magicbricks,,TBF,11-Feb-16,sushma@knsgroup.in,lakshmana@knsgroup.in
Anirvan Phase - 2,prashanth,9449855659,prashanthkumar.rg@gmail.com,,,Magicbricks,,TBF,11-Feb-16,sushma@knsgroup.in,lakshmana@knsgroup.in
Anirvan Phase - 2,k ravichandran,9449066192,saggit812@yahoo.com,,,Magicbricks,,TBF,11-Feb-16,sushma@knsgroup.in,lakshmana@knsgroup.in
Anirvan Phase - 2,sunil kumar,9880838273,sunilkumarm3009@gmail.com,,,Magicbricks,,TBF,11-Feb-16,sushma@knsgroup.in,lakshmana@knsgroup.in
Anirvan Phase - 2,Ravi Babu,9.199E+11,ravi.babu33@gmail.com,,,Facebook,,TBF,11-Feb-16,sushma@knsgroup.in,lakshmana@knsgroup.in
Anirvan Phase - 2,Hari Vicky,9.18951E+11,harih9116@gmail.com,,,Facebook,,TBF,11-Feb-16,sushma@knsgroup.in,lakshmana@knsgroup.in
Anirvan Phase - 2,Srikanth Kadambi,9.19036E+11,srikanth2386@gmail.com,,,Facebook,,TBF,11-Feb-16,sushma@knsgroup.in,lakshmana@knsgroup.in
Anirvan Phase - 2,Nimmalapalli Venkata Narayana Rao,9.17094E+11,babjinr@hotmail.com,,,Facebook,,TBF,11-Feb-16,sushma@knsgroup.in,lakshmana@knsgroup.in
Anirvan Phase - 2,Naresh Kumar,9.19008E+11,naresh.pteblr@gmail.com,,,Facebook,,TBF,11-Feb-16,sushma@knsgroup.in,lakshmana@knsgroup.in
Anirvan Phase - 2,Raj Batheja,9.19886E+11,rajbatheja2@gmail.com,,,Facebook,,TBF,11-Feb-16,sushma@knsgroup.in,lakshmana@knsgroup.in
Anirvan Phase - 2,Kalyan Kumar,9.19946E+11,drkalyan@gmail.com,,,Facebook,,TBF,11-Feb-16,sushma@knsgroup.in,lakshmana@knsgroup.in
Anirvan Phase - 2,Info Provided,2.56777E+11,Deepu.21s@gmail.com,,,Live Chat,,TBF,11-Feb-16,Priya@knsgroup.in,lakshmana@knsgroup.in
Unnati Phase - 2,Nill,9449171502,sachinbm@rediff.com,,,Live Chat,,TBF,11-Feb-16,Priya@knsgroup.in,lakshmana@knsgroup.in
Unnati Phase - 2,Jyothi,7411874741,jyoths_2007@yahoo.co.in,,,Live Chat,,TBF,11-Feb-16,Priya@knsgroup.in,lakshmana@knsgroup.in
Anirvan Phase - 2,Muthu,9663626677,muthu.stlt@gmail.com,,,Live Chat,,TBF,11-Feb-16,Priya@knsgroup.in,lakshmana@knsgroup.in
Anirvan Phase - 2,Manjunath S N,9739154384,manju.nishu2008@gmail.com,,,Live Chat,,TBF,11-Feb-16,Priya@knsgroup.in,lakshmana@knsgroup.in
Anirvan Phase - 2,Ravi,9845793073,raveeshh@gmail.com,,,Magicbricks,,TBF,11-Feb-16,sushma@knsgroup.in,lakshmana@knsgroup.in
Anirvan Phase - 2,shiva,9900135297,shivubd@gmail.com,,,Magicbricks,,TBF,11-Feb-16,sushma@knsgroup.in,lakshmana@knsgroup.in
KNS Aroha Phase - A,Smita,8105797973,Nill,,,Live Chat,,TBF,11-Feb-16,Priya@knsgroup.in,lakshmana@knsgroup.in
Unnati Phase - 2,AJAY,7760501924,saxenaa405@gmail.com,,,Quickr,,TBF,11-Feb-16,sushma@knsgroup.in,lakshmana@knsgroup.in
Unnati Phase - 2,kubendra,7760024525,kubendr@gmail.com,,,Website,,TBF,11-Feb-16,sushma@knsgroup.in,lakshmana@knsgroup.in
Anirvan Phase - 2,kamod,9620476366,kamod_jha@hotmail.com,,,Live Chat,,TBF,11-Feb-16,Priya@knsgroup.in,lakshmana@knsgroup.in
Anirvan Phase - 2,Arul,7760747737,arul25raj@gmail.com,,,Live Chat,,TBF,11-Feb-16,Priya@knsgroup.in,lakshmana@knsgroup.in
Anirvan Phase - 2,Rajesh,9008173620,mayank.traders@rediffmail.com,,,Live Chat,,TBF,11-Feb-16,Priya@knsgroup.in,lakshmana@knsgroup.in
KNS Aroha Phase - A,Sudhir,8904176589,1sudhira@gmail.com,,,Live Chat,,TBF,11-Feb-16,Priya@knsgroup.in,lakshmana@knsgroup.in
KNS Aroha Phase - A,Satish,9964699937,crsatishkumar802@gmail.com,,,Live Chat,,TBF,11-Feb-16,Priya@knsgroup.in,lakshmana@knsgroup.in
KNS Aroha Phase - A,Smita,8105798973,Smitavasudevan@gmail.com,,,Live Chat,,TBF,11-Feb-16,Priya@knsgroup.in,lakshmana@knsgroup.in
KNS Aroha Phase - A,Shubhendu,9900370901,1rn08ec096@gmail.com,,,Live Chat,,TBF,11-Feb-16,Priya@knsgroup.in,lakshmana@knsgroup.in
Anirvan Phase - 2,Suresh DK,9.19844E+11,suresh_dindagur@yahoo.co.in,,,Facebook,,TBF,11-Feb-16,sushma@knsgroup.in,lakshmana@knsgroup.in
Anirvan Phase - 2,Srinivas Anand,9740266669,srinivas.acn@gmail.com,,,Facebook,,TBF,11-Feb-16,sushma@knsgroup.in,lakshmana@knsgroup.in
Anirvan Phase - 2,Prashanth Prakash,9.18298E+11,prashanthprakash55@gmail.com,,,Facebook,,TBF,11-Feb-16,sushma@knsgroup.in,lakshmana@knsgroup.in
Anirvan Phase - 2,Dinesh Jain,9.19845E+11,dineshj048@gmail.com,,,Facebook,,TBF,11-Feb-16,sushma@knsgroup.in,lakshmana@knsgroup.in
KNS Aroha Phase - A,Vivek,9786851980,vvvivekce@gmail.com,,,Quickr,,TBF,11-Feb-16,sushma@knsgroup.in,lakshmana@knsgroup.in
Anirvan Phase - 2,yashashwini,7848916407,yashaswini.shivadevelopers@gmail.com,,,Magicbricks,,TBF,11-Feb-16,sushma@knsgroup.in,lakshmana@knsgroup.in
Anirvan Phase - 2,vijaylakshmi,9880485521,satyavijayaksa@hotmail.com,,,Quickr,,TBF,11-Feb-16,sushma@knsgroup.in,lakshmana@knsgroup.in
Anirvan Phase - 2,Amalraj,9901188756,shrinebasila@gmail.com,,,Quickr,,TBF,11-Feb-16,sushma@knsgroup.in,lakshmana@knsgroup.in
KNS Aroha Phase - A,Avinash,9901399891,avinashawate@yahoo.co.in,,,Quickr,,TBF,11-Feb-16,sushma@knsgroup.in,lakshmana@knsgroup.in
Anirvan Phase - 2,pradeep,9066636786,pradeepbgs@gmail.com,,,Magicbricks,,TBF,11-Feb-16,sushma@knsgroup.in,lakshmana@knsgroup.in
Unnati Phase - 2,ARUNKUMAR,9845449630,gnhegade@gmail.com,,,Quickr,,TBF,11-Feb-16,sushma@knsgroup.in,lakshmana@knsgroup.in
Unnati Phase - 2,ABHILASH PATIL,9448838521,abhilash.patil1@gmail.com,,,Quickr,,TBF,11-Feb-16,sushma@knsgroup.in,lakshmana@knsgroup.in
Unnati Phase - 2,NAGARAJA,9880551245,ngrja5@yahoo.com,,,Quickr,,TBF,11-Feb-16,sushma@knsgroup.in,lakshmana@knsgroup.in
Unnati Phase - 2,Bijo,8903227046,bijojoseph1983@gmail.com,,,Quickr,,TBF,11-Feb-16,sushma@knsgroup.in,lakshmana@knsgroup.in
Unnati Phase - 2,Revanna,9886505415,srmanjunath2011@gmail.com,,,Quickr,,TBF,11-Feb-16,sushma@knsgroup.in,lakshmana@knsgroup.in
Unnati Phase - 2,Ravi,9742420155,ravindranath321@gmail.com,,,Quickr,,TBF,11-Feb-16,sushma@knsgroup.in,lakshmana@knsgroup.in
Unnati Phase - 2,phanikrishna,9886827775,panikrishna777@gmail.com,,,India Property,,TBF,11-Feb-16,sushma@knsgroup.in,lakshmana@knsgroup.in
Anirvan Phase - 2,lakshmish,9738685799,lakshmishbhat21@gmail.com,,,Quickr,,TBF,11-Feb-16,sushma@knsgroup.in,lakshmana@knsgroup.in
Anirvan Phase - 2,Chethan,9242525957,chethan359@gmail.com,,,Magicbricks,,TBF,11-Feb-16,sushma@knsgroup.in,lakshmana@knsgroup.in
Anirvan Phase - 2,anil kumar,7411224566,anilab8888@gmail.com,,,Website,,TBF,11-Feb-16,sushma@knsgroup.in,lakshmana@knsgroup.in
KNS Aroha Phase - A,Ashok,6591689453,ashokreddy06@gmail.com,,,Live Chat,,TBF,11-Feb-16,Priya@knsgroup.in,lakshmana@knsgroup.in
Anirvan Phase - 2,Ruthu,9164297993,ruthudv@gmail.com,,,Live Chat,,TBF,11-Feb-16,Priya@knsgroup.in,lakshmana@knsgroup.in
Anirvan Phase - 2,Razi Mustafa,86-18661836028,Nill,,,Live Chat,,TBF,11-Feb-16,Priya@knsgroup.in,lakshmana@knsgroup.in
Unnati Phase - 2,Guru,9632091905,sysinit@gmail.com,,,Live Chat,,TBF,11-Feb-16,Priya@knsgroup.in,lakshmana@knsgroup.in
Unnati Phase - 2,Dr Reema,9916262324,drreema.nature@gmail.com,,,Live Chat,,TBF,11-Feb-16,Priya@knsgroup.in,lakshmana@knsgroup.in
Unnati Phase - 2,Nill,7760356634,Nill,,,Live Chat,,TBF,11-Feb-16,Priya@knsgroup.in,lakshmana@knsgroup.in
Unnati Phase - 2,Nill,9008151350,cpvinodhraju@gmail.com,,,Live Chat,,TBF,11-Feb-16,Priya@knsgroup.in,lakshmana@knsgroup.in
Anirvan Phase - 2,Udaya Nayak,9323651824,udyanayak@yahoo.com,,,Live Chat,,TBF,11-Feb-16,Priya@knsgroup.in,lakshmana@knsgroup.in
Anirvan Phase - 2,Linej,9.71505E+11,linejkv@gmail.com,,,Live Chat,,TBF,11-Feb-16,Priya@knsgroup.in,lakshmana@knsgroup.in
Anirvan Phase - 2,Vinod,9886640248,vinod.koteshwar@gmail.com,,,Live Chat,,TBF,11-Feb-16,Priya@knsgroup.in,lakshmana@knsgroup.in
Anirvan Phase - 2,Srinvas,9620417423,Nill,,,Live Chat,,TBF,11-Feb-16,Priya@knsgroup.in,lakshmana@knsgroup.in
KNS Aroha Phase - A,Sunitha,2013018205,Nill,,,Live Chat,,TBF,11-Feb-16,Priya@knsgroup.in,lakshmana@knsgroup.in
KNS Aroha Phase - A,Girish,9880766783,Nill,,,Live Chat,,TBF,11-Feb-16,Priya@knsgroup.in,lakshmana@knsgroup.in
KNS Aroha Phase - A,Madhu,9845101434,madhubabu_s@yahoo.com,,,Live Chat,,TBF,11-Feb-16,Priya@knsgroup.in,lakshmana@knsgroup.in
Anirvan Phase - 2,Manoj,9742448929,Nill,,,Live Chat,,TBF,11-Feb-16,Priya@knsgroup.in,lakshmana@knsgroup.in
Anirvan Phase - 2,Devraj Natraj,9.19037E+11,devrajnatraj@yahoo.in,,,Facebook,,TBF,11-Feb-16,sushma@knsgroup.in,lakshmana@knsgroup.in
Anirvan Phase - 2,Manju Gowda,9.1974E+11,msgowda2429sai@yahoo.com,,,Facebook,,TBF,11-Feb-16,sushma@knsgroup.in,lakshmana@knsgroup.in
Anirvan Phase - 2,Somanna Ajjamada Uthappa,9.19972E+11,somannaau@gmail.com,,,Facebook,,TBF,11-Feb-16,sushma@knsgroup.in,lakshmana@knsgroup.in
Anirvan Phase - 2,Shivaramaiah Ramanna,9.1948E+11,dr.shivaramaiah@gmail.com,,,Facebook,,TBF,11-Feb-16,sushma@knsgroup.in,lakshmana@knsgroup.in
Anirvan Phase - 2,Venkata Chalapathy,9.19743E+11,chalapathy50@gmail.com,,,Facebook,,TBF,11-Feb-16,sushma@knsgroup.in,lakshmana@knsgroup.in
KNS Aroha Phase - A,Kirthi,9916866840,bskkeerthi@gmail.com,,,Magicbricks,,TBF,11-Feb-16,sushma@knsgroup.in,lakshmana@knsgroup.in
Anirvan Phase - 2,kusuma,9880120587,quikrAnonLA24276889@quikr.com,,,Quickr,,TBF,11-Feb-16,sushma@knsgroup.in,lakshmana@knsgroup.in
KNS Aroha Phase - A,mohammad Shafi,9846735893,shafiaynikkal@gmail.com,,,Quickr,,TBF,11-Feb-16,sushma@knsgroup.in,lakshmana@knsgroup.in
KNS Aroha Phase - A,Bhupendra Singh,9620273972,mussoorie@gmail.com,,,Quickr,,TBF,11-Feb-16,sushma@knsgroup.in,lakshmana@knsgroup.in
KNS Aroha Phase - A,Chaitanya,9591328049,chaitu.ten@gmail.com,,,Quickr,,TBF,11-Feb-16,sushma@knsgroup.in,lakshmana@knsgroup.in
Unnati Phase - 2,ganapathi batt,9035436037,bhatg.cs@gmail.com,,,Quickr,,TBF,11-Feb-16,sushma@knsgroup.in,lakshmana@knsgroup.in
Unnati Phase - 2,sunil sah,9821492265,sunilsah1284@gmail.com,,,Quickr,,TBF,11-Feb-16,sushma@knsgroup.in,lakshmana@knsgroup.in
Anirvan Phase - 2,Shashidhar,9845357589,shashidharmbscto@gmail.com,,,Website,,TBF,11-Feb-16,sushma@knsgroup.in,lakshmana@knsgroup.in
Unnati Phase - 2,Reshma TP,9900726035,reshma16g@gmail.com,,,Website,,TBF,11-Feb-16,sushma@knsgroup.in,lakshmana@knsgroup.in
Anirvan Phase - 2,Charan parla,9972988400,parlacharan@gmail.com,,,Magicbricks,,TBF,11-Feb-16,sushma@knsgroup.in,lakshmana@knsgroup.in
Unnati Phase - 2,George,9900130182,georgekt182@gmail.com,,,Website,,TBF,11-Feb-16,sushma@knsgroup.in,lakshmana@knsgroup.in
Anirvan Phase - 2,Rakesh,9986879328,ia9986879328@indiatimes.com,,,Magicbricks,,TBF,11-Feb-16,sushma@knsgroup.in,lakshmana@knsgroup.in
Anirvan Phase - 2,kamleshwar shrivastava,8871663397,kshriv1@gmail.com,,,Website,,TBF,11-Feb-16,sushma@knsgroup.in,lakshmana@knsgroup.in
