Project,Customer Name,Mobile No,Email,Company,Location,Source,Remarks,Intrest Status,Follow up date,Assigned To,Assign By
Anirvan Phase - 2,Vinayendraswamy Brahmandabheri,8892218960,vinaybheri@gmail.com,,,Facebook,,TBF,16-07-2017,shwetha@knsgroup.in,shwetha@knsgroup.in
Anirvan Phase - 2,Paras Jha,9886921936,parasjha.cse@gmail.com,,,Facebook,,TBF,16-07-2017,shwetha@knsgroup.in,shwetha@knsgroup.in
Anirvan Phase - 2,Pradeep Mallabadi,9901177790,55.mpradeep@gmail.com,,,Facebook,,TBF,16-07-2017,shwetha@knsgroup.in,shwetha@knsgroup.in
Anirvan Phase - 2,Sridhara Murthy,9886040280,sridhar_bel@yahoo.com,,,Facebook,,TBF,16-07-2017,shwetha@knsgroup.in,shwetha@knsgroup.in
Anirvan Phase - 2,Srinivas Murthy G,9620195907,srinivasmurthy.1307@gmail.com,,,Facebook,,TBF,16-07-2017,shwetha@knsgroup.in,shwetha@knsgroup.in
Anirvan Phase - 2,Ram Das,9663827336,ramdasu1960@gmail.com,,,Facebook,,TBF,16-07-2017,shwetha@knsgroup.in,shwetha@knsgroup.in
Anirvan Phase - 2,Vikramjit,9845666155,vjsbindra@gmail.com,,,Facebook,,TBF,16-07-2017,shwetha@knsgroup.in,shwetha@knsgroup.in
Anirvan Phase - 2,Puttaswamy K,8453846957,puttaswamyk76@gmail.com,,,Facebook,,TBF,16-07-2017,shwetha@knsgroup.in,shwetha@knsgroup.in
Anirvan Phase - 2,Sanjeev D N,8867166276,bahubalidnanda9@gmail.com,,,Facebook,,TBF,16-07-2017,shwetha@knsgroup.in,shwetha@knsgroup.in
Anirvan Phase - 2,Kishor P Saligrama,9738689375,kishor7kps@gmail.com,,,Facebook,,TBF,16-07-2017,shwetha@knsgroup.in,shwetha@knsgroup.in
Anirvan Phase - 2,Naganagowda Gowdara,9756186154,gngowdag@gmail.com,,,Facebook,,TBF,16-07-2017,shwetha@knsgroup.in,shwetha@knsgroup.in
Anirvan Phase - 2,Krishna Murthy S,9743603913,indiankrishnamurthy@gmail.com,,,Facebook,,TBF,16-07-2017,shwetha@knsgroup.in,shwetha@knsgroup.in
Anirvan Phase - 2,BP Jagadish,9448853557,bpjagadish@gmail.com,,,Facebook,,TBF,16-07-2017,shwetha@knsgroup.in,shwetha@knsgroup.in
Anirvan Phase - 2,satish k,9916771000,satishkrishnanaik@gmail.com,,,Facebook,,TBF,16-07-2017,shwetha@knsgroup.in,shwetha@knsgroup.in
Anirvan Phase - 2,G Subba Rao,9482512518,gsrao44@gmail.com,,,Facebook,,TBF,16-07-2017,shwetha@knsgroup.in,shwetha@knsgroup.in
Anirvan Phase - 2,Sivaprasad Tummala,9742397827,b4u.cva@gmail.com,,,Facebook,,TBF,16-07-2017,shwetha@knsgroup.in,shwetha@knsgroup.in
Unnati Phase - 1,Mansoor Hussain,9740617855,husainmansoor.reshma@gmail.com,,,Facebook,,TBF,16-07-2017,shwetha@knsgroup.in,shwetha@knsgroup.in
Unnati Phase - 1,Daffedar Anwar Saheb8n,9448717654,principalanwarsaheb@gmail.com,,,Facebook,,TBF,16-07-2017,shwetha@knsgroup.in,shwetha@knsgroup.in
Unnati Phase - 1,Kiran Gonchikar,9900538800,kirangonchikar@gmail.com,,,Facebook,,TBF,16-07-2017,shwetha@knsgroup.in,shwetha@knsgroup.in
Unnati Phase - 1,Shwetha Sira,9035940335,shwethasira@yahoo.com,,,Facebook,,TBF,16-07-2017,shwetha@knsgroup.in,shwetha@knsgroup.in
Unnati Phase - 1,Jayant Kumar,9739733112,jayant0406@gmail.com,,,Facebook,,TBF,16-07-2017,shwetha@knsgroup.in,shwetha@knsgroup.in
Unnati Phase - 1,Yadlapalli Veeraju Chowdary,7204371234,chowdary@live.in,,,Facebook,,TBF,16-07-2017,shwetha@knsgroup.in,shwetha@knsgroup.in
Unnati Phase - 1,Abhishek Anand,8904643570,abhishek_pesit@yahoo.com,,,Facebook,,TBF,16-07-2017,shwetha@knsgroup.in,shwetha@knsgroup.in
Unnati Phase - 1,Rajith Venkata,9901966579,rajith.pv@gmail.com,,,Facebook,,TBF,16-07-2017,shwetha@knsgroup.in,shwetha@knsgroup.in
Unnati Phase - 1,Lakshmish Honnavar,7899666399,lgbhandari32@gmail.com,,,Facebook,,TBF,16-07-2017,shwetha@knsgroup.in,shwetha@knsgroup.in
Unnati Phase - 1,Srinath Shetty,9845184853,srin20@yahoo.com,,,Facebook,,TBF,16-07-2017,shwetha@knsgroup.in,shwetha@knsgroup.in
Anirvan Phase - 2,Rajesh Lahakra,8762300092,lahakraraj@gmail.com,,,Facebook,,TBF,16-07-2017,shwetha@knsgroup.in,shwetha@knsgroup.in
Anirvan Phase - 2,Prakash Raj,8728082692,prakash1620@yahoo.in,,,Facebook,,TBF,16-07-2017,shwetha@knsgroup.in,shwetha@knsgroup.in
Anirvan Phase - 2,Janakiraman Rathinam,9980871177,jkram03@gmail.com,,,Facebook,,TBF,16-07-2017,shwetha@knsgroup.in,shwetha@knsgroup.in
Anirvan Phase - 2,John EGeorge,9979737830,john.georgepv@gmail.com,,,Facebook,,TBF,16-07-2017,shwetha@knsgroup.in,shwetha@knsgroup.in
Anirvan Phase - 2,Awadesh Kumar Prasad,9431344662,awadeshprasad@gmail.com,,,Facebook,,TBF,16-07-2017,shwetha@knsgroup.in,shwetha@knsgroup.in
Anirvan Phase - 2,Jayanth P Shivu,9844548049,jayanth.mec@gmail.com,,,Facebook,,TBF,16-07-2017,shwetha@knsgroup.in,shwetha@knsgroup.in
Anirvan Phase - 2,Ashok Mamani,9845128080,aoma.novozyme@gmail.com,,,Facebook,,TBF,16-07-2017,shwetha@knsgroup.in,shwetha@knsgroup.in
Anirvan Phase - 2,Madhu Reddy,7406480808,ojili66@gmail.com,,,Facebook,,TBF,16-07-2017,shwetha@knsgroup.in,shwetha@knsgroup.in
Anirvan Phase - 2,Radhakrishna Kulkarni,7795986821,rrkulkarni831@yahoo.com,,,Facebook,,TBF,16-07-2017,shwetha@knsgroup.in,shwetha@knsgroup.in
Anirvan Phase - 2,Sharath Chandra,9986522522,kk.sharatha@gmail.com,,,Facebook,,TBF,16-07-2017,shwetha@knsgroup.in,shwetha@knsgroup.in
Anirvan Phase - 2,Bharadwaja Koppa Shreedhar,9880330383,prathyangiraa@gmail.com,,,Facebook,,TBF,16-07-2017,shwetha@knsgroup.in,shwetha@knsgroup.in
Anirvan Phase - 2,bharath,9902217583,bharathsumacv018@gmail.com,,,Facebook,,TBF,16-07-2017,shwetha@knsgroup.in,shwetha@knsgroup.in
Anirvan Phase - 2,Venkatesh Harithasa,9141173241,venkateeshharithasa@gmail.com,,,Facebook,,TBF,16-07-2017,shwetha@knsgroup.in,shwetha@knsgroup.in
Anirvan Phase - 2,Pradeep Kumar,9900093499,aluminiumcentre2009@gmail.com,,,Facebook,,TBF,16-07-2017,shwetha@knsgroup.in,shwetha@knsgroup.in
Anirvan Phase - 2,Arpitha Sharath,8861750555,arpitha1427@gmail.com,,,Facebook,,TBF,16-07-2017,shwetha@knsgroup.in,shwetha@knsgroup.in
Anirvan Phase - 2,Sanjay Prasad,9901253136,sanjay@ipc.iisc.ernet.in,,,Facebook,,TBF,16-07-2017,shwetha@knsgroup.in,shwetha@knsgroup.in
Anirvan Phase - 2,ravi,7204043862,omravi2005@yahoo.com,,,Facebook,,TBF,16-07-2017,shwetha@knsgroup.in,shwetha@knsgroup.in
Anirvan Phase - 2,Ashok Ramanna,8095191666,ashokhramanna@gmil.com,,,Facebook,,TBF,16-07-2017,shwetha@knsgroup.in,shwetha@knsgroup.in
Anirvan Phase - 2,Jagadish Baliga,9964101443,jbaliga1939@yahoo.com,,,Facebook,,TBF,16-07-2017,shwetha@knsgroup.in,shwetha@knsgroup.in
Anirvan Phase - 2,Muraghendra Ranjanagi,7406132406,ranjanagi@gmail.com,,,Facebook,,TBF,16-07-2017,shwetha@knsgroup.in,shwetha@knsgroup.in
Anirvan Phase - 2,Anand Mastiholi,9448860557,anandbmasti@gmail.com,,,Facebook,,TBF,16-07-2017,shwetha@knsgroup.in,shwetha@knsgroup.in
Anirvan Phase - 2,Chandra Cv C,9989019370,cvcmsap@gmail.com,,,Facebook,,TBF,16-07-2017,shwetha@knsgroup.in,shwetha@knsgroup.in
Anirvan Phase - 2,Pradeep Kumar,9481153283,pradeepnallur12@gmail.com,,,Facebook,,TBF,16-07-2017,shwetha@knsgroup.in,shwetha@knsgroup.in
Anirvan Phase - 2,Naveen Kumar,9986071195,kcnavn@gmail.com,,,Facebook,,TBF,16-07-2017,shwetha@knsgroup.in,shwetha@knsgroup.in
Anirvan Phase - 2,Spoorthi Prasad,9164536355,spoorthi06prasad@gmail.com,,,Facebook,,TBF,16-07-2017,shwetha@knsgroup.in,shwetha@knsgroup.in
Anirvan Phase - 2,Sahajahan Ali Khan,8147741482,sahajahank101071@gmail.com,,,Facebook,,TBF,16-07-2017,shwetha@knsgroup.in,shwetha@knsgroup.in
Anirvan Phase - 2,Vipin Moleth,9448410238,vipinsk50@gmil.com,,,Facebook,,TBF,16-07-2017,shwetha@knsgroup.in,shwetha@knsgroup.in
Anirvan Phase - 2,Anji Anji,9686964190,rahul.anji1991@gmail.com,,,Facebook,,TBF,16-07-2017,shwetha@knsgroup.in,shwetha@knsgroup.in
Anirvan Phase - 2,Nv Swamy,9343215599,nvswamy2727@gmail.com,,,Facebook,,TBF,16-07-2017,shwetha@knsgroup.in,shwetha@knsgroup.in
Anirvan Phase - 2,Mahesh Basavaraju,9844720985,maheshrto@gmail.com,,,Facebook,,TBF,16-07-2017,shwetha@knsgroup.in,shwetha@knsgroup.in
Anirvan Phase - 2,Bhanu Prasad,9986574145,bhanube2002@yahoo.co.in,,,Facebook,,TBF,16-07-2017,shwetha@knsgroup.in,shwetha@knsgroup.in
Anirvan Phase - 2,Pavan Jain,9980132801,pavan2zest@gmail.com,,,Facebook,,TBF,16-07-2017,shwetha@knsgroup.in,shwetha@knsgroup.in
Anirvan Phase - 2,Veena S Kiran,9980075007,veenaskiran1135@gmail.com,,,Facebook,,TBF,16-07-2017,shwetha@knsgroup.in,shwetha@knsgroup.in
Anirvan Phase - 2,Nagendrappa Gundumunugu,9972801035,nagendrappa.kanamadugu@gmail.com,,,Facebook,,TBF,16-07-2017,shwetha@knsgroup.in,shwetha@knsgroup.in
Anirvan Phase - 2,Syed Pasha Syedpasha,9845394784,syedpasha539@gmail.com,,,Facebook,,TBF,16-07-2017,shwetha@knsgroup.in,shwetha@knsgroup.in
Anirvan Phase - 2,Sunilkumar G,9632917912,sunilkumar.g92@rediffmail.com,,,Facebook,,TBF,16-07-2017,shwetha@knsgroup.in,shwetha@knsgroup.in
Anirvan Phase - 2,Namithanagraj,9964790868,namithadshetty09@gmail.com,,,Facebook,,TBF,16-07-2017,shwetha@knsgroup.in,shwetha@knsgroup.in
Anirvan Phase - 2,Dayanand Tbc,9900161652,tbcem1975@gmail.com,,,Facebook,,TBF,16-07-2017,shwetha@knsgroup.in,shwetha@knsgroup.in
Anirvan Phase - 2,Soni Thomas,9742097446,sonitt@rediffmail.com,,,Facebook,,TBF,16-07-2017,shwetha@knsgroup.in,shwetha@knsgroup.in
Anirvan Phase - 2,Venkatesh Venkateshhegde,9880124019,premalathavenkatesh21@gmail.com,,,Facebook,,TBF,16-07-2017,shwetha@knsgroup.in,shwetha@knsgroup.in
Unnati Phase - 1,Abraham,8082438490,sabraham614@gmail.com,,,Facebook,,TBF,16-07-2017,shwetha@knsgroup.in,shwetha@knsgroup.in
Unnati Phase - 1,Mahesh Basavaraju,9844720985,maheshrto@gmail.com,,,Facebook,,TBF,16-07-2017,shwetha@knsgroup.in,shwetha@knsgroup.in
Unnati Phase - 1,Barath Karan,9986874482,barathkrn6@gmail.com,,,Facebook,,TBF,16-07-2017,shwetha@knsgroup.in,shwetha@knsgroup.in
Unnati Phase - 1,Kiran Kirangowda,9743941956,kirangowda974@gmail.com,,,Facebook,,TBF,16-07-2017,shwetha@knsgroup.in,shwetha@knsgroup.in
Unnati Phase - 1,Deepika Sreenivas,8892136268,deepikabs19@gmail.com,,,Facebook,,TBF,16-07-2017,shwetha@knsgroup.in,shwetha@knsgroup.in
Unnati Phase - 1,Murali Reddy,8971830352,murulireddy27@gmail.com,,,Facebook,,TBF,16-07-2017,shwetha@knsgroup.in,shwetha@knsgroup.in
Unnati Phase - 1,Sreedhar Maddu,9538996884,sridhar.maddu@gmail.com,,,Facebook,,TBF,16-07-2017,shwetha@knsgroup.in,shwetha@knsgroup.in
Unnati Phase - 1,ningaraju kt,9964832294,ningarajukt@gmail.com,,,Facebook,,TBF,16-07-2017,shwetha@knsgroup.in,shwetha@knsgroup.in
Unnati Phase - 1,Krishna Krishna,9845517484,latha_krishna1@rediffmail.com,,,Facebook,,TBF,16-07-2017,shwetha@knsgroup.in,shwetha@knsgroup.in
Unnati Phase - 1,ajit,9740436831,buxi_ab@yahoo.com,,,Facebook,,TBF,16-07-2017,shwetha@knsgroup.in,shwetha@knsgroup.in
Unnati Phase - 1,Nethravathi Vijaykumar,9886876765,netravatip4@gmail.com,,,Facebook,,TBF,16-07-2017,shwetha@knsgroup.in,shwetha@knsgroup.in
Unnati Phase - 1,Srinivasa Reddy,9740450679,bsreddy830@gmail.com,,,Facebook,,TBF,16-07-2017,shwetha@knsgroup.in,shwetha@knsgroup.in
Unnati Phase - 1,Jamuna Krishanamurthy,9036935151,jamuna2k6@yahoo.com,,,Facebook,,TBF,16-07-2017,shwetha@knsgroup.in,shwetha@knsgroup.in
Unnati Phase - 1,Gangadar Puttashankaraiah,9448175232,gangadharhp@hotmail.com,,,Facebook,,TBF,16-07-2017,shwetha@knsgroup.in,shwetha@knsgroup.in
Unnati Phase - 1,Sharanappa Yalal,9906674872,yalalss@yahoo.co.in,,,Facebook,,TBF,16-07-2017,shwetha@knsgroup.in,shwetha@knsgroup.in
Unnati Phase - 1,Ashwini MN,8147433959,sadestonearth@yahoo.com,,,Facebook,,TBF,16-07-2017,shwetha@knsgroup.in,shwetha@knsgroup.in
Unnati Phase - 1,Thulasi Reddy,7259936326,thulasirani.t.reddy@gmail.com,,,Facebook,,TBF,16-07-2017,shwetha@knsgroup.in,shwetha@knsgroup.in
Unnati Phase - 1,Muni Yellappa,9945733022,muniyellappa1971@gmail.com,,,Facebook,,TBF,16-07-2017,shwetha@knsgroup.in,shwetha@knsgroup.in
Unnati Phase - 1,Arun Kumar,8095563191,harun.anitha@gmail.com,,,Facebook,,TBF,16-07-2017,shwetha@knsgroup.in,shwetha@knsgroup.in
Unnati Phase - 1,Muthu,8105835003,mr.banupriya@gmail.com,,,Facebook,,TBF,16-07-2017,shwetha@knsgroup.in,shwetha@knsgroup.in
