Project,Customer Name,Mobile No,Email,Company,Location,Source,Remarks,Intrest Status,Follow up date,Assigned To,Assign By
Anirvan Phase - 2,Mpn Prasad,8884053234,mpn.prasad@gmail.com,,,Facebook,share the details,TBF,30-08-2017,shwetha@knsgroup.in,shwetha@knsgroup.in
Anirvan Phase - 2,Jayashree Bali,9845591988,jayashree.bali@gmail.com,,,Facebook,location constrain.looking in JPNAgar,Unqualified,27-08-2017,shwetha@knsgroup.in,shwetha@knsgroup.in
Anirvan Phase - 2,Dhiraj Thakare,9481809093,dhirajthakare123@rediffmail.com,,,Facebook,call back,TBF,30-08-2017,shwetha@knsgroup.in,shwetha@knsgroup.in
Anirvan Phase - 2,Ravi Seshadri,8056287888,rav_veen@hotmail.com,,,Facebook,he will revert back for sv,TBF SV,01-09-2017,shwetha@knsgroup.in,shwetha@knsgroup.in
Anirvan Phase - 2,Mamatha OmPrakash,9880055691,mamatha.tr@gmail.com,,,Facebook,"will plan for svby next week, share the details",TBF SV,01-09-2017,shwetha@knsgroup.in,shwetha@knsgroup.in
Anirvan Phase - 2,Rahul Roy Chowdary,9591880770,rauoos45@gmail.com,,,Facebook,existing,TBF,30-08-2017,shwetha@knsgroup.in,shwetha@knsgroup.in
Anirvan Phase - 2,???????? ????????,9741233591,ravikumaran80@gmail.com,,,Facebook,will come for sv will revert back by halfnhour,TBF SV,01-09-2017,shwetha@knsgroup.in,shwetha@knsgroup.in
Anirvan Phase - 2,Jyothi Ramegowda,9740361867,joe_gowda@rediffmail.com,,,Facebook,call back for sv @ 2:30pm,TBF SV,01-09-2017,shwetha@knsgroup.in,shwetha@knsgroup.in
Anirvan Phase - 2,anandamurthy,9886166252,anandamurthyms@gmail.com,,,Facebook,,TBF,30-08-2017,shwetha@knsgroup.in,shwetha@knsgroup.in
Anirvan Phase - 2,Bikash Kumar,9379020098,bikashji.kumar16@yahoo.in,,,Facebook,number doesnot exist,TBF,30-08-2017,shwetha@knsgroup.in,shwetha@knsgroup.in
Anirvan Phase - 2,Ashok Nolvi,9986070114,ashoknolvi@yahoo.com,,,Facebook,"Out of town call back for confirmation on 1/9 , stays in Bommanahalli works for cipla",TBF SV,01-09-2017,shwetha@knsgroup.in,shwetha@knsgroup.in
Anirvan Phase - 2,Sanjit Pandey,9740122096,sanjitims@gmail.com,,,Facebook,call back on 28/8,TBF,30-08-2017,shwetha@knsgroup.in,shwetha@knsgroup.in
Anirvan Phase - 2,Balachandra Naik,9611200632,naikbalachandra733@gmail.com,,,Facebook,"out of town, call back on 1/9 @ 9 AM  for sv confirmation",TBF SV,01-09-2017,shwetha@knsgroup.in,shwetha@knsgroup.in
Anirvan Phase - 2,Gopala Krishnan,9497536446,ngk1975@gmail.com,,,Facebook,not answering,TBF,30-08-2017,shwetha@knsgroup.in,shwetha@knsgroup.in
Anirvan Phase - 2,Tamoghna Purkayastha,9591181413,tom.ju.2602@gmail.com,,,Facebook,not interested,Unqualified,27-08-2017,shwetha@knsgroup.in,shwetha@knsgroup.in
Anirvan Phase - 2,Harikrishna Baradhari,9035471574,hari_484@rediffmail.com,,,Facebook,"busy in someother commitment, he will try to visit by next weekend",TBF,30-08-2017,shwetha@knsgroup.in,shwetha@knsgroup.in
Anirvan Phase - 2,Soummyodeep Sengupta,9886892744,soummyodeeps@yahoo.com,,,Facebook,will come for sv,TBF SV,27-08-2017,shwetha@knsgroup.in,shwetha@knsgroup.in
Anirvan Phase - 2,Himanshu Gupta,8884098880,vcancer.oflov@gmail.com,,,Facebook,existing,TBF,30-08-2017,shwetha@knsgroup.in,shwetha@knsgroup.in
Anirvan Phase - 2,Ranjit Sahu,9886199874,Ranjit.sahu@gmail.com,,,Facebook,call back,TBF,30-08-2017,shwetha@knsgroup.in,shwetha@knsgroup.in
Anirvan Phase - 2,Chandu Bhushana,9886555545,chandu.bhushana@gmail.com,,,Facebook,not answering,TBF,30-08-2017,shwetha@knsgroup.in,shwetha@knsgroup.in
Anirvan Phase - 2,Vikas Pratap Singh,9611747010,itsvikasonline@gmail.com,,,Facebook,existing,TBF,30-08-2017,shwetha@knsgroup.in,shwetha@knsgroup.in
Anirvan Phase - 2,Sharada N Iyer,9945430066,shd_iyer@yahoo.co.in,,,Facebook,"location constrain, looking in Jpnagar",Unqualified,27-08-2017,shwetha@knsgroup.in,shwetha@knsgroup.in
KNS Archisa,Shivakumar S P,9880140682,spskumargeo@gmail.com,,,Facebook,in class call back,TBF,28-08-2017,shwetha@knsgroup.in,shwetha@knsgroup.in
KNS Archisa,Santosh Prasad,9972001265,santosh.captiva@gmail.com,,,Facebook,share details will revert back,TBF,28-08-2017,shwetha@knsgroup.in,shwetha@knsgroup.in
KNS Archisa,Manjunath M,9886146828,mnjchinnu@gmail.com,,,Facebook,not answering,TBF,28-08-2017,shwetha@knsgroup.in,shwetha@knsgroup.in
KNS Archisa,rangaraju,9448344293,sriranga2govi@gmail.com,,,Facebook,call back,TBF,28-08-2017,shwetha@knsgroup.in,shwetha@knsgroup.in
KNS Archisa,Ankit Sharma,8962679580,sharmaantik256@gmail.com,,,Facebook,not asnwering,TBF,28-08-2017,shwetha@knsgroup.in,shwetha@knsgroup.in
KNS Archisa,Suresh Rs,9964405050,sureshcable71@gmail.com,,,Facebook,not answering,TBF,28-08-2017,shwetha@knsgroup.in,shwetha@knsgroup.in
KNS Archisa,???????? ????????,9741233591,ravikumaran80@gmail.com,,,Facebook,Repeated,TBF,28-08-2017,shwetha@knsgroup.in,shwetha@knsgroup.in
KNS Archisa,Sundar Srinivasan,9650583888,sundarfrtyh@gmail.com,,,Facebook,busy call back,TBF,28-08-2017,shwetha@knsgroup.in,shwetha@knsgroup.in
KNS Archisa,Ramesh Lingappa,9980185914,prajwal2599@gmail.com,,,Facebook,"out of town, budget range is 1000RS/sqft",TBF SV,02-09-2017,shwetha@knsgroup.in,shwetha@knsgroup.in
KNS Archisa,Mahmood Fouzi,9844060365,mfouzi365@gmail.com,,,Facebook,looking for flat,Unqualified,27-08-2017,shwetha@knsgroup.in,shwetha@knsgroup.in
