Project,Customer Name,Mobile No,Email,Company,Location,Source,Remarks,Intrest Status,Follow up date,Assigned To,Assign By
Anirvan Phase - 2,Anu Shild,8087118345,anulk111@gmail.com,,,Facebook,Number not connecting,TBF,31-08-2017,shwetha@knsgroup.in,shwetha@knsgroup.in
Anirvan Phase - 2,Nitin Dhasmana,9999108426,nitin.dhasmana@gmail.com,,,Facebook,He is ridding bike need t call him after an hours time,TBF,31-08-2017,shwetha@knsgroup.in,shwetha@knsgroup.in
Anirvan Phase - 2,Avinash Shetty,9900401277,avinashshetty2@yahoo.co.in,,,Facebook,Not answering the call,TBF,31-08-2017,shwetha@knsgroup.in,shwetha@knsgroup.in
Anirvan Phase - 2,Lokesh Gowda,9845021799,bnlokesh@yahoo.com,,,Facebook,Not answering the call,TBF,31-08-2017,shwetha@knsgroup.in,shwetha@knsgroup.in
Anirvan Phase - 2,Saritha Chandrashekar,9980989159,sari_8749@yahoo.com,,,Facebook,Not answering the call,TBF,31-08-2017,shwetha@knsgroup.in,shwetha@knsgroup.in
Anirvan Phase - 2,Rajesh Kabi,8105222022,rajeshkabi@gmail.com,,,Facebook,He wants site within 20lakhs in city only,Unqualified,31-08-2017,shwetha@knsgroup.in,shwetha@knsgroup.in
Anirvan Phase - 2,Chaithanya Gowthami SurendraBabu Naidu,1234567890,amis@gmail.com,,,Facebook,Invalid number,Unqualified,31-08-2017,shwetha@knsgroup.in,shwetha@knsgroup.in
Anirvan Phase - 2,Lava Kumar,9986024316,lavakumar_100@rediffmail.com,,,Facebook,Call waiting,TBF,31-08-2017,shwetha@knsgroup.in,shwetha@knsgroup.in
Anirvan Phase - 2,Basavaraja Kanchugal Rajappar,9945540662,basavaraja.raj@gmail.com,,,Facebook,Not answering the call,TBF,31-08-2017,shwetha@knsgroup.in,shwetha@knsgroup.in
Anirvan Phase - 2,Vinesh Kumar,9986725507,vineshkumar2486@gmail.com,,,Facebook,"budget below 20 lakhs, suggested KNS Kalpa call on sat to confirm SV from Konankunte cross",TBF SV,02-09-2017,shwetha@knsgroup.in,shwetha@knsgroup.in
Anirvan Phase - 2,Muralidhar Olety,96892132630,oletymurli@yahoo.co.in,,,Facebook,Mail sent,TBF,31-08-2017,shwetha@knsgroup.in,shwetha@knsgroup.in
Anirvan Phase - 2,Hari Prasad,9916043103,hari.rk5222@gmail.com,,,Facebook,Number not reachable,TBF,31-08-2017,shwetha@knsgroup.in,shwetha@knsgroup.in
Anirvan Phase - 2,Prashanth VS,9742163610,vspras@gmail.com,,,Facebook,Call on Saturday,TBF,31-08-2017,shwetha@knsgroup.in,shwetha@knsgroup.in
Anirvan Phase - 2,Mangala Gowri,9986013063,mangala.licindia@yahoo.com,,,Facebook,Lookinfg for property in Chandapura,Unqualified,30-08-2017,shwetha@knsgroup.in,shwetha@knsgroup.in
KNS Archisa,Aayush Raj,8497800045,aayushraj045@gmail.com,,,Facebook,,TBF,30-08-2017,avinkumar@knsgroup.in,shwetha@knsgroup.in
KNS Archisa,prashant annigeri,9900511306,prashant.ga@gmail.com,,,Facebook,,TBF,30-08-2017,avinkumar@knsgroup.in,shwetha@knsgroup.in
KNS Archisa,Amit Sharma,9019587652,amits2346@gmail.com,,,Facebook,,TBF,30-08-2017,avinkumar@knsgroup.in,shwetha@knsgroup.in
KNS Archisa,Padmanabha Padmanabha,8123355990,padduapex2@gmail.com,,,Facebook,,TBF,30-08-2017,avinkumar@knsgroup.in,shwetha@knsgroup.in
KNS Archisa,Saritha Chandrashekar,9980989159,sari_8749@yahoo.com,,,Facebook,,TBF,30-08-2017,avinkumar@knsgroup.in,shwetha@knsgroup.in
KNS Archisa,Sunil,9900918289,hema.srsm228@gmail.com,,,Facebook,,TBF,30-08-2017,avinkumar@knsgroup.in,shwetha@knsgroup.in
KNS Archisa,Raghu Teja,8105296859,rteja.ngcbits@gmail.com,,,Facebook,,TBF,30-08-2017,avinkumar@knsgroup.in,shwetha@knsgroup.in
KNS Archisa,madhukiran,8088886466,infotomadhu6466@gmail.com,,,Facebook,,TBF,30-08-2017,avinkumar@knsgroup.in,shwetha@knsgroup.in
KNS Archisa,Samrudhi Sahana,9844462980,sahana13190@gmail.com,,,Facebook,,TBF,30-08-2017,avinkumar@knsgroup.in,shwetha@knsgroup.in
KNS Archisa,mohitosh kumar,8105033665,mohitosh69@gmail.com,,,Facebook,,TBF,30-08-2017,avinkumar@knsgroup.in,shwetha@knsgroup.in
KNS Archisa,Vijetha Shetty,9731005579,vijethacherkady@gmail.com,,,Facebook,,TBF,30-08-2017,avinkumar@knsgroup.in,shwetha@knsgroup.in
