Project,Customer Name,Mobile No,Email,Company,Location,Source,Remarks,Intrest Status,Follow up date,Assigned To,Assign By
Anirvan Phase - 2,Ganesh,7676501978,gane034@gmail.com,,Vijaynagar,Website,Client will visit location saturday,TBF SV,14-07-2017,shwetha@knsgroup.in,shwetha@knsgroup.in
Anirvan Phase - 2,,9632278626,,,,Others,Not answering,TBF  ,14-07-2017,shwetha@knsgroup.in,shwetha@knsgroup.in
Anirvan Phase - 2,Chandan,8033503357,,,BTM layout,Website,Client will get back to us if interested,TBF,14-07-2017,shwetha@knsgroup.in,shwetha@knsgroup.in
Anirvan Phase - 2,Manjunath,7022153303,,,,Website,Looking for east facing we dont have flats left with east facing and also for corner plot,TBF,14-07-2017,shwetha@knsgroup.in,shwetha@knsgroup.in
Anirvan Phase - 2,,9148088855,,,,Others,Call busy,TBF,14-07-2017,shwetha@knsgroup.in,shwetha@knsgroup.in
Anirvan Phase - 2,,8088928054,,,,Others,Marketing call,Unqualified,14-07-2017,shwetha@knsgroup.in,shwetha@knsgroup.in
Anirvan Phase - 2,Suresh,9741551160,,,,Website,"Looking for 20*30 and budget is Rs.15-20 Lakh, Suggested Archisa. SV on Sunday",TBF SV,14-07-2017,shwetha@knsgroup.in,shwetha@knsgroup.in
Anirvan Phase - 2,Mallikarjun,8277292790,,,Chamrajpet,Vijaya Karnataka,Client will get back to us after asking to his friends,TBF,14-07-2017,shwetha@knsgroup.in,shwetha@knsgroup.in
Anirvan Phase - 2,,9900095818,,,,Others,,TBF,14-07-2017,shwetha@knsgroup.in,shwetha@knsgroup.in
Anirvan Phase - 2,Madu sudhan,9535970056,,,Banashankari,METRO STATION STANDEE,Call back on tuesday will come for S V(Metro standies),TBF SV,14-07-2017,shwetha@knsgroup.in,shwetha@knsgroup.in
Anirvan Phase - 2,,9986199999,,,,Others,Call back after 11,TBF,14-07-2017,shwetha@knsgroup.in,shwetha@knsgroup.in
Anirvan Phase - 2,,9663471471,,,,Others,Not answering,TBF,14-07-2017,shwetha@knsgroup.in,shwetha@knsgroup.in
Anirvan Phase - 2,,97335579601,,,,Others,Not answering,TBF,14-07-2017,shwetha@knsgroup.in,shwetha@knsgroup.in
Anirvan Phase - 2,Manjula ,9739058265,,,Kolar,METRO STATION STANDEE,Will visit sites on sat call back (metro standies),TBF,14-07-2017,shwetha@knsgroup.in,shwetha@knsgroup.in
Anirvan Phase - 2,Vishwanath ,8041182106,vishwahooli@gmail.com,,"Amma ashram, bangalore",Hoarding,Will visit site on saturday,TBF SV,14-07-2017,shwetha@knsgroup.in,shwetha@knsgroup.in
Anirvan Phase - 2,,8074222534,,,,Others,Did not responded,TBF,14-07-2017,shwetha@knsgroup.in,shwetha@knsgroup.in
Anirvan Phase - 2,,1141122603,,,,Others,Contact invalid ,Unqualified,14-07-2017,shwetha@knsgroup.in,shwetha@knsgroup.in
Anirvan Phase - 2,,7348931010,,,,Others,Call back after 11:30,TBF,14-07-2017,shwetha@knsgroup.in,shwetha@knsgroup.in
Anirvan Phase - 2,,8660611927,,,,Others,not answering,TBF,14-07-2017,shwetha@knsgroup.in,shwetha@knsgroup.in
Anirvan Phase - 2,,9036121156,,,,Others,Not answering,TBF,14-07-2017,shwetha@knsgroup.in,shwetha@knsgroup.in
Anirvan Phase - 2,Prasad,8048069993,,,,Website,given details client will think and get back,TBF,14-07-2017,shwetha@knsgroup.in,shwetha@knsgroup.in
Anirvan Phase - 2,Preeti,8030178262,,,,Website,will come for S V on sunday,TBF SV,14-07-2017,shwetha@knsgroup.in,shwetha@knsgroup.in
Anirvan Phase - 2,Saheb,7349791561,,,Hebbal,Commonfloor,Will plan for S V on sat,TBF SV,14-07-2017,shwetha@knsgroup.in,shwetha@knsgroup.in
Anirvan Phase - 2,,7349484817,,,,Others,Switched off,TBF,14-07-2017,shwetha@knsgroup.in,shwetha@knsgroup.in
Anirvan Phase - 2,,9845311089,,,,Others,Not answering,TBF,14-07-2017,shwetha@knsgroup.in,shwetha@knsgroup.in
Anirvan Phase - 2,Sunil kumar,8105233322,,,Vijay nagar,Hoarding,Call back after a week,TBF,14-07-2017,shwetha@knsgroup.in,shwetha@knsgroup.in
Anirvan Phase - 2,Sachin,8073635200,sachi23gowda@gmail.com,,Ittumadvu,Facebook,Shared details. SV on Wednesday to Unnati and Anirvan  ,TBF SV,14-07-2017,shwetha@knsgroup.in,shwetha@knsgroup.in
Anirvan Phase - 2,Umakanth,9632110127,,,Kengeri Uppanagar,Reference,"SV on Wednesday or Saturday, Source:- Refereed by Friend ",TBF SV,14-07-2017,shwetha@knsgroup.in,shwetha@knsgroup.in
Anirvan Phase - 2,Manjunath,7975329547,,,,Website,Will share details ,TBF,14-07-2017,shwetha@knsgroup.in,shwetha@knsgroup.in
Anirvan Phase - 2,,8143483634,,,,Others,Marketing call ,Unqualified,14-07-2017,shwetha@knsgroup.in,shwetha@knsgroup.in
