Project,Customer Name,Mobile No,Email,Company,Location,Source,Remarks,Intrest Status,Follow up date,Assigned To,Assign By
Anirvan Phase - 2,Thanuja Krishna,9986190355,thanuja.krsna@yahoo.com,,,Facebook,not answering,TBF,28-08-2017,shwetha@knsgroup.in,shwetha@knsgroup.in
Anirvan Phase - 2,Yuvaraj Babu,7799977706,yuvarajbabu@hotmail.com,,,Facebook,noresponse dissconnected the call,TBF,28-08-2017,shwetha@knsgroup.in,shwetha@knsgroup.in
Anirvan Phase - 2,Subhalaxmi Nayak,8792232830,subhalaxmi.nayak333@gmail.com,,,Facebook,"send mail, oasis project, if interested she will revert back",TBF,28-08-2017,shwetha@knsgroup.in,shwetha@knsgroup.in
Anirvan Phase - 2,Srithar Durairaj,9886251852,srijeevadurai1@gmail.com,,,Facebook,shared details of Oasis will plan to visit after 5/9,TBF,28-08-2017,shwetha@knsgroup.in,shwetha@knsgroup.in
Anirvan Phase - 2,P R Rao,9591980087,prrao2014@gmail.com,,,Facebook,not reacchable,TBF,28-08-2017,shwetha@knsgroup.in,shwetha@knsgroup.in
Anirvan Phase - 2,Nagesh R,9663825267,nag1231234@rediffmail.com,,,Facebook,"will come for sv on 2/9 , he will come to naiandhalli should arrange vehicle from there",TBF SV,28-08-2017,shwetha@knsgroup.in,shwetha@knsgroup.in
Anirvan Phase - 2,Dechamma thimmaiah,9620841618,Dechu.thimmai@rediff.com,,,Facebook,"not done enquiry,",Unqualified,28-08-2017,shwetha@knsgroup.in,shwetha@knsgroup.in
Anirvan Phase - 2,Sridhar Bharadwaj,9740067639,sridhar8237@yahoo.com,,,Facebook,repeated in livechat,TBF,28-08-2017,shwetha@knsgroup.in,shwetha@knsgroup.in
Anirvan Phase - 2,Shekar S Belagola,9620648143,shekar.rd01@gmail.com,,,Facebook,"in his native place, share details will revert back",TBF,28-08-2017,shwetha@knsgroup.in,shwetha@knsgroup.in
Anirvan Phase - 2,Prolay Ghoshal,9900571052,prolayg@gmail.com,,,Facebook,not answering,TBF,28-08-2017,shwetha@knsgroup.in,shwetha@knsgroup.in
Anirvan Phase - 2,Sasikanth Kanumuri,9916927215,sasikanthkanumuri@gmail.com,,,Facebook,repeated in livechat,TBF,28-08-2017,shwetha@knsgroup.in,shwetha@knsgroup.in
Anirvan Phase - 2,Michael Kingston,8050784816,michaeljenis.s@gmail.com,,,Facebook,number busy,TBF,28-08-2017,shwetha@knsgroup.in,shwetha@knsgroup.in
Anirvan Phase - 2,Venkatesha Prasanna,7507666553,prasanna.jv@gmail.com,,,Facebook,he will only revert back,TBF,28-08-2017,shwetha@knsgroup.in,shwetha@knsgroup.in
Anirvan Phase - 2,Archana Subramany,9886456268,archana_giliyar@rediffmail.com,,,Facebook,not a property seeker,Unqualified,28-08-2017,shwetha@knsgroup.in,shwetha@knsgroup.in
Anirvan Phase - 2,Geetha Bharath,7829978040,geethadv6@gmail.com,,,Facebook,call back after  4pm,TBF,28-08-2017,shwetha@knsgroup.in,shwetha@knsgroup.in
Anirvan Phase - 2,Shyam Sundar,9243439509,ssgelesam@gmail.com,,,Facebook,call back for confirmation on 2/9,TBF SV,28-08-2017,shwetha@knsgroup.in,shwetha@knsgroup.in
Anirvan Phase - 2,Manjunatha Kedilaya,9620393985,manjunathabs1983@gmail.com,,,Facebook,share details and call back for confirmation after 5:30pm,TBF SV,28-08-2017,shwetha@knsgroup.in,shwetha@knsgroup.in
Anirvan Phase - 2,Arun Kumar R P,9611572540,arunkumarr.p@gmail.com,,,Facebook,he went outside will revertback,TBF,28-08-2017,shwetha@knsgroup.in,shwetha@knsgroup.in
Anirvan Phase - 2,Dhareppa Pujari,9844646636,dhareppapujari@gmail.com,,,Facebook,"yelchanahalli, call back for confirmation on 27/8",TBF,28-08-2017,shwetha@knsgroup.in,shwetha@knsgroup.in
Anirvan Phase - 2,Rose,8884043210,rosalin70059@gmail.com,,,Facebook,wrong enquiry,Unqualified,28-08-2017,shwetha@knsgroup.in,shwetha@knsgroup.in
Anirvan Phase - 2,Simon Anthony,8123336988,simon_aps@yahoo.co.in,,,Facebook,"budget constrain, not interested",Unqualified,28-08-2017,shwetha@knsgroup.in,shwetha@knsgroup.in
Anirvan Phase - 2,Shashi Kiran,9449162042,koteshashi@gmail.com,,,Facebook,"reside in tumkur, call back for confirmation 9/9",TBF SV,28-08-2017,shwetha@knsgroup.in,shwetha@knsgroup.in
Anirvan Phase - 2,Rashmi,9845317664,rashmiguru@yahoo.com,,,Facebook,not answering,TBF,28-08-2017,shwetha@knsgroup.in,shwetha@knsgroup.in
Anirvan Phase - 2,Venkatesh MB,9611170880,mbvenki@gmail.com,,,Facebook,not interested,Unqualified,28-08-2017,shwetha@knsgroup.in,shwetha@knsgroup.in
Anirvan Phase - 2,Santhosh Venkatrajan,9900575856,santho.v@gmail.com,,,Facebook,not reachable,TBF,28-08-2017,shwetha@knsgroup.in,shwetha@knsgroup.in
Anirvan Phase - 2,Leema Priya,9986027407,leemacolin@gmail.com,,,Facebook,not answering,TBF,28-08-2017,shwetha@knsgroup.in,shwetha@knsgroup.in
Anirvan Phase - 2,Anirudh Routray,9886807852,anirudha.routray@gmail.com,,,Facebook,call back for confirmation on 27/8 at 9 AM,TBF SV,28-08-2017,shwetha@knsgroup.in,shwetha@knsgroup.in
Anirvan Phase - 2,Venki N Venkat,7406001427,nama_nama@rediffmail.com,,,Facebook,not answering,TBF,28-08-2017,shwetha@knsgroup.in,shwetha@knsgroup.in
Anirvan Phase - 2,Lokesh Kr,9901350677,lokesh.chary@gmail.com,,,Facebook,not answering,TBF,28-08-2017,shwetha@knsgroup.in,shwetha@knsgroup.in
Anirvan Phase - 2,Smrutiranjan Nayak,7411932094,srnayak07@gmail.com,,,Facebook,disconnecting the call,TBF,28-08-2017,shwetha@knsgroup.in,shwetha@knsgroup.in
Anirvan Phase - 2,Siva Sankar Chandolu,9880773104,chsivasankar@gmail.com,,,Facebook,number busy,TBF,28-08-2017,shwetha@knsgroup.in,shwetha@knsgroup.in
Anirvan Phase - 2,Lebaka Muniprasad Reddy,8197711638,mprlebaka@gmail.com,,,Facebook,not answering,TBF,28-08-2017,shwetha@knsgroup.in,shwetha@knsgroup.in
Anirvan Phase - 2,Suresh Babu Narayanan,8951799815,hemasreekutty@gmail.com,,,Facebook,call back,TBF,28-08-2017,shwetha@knsgroup.in,shwetha@knsgroup.in
Anirvan Phase - 2,Niranjan Suvarna,9964950960,niranjansuvarna29@gmail.com,,,Facebook,not interested,Unqualified,28-08-2017,shwetha@knsgroup.in,shwetha@knsgroup.in
Anirvan Phase - 2,Uppi Uppi,9620987751,kumar.uk.dd@gmail.com,,,Facebook,not reachable,TBF,28-08-2017,shwetha@knsgroup.in,shwetha@knsgroup.in
Anirvan Phase - 2,Lohith Kishan,9019494942,lohith145@yahoo.com,,,Facebook,call back,TBF,28-08-2017,shwetha@knsgroup.in,shwetha@knsgroup.in
Anirvan Phase - 2,Prakash Kmm,9880254052,prakash.kmm1@gmail.com,,,Facebook,no response,TBF,28-08-2017,shwetha@knsgroup.in,shwetha@knsgroup.in
Anirvan Phase - 2,K P Arun Kumar,9448547106,lac.arun@gmail.com,,,Facebook,not answering,TBF,28-08-2017,shwetha@knsgroup.in,shwetha@knsgroup.in
KNS Archisa,Santhosh Kumar,9000364428,santhu1203@gmail.com,,,Facebook,not reachable,TBF,28-08-2017,shwetha@knsgroup.in,shwetha@knsgroup.in
KNS Archisa,Selvakumari Sadashivam,8197955789,aselvan90@yahoo.in,,,Facebook,call not connecting,TBF,28-08-2017,shwetha@knsgroup.in,shwetha@knsgroup.in
KNS Archisa,Nitesh Jain,9620004444,Nitsjain92@gmail.com,,,Facebook,will reveret back,TBF,28-08-2017,shwetha@knsgroup.in,shwetha@knsgroup.in
KNS Archisa,Arockiaraj,9972604367,arockiaraj31051976@gmail.com,,,Facebook,not answering,TBF,28-08-2017,shwetha@knsgroup.in,shwetha@knsgroup.in
KNS Archisa,Ramesh P N Ram,9880069377,rameshbescomw5@gmail.com,,,Facebook,,TBF SV,28-08-2017,shwetha@knsgroup.in,shwetha@knsgroup.in
KNS Archisa,Atanu Deb Roy,9739001212,armaan.atsroy@gmail.com,,,Facebook,"locaation constrain, looking only in dommasnadra",Unqualified,28-08-2017,shwetha@knsgroup.in,shwetha@knsgroup.in
KNS Archisa,Omkar Reddy N,9742239175,onkarreddyn47769@gmail.com,,,Facebook,share details will revert back,TBF,28-08-2017,shwetha@knsgroup.in,shwetha@knsgroup.in
KNS Archisa,Thimmaiah.L.M,9901754932,thimmaiah82@gmail.com,,,Facebook,,TBF,28-08-2017,shwetha@knsgroup.in,shwetha@knsgroup.in
KNS Archisa,Prasanth Yadavalli,9148779184,prashanthyv@gmail.com,,,Facebook,,TBF,28-08-2017,shwetha@knsgroup.in,shwetha@knsgroup.in
KNS Archisa,Sandeep Nitchenametla,9740389024,nsandeep5@gmail.com,,,Facebook,"sarjapur ,share details , will come for sv by next weekend call back for confirmation by 1/9",TBF,28-08-2017,shwetha@knsgroup.in,shwetha@knsgroup.in
KNS Archisa,Randhir Kumar,7662838768,thakur.mandu@gmail.com,,,Facebook,existing,TBF,28-08-2017,shwetha@knsgroup.in,shwetha@knsgroup.in
KNS Archisa,Siva Prasad BhumiReddygari,7353330889,sivareddy.hockey@gmail.com,,,Facebook,call not connecting,TBF,28-08-2017,shwetha@knsgroup.in,shwetha@knsgroup.in
KNS Archisa,Ram Niwas,8755834696,bittu.iaf05@gmail.com,,,Facebook,"send email, watsapp location sarjapur call tomorow for sv confirmatin",TBF,28-08-2017,shwetha@knsgroup.in,shwetha@knsgroup.in
KNS Archisa,Venki N Venkat,7406001427,nama_nama@rediffmail.com,,,Facebook,repeated,TBF,28-08-2017,shwetha@knsgroup.in,shwetha@knsgroup.in
KNS Archisa,Arvind Morjariya Morjaria,9035864266,arvind6056@gmail.com,,,Facebook,looking for villa,Unqualified,28-08-2017,shwetha@knsgroup.in,shwetha@knsgroup.in
KNS Archisa,Dhareppa Pujari,9844646636,dhareppapujari@gmail.com,,,Facebook,repeated,TBF,28-08-2017,shwetha@knsgroup.in,shwetha@knsgroup.in
KNS Archisa,Manu Lucky,9066335213,manu.0204kiccha@gmail.com,,,Facebook,not interested,Unqualified,28-08-2017,shwetha@knsgroup.in,shwetha@knsgroup.in
KNS Archisa,ggg,9990050969,prasad.v.unix@gmail.com,,,Facebook,existing,TBF SV,28-08-2017,shwetha@knsgroup.in,shwetha@knsgroup.in
KNS Archisa,Satish Acharya M G,8217095652,satishacharya21@gmail.com,,,Facebook,"vijayanagar, will come for sv 29/8 , call back for confirmation",TBF,28-08-2017,shwetha@knsgroup.in,shwetha@knsgroup.in
KNS Archisa,Kushal Paliwal,9462327851,kushalpaliwal.847@gmail.com,,,Facebook,share details will revert back,TBF,28-08-2017,shwetha@knsgroup.in,shwetha@knsgroup.in
