Project,Customer Name,Mobile No,Email,Company,Location,Source,Remarks,Intrest Status,Follow up date,Assigned To,Assign By
Anirvan Phase - 2,Rajesh Shetty,9620959082,,,Vijaynagar,SMS,call back on 11/02 for sv,TBF SV,04-02-2017,shwetha@knsgroup.in,shwetha@knsgroup.in
Anirvan Phase - 2,,8050107067,,,,Others,wrong enquiry,Unqualified,04-02-2017,priya@knsgroup.in,shwetha@knsgroup.in
Anirvan Phase - 2,,9886344563,,,,Others,realtors,Unqualified,04-02-2017,shwetha@knsgroup.in,shwetha@knsgroup.in
Anirvan Phase - 2,,9886340323,,,,Others,disconnecting the call,Unqualified,04-02-2017,nandeesha.k@knsgroup.in,shwetha@knsgroup.in
Anirvan Phase - 2,,9886339419,,,,Others,"existing client, for khata information",Unqualified,04-02-2017,mahesh@knsgroup.in,shwetha@knsgroup.in
Anirvan Phase - 2,Mohan,9341420396,,,vijayanagar,SMS,will come for sv on 5/2 by selfdrive,TBF SV,04-02-2017,shwetha@knsgroup.in,shwetha@knsgroup.in
Anirvan Phase - 2,,9739729991,,,Gangavathi,SMS,not interested,Unqualified,04-02-2017,pallavi@knsgroup.in,shwetha@knsgroup.in
Anirvan Phase - 2,,8079437117,,,,SMS,Enquiry call ,Unqualified,04-02-2017,avinkumar@knsgroup.in,shwetha@knsgroup.in
Anirvan Phase - 2,,8033120500,,,,Others,not answering,Unqualified,04-02-2017,pallavi@knsgroup.in,shwetha@knsgroup.in
Anirvan Phase - 2,,9886465577,,,,Others,not interested,Unqualified,04-02-2017,priya@knsgroup.in,shwetha@knsgroup.in
Anirvan Phase - 2,Zaibul,7002175849,,,Assam,SMS,not interested,Unqualified,04-02-2017,nandeesha.k@knsgroup.in,shwetha@knsgroup.in
Anirvan Phase - 2,Chandru,7829202000,,,,Others,Client needs to discuss with his wife call back on friday,TBF  ,04-02-2017,mahesh@knsgroup.in,shwetha@knsgroup.in
Anirvan Phase - 2,Mahesh,8904090680,,,,SMS,Enquiry call,Unqualified,04-02-2017,nandeesha.k@knsgroup.in,shwetha@knsgroup.in
Anirvan Phase - 2,Deepak,9686748484,,,,SMS,send mail ,TBF,04-02-2017,avinkumar@knsgroup.in,shwetha@knsgroup.in
Anirvan Phase - 2,Sudhakar reddy,8660985237,,,,SMS,enquiry call,Unqualified,04-02-2017,pallavi@knsgroup.in,shwetha@knsgroup.in
Anirvan Phase - 2,,7795066196,,,,SMS,not interested,Unqualified,04-02-2017,avinkumar@knsgroup.in,shwetha@knsgroup.in
Anirvan Phase - 2,,9342958680,,,,Others,wrong enquiry,Unqualified,04-02-2017,priya@knsgroup.in,shwetha@knsgroup.in
Anirvan Phase - 2,,9844312825,,,,Others,marketing call,Unqualified,04-02-2017,avinkumar@knsgroup.in,shwetha@knsgroup.in
Anirvan Phase - 2,Raghavendra,9742832678,,,"Ramohalli,cross",SMS,enquiry call,Unqualified,04-02-2017,shwetha@knsgroup.in,shwetha@knsgroup.in
Anirvan Phase - 2,kailash,8073089787,,,Sunkadkatte,SMS,Enquiry call,Unqualified,04-02-2017,pallavi@knsgroup.in,shwetha@knsgroup.in
Anirvan Phase - 2,Jayalakshmamma,9035087566,,,Muddinpalya,SMS,"Enquired about project,Said price is quit high, ",Unqualified,04-02-2017,nandeesha.k@knsgroup.in,shwetha@knsgroup.in
Anirvan Phase - 2,,8310603791,,,,SMS,enquiry call,Unqualified,04-02-2017,priya@knsgroup.in,shwetha@knsgroup.in
Anirvan Phase - 2,,8970986448,,,,Others,no response,Unqualified,04-02-2017,mahesh@knsgroup.in,shwetha@knsgroup.in
Anirvan Phase - 2,,8310797514,,,,SMS,enquiry call,Unqualified,04-02-2017,shwetha@knsgroup.in,shwetha@knsgroup.in
Anirvan Phase - 2,,9844096289,,,,SMS,"not interested, just enquired about sms",Unqualified,04-02-2017,avinkumar@knsgroup.in,shwetha@knsgroup.in
Anirvan Phase - 2,,7090406157,,,Rajarajeshwari nagar,SMS,enquiry call,Unqualified,04-02-2017,priya@knsgroup.in,shwetha@knsgroup.in
Anirvan Phase - 2,,7019688927,,,,SMS,wrong enquiry,Unqualified,04-02-2017,mahesh@knsgroup.in,shwetha@knsgroup.in
Anirvan Phase - 2,Na,9243196784,,,,SMS,"Call back, Client is in a meeting",Unqualified,04-02-2017,pallavi@knsgroup.in,shwetha@knsgroup.in
Anirvan Phase - 2,Jagadesh ,7022490117,jaga27@gmail.com,,Malleshwarm,Website,"Looking for 30*40, Budget 2000",Unqualified,04-02-2017,nandeesha.k@knsgroup.in,shwetha@knsgroup.in
Anirvan Phase - 2,,9739939368,,,,Others,no response,Unqualified,04-02-2017,priya@knsgroup.in,shwetha@knsgroup.in
Anirvan Phase - 2,,7353301210,,,,SMS,not interested,Unqualified,04-02-2017,shwetha@knsgroup.in,shwetha@knsgroup.in
Anirvan Phase - 2,Anil kumar,7022494843,,,hosakerhalli,Hoarding,"budget constrain, needs below 2000/Sqft",Unqualified,04-02-2017,priya@knsgroup.in,shwetha@knsgroup.in
Anirvan Phase - 2,,7411053785,,,,SMS,enquiry call,Unqualified,04-02-2017,pallavi@knsgroup.in,shwetha@knsgroup.in
Anirvan Phase - 2,,9036066566,,,,SMS,enquiry call,Unqualified,04-02-2017,nandeesha.k@knsgroup.in,shwetha@knsgroup.in
Anirvan Phase - 2,,9844598631,,,,SMS,no response,Unqualified,04-02-2017,avinkumar@knsgroup.in,shwetha@knsgroup.in
Anirvan Phase - 2,,7411079994,,,,SMS,wrong enquiry,Unqualified,04-02-2017,mahesh@knsgroup.in,shwetha@knsgroup.in
Anirvan Phase - 2,Nagbhushan,9986654470,,,,SMS,enquiry call,Unqualified,04-02-2017,shwetha@knsgroup.in,shwetha@knsgroup.in
Anirvan Phase - 2,,9342673841,,,,SMS,enquiry call,Unqualified,04-02-2017,pallavi@knsgroup.in,shwetha@knsgroup.in
Anirvan Phase - 2,Narayana,9343692005,,,,SMS,not interested,Unqualified,04-02-2017,avinkumar@knsgroup.in,shwetha@knsgroup.in
Anirvan Phase - 2,,9972959951,,,,SMS,"enquiry call, not interested",Unqualified,04-02-2017,pallavi@knsgroup.in,shwetha@knsgroup.in
Anirvan Phase - 2,,9035099963,,,,Others,disconnecting the call,Unqualified,04-02-2017,nandeesha@,shwetha@knsgroup.in
Anirvan Phase - 2,,9739004902,,,,Others,not answering,Unqualified,04-02-2017,avinkumar@knsgroup.in,shwetha@knsgroup.in
Anirvan Phase - 2,,7349797336,,,,Others,promotional call,Unqualified,04-02-2017,nandeesha.k@knsgroup.in,shwetha@knsgroup.in
Anirvan Phase - 2,,8073286132,,,,SMS,budget constrain,Unqualified,04-02-2017,nandeesha.k@knsgroup.in,shwetha@knsgroup.in
Anirvan Phase - 2,Srinivas,7795444748,,,Kamakshipalya,SMS,budget constrain within 10 lakhs,Unqualified,04-02-2017,avinkumar@knsgroup.in,shwetha@knsgroup.in
Anirvan Phase - 2,,9880726907,,,,Others,marketing call,Unqualified,04-02-2017,priya@knsgroup.in,shwetha@knsgroup.in
Anirvan Phase - 2,Basavaraj,8618818425,,,Shankarmatt,Website,call back on 5/02 for sv,TBF SV,04-02-2017,shwetha@knsgroup.in,shwetha@knsgroup.in
