Project,Customer Name,Mobile No,Email,Company,Location,Source,Remarks,Intrest Status,Follow up date,Assigned To,Assign By
Ozone KNS Oasis Phase - A,Shivakumar,9844984242,kumar.mamadapur@gmail.com,,,LIVE CHAT,"visited the projects, call back @ 2pm he is interested for meetings/SV Completed",TBF SV,15-02-2018,shwetha@knsgroup.in,shwetha@knsgroup.in
KNS Archisa,Rajashree,9480618392,,,,LIVE CHAT,will revert back,TBF ,15-02-2018,shwetha@knsgroup.in,shwetha@knsgroup.in
KNS OJAS PHASE-B, Anand,9620480363,anand444777@gmail.com,,,MAGICBRICKS,Number busy,TBF ,15-02-2018,shwetha@knsgroup.in,shwetha@knsgroup.in
KNS OJAS PHASE-B,Amit Pagaria,9845266409,amitrc1977@gmail.com,,,ROOF & FLOOR,call back on 13/02,TBF ,15-02-2018,shwetha@knsgroup.in,shwetha@knsgroup.in
Unnati Phase - 3,Jegadeesan,7483165814,,,,LIVE CHAT,resides in Laggere near vishal mart call back for confirmation on 13/02,TBF SV,15-02-2018,shwetha@knsgroup.in,shwetha@knsgroup.in
KNS OJAS PHASE-B,abdul kalam,8073254420,kalama894@gmail.com,,,ROOF & FLOOR,call back,TBF ,15-02-2018,shwetha@knsgroup.in,shwetha@knsgroup.in
Ozone KNS Oasis Phase - A,Ramesh Kolhe,8866007058,kolheramesh117@gmail.com,,,FACEBOOK,Switched off,TBF ,15-02-2018,shwetha@knsgroup.in,shwetha@knsgroup.in
Ozone KNS Oasis Phase - A,thokka,8095375749,xyz@gmaik.com,,,FACEBOOK,Switched off,TBF ,15-02-2018,shwetha@knsgroup.in,shwetha@knsgroup.in
KNS OJAS PHASE-B,Shwetha,9845567429,shwetha219@gmail.com,,,MAGICBRICKS,Repeated,TBF ,15-02-2018,shwetha@knsgroup.in,shwetha@knsgroup.in
Ozone KNS Oasis Phase - A,Rama Sharma Harinath,9880996870,harinathpn@rediffmail.com,,,FACEBOOK,Not answering,TBF ,15-02-2018,shwetha@knsgroup.in,shwetha@knsgroup.in
KNS OJAS PHASE-B,Jega Renga,7483165814,jproteck@gmail.com,,,FACEBOOK,,TBF ,15-02-2018,shwetha@knsgroup.in,shwetha@knsgroup.in
KNS OJAS PHASE-B,Prasanth Dimmala,,prasanthdimmala@gmail.com,,,FACEBOOK,No number,TBF ,15-02-2018,shwetha@knsgroup.in,shwetha@knsgroup.in
Anirvan Phase - 2,Naveen,,ayush.naveen@gmail.com,,,LIVE CHAT,,TBF ,15-02-2018,shwetha@knsgroup.in,shwetha@knsgroup.in
KNS OJAS PHASE-B,Aravind.A,9901950650,,,,LIVE CHAT,Not answering,TBF ,15-02-2018,shwetha@knsgroup.in,shwetha@knsgroup.in
KNS OJAS PHASE-B,Shilpa ,9731239303 ,shilpamj70@gmail.com ,,,MAGICBRICKS,call back for confirmation on 16/02,TBF SV,15-02-2018,shwetha@knsgroup.in,shwetha@knsgroup.in
KNS OJAS PHASE-B,Janardhana ,9886245645, dr.devarathna@gmail.com ,,,MAGICBRICKS,"location constrain, looking in and around Basaveshwarnagar",Unqualified,15-02-2018,shwetha@knsgroup.in,shwetha@knsgroup.in
Anirvan Phase - 2,Arul Kumar,,arul_arul76@yahoo.com,,,LIVE CHAT,No Number,,15-02-2018,shwetha@knsgroup.in,shwetha@knsgroup.in
KNS OJAS PHASE-B,Shobha ,9880443853 ,rdshobha17@gmail.com ,,,MAGICBRICKS,will revert back,TBF ,15-02-2018,shwetha@knsgroup.in,shwetha@knsgroup.in
KNS OJAS PHASE-B,Bm Farquk,8014641363,abdulbasit08820@gmail.com,,,ROOF & FLOOR,"Not property seeker, in Manipur",Unqualified,15-02-2018,shwetha@knsgroup.in,shwetha@knsgroup.in
KNS OJAS PHASE-B,Muttu Muttu,9535167260,muttu1189@gmail.com,,,ROOF & FLOOR,Not a property seeker,Unqualified,15-02-2018,shwetha@knsgroup.in,shwetha@knsgroup.in
KNS OJAS PHASE-B,Mahesh ,9686800566 ,mahiinmail006@gmail.com ,,,MAGICBRICKS,Not answering,TBF ,15-02-2018,shwetha@knsgroup.in,shwetha@knsgroup.in
Unnati Phase - 3,Jagadeesh,,jds1vision1100@gmail.com,,,LIVE CHAT,No Number,,15-02-2018,shwetha@knsgroup.in,shwetha@knsgroup.in
KNS OJAS PHASE-B,Roopesh kumar ,9844216525 ,roopeshk78@gmail.com ,,,MAGICBRICKS,call not connecting,TBF ,15-02-2018,shwetha@knsgroup.in,shwetha@knsgroup.in
KNS OJAS PHASE-B,Mahesh P,9611669495,maheshp94@gmail.com,,,ROOF & FLOOR,"call back for confirmation on 16/02, resides in Banashankari 2nd stage",TBF SV,15-02-2018,shwetha@knsgroup.in,shwetha@knsgroup.in
KNS OJAS PHASE-B, Numan Hussen,9535973875,numanhussen786@gmail.com,,,ROOF & FLOOR,"he will only back, if interested",TBF ,15-02-2018,shwetha@knsgroup.in,shwetha@knsgroup.in
KNS OJAS PHASE-B,Channabasayya ,8618631052,c.n.holimath@gmail.com,,,ROOF & FLOOR,Numberr busy,TBF ,15-02-2018,shwetha@knsgroup.in,shwetha@knsgroup.in
KNS OJAS PHASE-B,Karim Barbhuiya ,9738993318,Karimuddin4501@gmail.com,,,ROOF & FLOOR,Not reachable,TBF ,15-02-2018,shwetha@knsgroup.in,shwetha@knsgroup.in
KNS OJAS PHASE-B, Shankar,9591172553,shankarg09086@gmail.com,,,ROOF & FLOOR,not answering,TBF ,15-02-2018,shwetha@knsgroup.in,shwetha@knsgroup.in
KNS Archisa,Nigar khanam,9986438076,nigmaj@gmail.com,,,MICRO WEBSITE,call back on 14/02,TBF ,15-02-2018,shwetha@knsgroup.in,shwetha@knsgroup.in
Anirvan Phase - 2,Ganapathi Reddy,7349304575,,,,LIVE CHAT,call back for confirmation on 16/02 resides in Banaswadi,TBF SV,15-02-2018,shwetha@knsgroup.in,shwetha@knsgroup.in
KNS OJAS PHASE-B,Lakshmi Naryana S,9742299661,raju9448237422@gmail.com,,,ROOF & FLOOR,"Location constrain, looking in Tumkur road",Unqualified,15-02-2018,shwetha@knsgroup.in,shwetha@knsgroup.in
KNS OJAS PHASE-B,Lingaraju Raju,8884577614,lingarajup132@gmail.com,,,ROOF & FLOOR,"reside Shrinagara, call back on 17/02",TBF ,15-02-2018,shwetha@knsgroup.in,shwetha@knsgroup.in
KNS OJAS PHASE-B,Sankalp,9538136456,sankalp5666@Gail.com,,,ROOF & FLOOR,Not a property seeker,Unqualified,15-02-2018,shwetha@knsgroup.in,shwetha@knsgroup.in
Unnati Phase - 3,Rashmi,9980197744,Rashmipraveen2000@gmail.com,,,LIVE CHAT,No response,TBF ,15-02-2018,shwetha@knsgroup.in,shwetha@knsgroup.in
KNS OJAS PHASE-B,Ningaraju R D Kuppi , 9108903276,sningaraju82@gimel.com,,,ROOF & FLOOR,Not a property seeker,Unqualified,15-02-2018,shwetha@knsgroup.in,shwetha@knsgroup.in
KNS OJAS PHASE-B,Shrimanta Appu,9480629550,shrimantashrimanta096@gmail.com,,,ROOF & FLOOR,"Location constrain, sorrounindelectronic city to kanakapura road",Unqualified,15-02-2018,shwetha@knsgroup.in,shwetha@knsgroup.in
KNS OJAS PHASE-B,Pavan,9606622557,pavanchinnu3609@gmail.com,,,ROOF & FLOOR,wong enquiry,Unqualified,15-02-2018,shwetha@knsgroup.in,shwetha@knsgroup.in
KNS OJAS PHASE-B,Badri Prashad Kori,8518897087,badriprashad165@gmail.com,,,,,,15-02-2018,shwetha@knsgroup.in,shwetha@knsgroup.in
KNS OJAS PHASE-B,Badri Prashad Kori,8518897087,badriprashad165@gmail.com,,,ROOF & FLOOR,disconnecting the call,TBF,15-02-2018,shwetha@knsgroup.in,shwetha@knsgroup.in
KNS OJAS PHASE-B, Arul Raj ,9886699769,arulraj.david769@gmail.com,,,ROOF & FLOOR,call not connecting,TBF,15-02-2018,shwetha@knsgroup.in,shwetha@knsgroup.in
KNS OJAS PHASE-B,Elias Sk ,9986596078,eliyassk258@gmail.com,,,ROOF & FLOOR,not a property seeker,Unqualified,15-02-2018,shwetha@knsgroup.in,shwetha@knsgroup.in
KNS OJAS PHASE-B,Bijay Biswal B B,8867764981,bbjay642@gmali.com,,,ROOF & FLOOR,not a property seeker,Unqualified,15-02-2018,shwetha@knsgroup.in,shwetha@knsgroup.in
KNS OJAS PHASE-B,Amith Kumar P S ,9480766601,amithkumarps@gmail.com,,,ROOF & FLOOR,not interested,Unqualified,15-02-2018,shwetha@knsgroup.in,shwetha@knsgroup.in
KNS OJAS PHASE-B, Padiyappa,8722700192,padiyappa06@gmail.com,,,ROOF & FLOOR,"resides in Hubli, when reaches Bangalore he will revert back",TBF,15-02-2018,shwetha@knsgroup.in,shwetha@knsgroup.in
KNS OJAS PHASE-B,Shiva, 9901882361,shivakumardj84@mail.com,,,ROOF & FLOOR,"out of town , he will revert back",TBF,15-02-2018,shwetha@knsgroup.in,shwetha@knsgroup.in
KNS OJAS PHASE-B,v v suresh,9440875731,vvsuresh51@gmail.com,,,ROOF & FLOOR,call forwarded,TBF,15-02-2018,shwetha@knsgroup.in,shwetha@knsgroup.in
KNS OJAS PHASE-B,Nupesh Bhoyar,8806629078,bhoyarnupesh13@gmail.com,,,ROOF & FLOOR,not a property seeker,Unqualified,15-02-2018,shwetha@knsgroup.in,shwetha@knsgroup.in
KNS OJAS PHASE-B,Yugendar Naidu ,9066666563,yugandharnaiduk7@gmail.com,,,ROOF & FLOOR,not a property seeker,Unqualified,15-02-2018,shwetha@knsgroup.in,shwetha@knsgroup.in
KNS OJAS PHASE-B,Bassu S Manegar Yergol, 9591885035,bassusm123@gmail.com,,,ROOF & FLOOR,Not answering,TBF,15-02-2018,shwetha@knsgroup.in,shwetha@knsgroup.in
KNS OJAS PHASE-B,Chandra Yadav , 9902268725,santhuammusanthuammu0221@gmail.com,,,ROOF & FLOOR,not a property seeker,Unqualified,15-02-2018,shwetha@knsgroup.in,shwetha@knsgroup.in
KNS OJAS PHASE-B,Huli Raja,9606633824,hulirajahuliraja3773@gmail.com,,,ROOF & FLOOR,Not answering,TBF,15-02-2018,shwetha@knsgroup.in,shwetha@knsgroup.in
KNS OJAS PHASE-B,Vivek Sinha , 9916944403,vivek-sinha@hotmail.com,,,ROOF & FLOOR,looking into constructed house,Unqualified,15-02-2018,shwetha@knsgroup.in,shwetha@knsgroup.in
KNS OJAS PHASE-B,Siddha Raj Acharya,8867436440,siddharaj4321@gmail.com,,,ROOF & FLOOR,not interested,Unqualified,15-02-2018,shwetha@knsgroup.in,shwetha@knsgroup.in
KNS OJAS PHASE-B,Preetham ,9164549998,,,,OLX,call not connecting,TBF,15-02-2018,shwetha@knsgroup.in,shwetha@knsgroup.in
KNS OJAS PHASE-B,Ratan,8660063386,,,,LIVE CHAT,budget within 10 lakhs,Unqualified,15-02-2018,shwetha@knsgroup.in,shwetha@knsgroup.in
KNS OJAS PHASE-B,Santosh Desai,7899492244 ,santoshdesai028@gmail.com,,,MAGICBRICKS,not answering,TBF,15-02-2018,shwetha@knsgroup.in,shwetha@knsgroup.in
KNS OJAS PHASE-B,Shaik Arif,9513840648,sarif7865@gmail.com,,,ROOF & FLOOR,number busy,TBF,15-02-2018,shwetha@knsgroup.in,shwetha@knsgroup.in
KNS Archisa,Binoy,9739993156,b.methew@gmail.com,,,LIVE CHAT,budget within 10 lakhs,Unqualified,15-02-2018,shwetha@knsgroup.in,shwetha@knsgroup.in
Anirvan Phase - 2,Mr. Raghav,9900822119,raghav@raghavpaica.com,,,LIVE CHAT,share the availability of ojas and oasis Projects,TBF,15-02-2018,shwetha@knsgroup.in,shwetha@knsgroup.in
KNS OJAS PHASE-B,Manjunath ,9986594246 ,manjudew6@gmail.com ,,,MAGICBRICKS,number busy,TBF,15-02-2018,shwetha@knsgroup.in,shwetha@knsgroup.in
KNS OJAS PHASE-B,jegannathan,9483963286,gopalan_jegannathan@rediffmail.com,,,ROOF & FLOOR,switched off,TBF,15-02-2018,shwetha@knsgroup.in,shwetha@knsgroup.in
KNS OJAS PHASE-B, jayaprakash,8197640081,jayaprgc@tatapower.com,,,ROOF & FLOOR,"location constrain, looking in Mysore",Unqualified,15-02-2018,shwetha@knsgroup.in,shwetha@knsgroup.in
