SNo,Date,E. Code,Name,Shift, InTime, OutTime
1,13-12-2016,123,K.N.SURENDRA,GS,09:00,18:00
2,13-12-2016,124,K.N.SOWMYA,GS,09:00,18:00
3,13-12-2016,125,K.N.BOREGOWDA,GS,09:00,18:00
4,13-12-2016,127,SRINIVAS.H.C,GS,09:00,18:00
5,13-12-2016,128,KUMAR.H.S,GS,09:00,18:00
6,13-12-2016,130,A.H.PRASAD KUMAR,GS,09:00,18:00
7,13-12-2016,131,GIRISH SHETTY,GS,08:57,18:00
8,13-12-2016,135,KUMAR.B.S,GS,09:16,18:14
9,13-12-2016,136,SUDHIR SHETTY,GS,09:38,00:00
10,13-12-2016,138,PRASANNA KUMAR.S,GS,10:11,17:05
11,13-12-2016,139,MITHUN.G.SHETTY,GS,00:00,00:00
12,13-12-2016,140,VENKATESH.K,GS,14:57,20:08
13,13-12-2016,143,JAGANNATH JAKKA,GS,00:00,00:00
14,13-12-2016,147,UMESH.B.V,GS,09:40,19:23
15,13-12-2016,149,C.V.HARISH,GS,09:00,18:00
16,13-12-2016,152,CHANDRASHEKAR.M.B,GS,09:00,18:00
17,13-12-2016,157,SANTOSH.K.NAIK,GS,08:46,18:08
18,13-12-2016,158,NANJEGOWDA,GS,09:00,18:00
19,13-12-2016,170,VAISHNAVI.R.AITHAL,GS,09:14,18:19
20,13-12-2016,171,SHIVANNA,GS,09:00,17:52
21,13-12-2016,175,BHANUPRAKASH DG,GS,09:00,17:54
22,13-12-2016,188,RATHNA,GS,09:00,18:00
23,13-12-2016,197,SHIVA KUMAR.N,GS,09:28,20:27
24,13-12-2016,199,HEMANTH.V.G,GS,09:00,18:00
25,13-12-2016,201,SUNIL KUMAR.B.B,GS,09:15,18:09
26,13-12-2016,202,MAHESH RAJ URS,GS,09:11,18:11
27,13-12-2016,206,PRASANNA.N.M,GS,00:00,00:00
28,13-12-2016,207,PRIYA NAGARAJ,GS,10:02,00:00
29,13-12-2016,208,K.P.RAGHAVENDRA,GS,09:00,18:00
30,13-12-2016,210,KAVYA.B.K,GS,00:00,00:00
31,13-12-2016,211,BASAVARAJU.K.N,GS,09:41,18:46
32,13-12-2016,213,AJITH ASHOKAN,GS,09:04,18:03
33,13-12-2016,217,C.SHASHIDHAR,GS,08:51,18:01
34,13-12-2016,218,KISHORE.B.N,GS,09:00,18:00
35,13-12-2016,223,CHETAN.G.K,GS,09:00,18:00
36,13-12-2016,230,KEERTHI KUMAR.K.R,GS,09:00,18:00
37,13-12-2016,243,ABBUBAKARSIDEEK.K,GS,09:02,18:15
38,13-12-2016,245,AVILASH.P.G,GS,09:00,18:00
39,13-12-2016,250,YOGESH.A.N,GS,00:00,00:00
40,13-12-2016,252,SRILATHA BOLLADY,GS,09:12,18:23
41,13-12-2016,254,PAVAN KUMAR.H.N,GS,09:56,16:10
42,13-12-2016,257,CHANDRAPPA,GS,08:26,18:24
43,13-12-2016,258,THIPPESWAMY.B.C,GS,09:10,17:52
44,13-12-2016,259,KARTHIKEYA PATIL,GS,09:01,17:49
45,13-12-2016,261,RAMU,GS,09:00,18:00
46,13-12-2016,262,REKHA,GS,09:00,18:00
47,13-12-2016,263,YOGESH GOWDA.M.L,GS,07:41,20:58
48,13-12-2016,265,NAGARAJ PRAKASH,GS,09:21,18:03
49,13-12-2016,268,AVIN KUMAR,GS,09:12,17:45
50,13-12-2016,269,PRADEEP.B.R,GS,08:56,18:01
51,13-12-2016,270,MANJUNATH.R,GS,09:00,18:00
52,13-12-2016,273,KUSHALA.G.V,GS,09:00,18:50
53,13-12-2016,274,Abhinandan.K.M,GS,09:21,18:11
54,13-12-2016,275,MANJU.B,GS,09:20,18:09
55,13-12-2016,277,N.CHANDRASHEKAR,GS,09:01,17:49
56,13-12-2016,279,MALLESH,GS,09:00,18:00
57,13-12-2016,282,NAVIN KUMAR.B.R,GS,08:46,18:01
58,13-12-2016,290,NARAYANA REDDY.M,GS,08:51,18:09
59,13-12-2016,291,RAJANNA.A.C,GS,00:00,00:00
60,13-12-2016,293,VENKAT RAMANAIAH YETURU,GS,11:05,19:24
61,13-12-2016,296,NANDEESHA.K,GS,00:00,00:00
62,13-12-2016,300,KEMPARAJU.N.S,GS,09:09,18:00
63,13-12-2016,301,PUNEETH.M.P,GS,09:00,18:00
64,13-12-2016,302,HARSHA KUMAR.H.R,GS,09:00,18:00
65,13-12-2016,303,PRITHVI KUMAR.C.A,GS,00:00,00:00
66,13-12-2016,304,SANTOSH NARAYAN,GS,10:57,18:23
67,13-12-2016,309,MARY SHARLY,GS,00:00,00:00
68,13-12-2016,311,RAKESH.A.M,GS,09:00,18:00
69,13-12-2016,314,VIJAYASHREE.S.ANAND,GS,09:21,17:56
70,13-12-2016,315,BALAJI,GS,09:00,18:00
71,13-12-2016,317,MAHESH GOWDA.C.S,GS,09:04,18:07
72,13-12-2016,318,DHIRENDRA BHASKAR.H.P,GS,09:00,18:09
73,13-12-2016,319,PRADEEP KUMAR.S.S,GS,09:04,18:09
74,13-12-2016,321,PALLAVI.K,GS,09:16,17:56
75,13-12-2016,322,SURESH.K,GS,00:00,00:00
76,13-12-2016,323,CHELUVEGOWDA.H.S,GS,09:10,18:09
77,13-12-2016,327,BINDU RANI,GS,12:25,17:38
78,13-12-2016,328,DHANASHEKAR.M,GS,09:10,18:03
79,13-12-2016,329,Kaliprasad(NOT IN PAYROLL),GS,09:00,18:00
80,13-12-2016,330,THIMMAPPA,GS,00:00,00:00
81,13-12-2016,331,ALTAF,GS,09:00,18:00
82,13-12-2016,332,ANIL KUMAR.H.R,GS,13:52,18:45
83,13-12-2016,334,SHIVAPRASAD,GS,08:45,18:12
84,13-12-2016,324,Madan.V(NOT IN PAYROLL),GS,09:30,18:00
85,13-12-2016,249,DIVAKAR.N.M,GS,08:57,18:45
86,13-12-2016,336,SHWETHA.H.G,GS,00:00,00:00
87,13-12-2016,337,K.O.SREEDHAR,GS,09:07,18:02
88,13-12-2016,338,NANDINI.S.L,GS,08:55,18:41
89,13-12-2016,1010,RAMU.H.M,GS,08:12,19:08
