SNo,Date,E. Code,Name,Shift, InTime, OutTime
1,13-06-2017,123,K.N.SURENDRA,GS,09:00,18:00
2,13-06-2017,124,K.N.SOWMYA,GS,09:00,18:00
3,13-06-2017,125,K.N.BOREGOWDA,GS,09:00,18:00
4,13-06-2017,127,SRINIVAS.H.C,GS,09:00,18:00
5,13-06-2017,128,KUMAR.H.S,GS,09:00,18:00
6,13-06-2017,130,A.H.PRASAD KUMAR,GS,09:00,18:00
7,13-06-2017,131,GIRISH SHETTY,GS,08:49,18:45
8,13-06-2017,135,KUMAR.B.S,GS,09:06,18:27
9,13-06-2017,136,SUDHIR SHETTY,GS,09:17,18:32
10,13-06-2017,138,PRASANNA KUMAR.S,GS,09:07,18:13
11,13-06-2017,139,MITHUN.G.SHETTY,GS,08:56,18:51
12,13-06-2017,140,VENKATESH.K,GS,09:40,19:10
13,13-06-2017,143,JAGANNATH JAKKA,GS,09:35,00:00
14,13-06-2017,147,UMESH.B.V,GS,08:59,18:03
15,13-06-2017,149,C.V.HARISH,GS,00:00,00:00
16,13-06-2017,152,CHANDRASHEKAR.M.B,GS,00:00,00:00
17,13-06-2017,157,SANTOSH.K.NAIK,GS,00:00,18:07
18,13-06-2017,158,NANJEGOWDA,GS,09:00,18:00
19,13-06-2017,170,VAISHNAVI.R.AITHAL,GS,08:43,18:42
20,13-06-2017,171,SHIVANNA,GS,08:47,18:13
21,13-06-2017,175,BHANUPRAKASH DG,GS,08:50,18:02
22,13-06-2017,197,SHIVA KUMAR.N,GS,00:00,00:00
23,13-06-2017,199,HEMANTH.V.G,GS,10:57,19:20
24,13-06-2017,201,SUNIL KUMAR.B.B,GS,09:10,18:10
25,13-06-2017,202,MAHESH RAJ URS,GS,00:00,00:00
26,13-06-2017,206,PRASANNA.N.M,GS,18:10,18:11
27,13-06-2017,207,PRIYA NAGARAJ,GS,00:00,00:00
28,13-06-2017,208,K.P.RAGHAVENDRA,GS,09:00,18:00
29,13-06-2017,210,KAVYA.B.K,GS,09:59,18:37
30,13-06-2017,211,BASAVARAJU.K.N,GS,00:00,00:00
31,13-06-2017,213,AJITH ASHOKAN,GS,09:01,18:45
32,13-06-2017,217,C.SHASHIDHAR,GS,00:00,00:00
33,13-06-2017,218,KISHORE.B.N,GS,00:00,18:11
34,13-06-2017,223,CHETAN.G.K,GS,09:49,18:19
35,13-06-2017,230,KEERTHI KUMAR.K.R,GS,12:17,18:07
36,13-06-2017,243,ABBUBAKARSIDEEK.K,GS,00:00,00:00
37,13-06-2017,250,YOGESH.A.N,GS,08:26,18:28
38,13-06-2017,252,SRILATHA BOLLADY,GS,09:05,18:32
39,13-06-2017,254,PAVAN KUMAR.H.N,GS,09:07,18:04
40,13-06-2017,257,CHANDRAPPA,GS,00:00,00:00
41,13-06-2017,258,THIPPESWAMY.B.C,GS,09:12,18:15
42,13-06-2017,262,REKHA,GS,09:00,18:00
43,13-06-2017,263,YOGESH GOWDA.M.L,GS,07:21,20:05
44,13-06-2017,265,NAGARAJ PRAKASH,GS,09:07,18:15
45,13-06-2017,268,AVIN KUMAR,GS,00:00,00:00
46,13-06-2017,269,PRADEEP.B.R,GS,00:00,18:11
47,13-06-2017,273,KUSHALA.G.V,GS,00:00,18:13
48,13-06-2017,274,Abhinandan.K.M,GS,09:06,19:31
49,13-06-2017,275,MANJU.B,GS,09:27,18:11
50,13-06-2017,277,N.CHANDRASHEKAR,GS,00:00,00:00
51,13-06-2017,279,MALLESH,GS,00:00,00:00
52,13-06-2017,282,NAVIN KUMAR.B.R,GS,00:00,00:00
53,13-06-2017,290,NARAYANA REDDY.M,GS,08:54,17:56
54,13-06-2017,293,VENKAT RAMANAIAH YETURU,GS,08:51,19:03
55,13-06-2017,296,NANDEESHA.K,GS,00:00,00:00
56,13-06-2017,300,KEMPARAJU.N.S,GS,09:04,00:00
57,13-06-2017,302,HARSHA KUMAR.H.R,GS,14:48,17:04
58,13-06-2017,303,PRITHVI KUMAR.C.A,GS,00:00,00:00
59,13-06-2017,304,SANTOSH NARAYAN,GS,00:00,00:00
60,13-06-2017,314,VIJAYASHREE.S.ANAND,GS,08:57,17:40
61,13-06-2017,317,MAHESH GOWDA.C.S,GS,09:26,18:28
62,13-06-2017,321,PALLAVI.K,GS,00:00,00:00
63,13-06-2017,322,SURESH.K,GS,09:10,18:04
64,13-06-2017,323,CHELUVEGOWDA.H.S,GS,08:59,18:58
65,13-06-2017,327,BINDU RANI,GS,10:42,18:27
66,13-06-2017,328,DHANASHEKAR.M,GS,09:00,18:05
67,13-06-2017,330,THIMMAPPA,GS,00:00,00:00
68,13-06-2017,331,ALTAF,GS,09:00,18:00
69,13-06-2017,332,ANIL KUMAR.H.R,GS,08:59,18:07
70,13-06-2017,334,SHIVAPRASAD,GS,08:24,20:05
71,13-06-2017,324,Madan.V,GS,00:00,17:04
72,13-06-2017,336,SHWETHA.H.G,GS,00:00,00:00
73,13-06-2017,338,NANDINI.S.L,GS,09:09,18:22
74,13-06-2017,1010,RAMU.H.M,GS,07:48,18:54
75,13-06-2017,1011,NIRANJAN.K.B,GS,00:00,00:00
76,13-06-2017,189,K.N.RAJU,GS,00:00,00:00
77,13-06-2017,339,MADEVAPPA BHAJANTRI,GS,08:27,20:05
78,13-06-2017,5002,Madhu sudhan.B,GS,09:00,18:00
79,13-06-2017,5004,SHIVANNA JUNIOR,GS,09:00,18:00
80,13-06-2017,5005,Sarath kumar.R,GS,09:00,18:00
81,13-06-2017,5006,Ritish Kiran.,GS,09:00,18:00
82,13-06-2017,5007,Sanjay Prabhakar Balli,GS,09:00,18:00
83,13-06-2017,5008,Vinay.K.C,GS,09:00,18:00
84,13-06-2017,5010,SARANDEEP.S,GS,09:28,18:00
85,13-06-2017,5011,NETHRAVATHI.T,GS,09:00,17:56
