Project,Customer name,Mobile No,Email,Company,Location,Source,Remarks,Intrest Status,Follow up date,Assigned To,Assign By
Anirvan Phase - 2,shivanand,9242127963,,,,Expo,not answered,TBF,09-11-2017,arpitha@knsgroup.in,arpitha@knsgroup.in
KNS Archisa,rajshekhar,9916860105,,,,Expo,location constrain...looking in jakkur,Unqualified,09-11-2017,arpitha@knsgroup.in,arpitha@knsgroup.in
KNS Archisa,kiran,9148083356,m2.titu@gmail.com,,,Expo,wrong enquiry...not interested,Unqualified,09-11-2017,arpitha@knsgroup.in,arpitha@knsgroup.in
KNS Archisa,rudresh,9035227054,,,,Expo,not answered,TBF,09-11-2017,arpitha@knsgroup.in,arpitha@knsgroup.in
KNS Archisa,murlikrishnan,9738756190,kanchikrishna30@gmail.com,,,Expo,not answered,TBF,09-11-2017,arpitha@knsgroup.in,arpitha@knsgroup.in
KNS Archisa,anand kumar,9448055234,,,,Expo,no response,TBF,09-11-2017,arpitha@knsgroup.in,arpitha@knsgroup.in
KNS Archisa,manjunath,9886893666,,,,Expo,need to share details....will revert back,TBF,09-11-2017,arpitha@knsgroup.in,arpitha@knsgroup.in
Anirvan Phase - 2,prashanth,9008294796,prashanthmgowda3755@gmail.com,,,Expo,not answered,TBF,09-11-2017,arpitha@knsgroup.in,arpitha@knsgroup.in
Ozone KNS Oasis Phase-B,mohammed,9741212693,dmdbasha@yahoo.co.in,,,Expo,switched off,TBF,09-11-2017,arpitha@knsgroup.in,arpitha@knsgroup.in
KNS Archisa,madhu,9535229555,madur1717@gmail.com,,,Expo,location constrain...looking in yelahanka,Unqualified,09-11-2017,arpitha@knsgroup.in,arpitha@knsgroup.in
Ozone KNS Oasis Phase-B,mahesh,8147980089,,,,Expo,not answered,TBF,09-11-2017,arpitha@knsgroup.in,arpitha@knsgroup.in
Ozone KNS Oasis Phase-B,sanjay,9008572816,,,,Expo,not answered,TBF,09-11-2017,arpitha@knsgroup.in,arpitha@knsgroup.in
Ozone KNS Oasis Phase-B,shariff,8310077836,shariff.shariff2@gmail.com,,,Expo,not answered,TBF,09-11-2017,arpitha@knsgroup.in,arpitha@knsgroup.in
Ozone KNS Oasis Phase-B,mohan,9343538141,,,,Expo,not connected,TBF,09-11-2017,arpitha@knsgroup.in,arpitha@knsgroup.in
KNS Archisa,mahesh,7353511709,,,,Expo,no response,TBF,09-11-2017,arpitha@knsgroup.in,arpitha@knsgroup.in
KNS Archisa,raghu gowda,9886681534,,,,Expo,not answered,TBF,09-11-2017,arpitha@knsgroup.in,arpitha@knsgroup.in
KNS Archisa,rajendra,9482013400,rajendra71@gmail.com,,,Expo,not answered,TBF,09-11-2017,arpitha@knsgroup.in,arpitha@knsgroup.in
KNS Archisa,guru prakash,7022641603,,,,Expo,call back tomorow,TBF,09-11-2017,arpitha@knsgroup.in,arpitha@knsgroup.in
KNS Archisa,rajappa,8884811833,,,,Expo,he is not looking for site...looking for apartment,Unqualified,09-11-2017,arpitha@knsgroup.in,arpitha@knsgroup.in
KNS Archisa,baghavan,7760424139,bhagavanr034@gmail.com,,,Expo,revert back,TBF,09-11-2017,arpitha@knsgroup.in,arpitha@knsgroup.in
KNS Archisa,pavan,7760210021,pavanmr9964@yahoo.com,,,Expo,call back on next week,TBF,09-11-2017,arpitha@knsgroup.in,arpitha@knsgroup.in
