SNo,Date,E. Code,Name,Shift, InTime, OutTime
1,14-09-2017,123,K.N.SURENDRA,GS,09:00,18:00
2,14-09-2017,124,K.N.SOWMYA,GS,09:00,18:00
3,14-09-2017,125,K.N.BOREGOWDA,GS,09:00,18:00
4,14-09-2017,127,SRINIVAS.H.C,GS,09:00,18:00
5,14-09-2017,128,KUMAR.H.S,GS,09:00,18:00
6,14-09-2017,130,A.H.PRASAD KUMAR,GS,09:00,18:00
7,14-09-2017,131,GIRISH SHETTY,GS,08:59,18:04
8,14-09-2017,135,KUMAR.B.S,GS,09:04,20:05
9,14-09-2017,136,SUDHIR SHETTY,GS,09:06,18:05
10,14-09-2017,138,PRASANNA KUMAR.S,GS,00:00,20:17
11,14-09-2017,139,MITHUN.G.SHETTY,GS,09:13,19:27
12,14-09-2017,140,VENKATESH.K,GS,10:18,19:54
13,14-09-2017,143,JAGANNATH JAKKA,GS,00:00,00:00
14,14-09-2017,147,UMESH.B.V,GS,09:24,18:00
15,14-09-2017,149,C.V.HARISH,GS,00:00,00:00
16,14-09-2017,157,SANTOSH.K.NAIK,GS,00:00,00:00
17,14-09-2017,158,NANJEGOWDA,GS,09:00,18:00
18,14-09-2017,170,VAISHNAVI.R.AITHAL,GS,09:00,18:04
19,14-09-2017,171,SHIVANNA,GS,00:00,00:00
20,14-09-2017,175,BHANUPRAKASH DG,GS,08:44,19:51
21,14-09-2017,197,SHIVA KUMAR.N,GS,09:02,18:02
22,14-09-2017,199,HEMANTH.V.G,GS,00:00,18:02
23,14-09-2017,201,SUNIL KUMAR.B.B,GS,09:02,18:01
24,14-09-2017,202,MAHESH RAJ URS,GS,00:00,00:00
25,14-09-2017,206,PRASANNA.N.M,GS,00:00,00:00
26,14-09-2017,207,PRIYA NAGARAJ,GS,09:18,18:17
27,14-09-2017,208,K.P.RAGHAVENDRA,GS,09:00,18:00
28,14-09-2017,210,KAVYA.B.K,GS,09:17,18:32
29,14-09-2017,211,BASAVARAJU.K.N,GS,00:00,00:00
30,14-09-2017,213,AJITH ASHOKAN,GS,08:50,19:28
31,14-09-2017,217,C.SHASHIDHAR,GS,00:00,00:00
32,14-09-2017,223,CHETAN.G.K,GS,00:00,00:00
33,14-09-2017,230,KEERTHI KUMAR.K.R,GS,00:00,00:00
34,14-09-2017,243,ABBUBAKARSIDEEK.K,GS,00:00,00:00
35,14-09-2017,250,YOGESH.A.N,GS,00:00,00:00
36,14-09-2017,252,SRILATHA BOLLADY,GS,09:15,19:02
37,14-09-2017,254,PAVAN KUMAR.H.N,GS,08:09,18:02
38,14-09-2017,257,CHANDRAPPA,GS,00:00,00:00
39,14-09-2017,262,REKHA,GS,09:00,18:00
40,14-09-2017,263,YOGESH GOWDA.M.L,GS,07:04,21:30
41,14-09-2017,265,NAGARAJ PRAKASH,GS,09:21,18:06
42,14-09-2017,268,AVIN KUMAR,GS,00:00,00:00
43,14-09-2017,269,PRADEEP.B.R,GS,00:00,00:00
44,14-09-2017,273,KUSHALA.G.V,GS,09:00,18:00
45,14-09-2017,274,Abhinandan.K.M,GS,09:05,17:52
46,14-09-2017,275,MANJU.B,GS,09:24,18:31
47,14-09-2017,277,N.CHANDRASHEKAR,GS,00:00,00:00
48,14-09-2017,279,MALLESH,GS,00:00,00:00
49,14-09-2017,282,NAVIN KUMAR.B.R,GS,00:00,00:00
50,14-09-2017,290,NARAYANA REDDY.M,GS,08:43,18:11
51,14-09-2017,293,VENKAT RAMANAIAH YETURU,GS,08:04,21:20
52,14-09-2017,296,NANDEESHA.K,GS,00:00,00:00
53,14-09-2017,300,KEMPARAJU.N.S,GS,00:00,00:00
54,14-09-2017,302,HARSHA KUMAR.H.R,GS,00:00,00:00
55,14-09-2017,303,PRITHVI KUMAR.C.A,GS,00:00,00:00
56,14-09-2017,304,SANTOSH NARAYAN,GS,12:12,18:55
57,14-09-2017,314,VIJAYASHREE.S.ANAND,GS,08:59,18:09
58,14-09-2017,317,MAHESH GOWDA.C.S,GS,00:00,00:00
59,14-09-2017,322,SURESH.K,GS,09:39,18:01
60,14-09-2017,323,CHELUVEGOWDA.H.S,GS,08:47,20:08
61,14-09-2017,327,BINDU RANI,GS,10:41,17:35
62,14-09-2017,328,DHANASHEKAR.M,GS,09:11,18:17
63,14-09-2017,330,THIMMAPPA,GS,00:00,00:00
64,14-09-2017,331,ALTAF,GS,09:00,18:00
65,14-09-2017,332,ANIL KUMAR.H.R,GS,19:26,19:26
66,14-09-2017,334,SHIVAPRASAD,GS,09:11,20:07
67,14-09-2017,324,Madan.V(NOT IN PAYROLL),GS,00:00,00:00
68,14-09-2017,336,SHWETHA.H.G,GS,09:08,18:17
69,14-09-2017,338,NANDINI.S.L,GS,09:05,18:13
70,14-09-2017,1010,RAMU.H.M,GS,08:14,20:52
71,14-09-2017,1011,NIRANJAN.K.B,GS,00:00,00:00
72,14-09-2017,189,K.N.RAJU,GS,00:00,00:00
73,14-09-2017,339,MADEVAPPA BHAJANTRI,GS,08:54,20:08
74,14-09-2017,5002,Madhu sudhan.B,GS,00:00,00:00
75,14-09-2017,5004,SHIVANNA JUNIOR,GS,09:00,18:00
76,14-09-2017,5005,Sarath kumar.R,GS,00:00,00:00
77,14-09-2017,5006,Ritish Kiran.,GS,00:00,00:00
78,14-09-2017,5007,Sanjay Prabhakar Balli,GS,00:00,00:00
79,14-09-2017,5008,Vinay.K.C,GS,00:00,00:00
80,14-09-2017,346,SARANDEEP.S,GS,09:19,17:29
81,14-09-2017,342,NETHRAVATHI.T,GS,09:04,18:17
82,14-09-2017,344,J.K.SRINIVASA,GS,09:30,18:03
83,14-09-2017,5015,SANDEEPA.V.P,GS,00:00,00:00
84,14-09-2017,347,DEEPAK.T.N,GS,09:32,19:08
85,14-09-2017,348,VINAY BHARGAVA.K.N,GS,08:57,18:59
86,14-09-2017,5016,Praveen kumar.H.M,GS,00:00,00:00
87,14-09-2017,351,RAGHUVEER.R,GS,09:09,18:25
88,14-09-2017,349,RATHNA,GS,09:00,18:00
89,14-09-2017,5017,NITHIN KUMAR K,GS,09:00,18:00
90,14-09-2017,5018,KIRAN.M,GS,00:00,00:00
91,14-09-2017,5019,NIVEDITHA,GS,09:01,18:12
