SNo,Date,E. Code,Name,Shift, InTime, OutTime
1,14-08-2017,123,K.N.SURENDRA,GS,09:00,18:00
2,14-08-2017,124,K.N.SOWMYA,GS,09:00,18:00
3,14-08-2017,125,K.N.BOREGOWDA,GS,09:00,18:00
4,14-08-2017,127,SRINIVAS.H.C,GS,09:00,19:22
5,14-08-2017,128,KUMAR.H.S,GS,09:00,18:00
6,14-08-2017,130,A.H.PRASAD KUMAR,GS,09:00,18:00
7,14-08-2017,131,GIRISH SHETTY,GS,08:56,18:32
8,14-08-2017,135,KUMAR.B.S,GS,07:46,18:03
9,14-08-2017,136,SUDHIR SHETTY,GS,06:43,18:02
10,14-08-2017,138,PRASANNA KUMAR.S,GS,08:05,21:09
11,14-08-2017,139,MITHUN.G.SHETTY,GS,08:53,21:09
12,14-08-2017,140,VENKATESH.K,GS,06:33,20:35
13,14-08-2017,143,JAGANNATH JAKKA,GS,11:12,19:22
14,14-08-2017,147,UMESH.B.V,GS,09:15,14:47
15,14-08-2017,149,C.V.HARISH,GS,09:00,18:00
16,14-08-2017,157,SANTOSH.K.NAIK,GS,00:00,00:00
17,14-08-2017,158,NANJEGOWDA,GS,09:00,18:00
18,14-08-2017,170,VAISHNAVI.R.AITHAL,GS,08:57,18:16
19,14-08-2017,171,SHIVANNA,GS,09:19,17:08
20,14-08-2017,175,BHANUPRAKASH DG,GS,09:00,19:23
21,14-08-2017,197,SHIVA KUMAR.N,GS,09:17,18:16
22,14-08-2017,199,HEMANTH.V.G,GS,09:00,18:00
23,14-08-2017,201,SUNIL KUMAR.B.B,GS,09:08,18:02
24,14-08-2017,202,MAHESH RAJ URS,GS,00:00,00:00
25,14-08-2017,206,PRASANNA.N.M,GS,00:00,00:00
26,14-08-2017,207,PRIYA NAGARAJ,GS,00:00,00:00
27,14-08-2017,208,K.P.RAGHAVENDRA,GS,09:00,18:00
28,14-08-2017,210,KAVYA.B.K,GS,09:56,18:35
29,14-08-2017,211,BASAVARAJU.K.N,GS,00:00,00:00
30,14-08-2017,213,AJITH ASHOKAN,GS,09:02,18:02
31,14-08-2017,217,C.SHASHIDHAR,GS,00:00,00:00
32,14-08-2017,218,KISHORE.B.N,GS,00:00,00:00
33,14-08-2017,223,CHETAN.G.K,GS,14:02,14:40
34,14-08-2017,230,KEERTHI KUMAR.K.R,GS,00:00,00:00
35,14-08-2017,243,ABBUBAKARSIDEEK.K,GS,09:00,18:00
36,14-08-2017,250,YOGESH.A.N,GS,08:20,18:13
37,14-08-2017,252,SRILATHA BOLLADY,GS,00:00,00:00
38,14-08-2017,254,PAVAN KUMAR.H.N,GS,09:12,18:08
39,14-08-2017,257,CHANDRAPPA,GS,00:00,00:00
40,14-08-2017,262,REKHA,GS,09:00,18:00
41,14-08-2017,263,YOGESH GOWDA.M.L,GS,06:31,21:52
42,14-08-2017,265,NAGARAJ PRAKASH,GS,09:09,16:51
43,14-08-2017,268,AVIN KUMAR,GS,00:00,00:00
44,14-08-2017,269,PRADEEP.B.R,GS,00:00,00:00
45,14-08-2017,273,KUSHALA.G.V,GS,09:00,18:00
46,14-08-2017,274,Abhinandan.K.M,GS,00:00,00:00
47,14-08-2017,275,MANJU.B,GS,00:00,00:00
48,14-08-2017,277,N.CHANDRASHEKAR,GS,00:00,00:00
49,14-08-2017,279,MALLESH,GS,00:00,00:00
50,14-08-2017,282,NAVIN KUMAR.B.R,GS,00:00,00:00
51,14-08-2017,290,NARAYANA REDDY.M,GS,08:48,18:35
52,14-08-2017,293,VENKAT RAMANAIAH YETURU,GS,00:00,00:00
53,14-08-2017,296,NANDEESHA.K,GS,00:00,00:00
54,14-08-2017,300,KEMPARAJU.N.S,GS,09:01,18:02
55,14-08-2017,302,HARSHA KUMAR.H.R,GS,00:00,00:00
56,14-08-2017,303,PRITHVI KUMAR.C.A,GS,00:00,00:00
57,14-08-2017,304,SANTOSH NARAYAN,GS,00:00,00:00
58,14-08-2017,314,VIJAYASHREE.S.ANAND,GS,09:16,13:52
59,14-08-2017,317,MAHESH GOWDA.C.S,GS,09:04,18:16
60,14-08-2017,322,SURESH.K,GS,09:15,18:02
61,14-08-2017,323,CHELUVEGOWDA.H.S,GS,09:03,17:53
62,14-08-2017,327,BINDU RANI,GS,11:32,18:07
63,14-08-2017,328,DHANASHEKAR.M,GS,00:00,00:00
64,14-08-2017,330,THIMMAPPA,GS,00:00,00:00
65,14-08-2017,331,ALTAF,GS,09:00,18:00
66,14-08-2017,332,ANIL KUMAR.H.R,GS,00:00,00:00
67,14-08-2017,334,SHIVAPRASAD,GS,09:05,19:10
68,14-08-2017,324,Madan.V(NOT IN PAYROLL),GS,00:00,00:00
69,14-08-2017,336,SHWETHA.H.G,GS,09:24,18:20
70,14-08-2017,338,NANDINI.S.L,GS,08:56,18:35
71,14-08-2017,1010,RAMU.H.M,GS,08:43,19:20
72,14-08-2017,1011,NIRANJAN.K.B,GS,00:00,00:00
73,14-08-2017,189,K.N.RAJU,GS,00:00,00:00
74,14-08-2017,339,MADEVAPPA BHAJANTRI,GS,09:01,21:11
75,14-08-2017,5002,Madhu sudhan.B,GS,00:00,00:00
76,14-08-2017,5004,SHIVANNA JUNIOR,GS,09:00,18:00
77,14-08-2017,5005,Sarath kumar.R,GS,00:00,00:00
78,14-08-2017,5006,Ritish Kiran.,GS,00:00,00:00
79,14-08-2017,5007,Sanjay Prabhakar Balli,GS,00:00,00:00
80,14-08-2017,5008,Vinay.K.C,GS,00:00,00:00
81,14-08-2017,346,SARANDEEP.S,GS,00:00,00:00
82,14-08-2017,342,NETHRAVATHI.T,GS,09:04,18:04
83,14-08-2017,5013,CHANNABASAVESHWARASWAMY.G.S,GS,00:00,00:00
84,14-08-2017,344,J.K.SRINIVASA,GS,08:23,21:11
85,14-08-2017,5015,SANDEEPA.V.P,GS,00:00,00:00
86,14-08-2017,343,SRIDHAR.G,GS,00:00,00:00
87,14-08-2017,347,DEEPAK.T.N,GS,10:00,18:09
88,14-08-2017,348,VINAY BHARGAVA.K.N,GS,08:55,18:39
