SNo,Date,E. Code,Name,Shift, InTime, OutTime
1,02-12-2017,123,K.N.SURENDRA,GS,09:00,18:00
2,02-12-2017,124,K.N.SOWMYA,GS,09:00,18:00
3,02-12-2017,125,K.N.BOREGOWDA,GS,09:00,18:00
4,02-12-2017,127,SRINIVAS.H.C,GS,09:00,18:00
5,02-12-2017,128,KUMAR.H.S,GS,09:00,18:00
6,02-12-2017,130,A.H.PRASAD KUMAR,GS,09:00,18:00
7,02-12-2017,131,GIRISH SHETTY,GS,00:00,00:00
8,02-12-2017,135,KUMAR.B.S,GS,09:04,17:28
9,02-12-2017,136,SUDHIR SHETTY,GS,09:18,17:51
10,02-12-2017,138,PRASANNA KUMAR.S,GS,00:00,00:00
11,02-12-2017,139,MITHUN.G.SHETTY,GS,00:00,00:00
12,02-12-2017,140,VENKATESH.K,GS,09:56,18:25
13,02-12-2017,143,JAGANNATH JAKKA,GS,00:00,00:00
14,02-12-2017,147,UMESH.B.V,GS,09:25,00:00
15,02-12-2017,149,C.V.HARISH,GS,00:00,00:00
16,02-12-2017,157,SANTOSH.K.NAIK,GS,00:00,00:00
17,02-12-2017,158,NANJEGOWDA,GS,09:00,18:00
18,02-12-2017,170,VAISHNAVI.R.AITHAL,GS,08:51,17:50
19,02-12-2017,171,SHIVANNA,GS,10:06,17:33
20,02-12-2017,175,BHANUPRAKASH DG,GS,10:06,17:30
21,02-12-2017,197,SHIVA KUMAR.N,GS,09:21,18:00
22,02-12-2017,201,SUNIL KUMAR.B.B,GS,09:06,17:27
23,02-12-2017,202,MAHESH RAJ URS,GS,00:00,00:00
24,02-12-2017,206,PRASANNA.N.M,GS,00:00,00:00
25,02-12-2017,207,PRIYA NAGARAJ,GS,00:00,19:08
26,02-12-2017,208,K.P.RAGHAVENDRA,GS,09:00,18:00
27,02-12-2017,210,KAVYA.B.K,GS,09:34,18:39
28,02-12-2017,211,BASAVARAJU.K.N,GS,00:00,00:00
29,02-12-2017,213,AJITH ASHOKAN,GS,09:08,18:00
30,02-12-2017,217,C.SHASHIDHAR,GS,00:00,00:00
31,02-12-2017,223,CHETAN.G.K,GS,00:00,00:00
32,02-12-2017,243,ABBUBAKARSIDEEK.K,GS,00:00,00:00
33,02-12-2017,250,YOGESH.A.N,GS,08:03,17:49
34,02-12-2017,252,SRILATHA BOLLADY,GS,09:18,18:46
35,02-12-2017,254,PAVAN KUMAR.H.N,GS,09:10,13:39
36,02-12-2017,257,CHANDRAPPA,GS,00:00,00:00
37,02-12-2017,262,REKHA,GS,09:00,18:00
38,02-12-2017,263,YOGESH GOWDA.M.L,GS,07:18,19:28
39,02-12-2017,265,NAGARAJ PRAKASH,GS,09:18,17:51
40,02-12-2017,268,AVIN KUMAR,GS,00:00,00:00
41,02-12-2017,269,PRADEEP.B.R,GS,00:00,00:00
42,02-12-2017,273,KUSHALA.G.V,GS,09:00,18:00
43,02-12-2017,274,Abhinandan.K.M,GS,19:10,19:10
44,02-12-2017,275,MANJU.B,GS,00:00,00:00
45,02-12-2017,277,N.CHANDRASHEKAR,GS,00:00,00:00
46,02-12-2017,279,MALLESH,GS,00:00,00:00
47,02-12-2017,282,NAVIN KUMAR.B.R,GS,00:00,00:00
48,02-12-2017,290,NARAYANA REDDY.M,GS,08:38,17:45
49,02-12-2017,293,VENKAT RAMANAIAH YETURU,GS,08:49,00:00
50,02-12-2017,296,NANDEESHA.K,GS,19:06,19:07
51,02-12-2017,300,KEMPARAJU.N.S,GS,09:02,17:30
52,02-12-2017,302,HARSHA KUMAR.H.R,GS,00:00,00:00
53,02-12-2017,303,PRITHVI KUMAR.C.A,GS,00:00,00:00
54,02-12-2017,304,SANTOSH NARAYAN,GS,00:00,00:00
55,02-12-2017,314,VIJAYASHREE.S.ANAND,GS,09:02,18:00
56,02-12-2017,317,MAHESH GOWDA.C.S,GS,08:46,15:10
57,02-12-2017,322,SURESH.K,GS,09:33,17:27
58,02-12-2017,323,CHELUVEGOWDA.H.S,GS,00:00,00:00
59,02-12-2017,327,BINDU RANI,GS,10:57,17:29
60,02-12-2017,328,DHANASHEKAR.M,GS,09:07,18:24
61,02-12-2017,330,THIMMAPPA,GS,00:00,00:00
62,02-12-2017,331,ALTAF,GS,00:00,00:00
63,02-12-2017,332,ANIL KUMAR.H.R,GS,00:00,00:00
64,02-12-2017,334,SHIVAPRASAD,GS,08:35,18:07
65,02-12-2017,336,SHWETHA.H.G,GS,09:16,19:07
66,02-12-2017,1011,NIRANJAN.K.B,GS,00:00,00:00
67,02-12-2017,189,K.N.RAJU,GS,00:00,00:00
68,02-12-2017,339,MADEVAPPA BHAJANTRI,GS,00:00,00:00
69,02-12-2017,5002,Madhu sudhan.B,GS,00:00,00:00
70,02-12-2017,5004,SHIVANNA JUNIOR,GS,00:00,00:00
71,02-12-2017,5006,Ritish Kiran.,GS,00:00,00:00
72,02-12-2017,5008,Vinay.K.C,GS,00:00,00:00
73,02-12-2017,346,SARANDEEP.S,GS,00:00,00:00
74,02-12-2017,342,NETHRAVATHI.T,GS,09:05,19:07
75,02-12-2017,344,J.K.SRINIVASA,GS,09:00,17:08
76,02-12-2017,5015,SANDEEPA.V.P,GS,00:00,00:00
77,02-12-2017,347,DEEPAK.T.N,GS,09:39,17:23
78,02-12-2017,348,VINAY BHARGAVA.K.N,GS,09:01,18:07
79,02-12-2017,5016,Praveen kumar.H.M,GS,00:00,00:00
80,02-12-2017,351,RAGHUVEER.R,GS,08:57,17:33
81,02-12-2017,349,RATHNA,GS,09:00,18:00
82,02-12-2017,5017,NITHIN KUMAR K,GS,00:00,00:00
83,02-12-2017,5018,KIRAN.M,GS,00:00,00:00
84,02-12-2017,5019,NIVEDITHA.K.S,GS,09:20,18:13
85,02-12-2017,4001,ARPITHA.M,GS,09:20,18:15
86,02-12-2017,4002,CHAITRA.V,GS,09:42,18:30
87,02-12-2017,4003,B.BHAVYASHREE,GS,00:00,00:00
88,02-12-2017,4004,SANTOSHIMATA.S.B,GS,09:30,18:30
89,02-12-2017,5020,LAKSHMIKANTH.C.S,GS,00:00,00:00
90,02-12-2017,4005,KEMPEGOWDA.G,GS,00:00,00:00
91,02-12-2017,5021,MENAKA.N,GS,09:00,18:00
92,02-12-2017,5022,Dr.Prasanna Kumar.S.P,GS,00:00,00:00
93,02-12-2017,5023,Kavya.B.S,GS,09:23,18:46
94,02-12-2017,5024,KARTHIK.R,GS,09:00,18:00
95,02-12-2017,5025,SHIVAKUMAR.M.S,GS,09:00,18:00
