SNo,Date,E. Code,Name,Shift, InTime, OutTime
1,15-06-2017,123,K.N.SURENDRA,GS,09:00,18:00
2,15-06-2017,124,K.N.SOWMYA,GS,09:00,18:00
3,15-06-2017,125,K.N.BOREGOWDA,GS,09:00,18:00
4,15-06-2017,127,SRINIVAS.H.C,GS,09:00,18:00
5,15-06-2017,128,KUMAR.H.S,GS,09:00,18:00
6,15-06-2017,130,A.H.PRASAD KUMAR,GS,09:00,18:00
7,15-06-2017,131,GIRISH SHETTY,GS,08:46,18:35
8,15-06-2017,135,KUMAR.B.S,GS,09:10,18:40
9,15-06-2017,136,SUDHIR SHETTY,GS,09:12,18:35
10,15-06-2017,138,PRASANNA KUMAR.S,GS,08:59,18:47
11,15-06-2017,139,MITHUN.G.SHETTY,GS,08:18,18:27
12,15-06-2017,140,VENKATESH.K,GS,10:55,19:46
13,15-06-2017,143,JAGANNATH JAKKA,GS,00:00,00:00
14,15-06-2017,147,UMESH.B.V,GS,09:10,17:58
15,15-06-2017,149,C.V.HARISH,GS,00:00,00:00
16,15-06-2017,152,CHANDRASHEKAR.M.B,GS,00:00,00:00
17,15-06-2017,157,SANTOSH.K.NAIK,GS,00:00,00:00
18,15-06-2017,158,NANJEGOWDA,GS,09:00,18:00
19,15-06-2017,170,VAISHNAVI.R.AITHAL,GS,08:43,18:18
20,15-06-2017,171,SHIVANNA,GS,08:55,18:41
21,15-06-2017,175,BHANUPRAKASH DG,GS,08:42,18:01
22,15-06-2017,197,SHIVA KUMAR.N,GS,10:02,19:31
23,15-06-2017,199,HEMANTH.V.G,GS,09:00,18:47
24,15-06-2017,201,SUNIL KUMAR.B.B,GS,09:05,18:01
25,15-06-2017,202,MAHESH RAJ URS,GS,00:00,00:00
26,15-06-2017,206,PRASANNA.N.M,GS,00:00,18:47
27,15-06-2017,207,PRIYA NAGARAJ,GS,09:55,19:02
28,15-06-2017,208,K.P.RAGHAVENDRA,GS,09:00,18:00
29,15-06-2017,210,KAVYA.B.K,GS,10:08,19:23
30,15-06-2017,211,BASAVARAJU.K.N,GS,00:00,00:00
31,15-06-2017,213,AJITH ASHOKAN,GS,08:54,18:18
32,15-06-2017,217,C.SHASHIDHAR,GS,00:00,00:00
33,15-06-2017,218,KISHORE.B.N,GS,00:00,00:00
34,15-06-2017,223,CHETAN.G.K,GS,09:51,14:02
35,15-06-2017,230,KEERTHI KUMAR.K.R,GS,08:56,10:10
36,15-06-2017,243,ABBUBAKARSIDEEK.K,GS,00:00,00:00
37,15-06-2017,250,YOGESH.A.N,GS,08:40,19:37
38,15-06-2017,252,SRILATHA BOLLADY,GS,09:08,19:19
39,15-06-2017,254,PAVAN KUMAR.H.N,GS,09:07,18:24
40,15-06-2017,257,CHANDRAPPA,GS,00:00,00:00
41,15-06-2017,258,THIPPESWAMY.B.C,GS,09:06,17:53
42,15-06-2017,262,REKHA,GS,09:00,18:00
43,15-06-2017,263,YOGESH GOWDA.M.L,GS,06:52,18:09
44,15-06-2017,265,NAGARAJ PRAKASH,GS,09:15,18:37
45,15-06-2017,268,AVIN KUMAR,GS,00:00,18:13
46,15-06-2017,269,PRADEEP.B.R,GS,00:00,00:00
47,15-06-2017,273,KUSHALA.G.V,GS,00:00,00:00
48,15-06-2017,274,Abhinandan.K.M,GS,09:05,18:47
49,15-06-2017,275,MANJU.B,GS,09:19,18:17
50,15-06-2017,277,N.CHANDRASHEKAR,GS,00:00,00:00
51,15-06-2017,279,MALLESH,GS,00:00,00:00
52,15-06-2017,282,NAVIN KUMAR.B.R,GS,00:00,00:00
53,15-06-2017,290,NARAYANA REDDY.M,GS,09:09,18:16
54,15-06-2017,293,VENKAT RAMANAIAH YETURU,GS,08:50,18:20
55,15-06-2017,296,NANDEESHA.K,GS,00:00,00:00
56,15-06-2017,300,KEMPARAJU.N.S,GS,08:58,18:35
57,15-06-2017,302,HARSHA KUMAR.H.R,GS,00:00,00:00
58,15-06-2017,303,PRITHVI KUMAR.C.A,GS,10:27,14:38
59,15-06-2017,304,SANTOSH NARAYAN,GS,10:00,19:19
60,15-06-2017,314,VIJAYASHREE.S.ANAND,GS,09:05,18:03
61,15-06-2017,317,MAHESH GOWDA.C.S,GS,09:05,18:47
62,15-06-2017,321,PALLAVI.K,GS,09:11,17:42
63,15-06-2017,322,SURESH.K,GS,09:10,17:59
64,15-06-2017,323,CHELUVEGOWDA.H.S,GS,08:53,18:47
65,15-06-2017,327,BINDU RANI,GS,10:51,17:37
66,15-06-2017,328,DHANASHEKAR.M,GS,08:46,18:17
67,15-06-2017,330,THIMMAPPA,GS,00:00,00:00
68,15-06-2017,331,ALTAF,GS,09:00,18:00
69,15-06-2017,332,ANIL KUMAR.H.R,GS,09:14,18:43
70,15-06-2017,334,SHIVAPRASAD,GS,08:50,19:10
71,15-06-2017,324,Madan.V,GS,00:00,00:00
72,15-06-2017,336,SHWETHA.H.G,GS,00:00,00:00
73,15-06-2017,338,NANDINI.S.L,GS,09:04,18:34
74,15-06-2017,1010,RAMU.H.M,GS,08:36,19:45
75,15-06-2017,1011,NIRANJAN.K.B,GS,12:49,18:29
76,15-06-2017,189,K.N.RAJU,GS,00:00,00:00
77,15-06-2017,339,MADEVAPPA BHAJANTRI,GS,08:53,19:34
78,15-06-2017,5002,Madhu sudhan.B,GS,09:00,18:00
79,15-06-2017,5004,SHIVANNA JUNIOR,GS,09:00,18:00
80,15-06-2017,5005,Sarath kumar.R,GS,09:00,18:00
81,15-06-2017,5006,Ritish Kiran.,GS,09:00,18:00
82,15-06-2017,5007,Sanjay Prabhakar Balli,GS,09:00,18:00
83,15-06-2017,5008,Vinay.K.C,GS,09:00,18:00
84,15-06-2017,5010,SARANDEEP.S,GS,08:58,18:07
85,15-06-2017,5011,NETHRAVATHI.T,GS,09:07,18:14
86,15-06-2017,5012,HARSHITHA.G.B,GS,09:00,18:00
