SNo,Date,E. Code,Name,Shift, InTime, OutTime
1,15-7-16,123,K.N.SURENDRA,GS,9:00,18:00
2,15-7-16,124,K.N.SOWMYA,GS,9:00,18:00
3,15-7-16,125,K.N.BOREGOWDA,GS,9:00,18:00
4,15-7-16,127,SRINIVAS.H.C,GS,9:00,18:00
5,15-7-16,128,KUMAR.H.S,GS,9:00,18:00
6,15-7-16,130,A.H.PRASAD KUMAR,GS,9:00,18:00
7,15-7-16,131,GIRISH SHETTY,GS,8:57,19:06
8,15-7-16,135,KUMAR.B.S,GS,9:10,18:56
9,15-7-16,136,SUDHIR SHETTY,GS,9:27,19:01
10,15-7-16,138,PRASANNA KUMAR.S,GS,0:00,0:00
11,15-7-16,139,MITHUN.G.SHETTY,GS,0:00,0:00
12,15-7-16,140,VENKATESH.K,GS,10:08,19:30
13,15-7-16,143,JAGANNATH JAKKA,GS,10:30,0:00
14,15-7-16,147,UMESH.B.V,GS,0:00,0:00
15,15-7-16,149,C.V.HARISH,GS,7:30,18:01
16,15-7-16,152,CHANDRASHEKAR.M.B,GS,8:44,18:10
17,15-7-16,157,SANTOSH.K.NAIK,GS,9:03,18:45
18,15-7-16,158,NANJEGOWDA,GS,0:00,0:00
19,15-7-16,170,VAISHNAVI.R.AITHAL,GS,9:03,18:23
20,15-7-16,171,SHIVANNA,GS,9:11,18:00
21,15-7-16,172,BOREGOWDA,GS,8:39,18:00
22,15-7-16,175,BHANUPRAKASH DG,GS,9:12,19:17
23,15-7-16,188,RATHNA,GS,0:00,0:00
24,15-7-16,194,NANJAMANI,GS,8:36,18:06
25,15-7-16,195,RAVI IV,GS,8:57,20:27
26,15-7-16,197,SHIVA KUMAR.N,GS,9:00,19:15
27,15-7-16,199,HEMANTH.V.G,GS,0:00,0:00
28,15-7-16,201,SUNIL KUMAR.B.B,GS,8:57,19:00
29,15-7-16,202,MAHESH RAJ URS,GS,8:48,18:32
30,15-7-16,206,PRASANNA.N.M,GS,9:10,18:01
31,15-7-16,207,PRIYA NAGARAJ,GS,0:00,0:00
32,15-7-16,208,K.P.RAGHAVENDRA,GS,9:00,18:00
33,15-7-16,209,NAVEEN.B.L,GS,8:59,19:06
34,15-7-16,210,KAVYA.B.K,GS,9:47,18:53
35,15-7-16,211,BASAVARAJU.K.N,GS,9:24,19:53
36,15-7-16,213,AJITH ASHOKAN,GS,8:18,18:07
37,15-7-16,217,C.SHASHIDHAR,GS,8:36,18:01
38,15-7-16,218,KISHORE.B.N,GS,8:45,18:31
39,15-7-16,223,CHETAN.G.K,GS,8:52,18:23
40,15-7-16,230,KEERTHI KUMAR.K.R,GS,10:12,18:10
41,15-7-16,236,NANDEESH.G.H,GS,0:00,0:00
42,15-7-16,243,ABBUBAKARSIDEEK.K,GS,8:45,18:17
43,15-7-16,245,AVILASH.P.G,GS,9:04,18:22
44,15-7-16,249,DIVAKAR.N.N,GS,0:00,0:00
45,15-7-16,250,YOGESH.A.N,GS,8:13,19:09
46,15-7-16,252,SRILATHA BOLLADY,GS,10:07,19:21
47,15-7-16,254,PAVAN KUMAR.H.N,GS,9:00,17:16
48,15-7-16,257,CHANDRAPPA,GS,8:32,18:08
49,15-7-16,258,THIPPESWAMY.B.C,GS,9:08,18:01
50,15-7-16,259,KARTHIKEYA PATIL,GS,9:03,18:04
51,15-7-16,261,RAMU,GS,9:00,18:00
52,15-7-16,262,REKHA,GS,9:00,18:00
53,15-7-16,263,YOGESH GOWDA.M.L,GS,8:08,21:43
54,15-7-16,265,NAGARAJ PRAKASH,GS,8:18,19:34
55,15-7-16,269,PRADEEP.B.R,GS,9:03,18:13
56,15-7-16,270,MANJUNATH.R,GS,0:00,0:00
57,15-7-16,273,KUSHALA.G.V,GS,9:00,18:00
58,15-7-16,274,Abhinandan.K.M,GS,9:06,19:57
59,15-7-16,275,MANJU.B,GS,9:26,19:59
60,15-7-16,277,N.CHANDRAHEKAR,GS,8:49,18:31
61,15-7-16,279,MALLESH,GS,8:06,18:08
62,15-7-16,282,NAVIN KUMAR.B.R,GS,8:58,18:01
63,15-7-16,290,NARAYANA REDDY.M,GS,8:26,18:26
64,15-7-16,291,RAJANNA.A.C,GS,8:43,18:00
65,15-7-16,293,VENKAT RAMANAIAH YETURU,GS,9:22,20:12
66,15-7-16,296,NANDEESHA.K,GS,9:13,18:32
67,15-7-16,300,KEMPARAJU.N.S,GS,9:06,19:33
68,15-7-16,301,PUNEETH.M.P,GS,9:00,18:00
69,15-7-16,302,HARSHA KUMAR.H.R,GS,8:43,18:00
70,15-7-16,303,PRITHVI KUMAR.C.A,GS,0:00,0:00
71,15-7-16,304,SANTOSH NARAYAN,GS,10:08,17:27
72,15-7-16,309,MARY SHARLY,GS,9:00,18:10
73,15-7-16,311,RAKESH.A.M,GS,8:55,18:10
74,15-7-16,312,GAYATRI R BHAT,GS,0:00,0:00
75,15-7-16,314,VIJAYASHREE.S.ANAND,GS,9:12,18:19
76,15-7-16,315,BALAJI,GS,9:00,18:00
77,15-7-16,317,MAHESH GOWDA.C.S,GS,8:56,19:14
78,15-7-16,318,DHIRENDRA BHASKAR.H.P,GS,9:10,19:59
79,15-7-16,319,PRADEEP KUMAR.S.S,GS,8:56,19:59
80,15-7-16,320,RAJSHEKAR.C,GS,9:00,18:00
81,15-7-16,321,PALLAVI.K,GS,9:14,18:10
82,15-7-16,322,SURESH.K,GS,9:17,19:01
83,15-7-16,323,CHELUVEGOWDA.H.S,GS,8:49,18:49
84,15-7-16,324,MADAN.V,GS,9:35,18:28
