SNo,Date,E. Code,Name,Shift, InTime, OutTime
1,16-09-2016,123,K.N.SURENDRA,GS,09:00,18:00
2,16-09-2016,124,K.N.SOWMYA,GS,09:00,18:00
3,16-09-2016,125,K.N.BOREGOWDA,GS,09:00,18:00
4,16-09-2016,127,SRINIVAS.H.C,GS,09:00,18:00
5,16-09-2016,128,KUMAR.H.S,GS,09:00,18:00
6,16-09-2016,130,A.H.PRASAD KUMAR,GS,09:00,18:00
7,16-09-2016,131,GIRISH SHETTY,GS,08:57,19:06
8,16-09-2016,135,KUMAR.B.S,GS,09:11,19:23
9,16-09-2016,136,SUDHIR SHETTY,GS,09:18,19:19
10,16-09-2016,138,PRASANNA KUMAR.S,GS,00:00,00:00
11,16-09-2016,139,MITHUN.G.SHETTY,GS,00:00,00:00
12,16-09-2016,140,VENKATESH.K,GS,10:10,20:42
13,16-09-2016,143,JAGANNATH JAKKA,GS,10:35,00:00
14,16-09-2016,147,UMESH.B.V,GS,09:12,19:23
15,16-09-2016,149,C.V.HARISH,GS,07:23,18:01
16,16-09-2016,152,CHANDRASHEKAR.M.B,GS,09:03,18:54
17,16-09-2016,157,SANTOSH.K.NAIK,GS,08:56,18:19
18,16-09-2016,158,NANJEGOWDA,GS,09:00,18:00
19,16-09-2016,170,VAISHNAVI.R.AITHAL,GS,09:08,18:10
20,16-09-2016,171,SHIVANNA,GS,08:20,18:00
21,16-09-2016,175,BHANUPRAKASH DG,GS,08:56,19:21
22,16-09-2016,188,RATHNA,GS,09:00,18:00
23,16-09-2016,197,SHIVA KUMAR.N,GS,09:10,21:47
24,16-09-2016,199,HEMANTH.V.G,GS,00:00,20:41
25,16-09-2016,201,SUNIL KUMAR.B.B,GS,08:50,19:24
26,16-09-2016,202,MAHESH RAJ URS,GS,09:01,18:12
27,16-09-2016,206,PRASANNA.N.M,GS,09:12,00:00
28,16-09-2016,207,PRIYA NAGARAJ,GS,14:36,18:21
29,16-09-2016,208,K.P.RAGHAVENDRA,GS,09:00,18:00
30,16-09-2016,210,KAVYA.B.K,GS,09:37,19:16
31,16-09-2016,211,BASAVARAJU.K.N,GS,09:23,19:26
32,16-09-2016,213,AJITH ASHOKAN,GS,09:02,18:21
33,16-09-2016,217,C.SHASHIDHAR,GS,00:00,00:00
34,16-09-2016,218,KISHORE.B.N,GS,09:00,18:00
35,16-09-2016,223,CHETAN.G.K,GS,09:00,18:00
36,16-09-2016,230,KEERTHI KUMAR.K.R,GS,09:00,18:00
37,16-09-2016,243,ABBUBAKARSIDEEK.K,GS,00:00,00:00
38,16-09-2016,245,AVILASH.P.G,GS,09:09,18:01
39,16-09-2016,250,YOGESH.A.N,GS,08:04,18:08
40,16-09-2016,252,SRILATHA BOLLADY,GS,09:06,20:43
41,16-09-2016,254,PAVAN KUMAR.H.N,GS,09:41,18:21
42,16-09-2016,257,CHANDRAPPA,GS,08:16,18:12
43,16-09-2016,258,THIPPESWAMY.B.C,GS,09:07,18:00
44,16-09-2016,259,KARTHIKEYA PATIL,GS,09:03,18:02
45,16-09-2016,261,RAMU,GS,09:00,18:00
46,16-09-2016,262,REKHA,GS,09:00,18:00
47,16-09-2016,263,YOGESH GOWDA.M.L,GS,07:31,22:17
48,16-09-2016,265,NAGARAJ PRAKASH,GS,00:00,00:00
49,16-09-2016,268,AVIN KUMAR,GS,00:00,00:00
50,16-09-2016,269,PRADEEP.B.R,GS,09:06,18:13
51,16-09-2016,270,MANJUNATH.R,GS,08:34,19:13
52,16-09-2016,273,KUSHALA.G.V,GS,09:00,18:00
53,16-09-2016,274,Abhinandan.K.M,GS,09:06,21:47
54,16-09-2016,275,MANJU.B,GS,09:15,19:13
55,16-09-2016,277,N.CHANDRASHEKAR,GS,09:10,18:02
56,16-09-2016,279,MALLESH,GS,09:00,18:00
57,16-09-2016,282,NAVIN KUMAR.B.R,GS,09:00,18:00
58,16-09-2016,290,NARAYANA REDDY.M,GS,09:09,18:55
59,16-09-2016,291,RAJANNA.A.C,GS,09:06,18:53
60,16-09-2016,293,VENKAT RAMANAIAH YETURU,GS,08:56,19:13
61,16-09-2016,296,NANDEESHA.K,GS,09:23,18:04
62,16-09-2016,300,KEMPARAJU.N.S,GS,09:11,17:14
63,16-09-2016,301,PUNEETH.M.P,GS,09:00,18:00
64,16-09-2016,302,HARSHA KUMAR.H.R,GS,09:00,18:00
65,16-09-2016,303,PRITHVI KUMAR.C.A,GS,09:08,18:29
66,16-09-2016,304,SANTOSH NARAYAN,GS,10:15,20:43
67,16-09-2016,309,MARY SHARLY,GS,09:03,18:28
68,16-09-2016,311,RAKESH.A.M,GS,08:51,18:35
69,16-09-2016,314,VIJAYASHREE.S.ANAND,GS,09:09,18:17
70,16-09-2016,315,BALAJI,GS,09:00,18:00
71,16-09-2016,317,MAHESH GOWDA.C.S,GS,08:56,19:24
72,16-09-2016,318,DHIRENDRA BHASKAR.H.P,GS,08:27,19:35
73,16-09-2016,319,PRADEEP KUMAR.S.S,GS,08:56,22:14
74,16-09-2016,320,RAJSHEKAR.C,GS,09:00,18:00
75,16-09-2016,321,PALLAVI.K,GS,09:05,18:15
76,16-09-2016,322,SURESH.K,GS,09:12,19:00
77,16-09-2016,323,CHELUVEGOWDA.H.S,GS,08:27,18:36
78,16-09-2016,327,BINDU RANI,GS,11:08,17:44
79,16-09-2016,328,DHANASHEKAR.M,GS,09:11,18:57
80,16-09-2016,329,KALIPRASAD,GS,09:00,18:00
81,16-09-2016,330,THIMMAPPA,GS,08:53,18:27
82,16-09-2016,331,ALTAF,GS,00:00,00:00
83,16-09-2016,332,ANIL KUMAR.H.R,GS,08:56,18:31
84,16-09-2016,333,CHETAN.S,GS,08:06,18:29
85,16-09-2016,334,SHIVAPRASAD,GS,08:59,18:36
86,16-09-2016,324,MADAN.V,GS,08:51,19:29
87,16-09-2016,249,DIVAKAR.N.M,GS,08:34,19:13
