SNo,Date,E. Code,Name,Shift, InTime, OutTime
1,17-08-2017,123,K.N.SURENDRA,GS,09:00,18:00
2,17-08-2017,124,K.N.SOWMYA,GS,09:00,18:00
3,17-08-2017,125,K.N.BOREGOWDA,GS,09:00,18:00
4,17-08-2017,127,SRINIVAS.H.C,GS,09:00,18:00
5,17-08-2017,128,KUMAR.H.S,GS,09:00,18:00
6,17-08-2017,130,A.H.PRASAD KUMAR,GS,09:00,18:00
7,17-08-2017,131,GIRISH SHETTY,GS,09:07,18:15
8,17-08-2017,135,KUMAR.B.S,GS,08:58,19:30
9,17-08-2017,136,SUDHIR SHETTY,GS,09:02,18:20
10,17-08-2017,138,PRASANNA KUMAR.S,GS,09:06,00:00
11,17-08-2017,139,MITHUN.G.SHETTY,GS,08:39,08:39
12,17-08-2017,140,VENKATESH.K,GS,10:22,20:20
13,17-08-2017,143,JAGANNATH JAKKA,GS,13:02,00:00
14,17-08-2017,147,UMESH.B.V,GS,09:09,17:57
15,17-08-2017,149,C.V.HARISH,GS,09:00,18:00
16,17-08-2017,157,SANTOSH.K.NAIK,GS,15:48,20:36
17,17-08-2017,158,NANJEGOWDA,GS,09:00,18:00
18,17-08-2017,170,VAISHNAVI.R.AITHAL,GS,09:03,18:24
19,17-08-2017,171,SHIVANNA,GS,00:00,00:00
20,17-08-2017,175,BHANUPRAKASH DG,GS,00:00,00:00
21,17-08-2017,197,SHIVA KUMAR.N,GS,09:06,19:58
22,17-08-2017,199,HEMANTH.V.G,GS,09:00,19:01
23,17-08-2017,201,SUNIL KUMAR.B.B,GS,09:10,18:07
24,17-08-2017,202,MAHESH RAJ URS,GS,00:00,00:00
25,17-08-2017,206,PRASANNA.N.M,GS,09:13,09:13
26,17-08-2017,207,PRIYA NAGARAJ,GS,12:04,18:20
27,17-08-2017,208,K.P.RAGHAVENDRA,GS,09:00,18:00
28,17-08-2017,210,KAVYA.B.K,GS,10:29,18:24
29,17-08-2017,211,BASAVARAJU.K.N,GS,00:00,00:00
30,17-08-2017,213,AJITH ASHOKAN,GS,09:00,19:04
31,17-08-2017,217,C.SHASHIDHAR,GS,00:00,00:00
32,17-08-2017,218,KISHORE.B.N,GS,00:00,00:00
33,17-08-2017,223,CHETAN.G.K,GS,13:58,16:49
34,17-08-2017,230,KEERTHI KUMAR.K.R,GS,09:02,20:37
35,17-08-2017,243,ABBUBAKARSIDEEK.K,GS,09:00,18:00
36,17-08-2017,250,YOGESH.A.N,GS,08:13,19:02
37,17-08-2017,252,SRILATHA BOLLADY,GS,09:14,19:59
38,17-08-2017,254,PAVAN KUMAR.H.N,GS,09:06,15:36
39,17-08-2017,257,CHANDRAPPA,GS,00:00,00:00
40,17-08-2017,262,REKHA,GS,09:00,18:00
41,17-08-2017,263,YOGESH GOWDA.M.L,GS,07:07,21:05
42,17-08-2017,265,NAGARAJ PRAKASH,GS,09:17,18:11
43,17-08-2017,268,AVIN KUMAR,GS,00:00,00:00
44,17-08-2017,269,PRADEEP.B.R,GS,00:00,19:30
45,17-08-2017,273,KUSHALA.G.V,GS,09:00,18:00
46,17-08-2017,274,Abhinandan.K.M,GS,09:02,19:36
47,17-08-2017,275,MANJU.B,GS,00:00,00:00
48,17-08-2017,277,N.CHANDRASHEKAR,GS,00:00,00:00
49,17-08-2017,279,MALLESH,GS,00:00,00:00
50,17-08-2017,282,NAVIN KUMAR.B.R,GS,00:00,00:00
51,17-08-2017,290,NARAYANA REDDY.M,GS,09:11,18:16
52,17-08-2017,293,VENKAT RAMANAIAH YETURU,GS,09:22,20:11
53,17-08-2017,296,NANDEESHA.K,GS,00:00,00:00
54,17-08-2017,300,KEMPARAJU.N.S,GS,09:09,18:21
55,17-08-2017,302,HARSHA KUMAR.H.R,GS,00:00,19:16
56,17-08-2017,303,PRITHVI KUMAR.C.A,GS,00:00,00:00
57,17-08-2017,304,SANTOSH NARAYAN,GS,10:29,19:59
58,17-08-2017,314,VIJAYASHREE.S.ANAND,GS,08:21,18:13
59,17-08-2017,317,MAHESH GOWDA.C.S,GS,08:43,18:28
60,17-08-2017,322,SURESH.K,GS,09:10,00:00
61,17-08-2017,323,CHELUVEGOWDA.H.S,GS,08:32,17:30
62,17-08-2017,327,BINDU RANI,GS,11:00,17:26
63,17-08-2017,328,DHANASHEKAR.M,GS,09:14,18:20
64,17-08-2017,330,THIMMAPPA,GS,00:00,00:00
65,17-08-2017,331,ALTAF,GS,09:00,18:00
66,17-08-2017,332,ANIL KUMAR.H.R,GS,09:29,00:00
67,17-08-2017,334,SHIVAPRASAD,GS,13:12,18:55
68,17-08-2017,324,Madan.V(NOT IN PAYROLL),GS,00:00,00:00
69,17-08-2017,336,SHWETHA.H.G,GS,09:06,18:19
70,17-08-2017,338,NANDINI.S.L,GS,00:00,00:00
71,17-08-2017,1010,RAMU.H.M,GS,07:50,19:42
72,17-08-2017,1011,NIRANJAN.K.B,GS,00:00,00:00
73,17-08-2017,189,K.N.RAJU,GS,00:00,00:00
74,17-08-2017,339,MADEVAPPA BHAJANTRI,GS,09:01,20:57
75,17-08-2017,5002,Madhu sudhan.B,GS,00:00,00:00
76,17-08-2017,5004,SHIVANNA JUNIOR,GS,09:00,18:00
77,17-08-2017,5005,Sarath kumar.R,GS,00:00,00:00
78,17-08-2017,5006,Ritish Kiran.,GS,00:00,00:00
79,17-08-2017,5007,Sanjay Prabhakar Balli,GS,00:00,00:00
80,17-08-2017,5008,Vinay.K.C,GS,00:00,00:00
81,17-08-2017,346,SARANDEEP.S,GS,09:39,18:06
82,17-08-2017,342,NETHRAVATHI.T,GS,09:10,18:05
83,17-08-2017,5013,CHANNABASAVESHWARASWAMY.G.S,GS,00:00,00:00
84,17-08-2017,344,J.K.SRINIVASA,GS,09:23,18:28
85,17-08-2017,5015,SANDEEPA.V.P,GS,00:00,00:00
86,17-08-2017,343,SRIDHAR.G,GS,00:00,00:00
87,17-08-2017,347,DEEPAK.T.N,GS,09:40,19:46
88,17-08-2017,348,VINAY BHARGAVA.K.N,GS,11:30,19:25
