SNo,Date,E. Code,Name,Shift, InTime, OutTime
1,14-01-2017,123,K.N.SURENDRA,GS,00:00,00:00
2,14-01-2017,124,K.N.SOWMYA,GS,00:00,00:00
3,14-01-2017,125,K.N.BOREGOWDA,GS,00:00,00:00
4,14-01-2017,127,SRINIVAS.H.C,GS,00:00,00:00
5,14-01-2017,128,KUMAR.H.S,GS,09:00,18:00
6,14-01-2017,130,A.H.PRASAD KUMAR,GS,00:00,00:00
7,14-01-2017,131,GIRISH SHETTY,GS,00:00,00:00
8,14-01-2017,135,KUMAR.B.S,GS,00:00,00:00
9,14-01-2017,136,SUDHIR SHETTY,GS,00:00,00:00
10,14-01-2017,138,PRASANNA KUMAR.S,GS,00:00,00:00
11,14-01-2017,139,MITHUN.G.SHETTY,GS,00:00,00:00
12,14-01-2017,140,VENKATESH.K,GS,22:13,23:08
13,14-01-2017,143,JAGANNATH JAKKA,GS,00:00,00:00
14,14-01-2017,147,UMESH.B.V,GS,00:00,00:00
15,14-01-2017,149,C.V.HARISH,GS,09:00,18:00
16,14-01-2017,152,CHANDRASHEKAR.M.B,GS,00:00,00:00
17,14-01-2017,157,SANTOSH.K.NAIK,GS,09:06,18:13
18,14-01-2017,158,NANJEGOWDA,GS,00:00,00:00
19,14-01-2017,170,VAISHNAVI.R.AITHAL,GS,00:00,00:00
20,14-01-2017,171,SHIVANNA,GS,09:33,19:10
21,14-01-2017,175,BHANUPRAKASH DG,GS,00:00,00:00
22,14-01-2017,188,RATHNA,GS,00:00,00:00
23,14-01-2017,197,SHIVA KUMAR.N,GS,00:00,00:00
24,14-01-2017,199,HEMANTH.V.G,GS,00:00,00:00
25,14-01-2017,201,SUNIL KUMAR.B.B,GS,00:00,00:00
26,14-01-2017,202,MAHESH RAJ URS,GS,08:46,18:03
27,14-01-2017,206,PRASANNA.N.M,GS,09:32,12:57
28,14-01-2017,207,PRIYA NAGARAJ,GS,12:00,18:13
29,14-01-2017,208,K.P.RAGHAVENDRA,GS,00:00,00:00
30,14-01-2017,210,KAVYA.B.K,GS,00:00,00:00
31,14-01-2017,211,BASAVARAJU.K.N,GS,09:36,19:01
32,14-01-2017,213,AJITH ASHOKAN,GS,00:00,00:00
33,14-01-2017,217,C.SHASHIDHAR,GS,09:13,13:39
34,14-01-2017,218,KISHORE.B.N,GS,00:00,00:00
35,14-01-2017,223,CHETAN.G.K,GS,00:00,00:00
36,14-01-2017,230,KEERTHI KUMAR.K.R,GS,00:00,00:00
37,14-01-2017,243,ABBUBAKARSIDEEK.K,GS,00:00,00:00
38,14-01-2017,245,AVILASH.P.G,GS,00:00,00:00
39,14-01-2017,250,YOGESH.A.N,GS,00:00,00:00
40,14-01-2017,252,SRILATHA BOLLADY,GS,09:38,19:16
41,14-01-2017,254,PAVAN KUMAR.H.N,GS,00:00,00:00
42,14-01-2017,257,CHANDRAPPA,GS,00:00,00:00
43,14-01-2017,258,THIPPESWAMY.B.C,GS,00:00,00:00
44,14-01-2017,259,KARTHIKEYA PATIL,GS,09:03,18:02
45,14-01-2017,261,RAMU,GS,00:00,00:00
46,14-01-2017,262,REKHA,GS,00:00,00:00
47,14-01-2017,263,YOGESH GOWDA.M.L,GS,08:29,19:16
48,14-01-2017,265,NAGARAJ PRAKASH,GS,00:00,00:00
49,14-01-2017,268,AVIN KUMAR,GS,09:02,18:03
50,14-01-2017,269,PRADEEP.B.R,GS,00:00,00:00
51,14-01-2017,270,MANJUNATH.R,GS,00:00,00:00
52,14-01-2017,273,KUSHALA.G.V,GS,00:00,00:00
53,14-01-2017,274,Abhinandan.K.M,GS,00:00,00:00
54,14-01-2017,275,MANJU.B,GS,00:00,00:00
55,14-01-2017,277,N.CHANDRASHEKAR,GS,08:58,18:01
56,14-01-2017,279,MALLESH,GS,00:00,00:00
57,14-01-2017,282,NAVIN KUMAR.B.R,GS,09:12,18:13
58,14-01-2017,290,NARAYANA REDDY.M,GS,00:00,00:00
59,14-01-2017,293,VENKAT RAMANAIAH YETURU,GS,00:00,00:00
60,14-01-2017,296,NANDEESHA.K,GS,09:12,18:03
61,14-01-2017,300,KEMPARAJU.N.S,GS,00:00,00:00
62,14-01-2017,301,PUNEETH.M.P,GS,00:00,00:00
63,14-01-2017,302,HARSHA KUMAR.H.R,GS,00:00,00:00
64,14-01-2017,303,PRITHVI KUMAR.C.A,GS,10:05,10:15
65,14-01-2017,304,SANTOSH NARAYAN,GS,13:25,19:16
66,14-01-2017,311,RAKESH.A.M,GS,00:00,00:00
67,14-01-2017,314,VIJAYASHREE.S.ANAND,GS,00:00,00:00
68,14-01-2017,315,BALAJI,GS,00:00,00:00
69,14-01-2017,317,MAHESH GOWDA.C.S,GS,00:00,00:00
70,14-01-2017,318,DHIRENDRA BHASKAR.H.P,GS,00:00,00:00
71,14-01-2017,319,PRADEEP KUMAR.S.S,GS,00:00,00:00
72,14-01-2017,321,PALLAVI.K,GS,10:26,17:41
73,14-01-2017,322,SURESH.K,GS,00:00,00:00
74,14-01-2017,323,CHELUVEGOWDA.H.S,GS,00:00,00:00
75,14-01-2017,327,BINDU RANI,GS,00:00,00:00
76,14-01-2017,328,DHANASHEKAR.M,GS,00:00,00:00
77,14-01-2017,329,Kaliprasad,GS,00:00,00:00
78,14-01-2017,330,THIMMAPPA,GS,00:00,00:00
79,14-01-2017,331,ALTAF,GS,00:00,00:00
80,14-01-2017,332,ANIL KUMAR.H.R,GS,00:00,00:00
81,14-01-2017,334,SHIVAPRASAD,GS,00:00,00:00
82,14-01-2017,324,Madan.V,GS,00:00,00:00
83,14-01-2017,249,DIVAKAR.N.M,GS,00:00,00:00
84,14-01-2017,336,SHWETHA.H.G,GS,00:00,00:00
85,14-01-2017,337,K.O.SREEDHAR,GS,00:00,00:00
86,14-01-2017,338,NANDINI.S.L,GS,00:00,00:00
87,14-01-2017,1010,RAMU.H.M,GS,00:00,00:00
88,14-01-2017,1011,NIRANJAN.K.B,GS,00:00,00:00
