SNo,Date,E. Code,Name,Shift, InTime, OutTime
1,16-01-2017,123,K.N.SURENDRA,GS,09:00,18:00
2,16-01-2017,124,K.N.SOWMYA,GS,09:00,18:00
3,16-01-2017,125,K.N.BOREGOWDA,GS,09:00,18:00
4,16-01-2017,127,SRINIVAS.H.C,GS,09:00,18:59
5,16-01-2017,128,KUMAR.H.S,GS,09:00,18:00
6,16-01-2017,130,A.H.PRASAD KUMAR,GS,09:00,18:00
7,16-01-2017,131,GIRISH SHETTY,GS,09:08,18:21
8,16-01-2017,135,KUMAR.B.S,GS,08:58,18:15
9,16-01-2017,136,SUDHIR SHETTY,GS,09:00,18:21
10,16-01-2017,138,PRASANNA KUMAR.S,GS,00:00,00:00
11,16-01-2017,139,MITHUN.G.SHETTY,GS,09:26,20:35
12,16-01-2017,140,VENKATESH.K,GS,10:04,21:57
13,16-01-2017,143,JAGANNATH JAKKA,GS,09:33,00:00
14,16-01-2017,147,UMESH.B.V,GS,09:14,18:14
15,16-01-2017,149,C.V.HARISH,GS,09:00,18:00
16,16-01-2017,152,CHANDRASHEKAR.M.B,GS,09:00,18:00
17,16-01-2017,157,SANTOSH.K.NAIK,GS,08:49,18:19
18,16-01-2017,158,NANJEGOWDA,GS,09:00,18:00
19,16-01-2017,170,VAISHNAVI.R.AITHAL,GS,09:19,18:40
20,16-01-2017,171,SHIVANNA,GS,09:19,18:19
21,16-01-2017,175,BHANUPRAKASH DG,GS,09:22,13:26
22,16-01-2017,188,RATHNA,GS,09:00,18:00
23,16-01-2017,197,SHIVA KUMAR.N,GS,09:32,21:56
24,16-01-2017,199,HEMANTH.V.G,GS,09:00,20:11
25,16-01-2017,201,SUNIL KUMAR.B.B,GS,08:47,18:00
26,16-01-2017,202,MAHESH RAJ URS,GS,09:07,18:13
27,16-01-2017,206,PRASANNA.N.M,GS,09:16,18:09
28,16-01-2017,207,PRIYA NAGARAJ,GS,09:52,12:05
29,16-01-2017,208,K.P.RAGHAVENDRA,GS,09:00,18:00
30,16-01-2017,210,KAVYA.B.K,GS,09:45,18:58
31,16-01-2017,211,BASAVARAJU.K.N,GS,09:48,18:55
32,16-01-2017,213,AJITH ASHOKAN,GS,09:02,18:26
33,16-01-2017,217,C.SHASHIDHAR,GS,08:47,18:13
34,16-01-2017,218,KISHORE.B.N,GS,09:00,18:00
35,16-01-2017,223,CHETAN.G.K,GS,09:00,18:00
36,16-01-2017,230,KEERTHI KUMAR.K.R,GS,00:00,00:00
37,16-01-2017,243,ABBUBAKARSIDEEK.K,GS,00:00,00:00
38,16-01-2017,245,AVILASH.P.G,GS,09:00,18:00
39,16-01-2017,250,YOGESH.A.N,GS,07:40,21:39
40,16-01-2017,252,SRILATHA BOLLADY,GS,09:06,19:51
41,16-01-2017,254,PAVAN KUMAR.H.N,GS,00:00,00:00
42,16-01-2017,257,CHANDRAPPA,GS,00:00,00:00
43,16-01-2017,258,THIPPESWAMY.B.C,GS,09:03,17:56
44,16-01-2017,259,KARTHIKEYA PATIL,GS,08:57,18:02
45,16-01-2017,261,RAMU,GS,09:00,18:00
46,16-01-2017,262,REKHA,GS,09:00,18:00
47,16-01-2017,263,YOGESH GOWDA.M.L,GS,00:00,00:00
48,16-01-2017,265,NAGARAJ PRAKASH,GS,00:00,00:00
49,16-01-2017,268,AVIN KUMAR,GS,09:07,17:55
50,16-01-2017,269,PRADEEP.B.R,GS,00:00,00:00
51,16-01-2017,270,MANJUNATH.R,GS,09:00,18:00
52,16-01-2017,273,KUSHALA.G.V,GS,09:00,18:00
53,16-01-2017,274,Abhinandan.K.M,GS,09:07,21:46
54,16-01-2017,275,MANJU.B,GS,09:18,00:00
55,16-01-2017,277,N.CHANDRASHEKAR,GS,09:00,18:11
56,16-01-2017,279,MALLESH,GS,09:00,18:00
57,16-01-2017,282,NAVIN KUMAR.B.R,GS,08:49,09:18
58,16-01-2017,290,NARAYANA REDDY.M,GS,09:05,18:28
59,16-01-2017,293,VENKAT RAMANAIAH YETURU,GS,00:00,00:00
60,16-01-2017,296,NANDEESHA.K,GS,11:44,18:40
61,16-01-2017,300,KEMPARAJU.N.S,GS,08:54,18:22
62,16-01-2017,301,PUNEETH.M.P,GS,09:00,18:00
63,16-01-2017,302,HARSHA KUMAR.H.R,GS,09:00,18:00
64,16-01-2017,303,PRITHVI KUMAR.C.A,GS,10:37,18:04
65,16-01-2017,304,SANTOSH NARAYAN,GS,11:57,19:54
66,16-01-2017,311,RAKESH.A.M,GS,09:00,19:09
67,16-01-2017,314,VIJAYASHREE.S.ANAND,GS,00:00,00:00
68,16-01-2017,315,BALAJI,GS,09:00,18:00
69,16-01-2017,317,MAHESH GOWDA.C.S,GS,09:14,18:21
70,16-01-2017,318,DHIRENDRA BHASKAR.H.P,GS,00:00,00:00
71,16-01-2017,319,PRADEEP KUMAR.S.S,GS,00:00,00:00
72,16-01-2017,321,PALLAVI.K,GS,00:00,00:00
73,16-01-2017,322,SURESH.K,GS,00:00,00:00
74,16-01-2017,323,CHELUVEGOWDA.H.S,GS,09:45,19:54
75,16-01-2017,327,BINDU RANI,GS,10:31,17:43
76,16-01-2017,328,DHANASHEKAR.M,GS,09:22,18:16
77,16-01-2017,329,Kaliprasad,GS,09:00,18:00
78,16-01-2017,330,THIMMAPPA,GS,09:12,18:43
79,16-01-2017,331,ALTAF,GS,09:00,18:00
80,16-01-2017,332,ANIL KUMAR.H.R,GS,00:00,00:00
81,16-01-2017,334,SHIVAPRASAD,GS,08:42,19:19
82,16-01-2017,324,Madan.V,GS,09:00,18:00
83,16-01-2017,249,DIVAKAR.N.M,GS,00:00,00:00
84,16-01-2017,336,SHWETHA.H.G,GS,09:09,18:04
85,16-01-2017,337,K.O.SREEDHAR,GS,09:03,19:42
86,16-01-2017,338,NANDINI.S.L,GS,09:06,18:07
87,16-01-2017,1010,RAMU.H.M,GS,11:04,21:39
88,16-01-2017,1011,NIRANJAN.K.B,GS,08:47,18:08
