SNo,Date,E. Code,Name,Shift, InTime, OutTime
1,17-10-2016,123,K.N.SURENDRA,GS,09:00,18:00
2,17-10-2016,124,K.N.SOWMYA,GS,09:00,18:00
3,17-10-2016,125,K.N.BOREGOWDA,GS,09:00,18:00
4,17-10-2016,127,SRINIVAS.H.C,GS,09:00,18:00
5,17-10-2016,128,KUMAR.H.S,GS,09:00,18:00
6,17-10-2016,130,A.H.PRASAD KUMAR,GS,09:00,18:00
7,17-10-2016,131,GIRISH SHETTY,GS,08:57,13:27
8,17-10-2016,135,KUMAR.B.S,GS,09:01,20:12
9,17-10-2016,136,SUDHIR SHETTY,GS,09:32,18:36
10,17-10-2016,138,PRASANNA KUMAR.S,GS,09:10,19:08
11,17-10-2016,139,MITHUN.G.SHETTY,GS,08:42,18:23
12,17-10-2016,140,VENKATESH.K,GS,10:02,20:24
13,17-10-2016,143,JAGANNATH JAKKA,GS,09:35,18:43
14,17-10-2016,147,UMESH.B.V,GS,09:07,18:30
15,17-10-2016,149,C.V.HARISH,GS,07:20,18:22
16,17-10-2016,152,CHANDRASHEKAR.M.B,GS,09:00,18:00
17,17-10-2016,157,SANTOSH.K.NAIK,GS,08:51,18:24
18,17-10-2016,158,NANJEGOWDA,GS,09:00,18:00
19,17-10-2016,170,VAISHNAVI.R.AITHAL,GS,08:54,18:44
20,17-10-2016,171,SHIVANNA,GS,09:05,09:26
21,17-10-2016,175,BHANUPRAKASH DG,GS,09:36,16:37
22,17-10-2016,188,RATHNA,GS,09:00,18:00
23,17-10-2016,197,SHIVA KUMAR.N,GS,09:30,19:30
24,17-10-2016,199,HEMANTH.V.G,GS,09:00,18:00
25,17-10-2016,201,SUNIL KUMAR.B.B,GS,08:51,18:36
26,17-10-2016,202,MAHESH RAJ URS,GS,08:56,18:04
27,17-10-2016,206,PRASANNA.N.M,GS,09:10,18:22
28,17-10-2016,207,PRIYA NAGARAJ,GS,15:22,18:43
29,17-10-2016,208,K.P.RAGHAVENDRA,GS,09:00,18:00
30,17-10-2016,210,KAVYA.B.K,GS,09:30,18:56
31,17-10-2016,211,BASAVARAJU.K.N,GS,09:35,18:51
32,17-10-2016,213,AJITH ASHOKAN,GS,09:04,14:27
33,17-10-2016,217,C.SHASHIDHAR,GS,08:21,18:31
34,17-10-2016,218,KISHORE.B.N,GS,09:00,18:00
35,17-10-2016,223,CHETAN.G.K,GS,09:00,18:00
36,17-10-2016,230,KEERTHI KUMAR.K.R,GS,09:00,18:00
37,17-10-2016,243,ABBUBAKARSIDEEK.K,GS,08:40,18:07
38,17-10-2016,245,AVILASH.P.G,GS,09:11,18:23
39,17-10-2016,250,YOGESH.A.N,GS,08:07,18:49
40,17-10-2016,252,SRILATHA BOLLADY,GS,09:17,19:31
41,17-10-2016,254,PAVAN KUMAR.H.N,GS,08:06,17:48
42,17-10-2016,257,CHANDRAPPA,GS,08:24,18:08
43,17-10-2016,258,THIPPESWAMY.B.C,GS,00:00,00:00
44,17-10-2016,259,KARTHIKEYA PATIL,GS,09:00,18:01
45,17-10-2016,261,RAMU,GS,09:00,18:00
46,17-10-2016,262,REKHA,GS,09:00,18:00
47,17-10-2016,263,YOGESH GOWDA.M.L,GS,07:06,21:14
48,17-10-2016,265,NAGARAJ PRAKASH,GS,09:10,18:17
49,17-10-2016,268,AVIN KUMAR,GS,08:02,18:05
50,17-10-2016,269,PRADEEP.B.R,GS,09:01,18:00
51,17-10-2016,270,MANJUNATH.R,GS,08:40,18:22
52,17-10-2016,273,KUSHALA.G.V,GS,09:00,18:00
53,17-10-2016,274,Abhinandan.K.M,GS,09:11,19:30
54,17-10-2016,275,MANJU.B,GS,09:08,18:36
55,17-10-2016,277,N.CHANDRASHEKAR,GS,09:11,18:15
56,17-10-2016,279,MALLESH,GS,09:00,18:00
57,17-10-2016,282,NAVIN KUMAR.B.R,GS,09:00,18:00
58,17-10-2016,290,NARAYANA REDDY.M,GS,09:06,18:11
59,17-10-2016,291,RAJANNA.A.C,GS,09:00,18:23
60,17-10-2016,293,VENKAT RAMANAIAH YETURU,GS,08:55,13:30
61,17-10-2016,296,NANDEESHA.K,GS,00:00,00:00
62,17-10-2016,300,KEMPARAJU.N.S,GS,09:01,15:12
63,17-10-2016,301,PUNEETH.M.P,GS,09:00,18:00
64,17-10-2016,302,HARSHA KUMAR.H.R,GS,09:00,18:00
65,17-10-2016,303,PRITHVI KUMAR.C.A,GS,12:49,17:53
66,17-10-2016,304,SANTOSH NARAYAN,GS,08:37,19:28
67,17-10-2016,309,MARY SHARLY,GS,09:01,18:04
68,17-10-2016,311,RAKESH.A.M,GS,09:00,18:22
69,17-10-2016,314,VIJAYASHREE.S.ANAND,GS,09:20,18:04
70,17-10-2016,315,BALAJI,GS,09:00,18:00
71,17-10-2016,317,MAHESH GOWDA.C.S,GS,09:11,18:34
72,17-10-2016,318,DHIRENDRA BHASKAR.H.P,GS,09:05,20:13
73,17-10-2016,319,PRADEEP KUMAR.S.S,GS,09:11,18:33
74,17-10-2016,320,RAJSHEKAR.C,GS,09:00,18:00
75,17-10-2016,321,PALLAVI.K,GS,09:02,18:05
76,17-10-2016,322,SURESH.K,GS,09:18,18:51
77,17-10-2016,323,CHELUVEGOWDA.H.S,GS,09:06,18:23
78,17-10-2016,327,BINDU RANI,GS,10:48,17:22
79,17-10-2016,328,DHANASHEKAR.M,GS,09:31,18:20
80,17-10-2016,329,Kaliprasad(NOT IN PAYROLL),GS,09:00,18:00
81,17-10-2016,330,THIMMAPPA,GS,08:26,18:31
82,17-10-2016,331,ALTAF,GS,09:00,18:00
83,17-10-2016,332,ANIL KUMAR.H.R,GS,08:51,18:00
84,17-10-2016,333,CHETAN.S,GS,08:00,18:30
85,17-10-2016,334,SHIVAPRASAD,GS,08:32,18:22
86,17-10-2016,324,Madan.V,GS,09:00,18:25
87,17-10-2016,249,DIVAKAR.N.M,GS,08:40,18:33
88,17-10-2016,336,SHWETHA.H.G,GS,08:58,18:00
89,17-10-2016,337,SRIDHAR,GS,09:00,18:00
90,17-10-2016,338,NANDINI.S.L,GS,09:00,19:24
