SNo,Date,E. Code,Name,Shift, InTime, OutTime
1,18-08-2016,123,K.N.SURENDRA,GS,09:00,18:00
2,18-08-2016,124,K.N.SOWMYA,GS,09:00,18:00
3,18-08-2016,125,K.N.BOREGOWDA,GS,09:00,18:00
4,18-08-2016,127,SRINIVAS.H.C,GS,09:00,18:00
5,18-08-2016,128,KUMAR.H.S,GS,09:00,18:00
6,18-08-2016,130,A.H.PRASAD KUMAR,GS,09:00,18:00
7,18-08-2016,131,GIRISH SHETTY,GS,08:58,18:34
8,18-08-2016,135,KUMAR.B.S,GS,09:19,20:15
9,18-08-2016,136,SUDHIR SHETTY,GS,09:14,19:10
10,18-08-2016,138,PRASANNA KUMAR.S,GS,08:58,19:20
11,18-08-2016,139,MITHUN.G.SHETTY,GS,09:21,19:20
12,18-08-2016,140,VENKATESH.K,GS,00:00,00:00
13,18-08-2016,143,JAGANNATH JAKKA,GS,10:08,19:55
14,18-08-2016,147,UMESH.B.V,GS,09:08,19:10
15,18-08-2016,149,C.V.HARISH,GS,07:24,18:01
16,18-08-2016,152,CHANDRASHEKAR.M.B,GS,08:36,00:00
17,18-08-2016,157,SANTOSH.K.NAIK,GS,09:02,08:59
18,18-08-2016,158,NANJEGOWDA,GS,00:00,00:00
19,18-08-2016,170,VAISHNAVI.R.AITHAL,GS,09:04,18:10
20,18-08-2016,171,SHIVANNA,GS,08:47,17:58
21,18-08-2016,175,BHANUPRAKASH DG,GS,08:53,20:07
22,18-08-2016,188,RATHNA,GS,09:00,18:00
23,18-08-2016,197,SHIVA KUMAR.N,GS,09:04,19:52
24,18-08-2016,199,HEMANTH.V.G,GS,09:00,20:07
25,18-08-2016,201,SUNIL KUMAR.B.B,GS,08:58,19:11
26,18-08-2016,202,MAHESH RAJ URS,GS,08:39,17:42
27,18-08-2016,206,PRASANNA.N.M,GS,08:39,17:11
28,18-08-2016,207,PRIYA NAGARAJ,GS,10:15,17:56
29,18-08-2016,208,K.P.RAGHAVENDRA,GS,07:30,18:00
30,18-08-2016,210,KAVYA.B.K,GS,00:00,00:00
31,18-08-2016,211,BASAVARAJU.K.N,GS,09:26,18:47
32,18-08-2016,213,AJITH ASHOKAN,GS,09:06,18:12
33,18-08-2016,217,C.SHASHIDHAR,GS,08:05,18:09
34,18-08-2016,218,KISHORE.B.N,GS,07:17,18:04
35,18-08-2016,223,CHETAN.G.K,GS,09:00,18:00
36,18-08-2016,230,KEERTHI KUMAR.K.R,GS,00:00,00:00
37,18-08-2016,243,ABBUBAKARSIDEEK.K,GS,08:39,18:16
38,18-08-2016,245,AVILASH.P.G,GS,09:02,18:06
39,18-08-2016,250,YOGESH.A.N,GS,07:47,19:31
40,18-08-2016,252,SRILATHA BOLLADY,GS,09:07,19:47
41,18-08-2016,254,PAVAN KUMAR.H.N,GS,08:56,17:30
42,18-08-2016,257,CHANDRAPPA,GS,06:08,18:10
43,18-08-2016,258,THIPPESWAMY.B.C,GS,09:05,18:04
44,18-08-2016,259,KARTHIKEYA PATIL,GS,08:50,18:02
45,18-08-2016,261,RAMU,GS,09:00,18:00
46,18-08-2016,262,REKHA,GS,09:00,18:00
47,18-08-2016,263,YOGESH GOWDA.M.L,GS,07:24,22:54
48,18-08-2016,265,NAGARAJ PRAKASH,GS,08:59,18:38
49,18-08-2016,268,AVIN KUMAR,GS,08:59,17:44
50,18-08-2016,269,PRADEEP.B.R,GS,00:00,00:00
51,18-08-2016,270,MANJUNATH.R,GS,07:30,18:10
52,18-08-2016,273,KUSHALA.G.V,GS,09:00,18:00
53,18-08-2016,274,Abhinandan.K.M,GS,09:07,20:20
54,18-08-2016,275,MANJU.B,GS,09:14,22:52
55,18-08-2016,277,N.CHANDRASHEKAR,GS,08:33,18:03
56,18-08-2016,279,MALLESH,GS,00:00,00:00
57,18-08-2016,282,NAVIN KUMAR.B.R,GS,07:30,13:33
58,18-08-2016,290,NARAYANA REDDY.M,GS,09:33,19:54
59,18-08-2016,291,RAJANNA.A.C,GS,09:22,19:12
60,18-08-2016,293,VENKAT RAMANAIAH YETURU,GS,08:32,18:41
61,18-08-2016,296,NANDEESHA.K,GS,09:13,17:44
62,18-08-2016,300,KEMPARAJU.N.S,GS,08:58,18:35
63,18-08-2016,301,PUNEETH.M.P,GS,09:00,18:00
64,18-08-2016,302,HARSHA KUMAR.H.R,GS,00:00,00:00
65,18-08-2016,303,PRITHVI KUMAR.C.A,GS,09:15,08:59
66,18-08-2016,304,SANTOSH NARAYAN,GS,11:33,16:44
67,18-08-2016,309,MARY SHARLY,GS,09:08,18:09
68,18-08-2016,311,RAKESH.A.M,GS,08:46,00:00
69,18-08-2016,312,GAYATRI R BHAT,GS,09:04,19:11
70,18-08-2016,314,VIJAYASHREE.S.ANAND,GS,09:10,18:12
71,18-08-2016,315,BALAJI,GS,09:00,18:00
72,18-08-2016,317,MAHESH GOWDA.C.S,GS,09:02,19:22
73,18-08-2016,318,DHIRENDRA BHASKAR.H.P,GS,09:08,22:54
74,18-08-2016,319,PRADEEP KUMAR.S.S,GS,09:02,22:52
75,18-08-2016,320,RAJSHEKAR.C,GS,09:00,18:00
76,18-08-2016,321,PALLAVI.K,GS,09:02,18:03
77,18-08-2016,322,SURESH.K,GS,09:08,19:08
78,18-08-2016,323,CHELUVEGOWDA.H.S,GS,09:08,18:18
79,18-08-2016,325,VIKYAATH,GS,00:00,00:00
80,18-08-2016,327,BINDU RANI,GS,10:57,17:31
81,18-08-2016,328,DHANASHEKAR.M,GS,09:47,18:19
82,18-08-2016,330,ANIL KUMAR,GS,09:02,18:19
83,18-08-2016,331,CHETAN.S,GS,08:08,18:14
84,18-08-2016,332,SHIVAPRASAD,GS,09:00,18:00
