SNo,Date,E. Code,Name,Shift, InTime, OutTime
1,17-11-2016,123,K.N.SURENDRA,GS,09:00,18:00
2,17-11-2016,124,K.N.SOWMYA,GS,09:00,18:00
3,17-11-2016,125,K.N.BOREGOWDA,GS,09:00,18:00
4,17-11-2016,127,SRINIVAS.H.C,GS,09:00,18:00
5,17-11-2016,128,KUMAR.H.S,GS,09:00,18:00
6,17-11-2016,130,A.H.PRASAD KUMAR,GS,09:00,18:00
7,17-11-2016,131,GIRISH SHETTY,GS,08:58,18:21
8,17-11-2016,135,KUMAR.B.S,GS,09:17,18:25
9,17-11-2016,136,SUDHIR SHETTY,GS,10:47,18:26
10,17-11-2016,138,PRASANNA KUMAR.S,GS,09:20,00:00
11,17-11-2016,139,MITHUN.G.SHETTY,GS,00:00,00:00
12,17-11-2016,140,VENKATESH.K,GS,10:32,18:56
13,17-11-2016,143,JAGANNATH JAKKA,GS,00:00,00:00
14,17-11-2016,147,UMESH.B.V,GS,09:17,18:24
15,17-11-2016,149,C.V.HARISH,GS,07:25,18:00
16,17-11-2016,152,CHANDRASHEKAR.M.B,GS,09:00,18:00
17,17-11-2016,157,SANTOSH.K.NAIK,GS,08:53,18:04
18,17-11-2016,158,NANJEGOWDA,GS,09:00,18:00
19,17-11-2016,170,VAISHNAVI.R.AITHAL,GS,09:05,18:05
20,17-11-2016,171,SHIVANNA,GS,09:00,18:00
21,17-11-2016,175,BHANUPRAKASH DG,GS,09:12,18:37
22,17-11-2016,188,RATHNA,GS,09:00,18:00
23,17-11-2016,197,SHIVA KUMAR.N,GS,00:00,00:00
24,17-11-2016,199,HEMANTH.V.G,GS,09:00,18:33
25,17-11-2016,201,SUNIL KUMAR.B.B,GS,09:36,18:26
26,17-11-2016,202,MAHESH RAJ URS,GS,08:49,17:49
27,17-11-2016,206,PRASANNA.N.M,GS,09:05,18:02
28,17-11-2016,207,PRIYA NAGARAJ,GS,11:32,14:38
29,17-11-2016,208,K.P.RAGHAVENDRA,GS,09:00,18:00
30,17-11-2016,210,KAVYA.B.K,GS,09:42,18:57
31,17-11-2016,211,BASAVARAJU.K.N,GS,09:34,18:36
32,17-11-2016,213,AJITH ASHOKAN,GS,09:04,18:05
33,17-11-2016,217,C.SHASHIDHAR,GS,08:49,18:02
34,17-11-2016,218,KISHORE.B.N,GS,09:00,18:00
35,17-11-2016,223,CHETAN.G.K,GS,09:00,18:00
36,17-11-2016,230,KEERTHI KUMAR.K.R,GS,09:00,18:00
37,17-11-2016,243,ABBUBAKARSIDEEK.K,GS,08:53,18:10
38,17-11-2016,245,AVILASH.P.G,GS,00:00,00:00
39,17-11-2016,250,YOGESH.A.N,GS,08:23,18:34
40,17-11-2016,252,SRILATHA BOLLADY,GS,09:53,18:41
41,17-11-2016,254,PAVAN KUMAR.H.N,GS,08:18,14:19
42,17-11-2016,257,CHANDRAPPA,GS,08:31,18:10
43,17-11-2016,258,THIPPESWAMY.B.C,GS,00:00,00:00
44,17-11-2016,259,KARTHIKEYA PATIL,GS,08:55,17:58
45,17-11-2016,261,RAMU,GS,09:00,18:00
46,17-11-2016,262,REKHA,GS,09:00,18:00
47,17-11-2016,263,YOGESH GOWDA.M.L,GS,07:34,22:05
48,17-11-2016,265,NAGARAJ PRAKASH,GS,09:12,18:05
49,17-11-2016,268,AVIN KUMAR,GS,09:01,18:00
50,17-11-2016,269,PRADEEP.B.R,GS,09:05,18:00
51,17-11-2016,270,MANJUNATH.R,GS,08:40,00:00
52,17-11-2016,273,KUSHALA.G.V,GS,09:00,18:00
53,17-11-2016,274,Abhinandan.K.M,GS,00:00,00:00
54,17-11-2016,275,MANJU.B,GS,09:55,19:00
55,17-11-2016,277,N.CHANDRASHEKAR,GS,09:01,17:58
56,17-11-2016,279,MALLESH,GS,09:00,18:00
57,17-11-2016,282,NAVIN KUMAR.B.R,GS,09:00,18:00
58,17-11-2016,290,NARAYANA REDDY.M,GS,00:00,00:00
59,17-11-2016,291,RAJANNA.A.C,GS,09:20,18:22
60,17-11-2016,293,VENKAT RAMANAIAH YETURU,GS,08:50,12:53
61,17-11-2016,296,NANDEESHA.K,GS,08:55,17:54
62,17-11-2016,300,KEMPARAJU.N.S,GS,00:00,00:00
63,17-11-2016,301,PUNEETH.M.P,GS,09:00,18:00
64,17-11-2016,302,HARSHA KUMAR.H.R,GS,09:00,18:00
65,17-11-2016,303,PRITHVI KUMAR.C.A,GS,09:08,17:58
66,17-11-2016,304,SANTOSH NARAYAN,GS,11:34,18:44
67,17-11-2016,309,MARY SHARLY,GS,09:01,18:04
68,17-11-2016,311,RAKESH.A.M,GS,00:00,00:00
69,17-11-2016,314,VIJAYASHREE.S.ANAND,GS,09:53,18:40
70,17-11-2016,315,BALAJI,GS,09:00,18:00
71,17-11-2016,317,MAHESH GOWDA.C.S,GS,00:00,00:00
72,17-11-2016,318,DHIRENDRA BHASKAR.H.P,GS,09:00,18:00
73,17-11-2016,319,PRADEEP KUMAR.S.S,GS,09:09,18:45
74,17-11-2016,320,RAJSHEKAR.C,GS,09:00,18:00
75,17-11-2016,321,PALLAVI.K,GS,09:21,18:04
76,17-11-2016,322,SURESH.K,GS,09:55,18:21
77,17-11-2016,323,CHELUVEGOWDA.H.S,GS,00:00,00:00
78,17-11-2016,327,BINDU RANI,GS,11:10,17:21
79,17-11-2016,328,DHANASHEKAR.M,GS,09:11,18:15
80,17-11-2016,329,Kaliprasad(NOT IN PAYROLL),GS,09:00,18:00
81,17-11-2016,330,THIMMAPPA,GS,08:32,18:49
82,17-11-2016,331,ALTAF,GS,09:00,18:00
83,17-11-2016,332,ANIL KUMAR.H.R,GS,09:05,19:03
84,17-11-2016,333,CHETAN.S,GS,08:21,18:11
85,17-11-2016,334,SHIVAPRASAD,GS,08:56,00:00
86,17-11-2016,324,Madan.V,GS,09:00,18:00
87,17-11-2016,249,DIVAKAR.N.M,GS,09:05,00:00
88,17-11-2016,336,SHWETHA.H.G,GS,09:09,18:04
89,17-11-2016,337,SRIDHAR,GS,09:03,18:01
90,17-11-2016,338,NANDINI.S.L,GS,09:00,18:11
