SNo,Date,E. Code,Name,Shift, InTime, OutTime
1,18-10-2016,123,K.N.SURENDRA,GS,09:00,18:00
2,18-10-2016,124,K.N.SOWMYA,GS,09:00,18:00
3,18-10-2016,125,K.N.BOREGOWDA,GS,09:00,18:00
4,18-10-2016,127,SRINIVAS.H.C,GS,09:00,18:00
5,18-10-2016,128,KUMAR.H.S,GS,09:00,18:00
6,18-10-2016,130,A.H.PRASAD KUMAR,GS,09:00,18:00
7,18-10-2016,131,GIRISH SHETTY,GS,09:03,19:24
8,18-10-2016,135,KUMAR.B.S,GS,09:03,18:38
9,18-10-2016,136,SUDHIR SHETTY,GS,09:16,19:00
10,18-10-2016,138,PRASANNA KUMAR.S,GS,09:23,18:35
11,18-10-2016,139,MITHUN.G.SHETTY,GS,17:48,18:23
12,18-10-2016,140,VENKATESH.K,GS,09:59,20:05
13,18-10-2016,143,JAGANNATH JAKKA,GS,11:06,18:20
14,18-10-2016,147,UMESH.B.V,GS,09:19,18:41
15,18-10-2016,149,C.V.HARISH,GS,07:27,17:56
16,18-10-2016,152,CHANDRASHEKAR.M.B,GS,09:00,18:00
17,18-10-2016,157,SANTOSH.K.NAIK,GS,09:11,18:11
18,18-10-2016,158,NANJEGOWDA,GS,09:00,18:00
19,18-10-2016,170,VAISHNAVI.R.AITHAL,GS,09:10,18:45
20,18-10-2016,171,SHIVANNA,GS,00:00,00:00
21,18-10-2016,175,BHANUPRAKASH DG,GS,09:10,17:42
22,18-10-2016,188,RATHNA,GS,09:00,18:00
23,18-10-2016,197,SHIVA KUMAR.N,GS,09:02,17:24
24,18-10-2016,199,HEMANTH.V.G,GS,09:00,18:00
25,18-10-2016,201,SUNIL KUMAR.B.B,GS,08:38,18:37
26,18-10-2016,202,MAHESH RAJ URS,GS,08:51,17:58
27,18-10-2016,206,PRASANNA.N.M,GS,09:13,18:22
28,18-10-2016,207,PRIYA NAGARAJ,GS,00:00,00:00
29,18-10-2016,208,K.P.RAGHAVENDRA,GS,09:00,18:00
30,18-10-2016,210,KAVYA.B.K,GS,09:38,18:36
31,18-10-2016,211,BASAVARAJU.K.N,GS,09:32,18:49
32,18-10-2016,213,AJITH ASHOKAN,GS,09:06,19:46
33,18-10-2016,217,C.SHASHIDHAR,GS,08:23,18:58
34,18-10-2016,218,KISHORE.B.N,GS,09:00,18:00
35,18-10-2016,223,CHETAN.G.K,GS,09:00,18:00
36,18-10-2016,230,KEERTHI KUMAR.K.R,GS,09:00,18:00
37,18-10-2016,243,ABBUBAKARSIDEEK.K,GS,08:50,18:25
38,18-10-2016,245,AVILASH.P.G,GS,09:06,00:00
39,18-10-2016,250,YOGESH.A.N,GS,08:14,15:55
40,18-10-2016,252,SRILATHA BOLLADY,GS,09:02,19:20
41,18-10-2016,254,PAVAN KUMAR.H.N,GS,08:48,18:14
42,18-10-2016,257,CHANDRAPPA,GS,08:30,18:35
43,18-10-2016,258,THIPPESWAMY.B.C,GS,09:03,18:26
44,18-10-2016,259,KARTHIKEYA PATIL,GS,09:03,17:55
45,18-10-2016,261,RAMU,GS,09:00,18:00
46,18-10-2016,262,REKHA,GS,09:00,18:00
47,18-10-2016,263,YOGESH GOWDA.M.L,GS,07:24,20:33
48,18-10-2016,265,NAGARAJ PRAKASH,GS,08:56,18:23
49,18-10-2016,268,AVIN KUMAR,GS,08:51,17:58
50,18-10-2016,269,PRADEEP.B.R,GS,08:32,18:16
51,18-10-2016,270,MANJUNATH.R,GS,08:42,18:32
52,18-10-2016,273,KUSHALA.G.V,GS,09:00,18:00
53,18-10-2016,274,Abhinandan.K.M,GS,08:57,20:31
54,18-10-2016,275,MANJU.B,GS,09:22,18:49
55,18-10-2016,277,N.CHANDRASHEKAR,GS,08:38,18:10
56,18-10-2016,279,MALLESH,GS,09:00,18:00
57,18-10-2016,282,NAVIN KUMAR.B.R,GS,09:00,18:00
58,18-10-2016,290,NARAYANA REDDY.M,GS,08:54,18:35
59,18-10-2016,291,RAJANNA.A.C,GS,09:01,18:23
60,18-10-2016,293,VENKAT RAMANAIAH YETURU,GS,08:57,18:28
61,18-10-2016,296,NANDEESHA.K,GS,09:02,17:55
62,18-10-2016,300,KEMPARAJU.N.S,GS,09:01,19:24
63,18-10-2016,301,PUNEETH.M.P,GS,09:00,18:00
64,18-10-2016,302,HARSHA KUMAR.H.R,GS,09:00,18:00
65,18-10-2016,303,PRITHVI KUMAR.C.A,GS,09:05,18:11
66,18-10-2016,304,SANTOSH NARAYAN,GS,10:27,19:21
67,18-10-2016,309,MARY SHARLY,GS,00:00,00:00
68,18-10-2016,311,RAKESH.A.M,GS,09:00,18:00
69,18-10-2016,314,VIJAYASHREE.S.ANAND,GS,09:25,18:23
70,18-10-2016,315,BALAJI,GS,09:00,18:00
71,18-10-2016,317,MAHESH GOWDA.C.S,GS,08:58,18:47
72,18-10-2016,318,DHIRENDRA BHASKAR.H.P,GS,09:06,20:30
73,18-10-2016,319,PRADEEP KUMAR.S.S,GS,08:57,20:30
74,18-10-2016,320,RAJSHEKAR.C,GS,09:00,18:00
75,18-10-2016,321,PALLAVI.K,GS,00:00,00:00
76,18-10-2016,322,SURESH.K,GS,09:16,18:33
77,18-10-2016,323,CHELUVEGOWDA.H.S,GS,09:06,18:36
78,18-10-2016,327,BINDU RANI,GS,10:46,17:38
79,18-10-2016,328,DHANASHEKAR.M,GS,09:13,18:24
80,18-10-2016,329,Kaliprasad(NOT IN PAYROLL),GS,09:00,18:00
81,18-10-2016,330,THIMMAPPA,GS,08:42,19:18
82,18-10-2016,331,ALTAF,GS,09:00,18:00
83,18-10-2016,332,ANIL KUMAR.H.R,GS,09:11,18:10
84,18-10-2016,333,CHETAN.S,GS,07:59,18:39
85,18-10-2016,334,SHIVAPRASAD,GS,08:54,18:31
86,18-10-2016,324,Madan.V,GS,08:46,18:32
87,18-10-2016,249,DIVAKAR.N.M,GS,08:42,18:32
88,18-10-2016,336,SHWETHA.H.G,GS,09:05,18:02
89,18-10-2016,337,SRIDHAR,GS,09:00,18:00
90,18-10-2016,338,NANDINI.S.L,GS,09:02,18:26
