SNo,Date,E. Code,Name,Shift, InTime, OutTime
1,18-09-2017,123,K.N.SURENDRA,GS,09:00,18:00
2,18-09-2017,124,K.N.SOWMYA,GS,09:00,18:00
3,18-09-2017,125,K.N.BOREGOWDA,GS,09:00,18:00
4,18-09-2017,127,SRINIVAS.H.C,GS,09:00,18:00
5,18-09-2017,128,KUMAR.H.S,GS,09:00,18:00
6,18-09-2017,130,A.H.PRASAD KUMAR,GS,09:00,18:00
7,18-09-2017,131,GIRISH SHETTY,GS,08:59,19:58
8,18-09-2017,135,KUMAR.B.S,GS,09:00,19:58
9,18-09-2017,136,SUDHIR SHETTY,GS,09:13,18:05
10,18-09-2017,138,PRASANNA KUMAR.S,GS,00:00,17:26
11,18-09-2017,139,MITHUN.G.SHETTY,GS,00:00,18:54
12,18-09-2017,140,VENKATESH.K,GS,09:56,13:46
13,18-09-2017,143,JAGANNATH JAKKA,GS,13:46,00:00
14,18-09-2017,147,UMESH.B.V,GS,09:13,16:59
15,18-09-2017,149,C.V.HARISH,GS,00:00,00:00
16,18-09-2017,157,SANTOSH.K.NAIK,GS,00:00,00:00
17,18-09-2017,158,NANJEGOWDA,GS,09:00,18:00
18,18-09-2017,170,VAISHNAVI.R.AITHAL,GS,08:29,18:47
19,18-09-2017,171,SHIVANNA,GS,08:59,15:04
20,18-09-2017,175,BHANUPRAKASH DG,GS,09:00,18:42
21,18-09-2017,197,SHIVA KUMAR.N,GS,00:00,00:00
22,18-09-2017,199,HEMANTH.V.G,GS,13:53,18:44
23,18-09-2017,201,SUNIL KUMAR.B.B,GS,09:15,19:23
24,18-09-2017,202,MAHESH RAJ URS,GS,00:00,18:30
25,18-09-2017,206,PRASANNA.N.M,GS,17:36,18:15
26,18-09-2017,207,PRIYA NAGARAJ,GS,12:54,19:41
27,18-09-2017,208,K.P.RAGHAVENDRA,GS,09:00,18:00
28,18-09-2017,210,KAVYA.B.K,GS,09:21,19:01
29,18-09-2017,211,BASAVARAJU.K.N,GS,00:00,00:00
30,18-09-2017,213,AJITH ASHOKAN,GS,08:52,19:58
31,18-09-2017,217,C.SHASHIDHAR,GS,00:00,00:00
32,18-09-2017,223,CHETAN.G.K,GS,15:37,17:52
33,18-09-2017,230,KEERTHI KUMAR.K.R,GS,11:24,18:30
34,18-09-2017,243,ABBUBAKARSIDEEK.K,GS,00:00,00:00
35,18-09-2017,250,YOGESH.A.N,GS,08:14,18:44
36,18-09-2017,252,SRILATHA BOLLADY,GS,09:26,18:15
37,18-09-2017,254,PAVAN KUMAR.H.N,GS,09:11,17:59
38,18-09-2017,257,CHANDRAPPA,GS,00:00,00:00
39,18-09-2017,262,REKHA,GS,09:00,18:00
40,18-09-2017,263,YOGESH GOWDA.M.L,GS,07:20,20:10
41,18-09-2017,265,NAGARAJ PRAKASH,GS,09:15,09:15
42,18-09-2017,268,AVIN KUMAR,GS,09:56,18:18
43,18-09-2017,269,PRADEEP.B.R,GS,00:00,00:00
44,18-09-2017,273,KUSHALA.G.V,GS,09:00,18:00
45,18-09-2017,274,Abhinandan.K.M,GS,00:00,00:00
46,18-09-2017,275,MANJU.B,GS,09:30,18:54
47,18-09-2017,277,N.CHANDRASHEKAR,GS,00:00,00:00
48,18-09-2017,279,MALLESH,GS,00:00,00:00
49,18-09-2017,282,NAVIN KUMAR.B.R,GS,00:00,00:00
50,18-09-2017,290,NARAYANA REDDY.M,GS,08:53,00:00
51,18-09-2017,293,VENKAT RAMANAIAH YETURU,GS,09:04,09:04
52,18-09-2017,296,NANDEESHA.K,GS,00:00,18:18
53,18-09-2017,300,KEMPARAJU.N.S,GS,09:02,19:00
54,18-09-2017,302,HARSHA KUMAR.H.R,GS,00:00,00:00
55,18-09-2017,303,PRITHVI KUMAR.C.A,GS,11:05,19:37
56,18-09-2017,304,SANTOSH NARAYAN,GS,11:11,16:52
57,18-09-2017,314,VIJAYASHREE.S.ANAND,GS,09:12,18:01
58,18-09-2017,317,MAHESH GOWDA.C.S,GS,00:00,00:00
59,18-09-2017,322,SURESH.K,GS,09:18,18:00
60,18-09-2017,323,CHELUVEGOWDA.H.S,GS,08:30,17:19
61,18-09-2017,327,BINDU RANI,GS,11:01,17:25
62,18-09-2017,328,DHANASHEKAR.M,GS,09:23,18:03
63,18-09-2017,330,THIMMAPPA,GS,00:00,00:00
64,18-09-2017,331,ALTAF,GS,09:00,18:00
65,18-09-2017,332,ANIL KUMAR.H.R,GS,00:00,17:10
66,18-09-2017,334,SHIVAPRASAD,GS,08:34,18:54
67,18-09-2017,324,Madan.V(NOT IN PAYROLL),GS,00:00,00:00
68,18-09-2017,336,SHWETHA.H.G,GS,09:16,19:39
69,18-09-2017,338,NANDINI.S.L,GS,08:50,18:11
70,18-09-2017,1010,RAMU.H.M,GS,00:00,00:00
71,18-09-2017,1011,NIRANJAN.K.B,GS,00:00,00:00
72,18-09-2017,189,K.N.RAJU,GS,00:00,00:00
73,18-09-2017,339,MADEVAPPA BHAJANTRI,GS,08:51,18:42
74,18-09-2017,5002,Madhu sudhan.B,GS,00:00,00:00
75,18-09-2017,5004,SHIVANNA JUNIOR,GS,09:00,18:00
76,18-09-2017,5005,Sarath kumar.R,GS,00:00,00:00
77,18-09-2017,5006,Ritish Kiran.,GS,00:00,00:00
78,18-09-2017,5007,Sanjay Prabhakar Balli,GS,00:00,00:00
79,18-09-2017,5008,Vinay.K.C,GS,00:00,00:00
80,18-09-2017,346,SARANDEEP.S,GS,00:00,00:00
81,18-09-2017,342,NETHRAVATHI.T,GS,09:11,19:38
82,18-09-2017,344,J.K.SRINIVASA,GS,10:06,18:32
83,18-09-2017,5015,SANDEEPA.V.P,GS,00:00,00:00
84,18-09-2017,347,DEEPAK.T.N,GS,00:00,00:00
85,18-09-2017,348,VINAY BHARGAVA.K.N,GS,00:00,00:00
86,18-09-2017,5016,Praveen kumar.H.M,GS,00:00,00:00
87,18-09-2017,351,RAGHUVEER.R,GS,09:07,18:37
88,18-09-2017,349,RATHNA,GS,09:00,18:00
89,18-09-2017,5017,NITHIN KUMAR K,GS,00:00,00:00
90,18-09-2017,5018,KIRAN.M,GS,00:00,00:00
91,18-09-2017,5019,NIVEDITHA,GS,09:11,17:41
92,18-09-2017,4001,ARPITHA.M,GS,09:00,18:00
