SNo,Date,E. Code,Name,Shift, InTime, OutTime
1,19-02-2018,123,K.N.SURENDRA,GS,09:00,18:00
2,19-02-2018,124,K.N.SOWMYA,GS,09:00,18:00
3,19-02-2018,125,K.N.BOREGOWDA,GS,09:00,18:00
4,19-02-2018,127,SRINIVAS.H.C,GS,09:00,18:51
5,19-02-2018,128,KUMAR.H.S,GS,09:00,18:00
6,19-02-2018,130,A.H.PRASAD KUMAR,GS,09:00,18:00
7,19-02-2018,131,GIRISH SHETTY,GS,08:56,18:13
8,19-02-2018,135,KUMAR.B.S,GS,09:00,18:25
9,19-02-2018,136,SUDHIR SHETTY,GS,09:14,18:06
10,19-02-2018,138,PRASANNA KUMAR.S,GS,00:00,18:17
11,19-02-2018,139,MITHUN.G.SHETTY,GS,00:00,00:00
12,19-02-2018,140,VENKATESH.K,GS,09:21,19:09
13,19-02-2018,143,JAGANNATH JAKKA,GS,00:00,00:00
14,19-02-2018,147,UMESH.B.V,GS,08:58,17:59
15,19-02-2018,157,SANTOSH.K.NAIK,GS,09:00,18:00
16,19-02-2018,158,NANJEGOWDA,GS,09:00,18:00
17,19-02-2018,170,VAISHNAVI.R.AITHAL,GS,08:37,18:58
18,19-02-2018,171,SHIVANNA,GS,09:00,19:00
19,19-02-2018,175,BHANUPRAKASH DG,GS,09:06,19:24
20,19-02-2018,197,SHIVA KUMAR.N,GS,00:00,00:00
21,19-02-2018,201,SUNIL KUMAR.B.B,GS,08:49,17:59
22,19-02-2018,202,MAHESH RAJ URS,GS,00:00,00:00
23,19-02-2018,207,PRIYA NAGARAJ,GS,00:00,00:00
24,19-02-2018,208,K.P.RAGHAVENDRA,GS,09:00,18:00
25,19-02-2018,210,KAVYA.B.K,GS,00:00,00:00
26,19-02-2018,211,BASAVARAJU.K.N,GS,09:00,18:00
27,19-02-2018,217,C.SHASHIDHAR,GS,00:00,00:00
28,19-02-2018,223,CHETAN.G.K,GS,00:00,00:00
29,19-02-2018,243,ABBUBAKARSIDEEK.K,GS,00:00,00:00
30,19-02-2018,250,YOGESH.A.N,GS,08:14,19:25
31,19-02-2018,252,SRILATHA BOLLADY,GS,09:03,18:10
32,19-02-2018,254,PAVAN KUMAR.H.N,GS,08:45,18:01
33,19-02-2018,257,CHANDRAPPA,GS,00:00,00:00
34,19-02-2018,262,REKHA,GS,09:00,18:00
35,19-02-2018,263,YOGESH GOWDA.M.L,GS,07:33,20:41
36,19-02-2018,265,NAGARAJ PRAKASH,GS,09:03,18:32
37,19-02-2018,268,AVIN KUMAR,GS,00:00,00:00
38,19-02-2018,269,PRADEEP.B.R,GS,00:00,00:00
39,19-02-2018,273,KUSHALA.G.V,GS,09:00,18:00
40,19-02-2018,274,Abhinandan.K.M,GS,09:47,18:47
41,19-02-2018,275,MANJU.B,GS,08:49,19:05
42,19-02-2018,279,MALLESH,GS,00:00,00:00
43,19-02-2018,282,NAVIN KUMAR.B.R,GS,00:00,00:00
44,19-02-2018,290,NARAYANA REDDY.M,GS,09:09,18:44
45,19-02-2018,293,VENKAT RAMANAIAH YETURU,GS,08:59,13:23
46,19-02-2018,296,NANDEESHA.K,GS,08:48,18:10
47,19-02-2018,302,HARSHA KUMAR.H.R,GS,00:00,00:00
48,19-02-2018,303,PRITHVI KUMAR.C.A,GS,10:26,17:01
49,19-02-2018,304,SANTOSH NARAYAN,GS,00:00,00:00
50,19-02-2018,314,VIJAYASHREE.S.ANAND,GS,09:06,18:03
51,19-02-2018,322,SURESH.K,GS,09:17,18:00
52,19-02-2018,323,CHELUVEGOWDA.H.S,GS,09:17,19:05
53,19-02-2018,327,BINDU RANI,GS,10:49,18:03
54,19-02-2018,328,DHANASHEKAR.M,GS,09:02,18:07
55,19-02-2018,331,ALTAF,GS,00:00,00:00
56,19-02-2018,332,ANIL KUMAR.H.R,GS,00:00,00:00
57,19-02-2018,334,SHIVAPRASAD,GS,00:00,00:00
58,19-02-2018,336,SHWETHA.H.G,GS,08:54,17:58
59,19-02-2018,1011,NIRANJAN.K.B,GS,00:00,00:00
60,19-02-2018,189,K.N.RAJU,GS,00:00,00:00
61,19-02-2018,339,MADEVAPPA BHAJANTRI,GS,08:54,19:06
62,19-02-2018,5002,Madhu sudhan.B,GS,00:00,00:00
63,19-02-2018,5004,SHIVANNA JUNIOR,GS,09:00,18:00
64,19-02-2018,5008,Vinay.K.C,GS,00:00,00:00
65,19-02-2018,346,SARANDEEP.S,GS,10:15,17:35
66,19-02-2018,342,NETHRAVATHI.T,GS,08:59,18:10
67,19-02-2018,344,J.K.SRINIVASA,GS,09:06,18:24
68,19-02-2018,5015,SANDEEPA.V.P,GS,00:00,00:00
69,19-02-2018,347,DEEPAK.T.N,GS,08:59,00:00
70,19-02-2018,348,VINAY BHARGAVA.K.N,GS,09:15,18:32
71,19-02-2018,5016,Praveen kumar.H.M,GS,00:00,00:00
72,19-02-2018,351,RAGHUVEER.R,GS,08:49,19:06
73,19-02-2018,349,RATHNA,GS,09:00,18:00
74,19-02-2018,5017,NITHIN KUMAR K,GS,00:00,00:00
75,19-02-2018,4002,CHAITRA.V,GS,00:00,00:00
76,19-02-2018,4003,B.BHAVYASHREE,GS,00:00,00:00
77,19-02-2018,4004,SANTOSHIMATA.S.B,GS,09:00,18:10
78,19-02-2018,5020,LAKSHMIKANTH.C.S,GS,00:00,00:00
79,19-02-2018,4005,KEMPEGOWDA.G,GS,09:00,18:00
80,19-02-2018,5021,MENAKA.N,GS,09:00,18:00
81,19-02-2018,5023,Kavya.B.S,GS,09:08,18:13
82,19-02-2018,5024,KARTHIK.R,GS,00:00,00:00
83,19-02-2018,5025,SHIVAKUMAR.M.S,GS,07:54,19:30
84,19-02-2018,5026,SUMANRAJ,GS,00:00,00:00
85,19-02-2018,354,AJITHKUMAR.Y.B,GS,09:31,18:24
86,19-02-2018,4008,RANJITHA,GS,08:54,17:57
87,19-02-2018,5027,MAHADEV,GS,08:14,19:31
88,19-02-2018,5028,AVILASH.P.G,GS,00:00,00:00
89,19-02-2018,5029,ABHISHEK ,GS,09:00,18:00
90,19-02-2018,5030,PRATHAP,GS,00:00,00:00
91,19-02-2018,355,RAJARAO,GS,09:00,18:08
92,19-02-2018,356,PUNITH KUMAR.K.M,GS,00:00,00:00
93,19-02-2018,5031,SANJAY,GS,08:59,18:27
94,19-02-2018,4009,RASHMITHA.S,GS,08:56,17:58
95,19-02-2018,4010,R.D.NANDINI,GS,09:13,18:06
96,19-02-2018,4011,RANJINI.K,GS,09:00,18:00
