SNo,Date,E. Code,Name,Shift, InTime, OutTime
1,19-6-16,123,K.N.SURENDRA,GS,0:00,0:00
2,19-6-16,124,K.N.SOWMYA,GS,0:00,0:00
3,19-6-16,125,K.N.BOREGOWDA,GS,0:00,0:00
4,19-6-16,127,SRINIVAS.H.C,GS,0:00,0:00
5,19-6-16,128,KUMAR.H.S,GS,0:00,0:00
6,19-6-16,130,A.H.PRASAD KUMAR,GS,0:00,0:00
7,19-6-16,131,GIRISH SHETTY,GS,0:00,0:00
8,19-6-16,135,KUMAR.B.S,GS,0:00,0:00
9,19-6-16,136,SUDHIR SHETTY,GS,0:00,0:00
10,19-6-16,138,PRASANNA KUMAR.S,GS,0:00,0:00
11,19-6-16,139,MITHUN.G.SHETTY,GS,7:24,16:45
12,19-6-16,140,VENKATESH.K,GS,0:00,0:00
13,19-6-16,143,JAGANNATH JAKKA,GS,10:55,0:00
14,19-6-16,147,UMESH.B.V,GS,0:00,0:00
15,19-6-16,149,C.V.HARISH,GS,7:25,15:35
16,19-6-16,152,CHANDRASHEKAR.M.B,GS,8:56,18:36
17,19-6-16,157,SANTOSH.K.NAIK,GS,6:30,18:28
18,19-6-16,158,NANJEGOWDA,GS,0:00,0:00
19,19-6-16,170,VAISHNAVI.R.AITHAL,GS,0:00,0:00
20,19-6-16,171,SHIVANNA,GS,8:44,20:30
21,19-6-16,172,BOREGOWDA,GS,0:00,0:00
22,19-6-16,175,BHANUPRAKASH DG,GS,0:00,0:00
23,19-6-16,188,RATHNA,GS,0:00,0:00
24,19-6-16,194,NANJAMANI,GS,0:00,0:00
25,19-6-16,195,RAVI IV,GS,0:00,0:00
26,19-6-16,197,SHIVA KUMAR.N,GS,9:58,18:25
27,19-6-16,199,HEMANTH.V.G,GS,5:30,18:00
28,19-6-16,201,SUNIL KUMAR.B.B,GS,0:00,0:00
29,19-6-16,202,MAHESH RAJ URS,GS,8:44,18:23
30,19-6-16,206,PRASANNA.N.M,GS,0:00,0:00
31,19-6-16,207,PRIYA NAGARAJ,GS,8:44,18:10
32,19-6-16,208,K.P.RAGHAVENDRA,GS,0:00,0:00
33,19-6-16,209,NAVEEN.B.L,GS,0:00,0:00
34,19-6-16,210,KAVYA.B.K,GS,9:42,18:07
35,19-6-16,211,BASAVARAJU.K.N,GS,9:15,19:22
36,19-6-16,213,AJITH ASHOKAN,GS,0:00,0:00
37,19-6-16,217,C.SHASHIDHAR,GS,8:47,16:51
38,19-6-16,218,KISHORE.B.N,GS,0:00,0:00
39,19-6-16,223,CHETAN.G.K,GS,0:00,0:00
40,19-6-16,230,KEERTHI KUMAR.K.R,GS,9:03,18:07
41,19-6-16,236,NANDEESH.G.H,GS,0:00,0:00
42,19-6-16,243,ABBUBAKARSIDEEK.K,GS,6:31,18:08
43,19-6-16,245,AVILASH.P.G,GS,0:00,0:00
44,19-6-16,249,DIVAKAR.N.N,GS,0:00,0:00
45,19-6-16,250,YOGESH.A.N,GS,8:26,18:26
46,19-6-16,252,SRILATHA BOLLADY,GS,0:00,0:00
47,19-6-16,254,PAVAN KUMAR.H.N,GS,0:00,0:00
48,19-6-16,257,CHANDRAPPA,GS,7:19,18:01
49,19-6-16,258,THIPPESWAMY.B.C,GS,0:00,0:00
50,19-6-16,259,KARTHIKEYA PATIL,GS,9:00,18:02
51,19-6-16,261,RAMU,GS,0:00,0:00
52,19-6-16,262,REKHA,GS,0:00,0:00
53,19-6-16,263,YOGESH GOWDA.M.L,GS,0:00,0:00
54,19-6-16,265,NAGARAJ PRAKASH,GS,0:00,0:00
55,19-6-16,269,PRADEEP.B.R,GS,6:28,15:32
56,19-6-16,270,MANJUNATH.R,GS,8:53,15:36
57,19-6-16,273,KUSHALA.G.V,GS,0:00,0:00
58,19-6-16,274,Abhinandan.K.M,GS,6:48,15:00
59,19-6-16,275,MANJU.B,GS,6:48,15:00
60,19-6-16,277,N.CHANDRAHEKAR,GS,9:00,18:02
61,19-6-16,279,MALLESH,GS,0:00,0:00
62,19-6-16,282,NAVIN KUMAR.B.R,GS,0:00,0:00
63,19-6-16,290,NARAYANA REDDY.M,GS,0:00,0:00
64,19-6-16,291,RAJANNA.A.C,GS,0:00,0:00
65,19-6-16,293,VENKAT RAMANAIAH YETURU,GS,0:00,0:00
66,19-6-16,295,SHIVARAJ.V.S,GS,0:00,0:00
67,19-6-16,296,NANDEESHA.K,GS,9:00,18:06
68,19-6-16,298,SHARATH.N,GS,9:38,18:02
69,19-6-16,300,KEMPARAJU.N.S,GS,0:00,0:00
70,19-6-16,301,PUNEETH.M.P,GS,0:00,0:00
71,19-6-16,302,HARSHA KUMAR.H.R,GS,0:00,0:00
72,19-6-16,303,PRITHVI KUMAR.C.A,GS,9:06,19:33
73,19-6-16,304,SANTOSH NARAYAN,GS,0:00,0:00
74,19-6-16,307,VIVEK KUMAR SHARMA,GS,0:00,0:00
75,19-6-16,309,MARY SHARLY,GS,8:55,18:07
76,19-6-16,311,RAKESH.A.M,GS,0:00,0:00
77,19-6-16,312,GAYATRI R BHAT,GS,0:00,0:00
78,19-6-16,313,SUSHMA.R,GS,0:00,0:00
79,19-6-16,314,VIJAYASHREE.S.ANAND,GS,0:00,0:00
80,19-6-16,315,BALAJI,GS,0:00,0:00
81,19-6-16,317,MAHESH GOWDA.C.S,GS,0:00,0:00
82,19-6-16,318,DHIRENDRA BHASKAR.H.P,GS,6:51,15:00
83,19-6-16,319,PRADEEP KUMAR.S.S,GS,0:00,0:00
84,19-6-16,320,RAJSHEKAR.C,GS,0:00,0:00
85,19-6-16,321,PALLAVI.K,GS,9:02,18:07
86,19-6-16,322,SURESH.K,GS,0:00,0:00
