SNo,Date,E. Code,Name,Shift, InTime, OutTime
1,18-6-16,123,K.N.SURENDRA,GS,9:00,18:00
2,18-6-16,124,K.N.SOWMYA,GS,9:00,18:00
3,18-6-16,125,K.N.BOREGOWDA,GS,9:00,18:00
4,18-6-16,127,SRINIVAS.H.C,GS,9:00,18:00
5,18-6-16,128,KUMAR.H.S,GS,9:00,18:00
6,18-6-16,130,A.H.PRASAD KUMAR,GS,9:00,18:00
7,18-6-16,131,GIRISH SHETTY,GS,8:49,18:18
8,18-6-16,135,KUMAR.B.S,GS,9:01,19:00
9,18-6-16,136,SUDHIR SHETTY,GS,9:24,18:33
10,18-6-16,138,PRASANNA KUMAR.S,GS,9:01,18:17
11,18-6-16,139,MITHUN.G.SHETTY,GS,8:32,18:12
12,18-6-16,140,VENKATESH.K,GS,0:00,0:00
13,18-6-16,143,JAGANNATH JAKKA,GS,0:00,0:00
14,18-6-16,147,UMESH.B.V,GS,0:00,0:00
15,18-6-16,149,C.V.HARISH,GS,7:30,18:02
16,18-6-16,152,CHANDRASHEKAR.M.B,GS,8:49,18:21
17,18-6-16,157,SANTOSH.K.NAIK,GS,6:04,23:00
18,18-6-16,158,NANJEGOWDA,GS,0:00,0:00
19,18-6-16,170,VAISHNAVI.R.AITHAL,GS,8:59,17:39
20,18-6-16,171,SHIVANNA,GS,9:25,19:39
21,18-6-16,172,BOREGOWDA,GS,8:36,17:57
22,18-6-16,175,BHANUPRAKASH DG,GS,9:03,20:03
23,18-6-16,188,RATHNA,GS,0:00,0:00
24,18-6-16,194,NANJAMANI,GS,8:58,17:59
25,18-6-16,195,RAVI IV,GS,8:49,18:33
26,18-6-16,197,SHIVA KUMAR.N,GS,9:06,19:54
27,18-6-16,199,HEMANTH.V.G,GS,0:00,0:00
28,18-6-16,201,SUNIL KUMAR.B.B,GS,8:59,17:53
29,18-6-16,202,MAHESH RAJ URS,GS,8:53,18:10
30,18-6-16,206,PRASANNA.N.M,GS,9:03,18:47
31,18-6-16,207,PRIYA NAGARAJ,GS,9:25,0:00
32,18-6-16,208,K.P.RAGHAVENDRA,GS,9:00,18:00
33,18-6-16,209,NAVEEN.B.L,GS,8:32,19:31
34,18-6-16,210,KAVYA.B.K,GS,9:37,19:21
35,18-6-16,211,BASAVARAJU.K.N,GS,9:16,19:22
36,18-6-16,213,AJITH ASHOKAN,GS,9:04,18:03
37,18-6-16,217,C.SHASHIDHAR,GS,8:31,18:11
38,18-6-16,218,KISHORE.B.N,GS,8:47,18:10
39,18-6-16,223,CHETAN.G.K,GS,8:46,18:04
40,18-6-16,230,KEERTHI KUMAR.K.R,GS,10:07,18:21
41,18-6-16,236,NANDEESH.G.H,GS,9:26,19:21
42,18-6-16,243,ABBUBAKARSIDEEK.K,GS,8:07,23:00
43,18-6-16,245,AVILASH.P.G,GS,8:50,18:05
44,18-6-16,249,DIVAKAR.N.N,GS,0:00,0:00
45,18-6-16,250,YOGESH.A.N,GS,8:16,20:00
46,18-6-16,252,SRILATHA BOLLADY,GS,9:25,18:32
47,18-6-16,254,PAVAN KUMAR.H.N,GS,0:00,0:00
48,18-6-16,257,CHANDRAPPA,GS,6:18,0:00
49,18-6-16,258,THIPPESWAMY.B.C,GS,9:06,18:03
50,18-6-16,259,KARTHIKEYA PATIL,GS,8:44,18:01
51,18-6-16,261,RAMU,GS,9:00,18:00
52,18-6-16,262,REKHA,GS,9:00,18:00
53,18-6-16,263,YOGESH GOWDA.M.L,GS,8:06,20:05
54,18-6-16,265,NAGARAJ PRAKASH,GS,8:57,18:03
55,18-6-16,269,PRADEEP.B.R,GS,8:38,23:00
56,18-6-16,270,MANJUNATH.R,GS,8:50,18:11
57,18-6-16,273,KUSHALA.G.V,GS,9:00,18:00
58,18-6-16,274,Abhinandan.K.M,GS,9:03,19:52
59,18-6-16,275,MANJU.B,GS,9:12,19:39
60,18-6-16,277,N.CHANDRAHEKAR,GS,8:36,18:00
61,18-6-16,279,MALLESH,GS,0:00,0:00
62,18-6-16,282,NAVIN KUMAR.B.R,GS,0:00,0:00
63,18-6-16,290,NARAYANA REDDY.M,GS,8:41,19:35
64,18-6-16,291,RAJANNA.A.C,GS,9:00,18:00
65,18-6-16,293,VENKAT RAMANAIAH YETURU,GS,8:40,19:08
66,18-6-16,295,SHIVARAJ.V.S,GS,9:42,13:24
67,18-6-16,296,NANDEESHA.K,GS,8:36,18:10
68,18-6-16,298,SHARATH.N,GS,9:44,18:00
69,18-6-16,300,KEMPARAJU.N.S,GS,0:00,0:00
70,18-6-16,301,PUNEETH.M.P,GS,9:00,18:00
71,18-6-16,302,HARSHA KUMAR.H.R,GS,0:00,0:00
72,18-6-16,303,PRITHVI KUMAR.C.A,GS,9:47,18:01
73,18-6-16,304,SANTOSH NARAYAN,GS,8:51,18:29
74,18-6-16,307,VIVEK KUMAR SHARMA,GS,0:00,0:00
75,18-6-16,309,MARY SHARLY,GS,13:29,18:04
76,18-6-16,311,RAKESH.A.M,GS,0:00,0:00
77,18-6-16,312,GAYATRI R BHAT,GS,9:27,18:31
78,18-6-16,313,SUSHMA.R,GS,0:00,0:00
79,18-6-16,314,VIJAYASHREE.S.ANAND,GS,9:07,18:03
80,18-6-16,315,BALAJI,GS,9:00,18:00
81,18-6-16,317,MAHESH GOWDA.C.S,GS,9:03,18:09
82,18-6-16,318,DHIRENDRA BHASKAR.H.P,GS,8:53,19:39
83,18-6-16,319,PRADEEP KUMAR.S.S,GS,9:03,19:39
84,18-6-16,320,RAJSHEKAR.C,GS,9:00,18:00
85,18-6-16,321,PALLAVI.K,GS,9:11,18:04
86,18-6-16,322,SURESH.K,GS,8:59,18:10
