SNo,Date,E. Code,Name,Shift, InTime, OutTime
1,19-03-2017,123,K.N.SURENDRA,GS,00:00,00:00
2,19-03-2017,124,K.N.SOWMYA,GS,00:00,00:00
3,19-03-2017,125,K.N.BOREGOWDA,GS,00:00,00:00
4,19-03-2017,127,SRINIVAS.H.C,GS,00:00,00:00
5,19-03-2017,128,KUMAR.H.S,GS,00:00,00:00
6,19-03-2017,130,A.H.PRASAD KUMAR,GS,00:00,00:00
7,19-03-2017,131,GIRISH SHETTY,GS,00:00,00:00
8,19-03-2017,135,KUMAR.B.S,GS,00:00,00:00
9,19-03-2017,136,SUDHIR SHETTY,GS,00:00,00:00
10,19-03-2017,138,PRASANNA KUMAR.S,GS,00:00,00:00
11,19-03-2017,139,MITHUN.G.SHETTY,GS,00:00,00:00
12,19-03-2017,140,VENKATESH.K,GS,08:42,18:36
13,19-03-2017,143,JAGANNATH JAKKA,GS,11:15,13:09
14,19-03-2017,147,UMESH.B.V,GS,00:00,00:00
15,19-03-2017,149,C.V.HARISH,GS,09:00,18:00
16,19-03-2017,152,CHANDRASHEKAR.M.B,GS,00:00,00:00
17,19-03-2017,157,SANTOSH.K.NAIK,GS,00:00,00:00
18,19-03-2017,158,NANJEGOWDA,GS,00:00,00:00
19,19-03-2017,170,VAISHNAVI.R.AITHAL,GS,00:00,00:00
20,19-03-2017,171,SHIVANNA,GS,17:29,17:50
21,19-03-2017,175,BHANUPRAKASH DG,GS,00:00,00:00
22,19-03-2017,188,RATHNA,GS,00:00,00:00
23,19-03-2017,197,SHIVA KUMAR.N,GS,00:00,00:00
24,19-03-2017,199,HEMANTH.V.G,GS,00:00,00:00
25,19-03-2017,201,SUNIL KUMAR.B.B,GS,00:00,00:00
26,19-03-2017,202,MAHESH RAJ URS,GS,00:00,00:00
27,19-03-2017,206,PRASANNA.N.M,GS,00:00,00:00
28,19-03-2017,207,PRIYA NAGARAJ,GS,00:00,00:00
29,19-03-2017,208,K.P.RAGHAVENDRA,GS,00:00,00:00
30,19-03-2017,210,KAVYA.B.K,GS,00:00,00:00
31,19-03-2017,211,BASAVARAJU.K.N,GS,00:00,00:00
32,19-03-2017,213,AJITH ASHOKAN,GS,00:00,00:00
33,19-03-2017,217,C.SHASHIDHAR,GS,00:00,00:00
34,19-03-2017,218,KISHORE.B.N,GS,00:00,00:00
35,19-03-2017,223,CHETAN.G.K,GS,00:00,00:00
36,19-03-2017,230,KEERTHI KUMAR.K.R,GS,00:00,00:00
37,19-03-2017,243,ABBUBAKARSIDEEK.K,GS,00:00,00:00
38,19-03-2017,245,AVILASH.P.G,GS,00:00,00:00
39,19-03-2017,250,YOGESH.A.N,GS,00:00,00:00
40,19-03-2017,252,SRILATHA BOLLADY,GS,09:36,18:35
41,19-03-2017,254,PAVAN KUMAR.H.N,GS,00:00,00:00
42,19-03-2017,257,CHANDRAPPA,GS,00:00,00:00
43,19-03-2017,258,THIPPESWAMY.B.C,GS,00:00,00:00
44,19-03-2017,262,REKHA,GS,00:00,00:00
45,19-03-2017,263,YOGESH GOWDA.M.L,GS,00:00,00:00
46,19-03-2017,265,NAGARAJ PRAKASH,GS,00:00,00:00
47,19-03-2017,268,AVIN KUMAR,GS,00:00,00:00
48,19-03-2017,269,PRADEEP.B.R,GS,00:00,00:00
49,19-03-2017,270,MANJUNATH.R,GS,00:00,00:00
50,19-03-2017,273,KUSHALA.G.V,GS,00:00,00:00
51,19-03-2017,274,Abhinandan.K.M,GS,00:00,00:00
52,19-03-2017,275,MANJU.B,GS,00:00,00:00
53,19-03-2017,277,N.CHANDRASHEKAR,GS,00:00,00:00
54,19-03-2017,279,MALLESH,GS,00:00,00:00
55,19-03-2017,282,NAVIN KUMAR.B.R,GS,00:00,00:00
56,19-03-2017,290,NARAYANA REDDY.M,GS,00:00,00:00
57,19-03-2017,293,VENKAT RAMANAIAH YETURU,GS,00:00,00:00
58,19-03-2017,296,NANDEESHA.K,GS,00:00,00:00
59,19-03-2017,300,KEMPARAJU.N.S,GS,00:00,00:00
60,19-03-2017,302,HARSHA KUMAR.H.R,GS,00:00,00:00
61,19-03-2017,303,PRITHVI KUMAR.C.A,GS,00:00,00:00
62,19-03-2017,304,SANTOSH NARAYAN,GS,10:25,18:33
63,19-03-2017,311,RAKESH.A.M,GS,00:00,00:00
64,19-03-2017,314,VIJAYASHREE.S.ANAND,GS,00:00,00:00
65,19-03-2017,315,BALAJI,GS,00:00,00:00
66,19-03-2017,317,MAHESH GOWDA.C.S,GS,00:00,00:00
67,19-03-2017,321,PALLAVI.K,GS,09:06,18:15
68,19-03-2017,322,SURESH.K,GS,00:00,00:00
69,19-03-2017,323,CHELUVEGOWDA.H.S,GS,00:00,00:00
70,19-03-2017,327,BINDU RANI,GS,00:00,00:00
71,19-03-2017,328,DHANASHEKAR.M,GS,00:00,00:00
72,19-03-2017,329,Kaliprasad(NOT IN PAYROLL),GS,00:00,00:00
73,19-03-2017,330,THIMMAPPA,GS,00:00,00:00
74,19-03-2017,331,ALTAF,GS,00:00,00:00
75,19-03-2017,332,ANIL KUMAR.H.R,GS,00:00,00:00
76,19-03-2017,334,SHIVAPRASAD,GS,00:00,00:00
77,19-03-2017,324,Madan.V(NOT IN PAYROLL),GS,00:00,00:00
78,19-03-2017,336,SHWETHA.H.G,GS,09:16,18:15
79,19-03-2017,338,NANDINI.S.L,GS,00:00,00:00
80,19-03-2017,1010,RAMU.H.M,GS,00:00,00:00
81,19-03-2017,1011,NIRANJAN.K.B,GS,00:00,00:00
82,19-03-2017,189,K.N.RAJU,GS,00:00,00:00
83,19-03-2017,339,MADEVAPPA BHAJANTRI,GS,00:00,00:00
