SNo,Date,E. Code,Name,Shift, InTime, OutTime
1,19-04-2017,123,K.N.SURENDRA,GS,09:00,18:00
2,19-04-2017,124,K.N.SOWMYA,GS,09:00,18:00
3,19-04-2017,125,K.N.BOREGOWDA,GS,09:00,18:00
4,19-04-2017,127,SRINIVAS.H.C,GS,09:00,18:00
5,19-04-2017,128,KUMAR.H.S,GS,09:00,18:00
6,19-04-2017,130,A.H.PRASAD KUMAR,GS,09:00,18:00
7,19-04-2017,131,GIRISH SHETTY,GS,08:51,18:17
8,19-04-2017,135,KUMAR.B.S,GS,09:14,18:10
9,19-04-2017,136,SUDHIR SHETTY,GS,09:51,16:09
10,19-04-2017,138,PRASANNA KUMAR.S,GS,00:00,00:00
11,19-04-2017,139,MITHUN.G.SHETTY,GS,08:59,20:06
12,19-04-2017,140,VENKATESH.K,GS,00:00,00:00
13,19-04-2017,143,JAGANNATH JAKKA,GS,00:00,00:00
14,19-04-2017,147,UMESH.B.V,GS,09:02,18:10
15,19-04-2017,149,C.V.HARISH,GS,09:00,18:00
16,19-04-2017,152,CHANDRASHEKAR.M.B,GS,00:00,00:00
17,19-04-2017,157,SANTOSH.K.NAIK,GS,00:00,00:00
18,19-04-2017,158,NANJEGOWDA,GS,09:00,18:00
19,19-04-2017,170,VAISHNAVI.R.AITHAL,GS,08:57,18:33
20,19-04-2017,171,SHIVANNA,GS,08:30,17:57
21,19-04-2017,175,BHANUPRAKASH DG,GS,08:43,15:45
22,19-04-2017,197,SHIVA KUMAR.N,GS,09:04,13:06
23,19-04-2017,199,HEMANTH.V.G,GS,11:40,13:18
24,19-04-2017,201,SUNIL KUMAR.B.B,GS,09:00,18:13
25,19-04-2017,202,MAHESH RAJ URS,GS,00:00,00:00
26,19-04-2017,206,PRASANNA.N.M,GS,00:00,00:00
27,19-04-2017,207,PRIYA NAGARAJ,GS,14:41,18:20
28,19-04-2017,208,K.P.RAGHAVENDRA,GS,09:00,18:00
29,19-04-2017,210,KAVYA.B.K,GS,09:42,18:57
30,19-04-2017,211,BASAVARAJU.K.N,GS,00:00,00:00
31,19-04-2017,213,AJITH ASHOKAN,GS,09:05,18:01
32,19-04-2017,217,C.SHASHIDHAR,GS,00:00,00:00
33,19-04-2017,218,KISHORE.B.N,GS,00:00,00:00
34,19-04-2017,223,CHETAN.G.K,GS,13:14,17:10
35,19-04-2017,230,KEERTHI KUMAR.K.R,GS,00:00,20:06
36,19-04-2017,243,ABBUBAKARSIDEEK.K,GS,00:00,00:00
37,19-04-2017,245,AVILASH.P.G,GS,00:00,00:00
38,19-04-2017,250,YOGESH.A.N,GS,08:04,18:48
39,19-04-2017,252,SRILATHA BOLLADY,GS,09:04,20:11
40,19-04-2017,254,PAVAN KUMAR.H.N,GS,09:04,18:21
41,19-04-2017,257,CHANDRAPPA,GS,00:00,00:00
42,19-04-2017,258,THIPPESWAMY.B.C,GS,00:00,00:00
43,19-04-2017,262,REKHA,GS,09:00,18:00
44,19-04-2017,263,YOGESH GOWDA.M.L,GS,06:57,20:32
45,19-04-2017,265,NAGARAJ PRAKASH,GS,09:17,18:15
46,19-04-2017,268,AVIN KUMAR,GS,00:00,00:00
47,19-04-2017,269,PRADEEP.B.R,GS,00:00,00:00
48,19-04-2017,270,MANJUNATH.R,GS,00:00,00:00
49,19-04-2017,273,KUSHALA.G.V,GS,09:00,18:00
50,19-04-2017,274,Abhinandan.K.M,GS,09:03,18:35
51,19-04-2017,275,MANJU.B,GS,09:09,18:53
52,19-04-2017,277,N.CHANDRASHEKAR,GS,00:00,00:00
53,19-04-2017,279,MALLESH,GS,00:00,00:00
54,19-04-2017,282,NAVIN KUMAR.B.R,GS,00:00,00:00
55,19-04-2017,290,NARAYANA REDDY.M,GS,08:50,18:11
56,19-04-2017,293,VENKAT RAMANAIAH YETURU,GS,08:54,11:56
57,19-04-2017,296,NANDEESHA.K,GS,00:00,00:00
58,19-04-2017,300,KEMPARAJU.N.S,GS,08:59,18:28
59,19-04-2017,302,HARSHA KUMAR.H.R,GS,00:00,00:00
60,19-04-2017,303,PRITHVI KUMAR.C.A,GS,09:45,09:45
61,19-04-2017,304,SANTOSH NARAYAN,GS,09:53,20:11
62,19-04-2017,314,VIJAYASHREE.S.ANAND,GS,00:00,00:00
63,19-04-2017,315,BALAJI,GS,09:00,18:00
64,19-04-2017,317,MAHESH GOWDA.C.S,GS,00:00,00:00
65,19-04-2017,321,PALLAVI.K,GS,09:09,18:18
66,19-04-2017,322,SURESH.K,GS,09:40,18:18
67,19-04-2017,323,CHELUVEGOWDA.H.S,GS,08:36,18:14
68,19-04-2017,327,BINDU RANI,GS,00:00,00:00
69,19-04-2017,328,DHANASHEKAR.M,GS,10:10,18:05
70,19-04-2017,329,Kaliprasad(NOT IN PAYROLL),GS,00:00,00:00
71,19-04-2017,330,THIMMAPPA,GS,00:00,00:00
72,19-04-2017,331,ALTAF,GS,09:00,18:00
73,19-04-2017,332,ANIL KUMAR.H.R,GS,00:00,00:00
74,19-04-2017,334,SHIVAPRASAD,GS,08:47,18:40
75,19-04-2017,324,Madan.V(NOT IN PAYROLL),GS,00:00,00:00
76,19-04-2017,336,SHWETHA.H.G,GS,00:00,00:00
77,19-04-2017,338,NANDINI.S.L,GS,09:06,18:53
78,19-04-2017,1010,RAMU.H.M,GS,07:41,19:17
79,19-04-2017,1011,NIRANJAN.K.B,GS,00:00,00:00
80,19-04-2017,189,K.N.RAJU,GS,00:00,00:00
81,19-04-2017,339,MADEVAPPA BHAJANTRI,GS,08:18,20:28
82,19-04-2017,5001,M.N.Manjunath,GS,00:00,00:00
83,19-04-2017,5002,Madhu sudhan.B,GS,09:00,18:00
84,19-04-2017,5004,SHIVANNA JUNIOR,GS,09:00,18:00
