SNo,Date,E. Code,Name,Shift, InTime, OutTime
1,19-06-2017,123,K.N.SURENDRA,GS,09:00,18:00
2,19-06-2017,124,K.N.SOWMYA,GS,09:00,18:00
3,19-06-2017,125,K.N.BOREGOWDA,GS,09:00,18:00
4,19-06-2017,127,SRINIVAS.H.C,GS,09:00,18:00
5,19-06-2017,128,KUMAR.H.S,GS,09:00,18:00
6,19-06-2017,130,A.H.PRASAD KUMAR,GS,09:00,18:00
7,19-06-2017,131,GIRISH SHETTY,GS,08:52,18:26
8,19-06-2017,135,KUMAR.B.S,GS,09:03,18:37
9,19-06-2017,136,SUDHIR SHETTY,GS,09:22,18:26
10,19-06-2017,138,PRASANNA KUMAR.S,GS,00:00,00:00
11,19-06-2017,139,MITHUN.G.SHETTY,GS,08:32,19:07
12,19-06-2017,140,VENKATESH.K,GS,10:07,19:44
13,19-06-2017,143,JAGANNATH JAKKA,GS,00:00,00:00
14,19-06-2017,147,UMESH.B.V,GS,08:58,18:21
15,19-06-2017,149,C.V.HARISH,GS,09:00,18:00
16,19-06-2017,157,SANTOSH.K.NAIK,GS,00:00,00:00
17,19-06-2017,158,NANJEGOWDA,GS,09:00,18:00
18,19-06-2017,170,VAISHNAVI.R.AITHAL,GS,08:47,19:04
19,19-06-2017,171,SHIVANNA,GS,09:20,18:00
20,19-06-2017,175,BHANUPRAKASH DG,GS,08:55,19:07
21,19-06-2017,197,SHIVA KUMAR.N,GS,07:40,18:37
22,19-06-2017,199,HEMANTH.V.G,GS,09:00,18:31
23,19-06-2017,201,SUNIL KUMAR.B.B,GS,09:39,00:00
24,19-06-2017,202,MAHESH RAJ URS,GS,00:00,00:00
25,19-06-2017,206,PRASANNA.N.M,GS,00:00,00:00
26,19-06-2017,207,PRIYA NAGARAJ,GS,00:00,00:00
27,19-06-2017,208,K.P.RAGHAVENDRA,GS,09:00,18:00
28,19-06-2017,210,KAVYA.B.K,GS,10:03,19:19
29,19-06-2017,211,BASAVARAJU.K.N,GS,00:00,00:00
30,19-06-2017,213,AJITH ASHOKAN,GS,08:57,19:19
31,19-06-2017,217,C.SHASHIDHAR,GS,00:00,00:00
32,19-06-2017,218,KISHORE.B.N,GS,00:00,00:00
33,19-06-2017,223,CHETAN.G.K,GS,13:05,00:00
34,19-06-2017,230,KEERTHI KUMAR.K.R,GS,08:57,19:00
35,19-06-2017,243,ABBUBAKARSIDEEK.K,GS,00:00,00:00
36,19-06-2017,250,YOGESH.A.N,GS,08:13,18:44
37,19-06-2017,252,SRILATHA BOLLADY,GS,13:57,18:55
38,19-06-2017,254,PAVAN KUMAR.H.N,GS,08:45,18:25
39,19-06-2017,257,CHANDRAPPA,GS,00:00,00:00
40,19-06-2017,258,THIPPESWAMY.B.C,GS,09:12,17:54
41,19-06-2017,262,REKHA,GS,09:00,18:00
42,19-06-2017,263,YOGESH GOWDA.M.L,GS,07:15,20:09
43,19-06-2017,265,NAGARAJ PRAKASH,GS,09:15,18:26
44,19-06-2017,268,AVIN KUMAR,GS,00:00,18:11
45,19-06-2017,269,PRADEEP.B.R,GS,00:00,00:00
46,19-06-2017,273,KUSHALA.G.V,GS,09:00,18:44
47,19-06-2017,274,Abhinandan.K.M,GS,07:40,18:37
48,19-06-2017,275,MANJU.B,GS,09:31,18:28
49,19-06-2017,277,N.CHANDRASHEKAR,GS,00:00,00:00
50,19-06-2017,279,MALLESH,GS,00:00,00:00
51,19-06-2017,282,NAVIN KUMAR.B.R,GS,00:00,00:00
52,19-06-2017,290,NARAYANA REDDY.M,GS,09:05,18:12
53,19-06-2017,293,VENKAT RAMANAIAH YETURU,GS,08:56,00:00
54,19-06-2017,296,NANDEESHA.K,GS,00:00,00:00
55,19-06-2017,300,KEMPARAJU.N.S,GS,09:01,18:26
56,19-06-2017,302,HARSHA KUMAR.H.R,GS,00:00,18:59
57,19-06-2017,303,PRITHVI KUMAR.C.A,GS,10:25,18:34
58,19-06-2017,304,SANTOSH NARAYAN,GS,13:57,18:56
59,19-06-2017,314,VIJAYASHREE.S.ANAND,GS,08:35,18:06
60,19-06-2017,317,MAHESH GOWDA.C.S,GS,09:38,18:37
61,19-06-2017,321,PALLAVI.K,GS,00:00,00:00
62,19-06-2017,322,SURESH.K,GS,09:25,18:21
63,19-06-2017,323,CHELUVEGOWDA.H.S,GS,08:56,18:07
64,19-06-2017,327,BINDU RANI,GS,10:48,18:01
65,19-06-2017,328,DHANASHEKAR.M,GS,09:10,18:55
66,19-06-2017,330,THIMMAPPA,GS,00:00,00:00
67,19-06-2017,331,ALTAF,GS,09:00,18:00
68,19-06-2017,332,ANIL KUMAR.H.R,GS,09:02,18:30
69,19-06-2017,334,SHIVAPRASAD,GS,08:50,18:59
70,19-06-2017,324,Madan.V,GS,00:00,00:00
71,19-06-2017,336,SHWETHA.H.G,GS,09:04,00:00
72,19-06-2017,338,NANDINI.S.L,GS,09:12,18:36
73,19-06-2017,1010,RAMU.H.M,GS,00:00,00:00
74,19-06-2017,1011,NIRANJAN.K.B,GS,00:00,00:00
75,19-06-2017,189,K.N.RAJU,GS,00:00,00:00
76,19-06-2017,339,MADEVAPPA BHAJANTRI,GS,08:47,20:02
77,19-06-2017,5002,Madhu sudhan.B,GS,09:00,18:00
78,19-06-2017,5004,SHIVANNA JUNIOR,GS,09:00,18:00
79,19-06-2017,5005,Sarath kumar.R,GS,09:00,18:00
80,19-06-2017,5006,Ritish Kiran.,GS,09:00,18:00
81,19-06-2017,5007,Sanjay Prabhakar Balli,GS,09:00,18:00
82,19-06-2017,5008,Vinay.K.C,GS,09:00,18:00
83,19-06-2017,5010,SARANDEEP.S,GS,09:04,18:33
84,19-06-2017,5011,NETHRAVATHI.T,GS,09:04,10:57
