SNo,Date,E. Code,Name,Shift, InTime, OutTime
1,20-12-2016,123,K.N.SURENDRA,GS,09:00,18:00
2,20-12-2016,124,K.N.SOWMYA,GS,09:00,18:00
3,20-12-2016,125,K.N.BOREGOWDA,GS,09:00,18:00
4,20-12-2016,127,SRINIVAS.H.C,GS,09:00,18:00
5,20-12-2016,128,KUMAR.H.S,GS,09:00,18:00
6,20-12-2016,130,A.H.PRASAD KUMAR,GS,09:00,18:00
7,20-12-2016,131,GIRISH SHETTY,GS,08:55,18:45
8,20-12-2016,135,KUMAR.B.S,GS,09:24,18:08
9,20-12-2016,136,SUDHIR SHETTY,GS,09:22,17:41
10,20-12-2016,138,PRASANNA KUMAR.S,GS,08:51,00:00
11,20-12-2016,139,MITHUN.G.SHETTY,GS,00:00,00:00
12,20-12-2016,140,VENKATESH.K,GS,10:14,19:50
13,20-12-2016,143,JAGANNATH JAKKA,GS,11:25,20:15
14,20-12-2016,147,UMESH.B.V,GS,00:00,00:00
15,20-12-2016,149,C.V.HARISH,GS,09:00,18:00
16,20-12-2016,152,CHANDRASHEKAR.M.B,GS,09:00,18:00
17,20-12-2016,157,SANTOSH.K.NAIK,GS,08:35,19:02
18,20-12-2016,158,NANJEGOWDA,GS,09:00,18:00
19,20-12-2016,170,VAISHNAVI.R.AITHAL,GS,09:13,18:25
20,20-12-2016,171,SHIVANNA,GS,00:00,00:00
21,20-12-2016,175,BHANUPRAKASH DG,GS,09:49,18:45
22,20-12-2016,188,RATHNA,GS,09:00,18:00
23,20-12-2016,197,SHIVA KUMAR.N,GS,09:01,20:10
24,20-12-2016,199,HEMANTH.V.G,GS,09:00,18:00
25,20-12-2016,201,SUNIL KUMAR.B.B,GS,08:47,18:23
26,20-12-2016,202,MAHESH RAJ URS,GS,00:00,00:00
27,20-12-2016,206,PRASANNA.N.M,GS,00:00,17:15
28,20-12-2016,207,PRIYA NAGARAJ,GS,09:16,20:12
29,20-12-2016,208,K.P.RAGHAVENDRA,GS,09:00,18:00
30,20-12-2016,210,KAVYA.B.K,GS,09:36,19:30
31,20-12-2016,211,BASAVARAJU.K.N,GS,09:20,19:25
32,20-12-2016,213,AJITH ASHOKAN,GS,09:00,20:30
33,20-12-2016,217,C.SHASHIDHAR,GS,00:00,00:00
34,20-12-2016,218,KISHORE.B.N,GS,09:00,18:00
35,20-12-2016,223,CHETAN.G.K,GS,09:00,18:00
36,20-12-2016,230,KEERTHI KUMAR.K.R,GS,08:52,18:45
37,20-12-2016,243,ABBUBAKARSIDEEK.K,GS,08:53,18:16
38,20-12-2016,245,AVILASH.P.G,GS,09:00,18:00
39,20-12-2016,250,YOGESH.A.N,GS,08:19,18:56
40,20-12-2016,252,SRILATHA BOLLADY,GS,09:10,19:21
41,20-12-2016,254,PAVAN KUMAR.H.N,GS,00:00,00:00
42,20-12-2016,257,CHANDRAPPA,GS,07:00,18:14
43,20-12-2016,258,THIPPESWAMY.B.C,GS,09:18,17:57
44,20-12-2016,259,KARTHIKEYA PATIL,GS,00:00,00:00
45,20-12-2016,261,RAMU,GS,09:00,18:00
46,20-12-2016,262,REKHA,GS,09:00,18:00
47,20-12-2016,263,YOGESH GOWDA.M.L,GS,07:19,20:52
48,20-12-2016,265,NAGARAJ PRAKASH,GS,00:00,00:00
49,20-12-2016,268,AVIN KUMAR,GS,00:00,00:00
50,20-12-2016,269,PRADEEP.B.R,GS,09:03,18:04
51,20-12-2016,270,MANJUNATH.R,GS,09:00,18:00
52,20-12-2016,273,KUSHALA.G.V,GS,09:00,18:10
53,20-12-2016,274,Abhinandan.K.M,GS,08:52,19:51
54,20-12-2016,275,MANJU.B,GS,09:29,18:36
55,20-12-2016,277,N.CHANDRASHEKAR,GS,00:00,00:00
56,20-12-2016,279,MALLESH,GS,09:00,18:00
57,20-12-2016,282,NAVIN KUMAR.B.R,GS,08:35,19:11
58,20-12-2016,290,NARAYANA REDDY.M,GS,08:56,18:38
59,20-12-2016,291,RAJANNA.A.C,GS,00:00,00:00
60,20-12-2016,293,VENKAT RAMANAIAH YETURU,GS,09:00,18:37
61,20-12-2016,296,NANDEESHA.K,GS,08:58,18:05
62,20-12-2016,300,KEMPARAJU.N.S,GS,00:00,00:00
63,20-12-2016,301,PUNEETH.M.P,GS,09:00,18:00
64,20-12-2016,302,HARSHA KUMAR.H.R,GS,09:00,18:00
65,20-12-2016,303,PRITHVI KUMAR.C.A,GS,00:00,00:00
66,20-12-2016,304,SANTOSH NARAYAN,GS,09:44,13:56
67,20-12-2016,309,MARY SHARLY,GS,00:00,00:00
68,20-12-2016,311,RAKESH.A.M,GS,09:00,18:00
69,20-12-2016,314,VIJAYASHREE.S.ANAND,GS,09:06,19:40
70,20-12-2016,315,BALAJI,GS,09:00,18:00
71,20-12-2016,317,MAHESH GOWDA.C.S,GS,08:54,18:04
72,20-12-2016,318,DHIRENDRA BHASKAR.H.P,GS,08:50,19:11
73,20-12-2016,319,PRADEEP KUMAR.S.S,GS,09:08,18:54
74,20-12-2016,321,PALLAVI.K,GS,00:00,00:00
75,20-12-2016,322,SURESH.K,GS,09:12,18:07
76,20-12-2016,323,CHELUVEGOWDA.H.S,GS,08:54,19:11
77,20-12-2016,327,BINDU RANI,GS,14:05,17:48
78,20-12-2016,328,DHANASHEKAR.M,GS,09:14,18:07
79,20-12-2016,329,Kaliprasad(NOT IN PAYROLL),GS,09:00,18:00
80,20-12-2016,330,THIMMAPPA,GS,00:00,00:00
81,20-12-2016,331,ALTAF,GS,09:00,18:00
82,20-12-2016,332,ANIL KUMAR.H.R,GS,08:48,18:30
83,20-12-2016,334,SHIVAPRASAD,GS,08:32,18:54
84,20-12-2016,324,Madan.V(NOT IN PAYROLL),GS,09:00,18:00
85,20-12-2016,249,DIVAKAR.N.M,GS,00:00,00:00
86,20-12-2016,336,SHWETHA.H.G,GS,09:17,18:04
87,20-12-2016,337,K.O.SREEDHAR,GS,09:02,20:20
88,20-12-2016,338,NANDINI.S.L,GS,09:09,18:12
89,20-12-2016,1010,RAMU.H.M,GS,00:00,00:00
,,,,,09:00,18:00
