SNo,Date,E. Code,Name,Shift, InTime, OutTime
1,22-02-2017,123,K.N.SURENDRA,GS,09:00,18:00
2,22-02-2017,124,K.N.SOWMYA,GS,09:00,18:00
3,22-02-2017,125,K.N.BOREGOWDA,GS,09:00,18:00
4,22-02-2017,127,SRINIVAS.H.C,GS,09:00,18:00
5,22-02-2017,128,KUMAR.H.S,GS,09:00,18:00
6,22-02-2017,130,A.H.PRASAD KUMAR,GS,09:00,18:00
7,22-02-2017,131,GIRISH SHETTY,GS,09:04,18:01
8,22-02-2017,135,KUMAR.B.S,GS,09:01,18:14
9,22-02-2017,136,SUDHIR SHETTY,GS,09:13,18:39
10,22-02-2017,138,PRASANNA KUMAR.S,GS,09:08,09:08
11,22-02-2017,139,MITHUN.G.SHETTY,GS,00:00,18:43
12,22-02-2017,140,VENKATESH.K,GS,09:48,00:00
13,22-02-2017,143,JAGANNATH JAKKA,GS,08:53,00:00
14,22-02-2017,147,UMESH.B.V,GS,00:00,00:00
15,22-02-2017,149,C.V.HARISH,GS,09:00,18:00
16,22-02-2017,152,CHANDRASHEKAR.M.B,GS,00:00,00:00
17,22-02-2017,157,SANTOSH.K.NAIK,GS,00:00,00:00
18,22-02-2017,158,NANJEGOWDA,GS,09:00,18:00
19,22-02-2017,170,VAISHNAVI.R.AITHAL,GS,08:51,18:24
20,22-02-2017,171,SHIVANNA,GS,08:57,17:40
21,22-02-2017,175,BHANUPRAKASH DG,GS,00:00,00:00
22,22-02-2017,188,RATHNA,GS,09:00,18:00
23,22-02-2017,197,SHIVA KUMAR.N,GS,09:10,13:25
24,22-02-2017,199,HEMANTH.V.G,GS,09:00,19:20
25,22-02-2017,201,SUNIL KUMAR.B.B,GS,09:10,18:20
26,22-02-2017,202,MAHESH RAJ URS,GS,00:00,00:00
27,22-02-2017,206,PRASANNA.N.M,GS,00:00,00:00
28,22-02-2017,207,PRIYA NAGARAJ,GS,13:27,17:02
29,22-02-2017,208,K.P.RAGHAVENDRA,GS,09:00,18:00
30,22-02-2017,210,KAVYA.B.K,GS,09:54,18:57
31,22-02-2017,211,BASAVARAJU.K.N,GS,00:00,00:00
32,22-02-2017,213,AJITH ASHOKAN,GS,09:00,18:08
33,22-02-2017,217,C.SHASHIDHAR,GS,00:00,00:00
34,22-02-2017,218,KISHORE.B.N,GS,09:00,18:00
35,22-02-2017,223,CHETAN.G.K,GS,09:00,18:00
36,22-02-2017,230,KEERTHI KUMAR.K.R,GS,00:00,00:00
37,22-02-2017,243,ABBUBAKARSIDEEK.K,GS,00:00,00:00
38,22-02-2017,245,AVILASH.P.G,GS,00:00,00:00
39,22-02-2017,250,YOGESH.A.N,GS,07:38,19:44
40,22-02-2017,252,SRILATHA BOLLADY,GS,09:05,19:18
41,22-02-2017,254,PAVAN KUMAR.H.N,GS,08:23,18:09
42,22-02-2017,257,CHANDRAPPA,GS,00:00,00:00
43,22-02-2017,258,THIPPESWAMY.B.C,GS,09:12,18:01
44,22-02-2017,261,RAMU,GS,00:00,00:00
45,22-02-2017,262,REKHA,GS,09:00,18:00
46,22-02-2017,263,YOGESH GOWDA.M.L,GS,00:00,00:00
47,22-02-2017,265,NAGARAJ PRAKASH,GS,08:47,18:08
48,22-02-2017,268,AVIN KUMAR,GS,00:00,17:58
49,22-02-2017,269,PRADEEP.B.R,GS,00:00,00:00
50,22-02-2017,270,MANJUNATH.R,GS,00:00,00:00
51,22-02-2017,273,KUSHALA.G.V,GS,09:00,18:00
52,22-02-2017,274,Abhinandan.K.M,GS,09:10,00:00
53,22-02-2017,275,MANJU.B,GS,09:19,18:39
54,22-02-2017,277,N.CHANDRASHEKAR,GS,00:00,00:00
55,22-02-2017,279,MALLESH,GS,00:00,00:00
56,22-02-2017,282,NAVIN KUMAR.B.R,GS,00:00,00:00
57,22-02-2017,290,NARAYANA REDDY.M,GS,08:59,18:14
58,22-02-2017,293,VENKAT RAMANAIAH YETURU,GS,08:49,19:46
59,22-02-2017,296,NANDEESHA.K,GS,00:00,00:00
60,22-02-2017,300,KEMPARAJU.N.S,GS,08:51,17:48
61,22-02-2017,301,PUNEETH.M.P,GS,09:00,18:00
62,22-02-2017,302,HARSHA KUMAR.H.R,GS,09:00,18:00
63,22-02-2017,303,PRITHVI KUMAR.C.A,GS,00:00,00:00
64,22-02-2017,304,SANTOSH NARAYAN,GS,11:52,19:31
65,22-02-2017,311,RAKESH.A.M,GS,09:00,18:00
66,22-02-2017,314,VIJAYASHREE.S.ANAND,GS,09:14,18:03
67,22-02-2017,315,BALAJI,GS,09:00,18:00
68,22-02-2017,317,MAHESH GOWDA.C.S,GS,08:58,18:13
69,22-02-2017,321,PALLAVI.K,GS,09:08,18:04
70,22-02-2017,322,SURESH.K,GS,09:12,18:10
71,22-02-2017,323,CHELUVEGOWDA.H.S,GS,08:55,17:26
72,22-02-2017,327,BINDU RANI,GS,11:13,17:18
73,22-02-2017,328,DHANASHEKAR.M,GS,09:06,18:42
74,22-02-2017,329,Kaliprasad(NOT IN PAYROLL),GS,09:00,18:00
75,22-02-2017,330,THIMMAPPA,GS,00:00,00:00
76,22-02-2017,331,ALTAF,GS,00:00,00:00
77,22-02-2017,332,ANIL KUMAR.H.R,GS,00:00,00:00
78,22-02-2017,334,SHIVAPRASAD,GS,08:36,18:11
79,22-02-2017,324,Madan.V(NOT IN PAYROLL),GS,09:00,18:00
80,22-02-2017,336,SHWETHA.H.G,GS,00:00,00:00
81,22-02-2017,337,K.O.SREEDHAR,GS,00:00,00:00
82,22-02-2017,338,NANDINI.S.L,GS,09:01,18:09
83,22-02-2017,1010,RAMU.H.M,GS,07:31,19:46
84,22-02-2017,1011,NIRANJAN.K.B,GS,00:00,00:00
