SNo,Date,E. Code,Name,Shift, InTime, OutTime
1,20-01-2018,123,K.N.SURENDRA,GS,09:00,18:00
2,20-01-2018,124,K.N.SOWMYA,GS,09:00,18:00
3,20-01-2018,125,K.N.BOREGOWDA,GS,09:00,18:00
4,20-01-2018,127,SRINIVAS.H.C,GS,09:00,18:40
5,20-01-2018,128,KUMAR.H.S,GS,09:00,18:00
6,20-01-2018,130,A.H.PRASAD KUMAR,GS,09:00,18:00
7,20-01-2018,131,GIRISH SHETTY,GS,09:00,18:08
8,20-01-2018,135,KUMAR.B.S,GS,09:15,18:12
9,20-01-2018,136,SUDHIR SHETTY,GS,09:23,17:59
10,20-01-2018,138,PRASANNA KUMAR.S,GS,09:10,19:10
11,20-01-2018,139,MITHUN.G.SHETTY,GS,00:00,00:00
12,20-01-2018,140,VENKATESH.K,GS,09:40,19:09
13,20-01-2018,143,JAGANNATH JAKKA,GS,00:00,00:00
14,20-01-2018,147,UMESH.B.V,GS,09:24,17:52
15,20-01-2018,149,C.V.HARISH,GS,00:00,00:00
16,20-01-2018,157,SANTOSH.K.NAIK,GS,08:37,19:56
17,20-01-2018,158,NANJEGOWDA,GS,00:00,00:00
18,20-01-2018,170,VAISHNAVI.R.AITHAL,GS,09:02,18:35
19,20-01-2018,171,SHIVANNA,GS,09:04,18:00
20,20-01-2018,175,BHANUPRAKASH DG,GS,08:49,19:17
21,20-01-2018,197,SHIVA KUMAR.N,GS,09:01,00:00
22,20-01-2018,201,SUNIL KUMAR.B.B,GS,09:11,17:59
23,20-01-2018,202,MAHESH RAJ URS,GS,00:00,00:00
24,20-01-2018,206,PRASANNA.N.M,GS,00:00,00:00
25,20-01-2018,207,PRIYA NAGARAJ,GS,09:35,18:35
26,20-01-2018,208,K.P.RAGHAVENDRA,GS,09:00,18:00
27,20-01-2018,210,KAVYA.B.K,GS,09:38,19:19
28,20-01-2018,211,BASAVARAJU.K.N,GS,10:01,19:11
29,20-01-2018,213,AJITH ASHOKAN,GS,09:05,18:00
30,20-01-2018,217,C.SHASHIDHAR,GS,08:52,18:42
31,20-01-2018,223,CHETAN.G.K,GS,00:00,00:00
32,20-01-2018,243,ABBUBAKARSIDEEK.K,GS,08:55,18:09
33,20-01-2018,250,YOGESH.A.N,GS,08:20,18:59
34,20-01-2018,252,SRILATHA BOLLADY,GS,09:08,18:31
35,20-01-2018,254,PAVAN KUMAR.H.N,GS,08:52,17:43
36,20-01-2018,257,CHANDRAPPA,GS,00:00,00:00
37,20-01-2018,262,REKHA,GS,09:00,18:00
38,20-01-2018,263,YOGESH GOWDA.M.L,GS,07:31,21:04
39,20-01-2018,265,NAGARAJ PRAKASH,GS,09:10,18:00
40,20-01-2018,268,AVIN KUMAR,GS,00:00,00:00
41,20-01-2018,269,PRADEEP.B.R,GS,00:00,00:00
42,20-01-2018,273,KUSHALA.G.V,GS,09:00,18:00
43,20-01-2018,274,Abhinandan.K.M,GS,00:00,00:00
44,20-01-2018,275,MANJU.B,GS,09:25,18:03
45,20-01-2018,279,MALLESH,GS,08:39,18:42
46,20-01-2018,282,NAVIN KUMAR.B.R,GS,08:39,18:02
47,20-01-2018,290,NARAYANA REDDY.M,GS,08:52,18:05
48,20-01-2018,293,VENKAT RAMANAIAH YETURU,GS,08:30,18:19
49,20-01-2018,296,NANDEESHA.K,GS,09:06,00:00
50,20-01-2018,302,HARSHA KUMAR.H.R,GS,08:41,19:06
51,20-01-2018,303,PRITHVI KUMAR.C.A,GS,00:00,00:00
52,20-01-2018,304,SANTOSH NARAYAN,GS,10:24,18:30
53,20-01-2018,314,VIJAYASHREE.S.ANAND,GS,09:13,18:03
54,20-01-2018,317,MAHESH GOWDA.C.S,GS,08:46,16:40
55,20-01-2018,322,SURESH.K,GS,09:15,17:55
56,20-01-2018,323,CHELUVEGOWDA.H.S,GS,08:58,18:10
57,20-01-2018,327,BINDU RANI,GS,11:09,18:03
58,20-01-2018,328,DHANASHEKAR.M,GS,09:07,18:15
59,20-01-2018,330,THIMMAPPA,GS,00:00,00:00
60,20-01-2018,331,ALTAF,GS,08:55,18:09
61,20-01-2018,332,ANIL KUMAR.H.R,GS,10:57,18:12
62,20-01-2018,334,SHIVAPRASAD,GS,08:27,18:56
63,20-01-2018,336,SHWETHA.H.G,GS,09:15,18:15
64,20-01-2018,1011,NIRANJAN.K.B,GS,09:04,18:04
65,20-01-2018,189,K.N.RAJU,GS,08:55,18:59
66,20-01-2018,339,MADEVAPPA BHAJANTRI,GS,08:41,18:19
67,20-01-2018,5002,Madhu sudhan.B,GS,00:00,00:00
68,20-01-2018,5004,SHIVANNA JUNIOR,GS,09:00,18:00
69,20-01-2018,5006,Ritish Kiran.,GS,00:00,00:00
70,20-01-2018,5008,Vinay.K.C,GS,08:47,19:08
71,20-01-2018,346,SARANDEEP.S,GS,10:02,00:00
72,20-01-2018,342,NETHRAVATHI.T,GS,09:08,18:15
73,20-01-2018,344,J.K.SRINIVASA,GS,08:51,18:11
74,20-01-2018,5015,SANDEEPA.V.P,GS,09:04,18:03
75,20-01-2018,347,DEEPAK.T.N,GS,09:03,18:05
76,20-01-2018,348,VINAY BHARGAVA.K.N,GS,09:10,18:25
77,20-01-2018,5016,Praveen kumar.H.M,GS,08:36,19:08
78,20-01-2018,351,RAGHUVEER.R,GS,08:56,18:04
79,20-01-2018,349,RATHNA,GS,09:00,18:00
80,20-01-2018,5017,NITHIN KUMAR K,GS,00:00,00:00
81,20-01-2018,4002,CHAITRA.V,GS,09:23,18:36
82,20-01-2018,4003,B.BHAVYASHREE,GS,00:00,00:00
83,20-01-2018,4004,SANTOSHIMATA.S.B,GS,09:29,18:18
84,20-01-2018,5020,LAKSHMIKANTH.C.S,GS,08:39,18:01
85,20-01-2018,4005,KEMPEGOWDA.G,GS,09:00,18:00
86,20-01-2018,5021,MENAKA.N,GS,00:00,00:00
87,20-01-2018,5023,Kavya.B.S,GS,09:21,18:06
88,20-01-2018,5024,KARTHIK.R,GS,08:47,00:00
89,20-01-2018,5025,SHIVAKUMAR.M.S,GS,07:58,18:34
90,20-01-2018,5026,SUMANRAJ,GS,00:00,00:00
91,20-01-2018,5027,MAHADEV,GS,00:00,00:00
92,20-01-2018,354,AJITHKUMAR.Y.B,GS,00:00,00:00
93,20-01-2018,4006,APOORVA,GS,00:00,00:00
94,20-01-2018,4007,AMRUTHA,GS,09:19,18:17
95,20-01-2018,4008,RANJITHA,GS,09:06,18:20
96,20-01-2018,5027,MAHADEV,GS,09:11,14:54
