SNo,Date,E. Code,Name,Shift, InTime, OutTime
1,19-11-2016,123,K.N.SURENDRA,GS,09:00,18:00
2,19-11-2016,124,K.N.SOWMYA,GS,09:00,18:00
3,19-11-2016,125,K.N.BOREGOWDA,GS,09:00,18:00
4,19-11-2016,127,SRINIVAS.H.C,GS,09:00,18:00
5,19-11-2016,128,KUMAR.H.S,GS,09:00,18:00
6,19-11-2016,130,A.H.PRASAD KUMAR,GS,09:00,18:00
7,19-11-2016,131,GIRISH SHETTY,GS,09:05,18:06
8,19-11-2016,135,KUMAR.B.S,GS,09:07,17:53
9,19-11-2016,136,SUDHIR SHETTY,GS,09:35,18:30
10,19-11-2016,138,PRASANNA KUMAR.S,GS,09:12,00:00
11,19-11-2016,139,MITHUN.G.SHETTY,GS,09:00,19:27
12,19-11-2016,140,VENKATESH.K,GS,00:00,00:00
13,19-11-2016,143,JAGANNATH JAKKA,GS,00:00,18:30
14,19-11-2016,147,UMESH.B.V,GS,09:12,18:26
15,19-11-2016,149,C.V.HARISH,GS,07:25,18:00
16,19-11-2016,152,CHANDRASHEKAR.M.B,GS,09:00,18:00
17,19-11-2016,157,SANTOSH.K.NAIK,GS,08:57,18:05
18,19-11-2016,158,NANJEGOWDA,GS,09:00,18:00
19,19-11-2016,170,VAISHNAVI.R.AITHAL,GS,09:08,18:03
20,19-11-2016,171,SHIVANNA,GS,09:19,19:31
21,19-11-2016,175,BHANUPRAKASH DG,GS,08:54,18:11
22,19-11-2016,188,RATHNA,GS,09:00,18:00
23,19-11-2016,197,SHIVA KUMAR.N,GS,09:05,20:45
24,19-11-2016,199,HEMANTH.V.G,GS,00:00,00:00
25,19-11-2016,201,SUNIL KUMAR.B.B,GS,08:57,00:00
26,19-11-2016,202,MAHESH RAJ URS,GS,08:45,17:39
27,19-11-2016,206,PRASANNA.N.M,GS,09:05,18:00
28,19-11-2016,207,PRIYA NAGARAJ,GS,10:35,18:22
29,19-11-2016,208,K.P.RAGHAVENDRA,GS,09:00,18:00
30,19-11-2016,210,KAVYA.B.K,GS,09:47,18:31
31,19-11-2016,211,BASAVARAJU.K.N,GS,09:20,18:51
32,19-11-2016,213,AJITH ASHOKAN,GS,09:02,18:02
33,19-11-2016,217,C.SHASHIDHAR,GS,08:39,18:02
34,19-11-2016,218,KISHORE.B.N,GS,09:00,18:00
35,19-11-2016,223,CHETAN.G.K,GS,09:00,18:00
36,19-11-2016,230,KEERTHI KUMAR.K.R,GS,09:00,18:00
37,19-11-2016,243,ABBUBAKARSIDEEK.K,GS,09:00,18:15
38,19-11-2016,245,AVILASH.P.G,GS,00:00,00:00
39,19-11-2016,250,YOGESH.A.N,GS,08:16,18:24
40,19-11-2016,252,SRILATHA BOLLADY,GS,09:10,18:09
41,19-11-2016,254,PAVAN KUMAR.H.N,GS,09:02,17:53
42,19-11-2016,257,CHANDRAPPA,GS,08:31,18:11
43,19-11-2016,258,THIPPESWAMY.B.C,GS,09:10,17:51
44,19-11-2016,259,KARTHIKEYA PATIL,GS,09:04,17:59
45,19-11-2016,261,RAMU,GS,09:00,18:00
46,19-11-2016,262,REKHA,GS,09:00,18:00
47,19-11-2016,263,YOGESH GOWDA.M.L,GS,07:35,20:47
48,19-11-2016,265,NAGARAJ PRAKASH,GS,09:14,18:02
49,19-11-2016,268,AVIN KUMAR,GS,08:43,17:39
50,19-11-2016,269,PRADEEP.B.R,GS,00:00,00:00
51,19-11-2016,270,MANJUNATH.R,GS,07:23,00:00
52,19-11-2016,273,KUSHALA.G.V,GS,09:00,18:00
53,19-11-2016,274,Abhinandan.K.M,GS,09:05,00:00
54,19-11-2016,275,MANJU.B,GS,08:58,14:18
55,19-11-2016,277,N.CHANDRASHEKAR,GS,09:01,17:59
56,19-11-2016,279,MALLESH,GS,09:00,18:00
57,19-11-2016,282,NAVIN KUMAR.B.R,GS,09:00,18:00
58,19-11-2016,290,NARAYANA REDDY.M,GS,09:05,18:08
59,19-11-2016,291,RAJANNA.A.C,GS,09:02,18:07
60,19-11-2016,293,VENKAT RAMANAIAH YETURU,GS,08:49,18:52
61,19-11-2016,296,NANDEESHA.K,GS,09:04,17:54
62,19-11-2016,300,KEMPARAJU.N.S,GS,00:00,00:00
63,19-11-2016,301,PUNEETH.M.P,GS,09:00,18:00
64,19-11-2016,302,HARSHA KUMAR.H.R,GS,09:00,18:00
65,19-11-2016,303,PRITHVI KUMAR.C.A,GS,09:57,17:55
66,19-11-2016,304,SANTOSH NARAYAN,GS,16:37,18:09
67,19-11-2016,309,MARY SHARLY,GS,09:02,17:46
68,19-11-2016,311,RAKESH.A.M,GS,00:00,00:00
69,19-11-2016,314,VIJAYASHREE.S.ANAND,GS,09:10,18:16
70,19-11-2016,315,BALAJI,GS,09:00,18:00
71,19-11-2016,317,MAHESH GOWDA.C.S,GS,08:52,18:00
72,19-11-2016,318,DHIRENDRA BHASKAR.H.P,GS,07:47,18:54
73,19-11-2016,319,PRADEEP KUMAR.S.S,GS,00:00,00:00
74,19-11-2016,320,RAJSHEKAR.C,GS,09:00,18:00
75,19-11-2016,321,PALLAVI.K,GS,09:23,18:06
76,19-11-2016,322,SURESH.K,GS,09:18,18:15
77,19-11-2016,323,CHELUVEGOWDA.H.S,GS,08:52,17:40
78,19-11-2016,327,BINDU RANI,GS,10:56,17:33
79,19-11-2016,328,DHANASHEKAR.M,GS,09:07,18:03
80,19-11-2016,329,Kaliprasad(NOT IN PAYROLL),GS,09:00,18:00
81,19-11-2016,330,THIMMAPPA,GS,08:21,18:04
82,19-11-2016,331,ALTAF,GS,09:00,18:00
83,19-11-2016,332,ANIL KUMAR.H.R,GS,09:04,18:17
84,19-11-2016,333,CHETAN.S,GS,08:20,17:36
85,19-11-2016,334,SHIVAPRASAD,GS,08:52,18:05
86,19-11-2016,324,Madan.V,GS,09:00,18:00
87,19-11-2016,249,DIVAKAR.N.M,GS,09:14,18:15
88,19-11-2016,336,SHWETHA.H.G,GS,09:08,18:06
89,19-11-2016,337,SRIDHAR,GS,09:03,18:01
90,19-11-2016,338,NANDINI.S.L,GS,00:00,00:00
