SNo,Date,E. Code,Name,Shift, InTime, OutTime
1,23-01-2017,123,K.N.SURENDRA,GS,09:00,18:00
2,23-01-2017,124,K.N.SOWMYA,GS,09:00,18:00
3,23-01-2017,125,K.N.BOREGOWDA,GS,09:00,18:00
4,23-01-2017,127,SRINIVAS.H.C,GS,09:00,18:00
5,23-01-2017,128,KUMAR.H.S,GS,09:00,18:00
6,23-01-2017,130,A.H.PRASAD KUMAR,GS,09:00,18:00
7,23-01-2017,131,GIRISH SHETTY,GS,09:01,18:32
8,23-01-2017,135,KUMAR.B.S,GS,09:04,19:19
9,23-01-2017,136,SUDHIR SHETTY,GS,09:32,18:30
10,23-01-2017,138,PRASANNA KUMAR.S,GS,09:04,00:00
11,23-01-2017,139,MITHUN.G.SHETTY,GS,09:21,19:32
12,23-01-2017,140,VENKATESH.K,GS,10:31,21:03
13,23-01-2017,143,JAGANNATH JAKKA,GS,09:45,00:00
14,23-01-2017,147,UMESH.B.V,GS,09:14,18:50
15,23-01-2017,149,C.V.HARISH,GS,09:00,18:00
16,23-01-2017,152,CHANDRASHEKAR.M.B,GS,09:00,18:00
17,23-01-2017,157,SANTOSH.K.NAIK,GS,09:07,00:00
18,23-01-2017,158,NANJEGOWDA,GS,09:00,18:00
19,23-01-2017,170,VAISHNAVI.R.AITHAL,GS,09:05,18:19
20,23-01-2017,171,SHIVANNA,GS,09:20,19:20
21,23-01-2017,175,BHANUPRAKASH DG,GS,09:29,18:11
22,23-01-2017,188,RATHNA,GS,09:00,18:00
23,23-01-2017,197,SHIVA KUMAR.N,GS,01:18,07:40
24,23-01-2017,199,HEMANTH.V.G,GS,11:43,19:55
25,23-01-2017,201,SUNIL KUMAR.B.B,GS,08:56,18:30
26,23-01-2017,202,MAHESH RAJ URS,GS,09:05,00:00
27,23-01-2017,206,PRASANNA.N.M,GS,09:00,11:46
28,23-01-2017,207,PRIYA NAGARAJ,GS,10:20,18:52
29,23-01-2017,208,K.P.RAGHAVENDRA,GS,09:00,18:00
30,23-01-2017,210,KAVYA.B.K,GS,09:35,18:58
31,23-01-2017,211,BASAVARAJU.K.N,GS,09:52,00:00
32,23-01-2017,213,AJITH ASHOKAN,GS,08:58,18:24
33,23-01-2017,217,C.SHASHIDHAR,GS,08:46,00:00
34,23-01-2017,218,KISHORE.B.N,GS,09:00,18:00
35,23-01-2017,223,CHETAN.G.K,GS,09:00,18:00
36,23-01-2017,230,KEERTHI KUMAR.K.R,GS,00:00,00:00
37,23-01-2017,243,ABBUBAKARSIDEEK.K,GS,00:00,00:00
38,23-01-2017,245,AVILASH.P.G,GS,09:00,18:00
39,23-01-2017,250,YOGESH.A.N,GS,07:55,13:02
40,23-01-2017,252,SRILATHA BOLLADY,GS,09:14,18:38
41,23-01-2017,254,PAVAN KUMAR.H.N,GS,08:49,14:20
42,23-01-2017,257,CHANDRAPPA,GS,00:00,00:00
43,23-01-2017,258,THIPPESWAMY.B.C,GS,09:15,17:58
44,23-01-2017,259,KARTHIKEYA PATIL,GS,09:03,00:00
45,23-01-2017,261,RAMU,GS,09:00,18:00
46,23-01-2017,262,REKHA,GS,09:00,18:00
47,23-01-2017,263,YOGESH GOWDA.M.L,GS,07:58,21:34
48,23-01-2017,265,NAGARAJ PRAKASH,GS,09:00,18:17
49,23-01-2017,268,AVIN KUMAR,GS,09:05,00:00
50,23-01-2017,269,PRADEEP.B.R,GS,00:00,00:00
51,23-01-2017,270,MANJUNATH.R,GS,09:00,18:00
52,23-01-2017,273,KUSHALA.G.V,GS,00:00,00:00
53,23-01-2017,274,Abhinandan.K.M,GS,07:47,00:00
54,23-01-2017,275,MANJU.B,GS,08:00,20:48
55,23-01-2017,277,N.CHANDRASHEKAR,GS,09:01,00:00
56,23-01-2017,279,MALLESH,GS,09:00,18:00
57,23-01-2017,282,NAVIN KUMAR.B.R,GS,09:09,00:00
58,23-01-2017,290,NARAYANA REDDY.M,GS,09:06,19:14
59,23-01-2017,293,VENKAT RAMANAIAH YETURU,GS,09:21,11:33
60,23-01-2017,296,NANDEESHA.K,GS,09:03,00:00
61,23-01-2017,300,KEMPARAJU.N.S,GS,09:01,18:17
62,23-01-2017,301,PUNEETH.M.P,GS,09:00,18:00
63,23-01-2017,302,HARSHA KUMAR.H.R,GS,09:00,18:00
64,23-01-2017,303,PRITHVI KUMAR.C.A,GS,10:36,13:04
65,23-01-2017,304,SANTOSH NARAYAN,GS,11:20,20:21
66,23-01-2017,311,RAKESH.A.M,GS,00:00,00:00
67,23-01-2017,314,VIJAYASHREE.S.ANAND,GS,09:19,18:35
68,23-01-2017,315,BALAJI,GS,09:00,18:00
69,23-01-2017,317,MAHESH GOWDA.C.S,GS,09:36,18:50
70,23-01-2017,318,DHIRENDRA BHASKAR.H.P,GS,00:00,00:00
71,23-01-2017,319,PRADEEP KUMAR.S.S,GS,00:00,00:00
72,23-01-2017,321,PALLAVI.K,GS,09:09,18:11
73,23-01-2017,322,SURESH.K,GS,09:28,18:44
74,23-01-2017,323,CHELUVEGOWDA.H.S,GS,09:06,17:23
75,23-01-2017,327,BINDU RANI,GS,10:40,18:09
76,23-01-2017,328,DHANASHEKAR.M,GS,08:56,18:11
77,23-01-2017,329,Kaliprasad,GS,09:00,18:00
78,23-01-2017,330,THIMMAPPA,GS,08:58,00:00
79,23-01-2017,331,ALTAF,GS,08:48,00:00
80,23-01-2017,332,ANIL KUMAR.H.R,GS,00:00,00:00
81,23-01-2017,334,SHIVAPRASAD,GS,08:45,19:22
82,23-01-2017,324,Madan.V,GS,09:00,18:00
83,23-01-2017,249,DIVAKAR.N.M,GS,00:00,00:00
84,23-01-2017,336,SHWETHA.H.G,GS,09:19,18:05
85,23-01-2017,337,K.O.SREEDHAR,GS,08:00,10:13
86,23-01-2017,338,NANDINI.S.L,GS,09:16,18:33
87,23-01-2017,1010,RAMU.H.M,GS,07:55,19:26
88,23-01-2017,1011,NIRANJAN.K.B,GS,08:46,00:00
