SNo,Date,E. Code,Name,Shift, InTime, OutTime
1,23-10-2017,123,K.N.SURENDRA,GS,09:00,18:00
2,23-10-2017,124,K.N.SOWMYA,GS,09:00,18:00
3,23-10-2017,125,K.N.BOREGOWDA,GS,09:00,18:00
4,23-10-2017,127,SRINIVAS.H.C,GS,09:00,18:00
5,23-10-2017,128,KUMAR.H.S,GS,09:00,18:00
6,23-10-2017,130,A.H.PRASAD KUMAR,GS,09:00,18:00
7,23-10-2017,131,GIRISH SHETTY,GS,00:00,00:00
8,23-10-2017,135,KUMAR.B.S,GS,09:08,19:03
9,23-10-2017,136,SUDHIR SHETTY,GS,00:00,00:00
10,23-10-2017,138,PRASANNA KUMAR.S,GS,09:32,19:16
11,23-10-2017,139,MITHUN.G.SHETTY,GS,08:40,19:25
12,23-10-2017,140,VENKATESH.K,GS,10:01,10:01
13,23-10-2017,143,JAGANNATH JAKKA,GS,09:19,00:00
14,23-10-2017,147,UMESH.B.V,GS,09:11,18:07
15,23-10-2017,149,C.V.HARISH,GS,00:00,00:00
16,23-10-2017,157,SANTOSH.K.NAIK,GS,00:00,00:00
17,23-10-2017,158,NANJEGOWDA,GS,00:00,00:00
18,23-10-2017,170,VAISHNAVI.R.AITHAL,GS,08:43,18:11
19,23-10-2017,171,SHIVANNA,GS,09:09,17:21
20,23-10-2017,175,BHANUPRAKASH DG,GS,08:29,18:20
21,23-10-2017,197,SHIVA KUMAR.N,GS,09:11,19:59
22,23-10-2017,199,HEMANTH.V.G,GS,00:00,00:00
23,23-10-2017,201,SUNIL KUMAR.B.B,GS,09:07,18:13
24,23-10-2017,202,MAHESH RAJ URS,GS,00:00,00:00
25,23-10-2017,206,PRASANNA.N.M,GS,14:35,19:16
26,23-10-2017,207,PRIYA NAGARAJ,GS,09:12,18:13
27,23-10-2017,208,K.P.RAGHAVENDRA,GS,00:00,00:00
28,23-10-2017,210,KAVYA.B.K,GS,00:00,00:00
29,23-10-2017,211,BASAVARAJU.K.N,GS,00:00,00:00
30,23-10-2017,213,AJITH ASHOKAN,GS,09:07,19:22
31,23-10-2017,217,C.SHASHIDHAR,GS,00:00,00:00
32,23-10-2017,223,CHETAN.G.K,GS,00:00,00:00
33,23-10-2017,243,ABBUBAKARSIDEEK.K,GS,00:00,00:00
34,23-10-2017,250,YOGESH.A.N,GS,07:54,18:44
35,23-10-2017,252,SRILATHA BOLLADY,GS,09:21,19:21
36,23-10-2017,254,PAVAN KUMAR.H.N,GS,08:49,18:13
37,23-10-2017,257,CHANDRAPPA,GS,00:00,00:00
38,23-10-2017,262,REKHA,GS,09:00,18:00
39,23-10-2017,263,YOGESH GOWDA.M.L,GS,06:54,20:44
40,23-10-2017,265,NAGARAJ PRAKASH,GS,09:14,18:52
41,23-10-2017,268,AVIN KUMAR,GS,00:00,00:00
42,23-10-2017,269,PRADEEP.B.R,GS,00:00,18:15
43,23-10-2017,273,KUSHALA.G.V,GS,09:00,18:00
44,23-10-2017,274,Abhinandan.K.M,GS,08:59,20:17
45,23-10-2017,275,MANJU.B,GS,09:21,18:12
46,23-10-2017,277,N.CHANDRASHEKAR,GS,00:00,00:00
47,23-10-2017,279,MALLESH,GS,00:00,00:00
48,23-10-2017,282,NAVIN KUMAR.B.R,GS,00:00,00:00
49,23-10-2017,290,NARAYANA REDDY.M,GS,09:18,18:03
50,23-10-2017,293,VENKAT RAMANAIAH YETURU,GS,08:33,19:04
51,23-10-2017,296,NANDEESHA.K,GS,00:00,00:00
52,23-10-2017,300,KEMPARAJU.N.S,GS,08:13,18:43
53,23-10-2017,302,HARSHA KUMAR.H.R,GS,00:00,00:00
54,23-10-2017,303,PRITHVI KUMAR.C.A,GS,10:34,10:55
55,23-10-2017,304,SANTOSH NARAYAN,GS,13:29,19:21
56,23-10-2017,314,VIJAYASHREE.S.ANAND,GS,09:10,18:08
57,23-10-2017,317,MAHESH GOWDA.C.S,GS,00:00,00:00
58,23-10-2017,322,SURESH.K,GS,09:21,18:10
59,23-10-2017,323,CHELUVEGOWDA.H.S,GS,08:18,18:10
60,23-10-2017,327,BINDU RANI,GS,11:07,17:46
61,23-10-2017,328,DHANASHEKAR.M,GS,10:56,18:25
62,23-10-2017,330,THIMMAPPA,GS,00:00,00:00
63,23-10-2017,331,ALTAF,GS,09:00,18:00
64,23-10-2017,332,ANIL KUMAR.H.R,GS,00:00,18:21
65,23-10-2017,334,SHIVAPRASAD,GS,08:39,17:59
66,23-10-2017,324,Madan.V(NOT IN PAYROLL),GS,09:00,18:00
67,23-10-2017,336,SHWETHA.H.G,GS,09:11,11:04
68,23-10-2017,338,NANDINI.S.L,GS,09:06,19:15
69,23-10-2017,1011,NIRANJAN.K.B,GS,00:00,00:00
70,23-10-2017,189,K.N.RAJU,GS,00:00,00:00
71,23-10-2017,339,MADEVAPPA BHAJANTRI,GS,09:04,18:32
72,23-10-2017,5002,Madhu sudhan.B,GS,00:00,00:00
73,23-10-2017,5004,SHIVANNA JUNIOR,GS,09:00,18:00
74,23-10-2017,5005,Sarath kumar.R,GS,00:00,00:00
75,23-10-2017,5006,Ritish Kiran.,GS,00:00,00:00
76,23-10-2017,5008,Vinay.K.C,GS,00:00,00:00
77,23-10-2017,346,SARANDEEP.S,GS,00:00,00:00
78,23-10-2017,342,NETHRAVATHI.T,GS,09:21,18:26
79,23-10-2017,344,J.K.SRINIVASA,GS,08:12,18:48
80,23-10-2017,5015,SANDEEPA.V.P,GS,00:00,17:57
81,23-10-2017,347,DEEPAK.T.N,GS,10:00,19:04
82,23-10-2017,348,VINAY BHARGAVA.K.N,GS,09:10,19:21
83,23-10-2017,5016,Praveen kumar.H.M,GS,00:00,00:00
84,23-10-2017,351,RAGHUVEER.R,GS,09:02,17:59
85,23-10-2017,349,RATHNA,GS,09:00,18:00
86,23-10-2017,5017,NITHIN KUMAR K,GS,09:27,00:00
87,23-10-2017,5018,KIRAN.M,GS,00:00,00:00
88,23-10-2017,5019,NIVEDITHA.K.S,GS,09:06,18:19
89,23-10-2017,4001,ARPITHA.M,GS,09:06,18:19
90,23-10-2017,4002,CHAITRA.V,GS,00:00,00:00
91,23-10-2017,4003,B.BHAVYASHREE,GS,09:15,18:33
92,23-10-2017,4004,SANTOSHIMATA.S.B,GS,09:15,18:33
