SNo,Date,E. Code,Name,Shift, InTime, OutTime
1,22-09-2017,123,K.N.SURENDRA,GS,09:00,18:00
2,22-09-2017,124,K.N.SOWMYA,GS,09:00,18:00
3,22-09-2017,125,K.N.BOREGOWDA,GS,09:00,18:00
4,22-09-2017,127,SRINIVAS.H.C,GS,09:00,18:00
5,22-09-2017,128,KUMAR.H.S,GS,09:00,18:00
6,22-09-2017,130,A.H.PRASAD KUMAR,GS,09:00,18:00
7,22-09-2017,131,GIRISH SHETTY,GS,08:53,18:08
8,22-09-2017,135,KUMAR.B.S,GS,09:14,19:36
9,22-09-2017,136,SUDHIR SHETTY,GS,09:25,18:39
10,22-09-2017,138,PRASANNA KUMAR.S,GS,09:17,19:02
11,22-09-2017,139,MITHUN.G.SHETTY,GS,08:55,00:00
12,22-09-2017,140,VENKATESH.K,GS,10:36,18:19
13,22-09-2017,143,JAGANNATH JAKKA,GS,00:00,00:00
14,22-09-2017,147,UMESH.B.V,GS,00:00,00:00
15,22-09-2017,149,C.V.HARISH,GS,00:00,00:00
16,22-09-2017,157,SANTOSH.K.NAIK,GS,00:00,00:00
17,22-09-2017,158,NANJEGOWDA,GS,09:00,18:00
18,22-09-2017,170,VAISHNAVI.R.AITHAL,GS,08:52,18:41
19,22-09-2017,171,SHIVANNA,GS,00:00,00:00
20,22-09-2017,175,BHANUPRAKASH DG,GS,08:39,19:08
21,22-09-2017,197,SHIVA KUMAR.N,GS,09:10,19:08
22,22-09-2017,199,HEMANTH.V.G,GS,09:00,18:46
23,22-09-2017,201,SUNIL KUMAR.B.B,GS,09:13,00:00
24,22-09-2017,202,MAHESH RAJ URS,GS,00:00,00:00
25,22-09-2017,206,PRASANNA.N.M,GS,00:00,00:00
26,22-09-2017,207,PRIYA NAGARAJ,GS,09:59,19:14
27,22-09-2017,208,K.P.RAGHAVENDRA,GS,09:00,18:00
28,22-09-2017,210,KAVYA.B.K,GS,09:21,19:00
29,22-09-2017,211,BASAVARAJU.K.N,GS,00:00,00:00
30,22-09-2017,213,AJITH ASHOKAN,GS,00:00,00:00
31,22-09-2017,217,C.SHASHIDHAR,GS,00:00,00:00
32,22-09-2017,223,CHETAN.G.K,GS,00:00,00:00
33,22-09-2017,230,KEERTHI KUMAR.K.R,GS,00:00,00:00
34,22-09-2017,243,ABBUBAKARSIDEEK.K,GS,00:00,00:00
35,22-09-2017,250,YOGESH.A.N,GS,08:15,18:21
36,22-09-2017,252,SRILATHA BOLLADY,GS,09:05,18:35
37,22-09-2017,254,PAVAN KUMAR.H.N,GS,09:05,19:48
38,22-09-2017,257,CHANDRAPPA,GS,00:00,00:00
39,22-09-2017,262,REKHA,GS,09:00,18:00
40,22-09-2017,263,YOGESH GOWDA.M.L,GS,07:04,20:32
41,22-09-2017,265,NAGARAJ PRAKASH,GS,09:08,18:23
42,22-09-2017,268,AVIN KUMAR,GS,00:00,00:00
43,22-09-2017,269,PRADEEP.B.R,GS,00:00,00:00
44,22-09-2017,273,KUSHALA.G.V,GS,09:00,19:01
45,22-09-2017,274,Abhinandan.K.M,GS,09:05,20:24
46,22-09-2017,275,MANJU.B,GS,09:15,19:35
47,22-09-2017,277,N.CHANDRASHEKAR,GS,00:00,00:00
48,22-09-2017,279,MALLESH,GS,00:00,00:00
49,22-09-2017,282,NAVIN KUMAR.B.R,GS,00:00,00:00
50,22-09-2017,290,NARAYANA REDDY.M,GS,08:48,18:47
51,22-09-2017,293,VENKAT RAMANAIAH YETURU,GS,09:06,00:00
52,22-09-2017,296,NANDEESHA.K,GS,00:00,00:00
53,22-09-2017,300,KEMPARAJU.N.S,GS,09:05,18:10
54,22-09-2017,302,HARSHA KUMAR.H.R,GS,00:00,00:00
55,22-09-2017,303,PRITHVI KUMAR.C.A,GS,00:00,00:00
56,22-09-2017,304,SANTOSH NARAYAN,GS,12:12,18:35
57,22-09-2017,314,VIJAYASHREE.S.ANAND,GS,09:19,18:17
58,22-09-2017,317,MAHESH GOWDA.C.S,GS,09:00,19:23
59,22-09-2017,322,SURESH.K,GS,09:17,00:00
60,22-09-2017,323,CHELUVEGOWDA.H.S,GS,08:38,19:34
61,22-09-2017,327,BINDU RANI,GS,10:39,17:33
62,22-09-2017,328,DHANASHEKAR.M,GS,09:10,18:39
63,22-09-2017,330,THIMMAPPA,GS,00:00,00:00
64,22-09-2017,331,ALTAF,GS,09:00,18:00
65,22-09-2017,332,ANIL KUMAR.H.R,GS,19:48,19:48
66,22-09-2017,334,SHIVAPRASAD,GS,08:54,19:35
67,22-09-2017,324,Madan.V(NOT IN PAYROLL),GS,00:00,00:00
68,22-09-2017,336,SHWETHA.H.G,GS,09:27,18:40
69,22-09-2017,338,NANDINI.S.L,GS,09:05,18:31
70,22-09-2017,1010,RAMU.H.M,GS,08:26,20:24
71,22-09-2017,1011,NIRANJAN.K.B,GS,00:00,00:00
72,22-09-2017,189,K.N.RAJU,GS,00:00,00:00
73,22-09-2017,339,MADEVAPPA BHAJANTRI,GS,08:58,19:35
74,22-09-2017,5002,Madhu sudhan.B,GS,00:00,00:00
75,22-09-2017,5004,SHIVANNA JUNIOR,GS,09:00,18:00
76,22-09-2017,5005,Sarath kumar.R,GS,00:00,00:00
77,22-09-2017,5006,Ritish Kiran.,GS,00:00,00:00
78,22-09-2017,5007,Sanjay Prabhakar Balli,GS,00:00,00:00
79,22-09-2017,5008,Vinay.K.C,GS,00:00,00:00
80,22-09-2017,346,SARANDEEP.S,GS,09:12,18:17
81,22-09-2017,342,NETHRAVATHI.T,GS,09:09,18:40
82,22-09-2017,344,J.K.SRINIVASA,GS,08:57,20:19
83,22-09-2017,5015,SANDEEPA.V.P,GS,00:00,00:00
84,22-09-2017,347,DEEPAK.T.N,GS,09:56,00:00
85,22-09-2017,348,VINAY BHARGAVA.K.N,GS,09:05,18:42
86,22-09-2017,5016,Praveen kumar.H.M,GS,00:00,00:00
87,22-09-2017,351,RAGHUVEER.R,GS,09:01,19:35
88,22-09-2017,349,RATHNA,GS,09:00,18:00
89,22-09-2017,5017,NITHIN KUMAR K,GS,00:00,00:00
90,22-09-2017,5018,KIRAN.M,GS,00:00,00:00
91,22-09-2017,5019,NIVEDITHA,GS,09:09,18:19
92,22-09-2017,4001,ARPITHA.M,GS,09:09,18:20
93,22-09-2017,4002,CHAITRA.V,GS,00:00,00:00
94,22-09-2017,4003,B.BHAVYASHREE,GS,09:19,18:28
