SNo,Date,E. Code,Name,Shift, InTime, OutTime
1,21-07-2016,123,K.N.SURENDRA,GS,09:00,18:00
2,21-07-2016,124,K.N.SOWMYA,GS,09:00,18:00
3,21-07-2016,125,K.N.BOREGOWDA,GS,09:00,18:00
4,21-07-2016,127,SRINIVAS.H.C,GS,09:00,18:00
5,21-07-2016,128,KUMAR.H.S,GS,00:00,00:00
6,21-07-2016,130,A.H.PRASAD KUMAR,GS,09:00,18:00
7,21-07-2016,131,GIRISH SHETTY,GS,08:58,19:01
8,21-07-2016,135,KUMAR.B.S,GS,00:00,00:00
9,21-07-2016,136,SUDHIR SHETTY,GS,09:03,20:16
10,21-07-2016,138,PRASANNA KUMAR.S,GS,09:34,18:21
11,21-07-2016,139,MITHUN.G.SHETTY,GS,10:18,18:21
12,21-07-2016,140,VENKATESH.K,GS,10:23,21:13
13,21-07-2016,143,JAGANNATH JAKKA,GS,11:34,20:55
14,21-07-2016,147,UMESH.B.V,GS,09:16,20:18
15,21-07-2016,149,C.V.HARISH,GS,07:30,18:00
16,21-07-2016,152,CHANDRASHEKAR.M.B,GS,08:35,18:19
17,21-07-2016,157,SANTOSH.K.NAIK,GS,08:30,18:56
18,21-07-2016,158,NANJEGOWDA,GS,00:00,00:00
19,21-07-2016,170,VAISHNAVI.R.AITHAL,GS,08:58,18:04
20,21-07-2016,171,SHIVANNA,GS,00:00,00:00
21,21-07-2016,172,BOREGOWDA,GS,00:00,00:00
22,21-07-2016,175,BHANUPRAKASH DG,GS,08:52,20:24
23,21-07-2016,188,RATHNA,GS,09:00,18:00
24,21-07-2016,194,NANJAMANI,GS,00:00,00:00
25,21-07-2016,195,RAVI IV,GS,00:00,00:00
26,21-07-2016,197,SHIVA KUMAR.N,GS,09:07,21:04
27,21-07-2016,199,HEMANTH.V.G,GS,09:00,18:00
28,21-07-2016,201,SUNIL KUMAR.B.B,GS,00:00,00:00
29,21-07-2016,202,MAHESH RAJ URS,GS,08:46,17:47
30,21-07-2016,206,PRASANNA.N.M,GS,08:58,18:00
31,21-07-2016,207,PRIYA NAGARAJ,GS,00:00,00:00
32,21-07-2016,208,K.P.RAGHAVENDRA,GS,09:00,18:00
33,21-07-2016,209,NAVEEN.B.L,GS,00:00,00:00
34,21-07-2016,210,KAVYA.B.K,GS,09:10,18:25
35,21-07-2016,211,BASAVARAJU.K.N,GS,00:00,00:00
36,21-07-2016,213,AJITH ASHOKAN,GS,09:00,18:34
37,21-07-2016,217,C.SHASHIDHAR,GS,08:37,18:00
38,21-07-2016,218,KISHORE.B.N,GS,08:43,18:19
39,21-07-2016,223,CHETAN.G.K,GS,00:00,00:00
40,21-07-2016,230,KEERTHI KUMAR.K.R,GS,08:10,18:15
41,21-07-2016,236,NANDEESH.G.H,GS,00:00,00:00
42,21-07-2016,243,ABBUBAKARSIDEEK.K,GS,08:43,18:20
43,21-07-2016,245,AVILASH.P.G,GS,09:13,18:00
44,21-07-2016,249,DIVAKAR.N.N,GS,00:00,00:00
45,21-07-2016,250,YOGESH.A.N,GS,07:51,20:34
46,21-07-2016,252,SRILATHA BOLLADY,GS,09:02,18:18
47,21-07-2016,254,PAVAN KUMAR.H.N,GS,08:50,19:54
48,21-07-2016,257,CHANDRAPPA,GS,08:22,18:04
49,21-07-2016,258,THIPPESWAMY.B.C,GS,09:04,17:51
50,21-07-2016,259,KARTHIKEYA PATIL,GS,00:00,00:00
51,21-07-2016,261,RAMU,GS,09:00,18:00
52,21-07-2016,262,REKHA,GS,00:00,00:00
53,21-07-2016,263,YOGESH GOWDA.M.L,GS,07:23,22:51
54,21-07-2016,265,NAGARAJ PRAKASH,GS,08:52,00:00
55,21-07-2016,269,PRADEEP.B.R,GS,09:01,18:09
56,21-07-2016,270,MANJUNATH.R,GS,00:00,00:00
57,21-07-2016,273,KUSHALA.G.V,GS,09:00,18:00
58,21-07-2016,274,Abhinandan.K.M,GS,09:03,21:05
59,21-07-2016,275,MANJU.B,GS,09:20,18:30
60,21-07-2016,277,N.CHANDRAHEKAR,GS,08:28,18:00
61,21-07-2016,279,MALLESH,GS,08:29,18:02
62,21-07-2016,282,NAVIN KUMAR.B.R,GS,09:06,18:00
63,21-07-2016,290,NARAYANA REDDY.M,GS,08:53,18:24
64,21-07-2016,291,RAJANNA.A.C,GS,09:00,18:25
65,21-07-2016,293,VENKAT RAMANAIAH YETURU,GS,08:07,22:46
66,21-07-2016,296,NANDEESHA.K,GS,09:17,18:08
67,21-07-2016,300,KEMPARAJU.N.S,GS,09:01,18:17
68,21-07-2016,301,PUNEETH.M.P,GS,09:00,18:00
69,21-07-2016,302,HARSHA KUMAR.H.R,GS,00:00,00:00
70,21-07-2016,303,PRITHVI KUMAR.C.A,GS,09:58,18:00
71,21-07-2016,304,SANTOSH NARAYAN,GS,09:19,21:05
72,21-07-2016,309,MARY SHARLY,GS,09:03,18:02
73,21-07-2016,311,RAKESH.A.M,GS,09:14,18:05
74,21-07-2016,312,GAYATRI R BHAT,GS,09:07,20:16
75,21-07-2016,314,VIJAYASHREE.S.ANAND,GS,09:06,13:13
76,21-07-2016,315,BALAJI,GS,09:00,18:00
77,21-07-2016,317,MAHESH GOWDA.C.S,GS,08:56,20:35
78,21-07-2016,318,DHIRENDRA BHASKAR.H.P,GS,08:55,21:04
79,21-07-2016,319,PRADEEP KUMAR.S.S,GS,08:55,20:34
80,21-07-2016,320,RAJSHEKAR.C,GS,09:00,18:00
81,21-07-2016,321,PALLAVI.K,GS,09:05,18:02
82,21-07-2016,322,SURESH.K,GS,09:09,20:15
83,21-07-2016,323,CHELUVEGOWDA.H.S,GS,08:56,18:58
84,21-07-2016,324,MADAN.V,GS,09:04,18:14
