SNo,Date,E. Code,Name,Shift, InTime, OutTime
1,24-11-2017,123,K.N.SURENDRA,GS,09:00,18:00
2,24-11-2017,124,K.N.SOWMYA,GS,09:00,18:00
3,24-11-2017,125,K.N.BOREGOWDA,GS,09:00,18:00
4,24-11-2017,127,SRINIVAS.H.C,GS,09:00,18:00
5,24-11-2017,128,KUMAR.H.S,GS,09:00,18:00
6,24-11-2017,130,A.H.PRASAD KUMAR,GS,09:00,18:00
7,24-11-2017,131,GIRISH SHETTY,GS,09:00,18:06
8,24-11-2017,135,KUMAR.B.S,GS,09:09,18:13
9,24-11-2017,136,SUDHIR SHETTY,GS,00:00,18:06
10,24-11-2017,138,PRASANNA KUMAR.S,GS,00:00,00:00
11,24-11-2017,139,MITHUN.G.SHETTY,GS,00:00,00:00
12,24-11-2017,140,VENKATESH.K,GS,07:43,20:07
13,24-11-2017,143,JAGANNATH JAKKA,GS,00:00,00:00
14,24-11-2017,147,UMESH.B.V,GS,09:06,18:05
15,24-11-2017,149,C.V.HARISH,GS,00:00,00:00
16,24-11-2017,157,SANTOSH.K.NAIK,GS,00:00,00:00
17,24-11-2017,158,NANJEGOWDA,GS,00:00,00:00
18,24-11-2017,170,VAISHNAVI.R.AITHAL,GS,08:27,18:07
19,24-11-2017,171,SHIVANNA,GS,09:02,09:10
20,24-11-2017,175,BHANUPRAKASH DG,GS,09:23,18:47
21,24-11-2017,197,SHIVA KUMAR.N,GS,09:18,00:00
22,24-11-2017,199,HEMANTH.V.G,GS,00:00,00:00
23,24-11-2017,201,SUNIL KUMAR.B.B,GS,09:04,18:05
24,24-11-2017,202,MAHESH RAJ URS,GS,00:00,00:00
25,24-11-2017,206,PRASANNA.N.M,GS,16:57,19:02
26,24-11-2017,207,PRIYA NAGARAJ,GS,10:36,17:22
27,24-11-2017,208,K.P.RAGHAVENDRA,GS,00:00,00:00
28,24-11-2017,210,KAVYA.B.K,GS,09:29,19:02
29,24-11-2017,211,BASAVARAJU.K.N,GS,00:00,00:00
30,24-11-2017,213,AJITH ASHOKAN,GS,09:06,18:03
31,24-11-2017,217,C.SHASHIDHAR,GS,00:00,00:00
32,24-11-2017,223,CHETAN.G.K,GS,00:00,00:00
33,24-11-2017,243,ABBUBAKARSIDEEK.K,GS,00:00,00:00
34,24-11-2017,250,YOGESH.A.N,GS,08:07,18:48
35,24-11-2017,252,SRILATHA BOLLADY,GS,00:00,00:00
36,24-11-2017,254,PAVAN KUMAR.H.N,GS,09:10,17:53
37,24-11-2017,257,CHANDRAPPA,GS,00:00,00:00
38,24-11-2017,262,REKHA,GS,00:00,00:00
39,24-11-2017,263,YOGESH GOWDA.M.L,GS,07:17,20:51
40,24-11-2017,265,NAGARAJ PRAKASH,GS,09:12,18:18
41,24-11-2017,268,AVIN KUMAR,GS,00:00,00:00
42,24-11-2017,269,PRADEEP.B.R,GS,00:00,00:00
43,24-11-2017,273,KUSHALA.G.V,GS,00:00,00:00
44,24-11-2017,274,Abhinandan.K.M,GS,00:00,00:00
45,24-11-2017,275,MANJU.B,GS,09:19,19:31
46,24-11-2017,277,N.CHANDRASHEKAR,GS,00:00,00:00
47,24-11-2017,279,MALLESH,GS,00:00,00:00
48,24-11-2017,282,NAVIN KUMAR.B.R,GS,00:00,00:00
49,24-11-2017,290,NARAYANA REDDY.M,GS,09:20,09:20
50,24-11-2017,293,VENKAT RAMANAIAH YETURU,GS,09:09,19:01
51,24-11-2017,296,NANDEESHA.K,GS,00:00,00:00
52,24-11-2017,300,KEMPARAJU.N.S,GS,08:58,18:18
53,24-11-2017,302,HARSHA KUMAR.H.R,GS,00:00,00:00
54,24-11-2017,303,PRITHVI KUMAR.C.A,GS,00:00,00:00
55,24-11-2017,304,SANTOSH NARAYAN,GS,00:00,00:00
56,24-11-2017,314,VIJAYASHREE.S.ANAND,GS,09:20,18:03
57,24-11-2017,317,MAHESH GOWDA.C.S,GS,08:57,18:18
58,24-11-2017,322,SURESH.K,GS,00:00,00:00
59,24-11-2017,323,CHELUVEGOWDA.H.S,GS,08:18,18:18
60,24-11-2017,327,BINDU RANI,GS,10:31,17:36
61,24-11-2017,328,DHANASHEKAR.M,GS,09:00,18:41
62,24-11-2017,330,THIMMAPPA,GS,00:00,00:00
63,24-11-2017,331,ALTAF,GS,00:00,00:00
64,24-11-2017,332,ANIL KUMAR.H.R,GS,00:00,00:00
65,24-11-2017,334,SHIVAPRASAD,GS,08:40,18:51
66,24-11-2017,336,SHWETHA.H.G,GS,09:25,19:22
67,24-11-2017,1011,NIRANJAN.K.B,GS,00:00,00:00
68,24-11-2017,189,K.N.RAJU,GS,00:00,00:00
69,24-11-2017,339,MADEVAPPA BHAJANTRI,GS,09:07,19:09
70,24-11-2017,5002,Madhu sudhan.B,GS,00:00,00:00
71,24-11-2017,5004,SHIVANNA JUNIOR,GS,09:00,18:00
72,24-11-2017,5005,Sarath kumar.R,GS,00:00,00:00
73,24-11-2017,5006,Ritish Kiran.,GS,00:00,00:00
74,24-11-2017,5008,Vinay.K.C,GS,00:00,00:00
75,24-11-2017,346,SARANDEEP.S,GS,09:37,17:53
76,24-11-2017,342,NETHRAVATHI.T,GS,09:18,18:58
77,24-11-2017,344,J.K.SRINIVASA,GS,08:58,20:20
78,24-11-2017,5015,SANDEEPA.V.P,GS,00:00,00:00
79,24-11-2017,347,DEEPAK.T.N,GS,09:33,11:49
80,24-11-2017,348,VINAY BHARGAVA.K.N,GS,08:56,18:11
81,24-11-2017,5016,Praveen kumar.H.M,GS,00:00,00:00
82,24-11-2017,351,RAGHUVEER.R,GS,08:58,18:57
83,24-11-2017,349,RATHNA,GS,09:00,18:00
84,24-11-2017,5017,NITHIN KUMAR K,GS,00:00,00:00
85,24-11-2017,5018,KIRAN.M,GS,00:00,00:00
86,24-11-2017,5019,NIVEDITHA.K.S,GS,09:18,18:15
87,24-11-2017,4001,ARPITHA.M,GS,00:00,00:00
88,24-11-2017,4002,CHAITRA.V,GS,09:46,18:46
89,24-11-2017,4003,B.BHAVYASHREE,GS,09:28,10:51
90,24-11-2017,4004,SANTOSHIMATA.S.B,GS,09:35,18:58
91,24-11-2017,5020,LAKSHMIKANTH.C.S,GS,00:00,00:00
92,24-11-2017,4005,KEMPEGOWDA.G,GS,09:00,18:00
93,24-11-2017,5021,MENAKA.N,GS,09:00,18:00
94,24-11-2017,5022,Dr.Prasanna Kumar.S,GS,09:05,09:05
95,24-11-2017,5023,Kavya.B.S,GS,09:06,18:06
