SNo,date ,E. Code,Name,Shift, InTime, OutTime,Work Dur.,OT,Tot.  Dur.
1,25-4-16,123,K.N.SURENDRA,GS,9:00,20:00,11:00,2:00,11:00
2,25-4-16,124,K.N.SOWMYA,GS,9:00,18:00,9:00,0:00,9:00
3,25-4-16,125,K.N.BOREGOWDA,GS,9:00,18:00,9:00,0:00,9:00
4,25-4-16,127,SRINIVAS.H.C,GS,9:00,18:00,9:00,0:00,9:00
5,25-4-16,128,KUMAR.H.S,GS,9:00,18:00,9:00,0:00,9:00
6,25-4-16,130,A.H.PRASAD KUMAR,GS,9:00,18:00,9:00,0:00,9:00
7,25-4-16,131,GIRISH SHETTY,GS,8:56,18:22,9:26,0:00,9:26
8,25-4-16,135,KUMAR.B.S,GS,9:13,19:23,10:10,1:10,10:10
9,25-4-16,136,SUDHIR SHETTY,GS,9:31,18:31,9:00,0:00,9:00
10,25-4-16,138,PRASANNA KUMAR.S,GS,8:53,18:16,9:23,0:00,9:23
11,25-4-16,139,MITHUN.G.SHETTY,GS,8:38,18:18,9:40,0:00,9:40
12,25-4-16,140,VENKATESH.K,GS,0:00,0:00,0:00,0:00,0:00
13,25-4-16,143,JAGANNATH JAKKA,GS,9:46,20:41,10:55,2:55,10:55
14,25-4-16,147,UMESH.B.V,GS,9:23,19:45,10:22,2:22,10:22
15,25-4-16,149,C.V.HARISH,GS,7:30,18:00,10:30,2:30,10:30
16,25-4-16,152,CHANDRASHEKAR.M.B,GS,9:00,18:00,9:00,0:00,9:00
17,25-4-16,157,SANTOSH.K.NAIK,GS,0:00,0:00,0:00,0:00,0:00
18,25-4-16,158,NANJEGOWDA,GS,8:14,0:00,0:00,0:00,0:00
19,25-4-16,170,VAISHNAVI.R.AITHAL,GS,9:07,18:58,9:51,0:00,9:51
20,25-4-16,171,SHIVANNA,GS,7:30,21:08,13:38,4:38,13:38
21,25-4-16,172,BOREGOWDA,GS,8:20,17:59,9:39,0:00,9:39
22,25-4-16,175,BHANUPRAKASH DG,GS,9:07,21:08,12:01,3:01,12:01
23,25-4-16,188,RATHNA,GS,9:00,18:00,9:00,0:00,9:00
24,25-4-16,194,NANJAMANI,GS,0:00,0:00,0:00,0:00,0:00
25,25-4-16,195,RAVI IV,GS,9:00,19:08,10:08,1:08,10:08
26,25-4-16,197,SHIVA KUMAR.N,GS,9:02,20:04,11:02,2:02,11:02
27,25-4-16,199,HEMANTH.V.G,GS,8:54,18:18,9:24,0:00,9:24
28,25-4-16,201,SUNIL KUMAR.B.B,GS,9:07,18:48,9:41,0:00,9:41
29,25-4-16,202,MAHESH RAJ URS,GS,8:57,18:07,9:10,0:00,9:10
30,25-4-16,206,PRASANNA.N.M,GS,9:10,18:26,9:16,0:00,9:16
31,25-4-16,207,PRIYA NAGARAJ,GS,8:00,20:33,12:33,3:33,12:33
32,25-4-16,208,K.P.RAGHAVENDRA,GS,9:00,18:00,9:00,0:00,9:00
33,25-4-16,209,NAVEEN.B.L,GS,8:26,18:58,10:32,1:32,10:32
34,25-4-16,210,KAVYA.B.K,GS,9:42,20:34,10:52,1:52,10:52
35,25-4-16,211,BASAVARAJU.K.N,GS,9:30,19:14,9:44,0:00,9:44
36,25-4-16,213,AJITH ASHOKAN,GS,9:00,18:23,9:23,0:00,9:23
37,25-4-16,217,C.SHASHIDHAR,GS,8:58,18:00,9:02,0:00,9:02
38,25-4-16,218,KISHORE.B.N,GS,8:58,18:49,9:51,0:00,9:51
39,25-4-16,223,CHETAN.G.K,GS,0:00,0:00,0:00,0:00,0:00
40,25-4-16,230,KEERTHI KUMAR.K.R,GS,0:00,0:00,0:00,0:00,0:00
41,25-4-16,236,NANDEESH.G.H,GS,9:20,19:07,9:47,0:00,9:47
42,25-4-16,243,ABBUBAKARSIDEEK.K,GS,0:00,0:00,0:00,0:00,0:00
43,25-4-16,245,AVILASH.P.G,GS,0:00,0:00,0:00,0:00,0:00
44,25-4-16,249,DIVAKAR.N.N,GS,9:02,18:18,9:16,0:00,9:16
45,25-4-16,250,YOGESH.A.N,GS,0:00,0:00,0:00,0:00,0:00
46,25-4-16,252,SRILATHA BOLLADY,GS,9:08,18:17,9:09,0:00,9:09
47,25-4-16,254,PAVAN KUMAR.H.N,GS,7:53,17:44,9:51,0:00,9:51
48,25-4-16,257,CHANDRAPPA,GS,0:00,0:00,0:00,0:00,0:00
49,25-4-16,258,THIPPESWAMY.B.C,GS,9:02,18:05,9:03,0:00,9:03
50,25-4-16,259,KARTHIKEYA PATIL,GS,8:49,19:10,10:21,1:21,10:21
51,25-4-16,261,RAMU,GS,9:00,18:00,9:00,0:00,9:00
52,25-4-16,262,REKHA,GS,9:00,18:00,9:00,0:00,9:00
53,25-4-16,263,YOGESH GOWDA.M.L,GS,7:47,21:28,13:41,4:41,13:41
54,25-4-16,265,NAGARAJ PRAKASH,GS,8:57,18:23,9:26,0:00,9:26
55,25-4-16,266,RAGHU.D.S,GS,9:09,18:16,9:07,0:00,9:07
56,25-4-16,268,D.V.Avin Kumar,GS,0:00,0:00,0:00,0:00,0:00
57,25-4-16,269,PRADEEP.B.R,GS,9:01,0:00,0:00,0:00,0:00
58,25-4-16,270,MANJUNATH.R,GS,9:00,0:00,0:00,0:00,0:00
59,25-4-16,273,KUSHALA.G.V,GS,9:00,0:00,0:00,0:00,0:00
60,25-4-16,274,Abhi,GS,0:00,0:00,0:00,0:00,0:00
61,25-4-16,275,MANJU.B,GS,9:31,18:31,9:00,0:00,9:00
62,25-4-16,277,N.CHANDRAHEKAR,GS,8:29,18:12,9:43,0:00,9:43
63,25-4-16,279,MALLESH,GS,8:05,18:00,9:55,0:00,9:55
64,25-4-16,282,NAVIN KUMAR.B.R,GS,9:01,18:00,8:59,0:00,8:59
65,25-4-16,287,SUNIL.V,GS,9:26,19:09,9:43,0:00,9:43
66,25-4-16,289,H.VENKAT RAGHAVAN,GS,10:16,14:43,4:27,0:00,4:27
67,25-4-16,290,NARAYANA REDDY.M,GS,8:57,18:21,9:24,0:00,9:24
68,25-4-16,291,RAJANNA.A.C,GS,8:56,18:23,9:27,0:00,9:27
69,25-4-16,293,VENKAT RAMANAIAH YETURU,GS,8:00,20:00,12:00,3:00,12:00
70,25-4-16,295,SHIVARAJ.V.S,GS,8:50,19:10,10:20,1:20,10:20
71,25-4-16,296,NANDEESHA.K,GS,8:49,19:10,10:21,1:21,10:21
72,25-4-16,298,SHARATH.N,GS,9:18,13:38,4:20,0:00,4:20
73,25-4-16,300,KEMPARAJU.N.S,GS,9:02,21:09,12:07,3:07,12:07
74,25-4-16,301,PUNEETH.M.P,GS,9:00,18:00,9:00,0:00,9:00
75,25-4-16,302,HARSHA KUMAR.H.R,GS,8:47,18:00,9:13,0:00,9:13
76,25-4-16,303,PRITHVI KUMAR.C.A,GS,10:39,19:53,9:14,0:00,9:14
77,25-4-16,304,SANTOSH NARAYAN,GS,10:22,19:10,8:48,0:00,8:48
78,25-4-16,307,VIVEK KUMAR SHARMA,GS,0:00,0:00,0:00,0:00,0:00
79,25-4-16,309,MARY SHARLY,GS,9:08,18:03,8:55,0:00,8:55
80,25-4-16,310,LAKSHMANA.N.R,GS,9:09,18:01,8:52,0:00,8:52
81,25-4-16,311,RAKESH.A.M,GS,9:00,18:34,9:34,0:00,9:34
82,25-4-16,312,GAYATRI R BHAT,GS,9:18,18:49,9:31,0:00,9:31
83,25-4-16,313,SUSHMA.R,GS,9:07,0:00,0:00,0:00,0:00
84,25-4-16,314,VIJAYASHREE.S.ANAND,GS,8:54,18:16,9:22,0:00,9:22
85,25-4-16,315,BALAJI,GS,9:00,18:00,9:00,0:00,9:00
86,25-4-16,316,RAMA MAHESH,GS,9:17,18:46,9:29,0:00,9:29
,,,,,,,,,
,,,,,,,,,
,,,,,,,,,
,,,,,,,,,
,,,,,,,,,
,,,,,,,,,
,,,,,,,,,
,,,,,,,,,
,,,,,,,,,
,,,,,,,,,
,,,,,,,,,
,,,,,,,,,
,,,,,,,,,
,,,,,,,,,
,,,,,,,,,
,,,,,,,,,
,,,,,,,,,
,,,,,,,,,
,,,,,,,,,
,,,,,,,,,
,,,,,,,,,
,,,,,,,,,
,,,,,,,,,
,,,,,,,,,
,,,,,,,,,
,,,,,,,,,
,,,,,,,,,
,,,,,,,,,
,,,,,,,,,
,,,,,,,,,
,,,,,,,,,
,,,,,,,,,
,,,,,,,,,
,,,,,,,,,
,,,,,,,,,
,,,,,,,,,
,,,,,,,,,
,,,,,,,,,
,,,,,,,,,
,,,,,,,,,
,,,,,,,,,
,,,,,,,,,
,,,,,,,,,
,,,,,,,,,
,,,,,,,,,
,,,,,,,,,
,,,,,,,,,
,,,,,,,,,
,,,,,,,,,
,,,,,,,,,
,,,,,,,,,
,,,,,,,,,
,,,,,,,,,
,,,,,,,,,
,,,,,,,,,
,,,,,,,,,
,,,,,,,,,
,,,,,,,,,
,,,,,,,,,
,,,,,,,,,
,,,,,,,,,
,,,,,,,,,
,,,,,,,,,
,,,,,,,,,
,,,,,,,,,
,,,,,,,,,
,,,,,,,,,
,,,,,,,,,
,,,,,,,,,
,,,,,,,,,
,,,,,,,,,
,,,,,,,,,
,,,,,,,,,
,,,,,,,,,
,,,,,,,,,
,,,,,,,,,
,,,,,,,,,
,,,,,,,,,
,,,,,,,,,
,,,,,,,,,
,,,,,,,,,
,,,,,,,,,
,,,,,,,,,
,,,,,,,,,
,,,,,,,,,
