SNo,Date,E. Code,Name,Shift, InTime, OutTime
1,25-08-2016,123,K.N.SURENDRA,GS,09:00,18:00
2,25-08-2016,124,K.N.SOWMYA,GS,09:00,18:00
3,25-08-2016,125,K.N.BOREGOWDA,GS,09:00,18:00
4,25-08-2016,127,SRINIVAS.H.C,GS,09:00,18:00
5,25-08-2016,128,KUMAR.H.S,GS,09:00,18:00
6,25-08-2016,130,A.H.PRASAD KUMAR,GS,09:00,18:00
7,25-08-2016,131,GIRISH SHETTY,GS,09:00,14:42
8,25-08-2016,135,KUMAR.B.S,GS,09:21,18:49
9,25-08-2016,136,SUDHIR SHETTY,GS,09:25,18:51
10,25-08-2016,138,PRASANNA KUMAR.S,GS,08:52,19:39
11,25-08-2016,139,MITHUN.G.SHETTY,GS,00:00,17:52
12,25-08-2016,140,VENKATESH.K,GS,00:00,00:00
13,25-08-2016,143,JAGANNATH JAKKA,GS,10:02,14:03
14,25-08-2016,147,UMESH.B.V,GS,10:01,18:50
15,25-08-2016,149,C.V.HARISH,GS,07:25,18:03
16,25-08-2016,152,CHANDRASHEKAR.M.B,GS,00:00,00:00
17,25-08-2016,157,SANTOSH.K.NAIK,GS,08:59,18:51
18,25-08-2016,158,NANJEGOWDA,GS,09:00,18:00
19,25-08-2016,170,VAISHNAVI.R.AITHAL,GS,08:59,17:41
20,25-08-2016,171,SHIVANNA,GS,07:00,18:04
21,25-08-2016,175,BHANUPRAKASH DG,GS,08:49,19:43
22,25-08-2016,188,RATHNA,GS,09:00,18:00
23,25-08-2016,197,SHIVA KUMAR.N,GS,10:39,19:02
24,25-08-2016,199,HEMANTH.V.G,GS,00:00,00:00
25,25-08-2016,201,SUNIL KUMAR.B.B,GS,08:51,19:11
26,25-08-2016,202,MAHESH RAJ URS,GS,08:52,18:24
27,25-08-2016,206,PRASANNA.N.M,GS,09:09,18:21
28,25-08-2016,207,PRIYA NAGARAJ,GS,00:00,00:00
29,25-08-2016,208,K.P.RAGHAVENDRA,GS,09:00,18:00
30,25-08-2016,210,KAVYA.B.K,GS,09:26,19:27
31,25-08-2016,211,BASAVARAJU.K.N,GS,09:38,18:35
32,25-08-2016,213,AJITH ASHOKAN,GS,09:05,18:33
33,25-08-2016,217,C.SHASHIDHAR,GS,08:48,18:20
34,25-08-2016,218,KISHORE.B.N,GS,00:00,20:18
35,25-08-2016,223,CHETAN.G.K,GS,09:00,18:00
36,25-08-2016,230,KEERTHI KUMAR.K.R,GS,11:43,00:00
37,25-08-2016,243,ABBUBAKARSIDEEK.K,GS,08:42,00:00
38,25-08-2016,245,AVILASH.P.G,GS,09:14,18:02
39,25-08-2016,250,YOGESH.A.N,GS,07:44,20:56
40,25-08-2016,252,SRILATHA BOLLADY,GS,09:09,18:53
41,25-08-2016,254,PAVAN KUMAR.H.N,GS,09:12,18:36
42,25-08-2016,257,CHANDRAPPA,GS,08:08,00:00
43,25-08-2016,258,THIPPESWAMY.B.C,GS,08:59,18:01
44,25-08-2016,259,KARTHIKEYA PATIL,GS,09:06,18:03
45,25-08-2016,261,RAMU,GS,09:00,18:00
46,25-08-2016,262,REKHA,GS,09:00,18:00
47,25-08-2016,263,YOGESH GOWDA.M.L,GS,07:13,21:59
48,25-08-2016,265,NAGARAJ PRAKASH,GS,08:58,19:24
49,25-08-2016,268,AVIN KUMAR,GS,00:00,00:00
50,25-08-2016,269,PRADEEP.B.R,GS,09:01,00:00
51,25-08-2016,270,MANJUNATH.R,GS,06:51,18:43
52,25-08-2016,273,KUSHALA.G.V,GS,09:00,18:00
53,25-08-2016,274,Abhinandan.K.M,GS,09:01,14:06
54,25-08-2016,275,MANJU.B,GS,09:00,18:00
55,25-08-2016,277,N.CHANDRASHEKAR,GS,06:16,09:11
56,25-08-2016,279,MALLESH,GS,08:25,18:20
57,25-08-2016,282,NAVIN KUMAR.B.R,GS,09:00,18:00
58,25-08-2016,290,NARAYANA REDDY.M,GS,08:55,19:05
59,25-08-2016,291,RAJANNA.A.C,GS,09:11,18:44
60,25-08-2016,293,VENKAT RAMANAIAH YETURU,GS,08:34,12:33
61,25-08-2016,296,NANDEESHA.K,GS,09:34,18:24
62,25-08-2016,300,KEMPARAJU.N.S,GS,09:00,19:11
63,25-08-2016,301,PUNEETH.M.P,GS,09:00,18:00
64,25-08-2016,302,HARSHA KUMAR.H.R,GS,09:00,18:00
65,25-08-2016,303,PRITHVI KUMAR.C.A,GS,09:23,18:40
66,25-08-2016,304,SANTOSH NARAYAN,GS,09:36,18:47
67,25-08-2016,309,MARY SHARLY,GS,09:01,18:36
68,25-08-2016,311,RAKESH.A.M,GS,08:50,18:09
69,25-08-2016,312,GAYATRI R BHAT,GS,00:00,00:00
70,25-08-2016,314,VIJAYASHREE.S.ANAND,GS,09:10,18:27
71,25-08-2016,315,BALAJI,GS,09:00,18:00
72,25-08-2016,317,MAHESH GOWDA.C.S,GS,09:01,19:03
73,25-08-2016,318,DHIRENDRA BHASKAR.H.P,GS,08:55,19:12
74,25-08-2016,319,PRADEEP KUMAR.S.S,GS,09:01,20:06
75,25-08-2016,320,RAJSHEKAR.C,GS,09:00,18:00
76,25-08-2016,321,PALLAVI.K,GS,09:08,12:06
77,25-08-2016,322,SURESH.K,GS,09:11,18:52
78,25-08-2016,323,CHELUVEGOWDA.H.S,GS,08:55,17:18
79,25-08-2016,325,VIKYAATH,GS,00:00,00:00
80,25-08-2016,327,BINDU RANI,GS,11:01,13:00
81,25-08-2016,328,DHANASHEKAR.M,GS,00:00,00:00
82,25-08-2016,330,ANIL KUMAR,GS,08:59,00:00
83,25-08-2016,331,CHETAN.S,GS,00:00,00:00
84,25-08-2016,332,SHIVAPRASAD,GS,08:56,18:43
