SNo,Date,E. Code,Name,Shift, InTime, OutTime,
1,25-06-2017,123,K.N.SURENDRA,GS,00:00,00:00,
2,25-06-2017,124,K.N.SOWMYA,GS,00:00,00:00,
3,25-06-2017,125,K.N.BOREGOWDA,GS,00:00,00:00,
4,25-06-2017,127,SRINIVAS.H.C,GS,00:00,00:00,
5,25-06-2017,128,KUMAR.H.S,GS,00:00,00:00,
6,25-06-2017,130,A.H.PRASAD KUMAR,GS,00:00,00:00,
7,25-06-2017,131,GIRISH SHETTY,GS,00:00,00:00,
8,25-06-2017,135,KUMAR.B.S,GS,00:00,00:00,
9,25-06-2017,136,SUDHIR SHETTY,GS,00:00,00:00,
10,25-06-2017,138,PRASANNA KUMAR.S,GS,00:00,00:00,
11,25-06-2017,139,MITHUN.G.SHETTY,GS,00:00,00:00,
12,25-06-2017,140,VENKATESH.K,GS,08:09,18:06,
13,25-06-2017,143,JAGANNATH JAKKA,GS,10:30,00:00,
14,25-06-2017,147,UMESH.B.V,GS,00:00,00:00,
15,25-06-2017,149,C.V.HARISH,GS,00:00,00:00,
16,25-06-2017,157,SANTOSH.K.NAIK,GS,00:00,00:00,
17,25-06-2017,158,NANJEGOWDA,GS,00:00,00:00,
18,25-06-2017,170,VAISHNAVI.R.AITHAL,GS,00:00,00:00,
19,25-06-2017,171,SHIVANNA,GS,00:00,00:00,
20,25-06-2017,175,BHANUPRAKASH DG,GS,00:00,00:00,
21,25-06-2017,197,SHIVA KUMAR.N,GS,00:00,00:00,
22,25-06-2017,199,HEMANTH.V.G,GS,00:00,00:00,
23,25-06-2017,201,SUNIL KUMAR.B.B,GS,00:00,00:00,
24,25-06-2017,202,MAHESH RAJ URS,GS,00:00,00:00,
25,25-06-2017,206,PRASANNA.N.M,GS,00:00,00:00,
26,25-06-2017,207,PRIYA NAGARAJ,GS,00:00,00:00,
27,25-06-2017,208,K.P.RAGHAVENDRA,GS,00:00,00:00,
28,25-06-2017,210,KAVYA.B.K,GS,00:00,00:00,
29,25-06-2017,211,BASAVARAJU.K.N,GS,00:00,00:00,
30,25-06-2017,213,AJITH ASHOKAN,GS,00:00,00:00,
31,25-06-2017,217,C.SHASHIDHAR,GS,00:00,00:00,
32,25-06-2017,218,KISHORE.B.N,GS,00:00,00:00,
33,25-06-2017,223,CHETAN.G.K,GS,00:00,00:00,
34,25-06-2017,230,KEERTHI KUMAR.K.R,GS,00:00,00:00,
35,25-06-2017,243,ABBUBAKARSIDEEK.K,GS,00:00,00:00,
36,25-06-2017,250,YOGESH.A.N,GS,00:00,00:00,
37,25-06-2017,252,SRILATHA BOLLADY,GS,00:00,00:00,
38,25-06-2017,254,PAVAN KUMAR.H.N,GS,00:00,00:00,
39,25-06-2017,257,CHANDRAPPA,GS,00:00,00:00,
40,25-06-2017,258,THIPPESWAMY.B.C,GS,00:00,00:00,
41,25-06-2017,262,REKHA,GS,00:00,00:00,
42,25-06-2017,263,YOGESH GOWDA.M.L,GS,00:00,00:00,
43,25-06-2017,265,NAGARAJ PRAKASH,GS,00:00,00:00,
44,25-06-2017,268,AVIN KUMAR,GS,00:00,00:00,
45,25-06-2017,269,PRADEEP.B.R,GS,00:00,00:00,
46,25-06-2017,273,KUSHALA.G.V,GS,00:00,00:00,
47,25-06-2017,274,Abhinandan.K.M,GS,00:00,00:00,
48,25-06-2017,275,MANJU.B,GS,00:00,00:00,
49,25-06-2017,277,N.CHANDRASHEKAR,GS,00:00,00:00,
50,25-06-2017,279,MALLESH,GS,00:00,00:00,
51,25-06-2017,282,NAVIN KUMAR.B.R,GS,00:00,00:00,
52,25-06-2017,290,NARAYANA REDDY.M,GS,00:00,00:00,
53,25-06-2017,293,VENKAT RAMANAIAH YETURU,GS,00:00,00:00,
54,25-06-2017,296,NANDEESHA.K,GS,00:00,00:00,
55,25-06-2017,300,KEMPARAJU.N.S,GS,00:00,00:00,
56,25-06-2017,302,HARSHA KUMAR.H.R,GS,00:00,00:00,
57,25-06-2017,303,PRITHVI KUMAR.C.A,GS,09:23,09:30,
58,25-06-2017,304,SANTOSH NARAYAN,GS,00:00,00:00,
59,25-06-2017,314,VIJAYASHREE.S.ANAND,GS,00:00,00:00,
60,25-06-2017,317,MAHESH GOWDA.C.S,GS,00:00,00:00,
61,25-06-2017,321,PALLAVI.K,GS,00:00,00:00,
62,25-06-2017,322,SURESH.K,GS,00:00,00:00,
63,25-06-2017,323,CHELUVEGOWDA.H.S,GS,00:00,00:00,
64,25-06-2017,327,BINDU RANI,GS,00:00,00:00,
65,25-06-2017,328,DHANASHEKAR.M,GS,00:00,00:00,
66,25-06-2017,330,THIMMAPPA,GS,00:00,00:00,
67,25-06-2017,331,ALTAF,GS,00:00,00:00,
68,25-06-2017,332,ANIL KUMAR.H.R,GS,00:00,00:00,
69,25-06-2017,334,SHIVAPRASAD,GS,00:00,00:00,
70,25-06-2017,324,Madan.V,GS,00:00,00:00,
71,25-06-2017,336,SHWETHA.H.G,GS,09:15,17:58,
72,25-06-2017,338,NANDINI.S.L,GS,00:00,00:00,
73,25-06-2017,1010,RAMU.H.M,GS,00:00,00:00,
74,25-06-2017,1011,NIRANJAN.K.B,GS,00:00,00:00,
75,25-06-2017,189,K.N.RAJU,GS,00:00,00:00,
76,25-06-2017,339,MADEVAPPA BHAJANTRI,GS,00:00,00:00,
77,25-06-2017,5002,Madhu sudhan.B,GS,00:00,00:00,
78,25-06-2017,5004,SHIVANNA JUNIOR,GS,00:00,00:00,
79,25-06-2017,5005,Sarath kumar.R,GS,00:00,00:00,
80,25-06-2017,5006,Ritish Kiran.,GS,00:00,00:00,
81,25-06-2017,5007,Sanjay Prabhakar Balli,GS,00:00,00:00,
82,25-06-2017,5008,Vinay.K.C,GS,00:00,00:00,
83,25-06-2017,5010,SARANDEEP.S,GS,00:00,00:00,
84,25-06-2017,5011,NETHRAVATHI.T,GS,09:11,18:00,
85,25-06-2017,5013,CHANNABASAVESHWARASWAMY.G.S,GS,00:00,00:00,
86,25-06-2017,5014,J.K.SRINIVASA,GS,00:00,00:00,
87,25-06-2017,5015,SANDEEPA.V.P,GS,00:00,00:00,
