SNo,Date,E. Code,Name,Shift, InTime, OutTime
1,24-03-2018,123,K.N.SURENDRA,GS,09:00,18:00
2,24-03-2018,124,K.N.SOWMYA,GS,09:00,18:00
3,24-03-2018,125,K.N.BOREGOWDA,GS,09:00,18:00
4,24-03-2018,127,SRINIVAS.H.C,GS,09:00,18:00
5,24-03-2018,128,KUMAR.H.S,GS,09:00,18:00
6,24-03-2018,130,A.H.PRASAD KUMAR,GS,09:00,18:00
7,24-03-2018,131,GIRISH SHETTY,GS,09:05,15:49
8,24-03-2018,135,KUMAR.B.S,GS,08:50,18:38
9,24-03-2018,136,SUDHIR SHETTY,GS,10:25,15:46
10,24-03-2018,138,PRASANNA KUMAR.S,GS,09:43,00:00
11,24-03-2018,139,MITHUN.G.SHETTY,GS,09:53,00:00
12,24-03-2018,140,VENKATESH.K,GS,09:00,19:42
13,24-03-2018,143,JAGANNATH JAKKA,GS,00:00,00:00
14,24-03-2018,147,UMESH.B.V,GS,11:39,18:38
15,24-03-2018,157,SANTOSH.K.NAIK,GS,08:30,19:00
16,24-03-2018,158,NANJEGOWDA,GS,08:22,17:11
17,24-03-2018,170,VAISHNAVI.R.AITHAL,GS,09:01,18:04
18,24-03-2018,171,SHIVANNA,GS,09:13,17:45
19,24-03-2018,175,BHANUPRAKASH DG,GS,09:29,18:41
20,24-03-2018,197,SHIVA KUMAR.N,GS,09:20,00:00
21,24-03-2018,201,SUNIL KUMAR.B.B,GS,08:56,11:41
22,24-03-2018,202,MAHESH RAJ URS,GS,00:00,00:00
23,24-03-2018,207,PRIYA NAGARAJ,GS,14:41,18:31
24,24-03-2018,208,K.P.RAGHAVENDRA,GS,09:00,18:00
25,24-03-2018,210,KAVYA.B.K,GS,10:11,18:35
26,24-03-2018,211,BASAVARAJU.K.N,GS,09:22,19:14
27,24-03-2018,217,C.SHASHIDHAR,GS,08:04,00:00
28,24-03-2018,223,CHETAN.G.K,GS,00:00,00:00
29,24-03-2018,243,ABBUBAKARSIDEEK.K,GS,00:00,00:00
30,24-03-2018,250,YOGESH.A.N,GS,08:27,18:38
31,24-03-2018,252,SRILATHA BOLLADY,GS,09:34,18:15
32,24-03-2018,254,PAVAN KUMAR.H.N,GS,11:32,18:09
33,24-03-2018,257,CHANDRAPPA,GS,09:00,18:00
34,24-03-2018,262,REKHA,GS,09:00,18:00
35,24-03-2018,263,YOGESH GOWDA.M.L,GS,00:00,00:00
36,24-03-2018,265,NAGARAJ PRAKASH,GS,09:13,18:15
37,24-03-2018,268,AVIN KUMAR,GS,00:00,00:00
38,24-03-2018,269,PRADEEP.B.R,GS,00:00,00:00
39,24-03-2018,273,KUSHALA.G.V,GS,09:00,18:00
40,24-03-2018,274,Abhinandan.K.M,GS,00:00,00:00
41,24-03-2018,275,MANJU.B,GS,09:28,18:13
42,24-03-2018,279,MALLESH,GS,00:00,00:00
43,24-03-2018,282,NAVIN KUMAR.B.R,GS,08:45,18:17
44,24-03-2018,290,NARAYANA REDDY.M,GS,08:59,16:18
45,24-03-2018,293,VENKAT RAMANAIAH YETURU,GS,08:43,18:13
46,24-03-2018,296,NANDEESHA.K,GS,08:55,08:55
47,24-03-2018,302,HARSHA KUMAR.H.R,GS,00:00,00:00
48,24-03-2018,303,PRITHVI KUMAR.C.A,GS,09:43,09:50
49,24-03-2018,314,VIJAYASHREE.S.ANAND,GS,09:16,18:08
50,24-03-2018,322,SURESH.K,GS,09:02,17:56
51,24-03-2018,323,CHELUVEGOWDA.H.S,GS,07:43,15:01
52,24-03-2018,327,BINDU RANI,GS,10:48,17:57
53,24-03-2018,328,DHANASHEKAR.M,GS,09:20,18:15
54,24-03-2018,331,ALTAF,GS,09:00,18:00
55,24-03-2018,332,ANIL KUMAR.H.R,GS,09:19,19:00
56,24-03-2018,334,SHIVAPRASAD,GS,09:12,18:12
57,24-03-2018,336,SHWETHA.H.G,GS,09:04,18:31
58,24-03-2018,1011,NIRANJAN.K.B,GS,00:00,00:00
59,24-03-2018,189,K.N.RAJU,GS,00:00,00:00
60,24-03-2018,339,MADEVAPPA BHAJANTRI,GS,08:43,19:39
61,24-03-2018,5002,Madhu sudhan.B,GS,00:00,00:00
62,24-03-2018,5004,SHIVANNA JUNIOR,GS,09:00,18:00
63,24-03-2018,5008,Vinay.K.C,GS,09:06,18:07
64,24-03-2018,346,SARANDEEP.S,GS,09:50,15:21
65,24-03-2018,342,NETHRAVATHI.T,GS,09:15,18:13
66,24-03-2018,344,J.K.SRINIVASA,GS,00:00,00:00
67,24-03-2018,5015,SANDEEPA.V.P,GS,00:00,00:00
68,24-03-2018,347,DEEPAK.T.N,GS,08:55,18:02
69,24-03-2018,348,VINAY BHARGAVA.K.N,GS,00:00,00:00
70,24-03-2018,5016,Praveen kumar.H.M,GS,00:00,00:00
71,24-03-2018,351,RAGHUVEER.R,GS,09:12,19:16
72,24-03-2018,349,RATHNA,GS,09:00,18:00
73,24-03-2018,5017,NITHIN KUMAR K,GS,00:00,00:00
74,24-03-2018,4003,B.BHAVYASHREE,GS,09:34,18:13
75,24-03-2018,4004,SANTOSHIMATA.S.B,GS,09:03,18:13
76,24-03-2018,5020,LAKSHMIKANTH.C.S,GS,08:45,18:07
77,24-03-2018,4005,KEMPEGOWDA.G,GS,09:00,18:00
78,24-03-2018,5021,MENAKA.N,GS,09:00,18:00
79,24-03-2018,5023,Kavya.B.S,GS,09:22,18:14
80,24-03-2018,5024,KARTHIK.R,GS,00:00,00:00
81,24-03-2018,5025,SHIVAKUMAR.M.S,GS,07:19,19:42
82,24-03-2018,5026,SUMANRAJ,GS,09:06,18:08
83,24-03-2018,354,AJITHKUMAR.Y.B,GS,08:54,17:50
84,24-03-2018,4008,RANJITHA.B.P,GS,08:48,18:15
85,24-03-2018,5027,MAHADEV,GS,07:37,19:42
86,24-03-2018,5028,AVILASH.P.G,GS,09:10,17:44
87,24-03-2018,5029,ABHISHEK ,GS,00:00,00:00
88,24-03-2018,355,RAJARAO,GS,09:00,18:00
89,24-03-2018,356,PUNITH KUMAR.K.M,GS,00:00,00:00
90,24-03-2018,5031,SANJAY,GS,09:28,19:01
91,24-03-2018,4009,RASHMITHA.S,GS,10:00,19:03
92,24-03-2018,4010,R.D.NANDINI,GS,09:07,18:13
93,24-03-2018,4011,RANJINI.K,GS,08:57,18:14
94,24-03-2018,5032,DHAN BOPAIAH.K.B,GS,00:00,00:00
95,24-03-2018,358,VINAY.M,GS,00:00,00:00
96,24-03-2018,357,SHREYAS.B.H,GS,09:03,18:06
97,24-03-2018,359,JAIDEEP.B.S,GS,00:00,00:00
