SNo,Date,E. Code,Name,Shift, InTime, OutTime
1,25-11-2016,123,K.N.SURENDRA,GS,09:00,18:00
2,25-11-2016,124,K.N.SOWMYA,GS,09:00,18:00
3,25-11-2016,125,K.N.BOREGOWDA,GS,09:00,18:00
4,25-11-2016,127,SRINIVAS.H.C,GS,09:00,18:00
5,25-11-2016,128,KUMAR.H.S,GS,09:00,18:00
6,25-11-2016,130,A.H.PRASAD KUMAR,GS,09:00,18:00
7,25-11-2016,131,GIRISH SHETTY,GS,08:58,18:10
8,25-11-2016,135,KUMAR.B.S,GS,09:08,18:13
9,25-11-2016,136,SUDHIR SHETTY,GS,09:42,18:18
10,25-11-2016,138,PRASANNA KUMAR.S,GS,08:46,00:00
11,25-11-2016,139,MITHUN.G.SHETTY,GS,08:45,00:00
12,25-11-2016,140,VENKATESH.K,GS,10:30,19:49
13,25-11-2016,143,JAGANNATH JAKKA,GS,10:27,15:09
14,25-11-2016,147,UMESH.B.V,GS,09:24,18:15
15,25-11-2016,149,C.V.HARISH,GS,09:00,18:00
16,25-11-2016,152,CHANDRASHEKAR.M.B,GS,00:00,00:00
17,25-11-2016,157,SANTOSH.K.NAIK,GS,08:48,18:08
18,25-11-2016,158,NANJEGOWDA,GS,09:00,18:00
19,25-11-2016,170,VAISHNAVI.R.AITHAL,GS,09:12,18:15
20,25-11-2016,171,SHIVANNA,GS,09:20,19:00
21,25-11-2016,175,BHANUPRAKASH DG,GS,10:02,17:44
22,25-11-2016,188,RATHNA,GS,09:00,18:00
23,25-11-2016,197,SHIVA KUMAR.N,GS,14:05,19:08
24,25-11-2016,199,HEMANTH.V.G,GS,09:00,18:15
25,25-11-2016,201,SUNIL KUMAR.B.B,GS,09:02,18:17
26,25-11-2016,202,MAHESH RAJ URS,GS,08:53,18:00
27,25-11-2016,206,PRASANNA.N.M,GS,09:00,17:55
28,25-11-2016,207,PRIYA NAGARAJ,GS,13:04,18:14
29,25-11-2016,208,K.P.RAGHAVENDRA,GS,09:00,18:00
30,25-11-2016,210,KAVYA.B.K,GS,09:48,19:30
31,25-11-2016,211,BASAVARAJU.K.N,GS,09:32,19:41
32,25-11-2016,213,AJITH ASHOKAN,GS,09:00,18:36
33,25-11-2016,217,C.SHASHIDHAR,GS,08:34,18:01
34,25-11-2016,218,KISHORE.B.N,GS,09:00,18:00
35,25-11-2016,223,CHETAN.G.K,GS,09:00,18:00
36,25-11-2016,230,KEERTHI KUMAR.K.R,GS,09:00,18:00
37,25-11-2016,243,ABBUBAKARSIDEEK.K,GS,09:03,00:00
38,25-11-2016,245,AVILASH.P.G,GS,00:00,00:00
39,25-11-2016,250,YOGESH.A.N,GS,08:18,18:26
40,25-11-2016,252,SRILATHA BOLLADY,GS,00:00,00:00
41,25-11-2016,254,PAVAN KUMAR.H.N,GS,09:06,17:30
42,25-11-2016,257,CHANDRAPPA,GS,08:39,00:00
43,25-11-2016,258,THIPPESWAMY.B.C,GS,09:07,17:57
44,25-11-2016,259,KARTHIKEYA PATIL,GS,09:02,17:48
45,25-11-2016,261,RAMU,GS,09:00,18:00
46,25-11-2016,262,REKHA,GS,09:00,18:00
47,25-11-2016,263,YOGESH GOWDA.M.L,GS,07:40,19:49
48,25-11-2016,265,NAGARAJ PRAKASH,GS,09:07,18:11
49,25-11-2016,268,AVIN KUMAR,GS,09:01,18:00
50,25-11-2016,269,PRADEEP.B.R,GS,09:04,00:00
51,25-11-2016,270,MANJUNATH.R,GS,08:36,00:00
52,25-11-2016,273,KUSHALA.G.V,GS,09:00,18:00
53,25-11-2016,274,Abhinandan.K.M,GS,09:02,19:31
54,25-11-2016,275,MANJU.B,GS,09:00,18:16
55,25-11-2016,277,N.CHANDRASHEKAR,GS,08:52,17:48
56,25-11-2016,279,MALLESH,GS,09:00,18:00
57,25-11-2016,282,NAVIN KUMAR.B.R,GS,08:36,18:25
58,25-11-2016,290,NARAYANA REDDY.M,GS,08:51,18:17
59,25-11-2016,291,RAJANNA.A.C,GS,09:25,18:09
60,25-11-2016,293,VENKAT RAMANAIAH YETURU,GS,08:52,10:16
61,25-11-2016,296,NANDEESHA.K,GS,00:00,00:00
62,25-11-2016,300,KEMPARAJU.N.S,GS,09:09,18:17
63,25-11-2016,301,PUNEETH.M.P,GS,09:00,18:00
64,25-11-2016,302,HARSHA KUMAR.H.R,GS,09:00,18:00
65,25-11-2016,303,PRITHVI KUMAR.C.A,GS,09:01,17:55
66,25-11-2016,304,SANTOSH NARAYAN,GS,13:06,18:53
67,25-11-2016,309,MARY SHARLY,GS,09:03,18:11
68,25-11-2016,311,RAKESH.A.M,GS,00:00,00:00
69,25-11-2016,314,VIJAYASHREE.S.ANAND,GS,09:28,18:01
70,25-11-2016,315,BALAJI,GS,09:00,18:00
71,25-11-2016,317,MAHESH GOWDA.C.S,GS,09:02,18:15
72,25-11-2016,318,DHIRENDRA BHASKAR.H.P,GS,09:08,18:29
73,25-11-2016,319,PRADEEP KUMAR.S.S,GS,08:56,18:27
74,25-11-2016,320,RAJSHEKAR.C,GS,00:00,00:00
75,25-11-2016,321,PALLAVI.K,GS,09:16,18:01
76,25-11-2016,322,SURESH.K,GS,09:02,18:14
77,25-11-2016,323,CHELUVEGOWDA.H.S,GS,16:59,18:15
78,25-11-2016,327,BINDU RANI,GS,11:11,17:31
79,25-11-2016,328,DHANASHEKAR.M,GS,09:16,18:16
80,25-11-2016,329,Kaliprasad(NOT IN PAYROLL),GS,09:00,18:00
81,25-11-2016,330,THIMMAPPA,GS,08:15,19:46
82,25-11-2016,331,ALTAF,GS,08:49,00:00
83,25-11-2016,332,ANIL KUMAR.H.R,GS,08:45,00:00
84,25-11-2016,333,CHETAN.S,GS,00:00,00:00
85,25-11-2016,334,SHIVAPRASAD,GS,08:58,18:23
86,25-11-2016,324,Madan.V,GS,00:00,00:00
87,25-11-2016,249,DIVAKAR.N.M,GS,08:32,00:00
88,25-11-2016,336,SHWETHA.H.G,GS,09:07,18:14
89,25-11-2016,337,SRIDHAR,GS,08:58,19:20
90,25-11-2016,338,NANDINI.S.L,GS,09:06,18:42
