SNo,Date,E. Code,Name,Shift, InTime, OutTime
1,25-02-2018,123,K.N.SURENDRA,GS,00:00,00:00
2,25-02-2018,124,K.N.SOWMYA,GS,00:00,00:00
3,25-02-2018,125,K.N.BOREGOWDA,GS,00:00,00:00
4,25-02-2018,127,SRINIVAS.H.C,GS,00:00,00:00
5,25-02-2018,128,KUMAR.H.S,GS,00:00,00:00
6,25-02-2018,130,A.H.PRASAD KUMAR,GS,00:00,00:00
7,25-02-2018,131,GIRISH SHETTY,GS,00:00,00:00
8,25-02-2018,135,KUMAR.B.S,GS,00:00,00:00
9,25-02-2018,136,SUDHIR SHETTY,GS,00:00,00:00
10,25-02-2018,138,PRASANNA KUMAR.S,GS,00:00,00:00
11,25-02-2018,139,MITHUN.G.SHETTY,GS,00:00,00:00
12,25-02-2018,140,VENKATESH.K,GS,00:00,00:00
13,25-02-2018,143,JAGANNATH JAKKA,GS,00:00,00:00
14,25-02-2018,147,UMESH.B.V,GS,00:00,00:00
15,25-02-2018,157,SANTOSH.K.NAIK,GS,00:00,00:00
16,25-02-2018,158,NANJEGOWDA,GS,00:00,00:00
17,25-02-2018,170,VAISHNAVI.R.AITHAL,GS,00:00,00:00
18,25-02-2018,171,SHIVANNA,GS,00:00,00:00
19,25-02-2018,175,BHANUPRAKASH DG,GS,00:00,00:00
20,25-02-2018,197,SHIVA KUMAR.N,GS,00:00,00:00
21,25-02-2018,201,SUNIL KUMAR.B.B,GS,00:00,00:00
22,25-02-2018,202,MAHESH RAJ URS,GS,00:00,00:00
23,25-02-2018,207,PRIYA NAGARAJ,GS,00:00,00:00
24,25-02-2018,208,K.P.RAGHAVENDRA,GS,00:00,00:00
25,25-02-2018,210,KAVYA.B.K,GS,00:00,00:00
26,25-02-2018,211,BASAVARAJU.K.N,GS,09:20,18:05
27,25-02-2018,217,C.SHASHIDHAR,GS,00:00,00:00
28,25-02-2018,223,CHETAN.G.K,GS,00:00,18:18
29,25-02-2018,243,ABBUBAKARSIDEEK.K,GS,00:00,00:00
30,25-02-2018,250,YOGESH.A.N,GS,00:00,00:00
31,25-02-2018,252,SRILATHA BOLLADY,GS,00:00,00:00
32,25-02-2018,254,PAVAN KUMAR.H.N,GS,00:00,00:00
33,25-02-2018,257,CHANDRAPPA,GS,08:45,17:56
34,25-02-2018,262,REKHA,GS,00:00,00:00
35,25-02-2018,263,YOGESH GOWDA.M.L,GS,08:23,17:51
36,25-02-2018,265,NAGARAJ PRAKASH,GS,00:00,00:00
37,25-02-2018,268,AVIN KUMAR,GS,00:00,00:00
38,25-02-2018,269,PRADEEP.B.R,GS,00:00,00:00
39,25-02-2018,273,KUSHALA.G.V,GS,00:00,00:00
40,25-02-2018,274,Abhinandan.K.M,GS,00:00,00:00
41,25-02-2018,275,MANJU.B,GS,00:00,00:00
42,25-02-2018,279,MALLESH,GS,08:58,00:00
43,25-02-2018,282,NAVIN KUMAR.B.R,GS,09:00,18:00
44,25-02-2018,290,NARAYANA REDDY.M,GS,00:00,00:00
45,25-02-2018,293,VENKAT RAMANAIAH YETURU,GS,00:00,00:00
46,25-02-2018,296,NANDEESHA.K,GS,09:20,18:05
47,25-02-2018,302,HARSHA KUMAR.H.R,GS,00:00,00:00
48,25-02-2018,303,PRITHVI KUMAR.C.A,GS,00:00,00:00
49,25-02-2018,304,SANTOSH NARAYAN,GS,00:00,00:00
50,25-02-2018,314,VIJAYASHREE.S.ANAND,GS,00:00,00:00
51,25-02-2018,322,SURESH.K,GS,00:00,00:00
52,25-02-2018,323,CHELUVEGOWDA.H.S,GS,00:00,00:00
53,25-02-2018,327,BINDU RANI,GS,00:00,00:00
54,25-02-2018,328,DHANASHEKAR.M,GS,00:00,00:00
55,25-02-2018,331,ALTAF,GS,00:00,00:00
56,25-02-2018,332,ANIL KUMAR.H.R,GS,00:00,00:00
57,25-02-2018,334,SHIVAPRASAD,GS,00:00,00:00
58,25-02-2018,336,SHWETHA.H.G,GS,09:42,17:46
59,25-02-2018,1011,NIRANJAN.K.B,GS,08:59,00:00
60,25-02-2018,189,K.N.RAJU,GS,00:00,00:00
61,25-02-2018,339,MADEVAPPA BHAJANTRI,GS,00:00,00:00
62,25-02-2018,5002,Madhu sudhan.B,GS,00:00,00:00
63,25-02-2018,5004,SHIVANNA JUNIOR,GS,00:00,00:00
64,25-02-2018,5008,Vinay.K.C,GS,00:00,00:00
65,25-02-2018,346,SARANDEEP.S,GS,00:00,00:00
66,25-02-2018,342,NETHRAVATHI.T,GS,09:03,17:38
67,25-02-2018,344,J.K.SRINIVASA,GS,00:00,00:00
68,25-02-2018,5015,SANDEEPA.V.P,GS,00:00,00:00
69,25-02-2018,347,DEEPAK.T.N,GS,00:00,00:00
70,25-02-2018,348,VINAY BHARGAVA.K.N,GS,00:00,00:00
71,25-02-2018,5016,Praveen kumar.H.M,GS,00:00,00:00
72,25-02-2018,351,RAGHUVEER.R,GS,00:00,00:00
73,25-02-2018,349,RATHNA,GS,00:00,00:00
74,25-02-2018,5017,NITHIN KUMAR K,GS,00:00,00:00
75,25-02-2018,4002,CHAITRA.V,GS,00:00,00:00
76,25-02-2018,4003,B.BHAVYASHREE,GS,08:52,17:46
77,25-02-2018,4004,SANTOSHIMATA.S.B,GS,09:06,00:00
78,25-02-2018,5020,LAKSHMIKANTH.C.S,GS,00:00,00:00
79,25-02-2018,4005,KEMPEGOWDA.G,GS,00:00,00:00
80,25-02-2018,5021,MENAKA.N,GS,00:00,00:00
81,25-02-2018,5023,Kavya.B.S,GS,00:00,00:00
82,25-02-2018,5024,KARTHIK.R,GS,00:00,18:18
83,25-02-2018,5025,SHIVAKUMAR.M.S,GS,00:00,00:00
84,25-02-2018,5026,SUMANRAJ,GS,00:00,00:00
85,25-02-2018,354,AJITHKUMAR.Y.B,GS,00:00,00:00
86,25-02-2018,4008,RANJITHA,GS,08:34,08:34
87,25-02-2018,5027,MAHADEV,GS,08:26,08:26
88,25-02-2018,5028,AVILASH.P.G,GS,00:00,00:00
89,25-02-2018,5029,ABHISHEK ,GS,00:00,00:00
90,25-02-2018,5030,PRATHAP,GS,00:00,00:00
91,25-02-2018,355,RAJARAO,GS,00:00,00:00
92,25-02-2018,356,PUNITH KUMAR.K.M,GS,00:00,00:00
93,25-02-2018,5031,SANJAY,GS,00:00,00:00
94,25-02-2018,4009,RASHMITHA.S,GS,08:56,17:46
95,25-02-2018,4010,R.D.NANDINI,GS,08:54,17:46
96,25-02-2018,4011,RANJINI.K,GS,08:59,17:44
