SNo,Date,E. Code,Name,Shift, InTime, OutTime
1,25-01-2018,123,K.N.SURENDRA,GS,09:00,18:00
2,25-01-2018,124,K.N.SOWMYA,GS,09:00,18:00
3,25-01-2018,125,K.N.BOREGOWDA,GS,09:00,18:00
4,25-01-2018,127,SRINIVAS.H.C,GS,09:00,18:00
5,25-01-2018,128,KUMAR.H.S,GS,09:00,18:00
6,25-01-2018,130,A.H.PRASAD KUMAR,GS,09:00,18:00
7,25-01-2018,131,GIRISH SHETTY,GS,09:02,17:46
8,25-01-2018,135,KUMAR.B.S,GS,09:08,17:38
9,25-01-2018,136,SUDHIR SHETTY,GS,09:08,17:45
10,25-01-2018,138,PRASANNA KUMAR.S,GS,00:00,18:25
11,25-01-2018,139,MITHUN.G.SHETTY,GS,00:00,00:00
12,25-01-2018,140,VENKATESH.K,GS,09:37,18:34
13,25-01-2018,143,JAGANNATH JAKKA,GS,00:00,00:00
14,25-01-2018,147,UMESH.B.V,GS,09:02,17:17
15,25-01-2018,149,C.V.HARISH,GS,00:00,00:00
16,25-01-2018,157,SANTOSH.K.NAIK,GS,08:47,18:03
17,25-01-2018,158,NANJEGOWDA,GS,00:00,00:00
18,25-01-2018,170,VAISHNAVI.R.AITHAL,GS,00:00,00:00
19,25-01-2018,171,SHIVANNA,GS,00:00,00:00
20,25-01-2018,175,BHANUPRAKASH DG,GS,11:19,19:20
21,25-01-2018,197,SHIVA KUMAR.N,GS,09:26,17:51
22,25-01-2018,201,SUNIL KUMAR.B.B,GS,09:03,16:22
23,25-01-2018,202,MAHESH RAJ URS,GS,09:20,18:01
24,25-01-2018,206,PRASANNA.N.M,GS,00:00,00:00
25,25-01-2018,207,PRIYA NAGARAJ,GS,00:00,00:00
26,25-01-2018,208,K.P.RAGHAVENDRA,GS,09:00,18:00
27,25-01-2018,210,KAVYA.B.K,GS,00:00,00:00
28,25-01-2018,211,BASAVARAJU.K.N,GS,09:37,19:01
29,25-01-2018,213,AJITH ASHOKAN,GS,00:00,00:00
30,25-01-2018,217,C.SHASHIDHAR,GS,08:46,18:21
31,25-01-2018,223,CHETAN.G.K,GS,00:00,00:00
32,25-01-2018,243,ABBUBAKARSIDEEK.K,GS,08:49, 18:08
33,25-01-2018,250,YOGESH.A.N,GS,08:16,18:05
34,25-01-2018,252,SRILATHA BOLLADY,GS,08:56,17:47
35,25-01-2018,254,PAVAN KUMAR.H.N,GS,08:43,17:51
36,25-01-2018,257,CHANDRAPPA,GS,08:33,18:11
37,25-01-2018,262,REKHA,GS,09:00,18:00
38,25-01-2018,263,YOGESH GOWDA.M.L,GS,07:46,19:40
39,25-01-2018,265,NAGARAJ PRAKASH,GS,09:19,17:47
40,25-01-2018,268,AVIN KUMAR,GS,09:20,18:01
41,25-01-2018,269,PRADEEP.B.R,GS,00:00,00:00
42,25-01-2018,273,KUSHALA.G.V,GS,09:00,18:00
43,25-01-2018,274,Abhinandan.K.M,GS,00:00,00:00
44,25-01-2018,275,MANJU.B,GS,08:58,08:58
45,25-01-2018,279,MALLESH,GS,08:46,00:00
46,25-01-2018,282,NAVIN KUMAR.B.R,GS,08:54,00:00
47,25-01-2018,290,NARAYANA REDDY.M,GS,00:00,00:00
48,25-01-2018,293,VENKAT RAMANAIAH YETURU,GS,07:58,19:24
49,25-01-2018,296,NANDEESHA.K,GS,09:11,18:01
50,25-01-2018,302,HARSHA KUMAR.H.R,GS,08:52,18:15
51,25-01-2018,303,PRITHVI KUMAR.C.A,GS,00:00,00:00
52,25-01-2018,304,SANTOSH NARAYAN,GS,12:50,17:47
53,25-01-2018,314,VIJAYASHREE.S.ANAND,GS,09:12,18:07
54,25-01-2018,317,MAHESH GOWDA.C.S,GS,08:46,14:23
55,25-01-2018,322,SURESH.K,GS,09:18,17:25
56,25-01-2018,323,CHELUVEGOWDA.H.S,GS,08:53,16:48
57,25-01-2018,327,BINDU RANI,GS,00:00,00:00
58,25-01-2018,328,DHANASHEKAR.M,GS,00:00,00:00
59,25-01-2018,330,THIMMAPPA,GS,00:00,00:00
60,25-01-2018,331,ALTAF,GS,08:49,18:14
61,25-01-2018,332,ANIL KUMAR.H.R,GS,11:47,18:03
62,25-01-2018,334,SHIVAPRASAD,GS,08:04,18:11
63,25-01-2018,336,SHWETHA.H.G,GS,09:17,17:20
64,25-01-2018,1011,NIRANJAN.K.B,GS,09:03,00:00
65,25-01-2018,189,K.N.RAJU,GS,08:53,15:31
66,25-01-2018,339,MADEVAPPA BHAJANTRI,GS,08:43,18:18
67,25-01-2018,5002,Madhu sudhan.B,GS,00:00,00:00
68,25-01-2018,5004,SHIVANNA JUNIOR,GS,09:00,18:00
69,25-01-2018,5006,Ritish Kiran.,GS,00:00,00:00
70,25-01-2018,5008,Vinay.K.C,GS,00:00,00:00
71,25-01-2018,346,SARANDEEP.S,GS,00:00,00:00
72,25-01-2018,342,NETHRAVATHI.T,GS,00:00,00:00
73,25-01-2018,344,J.K.SRINIVASA,GS,08:56,18:25
74,25-01-2018,5015,SANDEEPA.V.P,GS,09:03,00:00
75,25-01-2018,347,DEEPAK.T.N,GS,09:55,17:29
76,25-01-2018,348,VINAY BHARGAVA.K.N,GS,09:11,17:50
77,25-01-2018,5016,Praveen kumar.H.M,GS,08:48,18:03
78,25-01-2018,351,RAGHUVEER.R,GS,09:01,17:52
79,25-01-2018,349,RATHNA,GS,09:00,18:00
80,25-01-2018,5017,NITHIN KUMAR K,GS,00:00,00:00
81,25-01-2018,4002,CHAITRA.V,GS,00:00,00:00
82,25-01-2018,4003,B.BHAVYASHREE,GS,00:00,00:00
83,25-01-2018,4004,SANTOSHIMATA.S.B,GS,00:00,00:00
84,25-01-2018,5020,LAKSHMIKANTH.C.S,GS,08:53,18:35
85,25-01-2018,4005,KEMPEGOWDA.G,GS,09:00,18:00
86,25-01-2018,5021,MENAKA.N,GS,00:00,00:00
87,25-01-2018,5023,Kavya.B.S,GS,00:00,00:00
88,25-01-2018,5024,KARTHIK.R,GS,00:00,00:00
89,25-01-2018,5025,SHIVAKUMAR.M.S,GS,08:00,19:40
90,25-01-2018,5026,SUMANRAJ,GS,00:00,00:00
91,25-01-2018,5027,MAHADEV,GS,00:00,00:00
92,25-01-2018,354,AJITHKUMAR.Y.B,GS,00:00,18:02
93,25-01-2018,4006,APOORVA,GS,00:00,00:00
94,25-01-2018,4007,AMRUTHA,GS,00:00,00:00
95,25-01-2018,4008,RANJITHA,GS,00:00,00:00
96,25-01-2018,5027,MAHADEV,GS,07:51,19:40
