SNo,Date,E. Code,Name,Shift, InTime, OutTime
1,25-6-16,123,K.N.SURENDRA,GS,9:00,18:00
2,25-6-16,124,K.N.SOWMYA,GS,9:00,18:00
3,25-6-16,125,K.N.BOREGOWDA,GS,9:00,18:00
4,25-6-16,127,SRINIVAS.H.C,GS,9:00,18:00
5,25-6-16,128,KUMAR.H.S,GS,9:00,18:00
6,25-6-16,130,A.H.PRASAD KUMAR,GS,9:00,18:00
7,25-6-16,131,GIRISH SHETTY,GS,8:59,18:13
8,25-6-16,135,KUMAR.B.S,GS,9:01,17:51
9,25-6-16,136,SUDHIR SHETTY,GS,0:00,0:00
10,25-6-16,138,PRASANNA KUMAR.S,GS,0:00,21:53
11,25-6-16,139,MITHUN.G.SHETTY,GS,8:59,21:54
12,25-6-16,140,VENKATESH.K,GS,9:48,19:23
13,25-6-16,143,JAGANNATH JAKKA,GS,10:14,18:43
14,25-6-16,147,UMESH.B.V,GS,0:00,0:00
15,25-6-16,149,C.V.HARISH,GS,7:30,18:00
16,25-6-16,152,CHANDRASHEKAR.M.B,GS,0:00,0:00
17,25-6-16,157,SANTOSH.K.NAIK,GS,0:00,0:00
18,25-6-16,158,NANJEGOWDA,GS,0:00,0:00
19,25-6-16,170,VAISHNAVI.R.AITHAL,GS,9:07,19:01
20,25-6-16,171,SHIVANNA,GS,8:29,20:00
21,25-6-16,172,BOREGOWDA,GS,8:35,18:00
22,25-6-16,175,BHANUPRAKASH DG,GS,9:03,17:15
23,25-6-16,188,RATHNA,GS,0:00,0:00
24,25-6-16,194,NANJAMANI,GS,8:33,18:01
25,25-6-16,195,RAVI IV,GS,8:59,19:03
26,25-6-16,197,SHIVA KUMAR.N,GS,8:58,18:27
27,25-6-16,199,HEMANTH.V.G,GS,9:10,18:00
28,25-6-16,201,SUNIL KUMAR.B.B,GS,8:49,17:58
29,25-6-16,202,MAHESH RAJ URS,GS,8:58,18:35
30,25-6-16,206,PRASANNA.N.M,GS,9:01,18:01
31,25-6-16,207,PRIYA NAGARAJ,GS,11:22,18:43
32,25-6-16,208,K.P.RAGHAVENDRA,GS,9:00,18:00
33,25-6-16,209,NAVEEN.B.L,GS,8:28,18:34
34,25-6-16,210,KAVYA.B.K,GS,9:51,18:43
35,25-6-16,211,BASAVARAJU.K.N,GS,9:13,19:24
36,25-6-16,213,AJITH ASHOKAN,GS,9:02,18:04
37,25-6-16,217,C.SHASHIDHAR,GS,8:51,18:00
38,25-6-16,218,KISHORE.B.N,GS,8:54,18:00
39,25-6-16,223,CHETAN.G.K,GS,8:03,18:53
40,25-6-16,230,KEERTHI KUMAR.K.R,GS,0:00,18:06
41,25-6-16,236,NANDEESH.G.H,GS,0:00,0:00
42,25-6-16,243,ABBUBAKARSIDEEK.K,GS,8:47,18:16
43,25-6-16,245,AVILASH.P.G,GS,8:48,18:00
44,25-6-16,249,DIVAKAR.N.N,GS,0:00,0:00
45,25-6-16,250,YOGESH.A.N,GS,8:26,18:02
46,25-6-16,252,SRILATHA BOLLADY,GS,9:23,18:58
47,25-6-16,254,PAVAN KUMAR.H.N,GS,8:55,17:59
48,25-6-16,257,CHANDRAPPA,GS,8:18,18:02
49,25-6-16,258,THIPPESWAMY.B.C,GS,9:09,17:59
50,25-6-16,259,KARTHIKEYA PATIL,GS,8:49,0:00
51,25-6-16,261,RAMU,GS,9:00,18:00
52,25-6-16,262,REKHA,GS,9:00,18:00
53,25-6-16,263,YOGESH GOWDA.M.L,GS,0:00,20:30
54,25-6-16,265,NAGARAJ PRAKASH,GS,8:57,18:05
55,25-6-16,269,PRADEEP.B.R,GS,9:00,18:18
56,25-6-16,270,MANJUNATH.R,GS,0:00,0:00
57,25-6-16,273,KUSHALA.G.V,GS,9:00,18:00
58,25-6-16,274,Abhinandan.K.M,GS,8:59,18:18
59,25-6-16,275,MANJU.B,GS,9:16,13:27
60,25-6-16,277,N.CHANDRAHEKAR,GS,8:40,0:00
61,25-6-16,279,MALLESH,GS,8:35,18:00
62,25-6-16,282,NAVIN KUMAR.B.R,GS,8:47,18:00
63,25-6-16,290,NARAYANA REDDY.M,GS,9:27,18:01
64,25-6-16,291,RAJANNA.A.C,GS,9:05,17:29
65,25-6-16,293,VENKAT RAMANAIAH YETURU,GS,9:16,20:18
66,25-6-16,295,SHIVARAJ.V.S,GS,0:00,0:00
67,25-6-16,296,NANDEESHA.K,GS,8:47,18:16
68,25-6-16,298,SHARATH.N,GS,9:48,0:00
69,25-6-16,300,KEMPARAJU.N.S,GS,9:04,18:05
70,25-6-16,301,PUNEETH.M.P,GS,9:00,18:00
71,25-6-16,302,HARSHA KUMAR.H.R,GS,8:49,17:54
72,25-6-16,303,PRITHVI KUMAR.C.A,GS,9:11,0:00
73,25-6-16,304,SANTOSH NARAYAN,GS,0:00,13:29
74,25-6-16,307,VIVEK KUMAR SHARMA,GS,0:00,0:00
75,25-6-16,309,MARY SHARLY,GS,9:02,17:11
76,25-6-16,311,RAKESH.A.M,GS,0:00,0:00
77,25-6-16,312,GAYATRI R BHAT,GS,9:17,17:58
78,25-6-16,313,SUSHMA.R,GS,0:00,0:00
79,25-6-16,314,VIJAYASHREE.S.ANAND,GS,9:58,17:51
80,25-6-16,315,BALAJI,GS,9:00,18:00
81,25-6-16,317,MAHESH GOWDA.C.S,GS,8:59,18:00
82,25-6-16,318,DHIRENDRA BHASKAR.H.P,GS,9:05,0:00
83,25-6-16,319,PRADEEP KUMAR.S.S,GS,8:59,18:00
84,25-6-16,320,RAJSHEKAR.C,GS,9:00,18:00
85,25-6-16,321,PALLAVI.K,GS,9:00,18:02
86,25-6-16,322,SURESH.K,GS,9:12,17:12
