SNo,Date,E. Code,Name,Shift, InTime, OutTime
1,21-05-2017,123,K.N.SURENDRA,GS,00:00,00:00
2,21-05-2017,124,K.N.SOWMYA,GS,00:00,00:00
3,21-05-2017,125,K.N.BOREGOWDA,GS,00:00,00:00
4,21-05-2017,127,SRINIVAS.H.C,GS,00:00,00:00
5,21-05-2017,128,KUMAR.H.S,GS,00:00,00:00
6,21-05-2017,130,A.H.PRASAD KUMAR,GS,00:00,00:00
7,21-05-2017,131,GIRISH SHETTY,GS,00:00,00:00
8,21-05-2017,135,KUMAR.B.S,GS,00:00,00:00
9,21-05-2017,136,SUDHIR SHETTY,GS,00:00,00:00
10,21-05-2017,138,PRASANNA KUMAR.S,GS,00:00,00:00
11,21-05-2017,139,MITHUN.G.SHETTY,GS,10:01,10:55
12,21-05-2017,140,VENKATESH.K,GS,00:00,00:00
13,21-05-2017,143,JAGANNATH JAKKA,GS,15:23,00:00
14,21-05-2017,147,UMESH.B.V,GS,00:00,00:00
15,21-05-2017,149,C.V.HARISH,GS,00:00,00:00
16,21-05-2017,152,CHANDRASHEKAR.M.B,GS,00:00,00:00
17,21-05-2017,157,SANTOSH.K.NAIK,GS,00:00,00:00
18,21-05-2017,158,NANJEGOWDA,GS,00:00,00:00
19,21-05-2017,170,VAISHNAVI.R.AITHAL,GS,00:00,00:00
20,21-05-2017,171,SHIVANNA,GS,00:00,00:00
21,21-05-2017,175,BHANUPRAKASH DG,GS,00:00,00:00
22,21-05-2017,197,SHIVA KUMAR.N,GS,15:06,18:14
23,21-05-2017,199,HEMANTH.V.G,GS,00:00,00:00
24,21-05-2017,201,SUNIL KUMAR.B.B,GS,00:00,00:00
25,21-05-2017,202,MAHESH RAJ URS,GS,00:00,00:00
26,21-05-2017,206,PRASANNA.N.M,GS,00:00,00:00
27,21-05-2017,207,PRIYA NAGARAJ,GS,00:00,00:00
28,21-05-2017,208,K.P.RAGHAVENDRA,GS,00:00,00:00
29,21-05-2017,210,KAVYA.B.K,GS,00:00,00:00
30,21-05-2017,211,BASAVARAJU.K.N,GS,00:00,00:00
31,21-05-2017,213,AJITH ASHOKAN,GS,00:00,00:00
32,21-05-2017,217,C.SHASHIDHAR,GS,00:00,00:00
33,21-05-2017,218,KISHORE.B.N,GS,00:00,00:00
34,21-05-2017,223,CHETAN.G.K,GS,00:00,00:00
35,21-05-2017,230,KEERTHI KUMAR.K.R,GS,00:00,00:00
36,21-05-2017,243,ABBUBAKARSIDEEK.K,GS,00:00,00:00
37,21-05-2017,250,YOGESH.A.N,GS,00:00,00:00
38,21-05-2017,252,SRILATHA BOLLADY,GS,00:00,00:00
39,21-05-2017,254,PAVAN KUMAR.H.N,GS,00:00,00:00
40,21-05-2017,257,CHANDRAPPA,GS,00:00,00:00
41,21-05-2017,258,THIPPESWAMY.B.C,GS,00:00,00:00
42,21-05-2017,262,REKHA,GS,00:00,00:00
43,21-05-2017,263,YOGESH GOWDA.M.L,GS,08:29,18:17
44,21-05-2017,265,NAGARAJ PRAKASH,GS,00:00,00:00
45,21-05-2017,268,AVIN KUMAR,GS,00:00,00:00
46,21-05-2017,269,PRADEEP.B.R,GS,00:00,00:00
47,21-05-2017,273,KUSHALA.G.V,GS,00:00,00:00
48,21-05-2017,274,Abhinandan.K.M,GS,00:00,00:00
49,21-05-2017,275,MANJU.B,GS,00:00,00:00
50,21-05-2017,277,N.CHANDRASHEKAR,GS,00:00,00:00
51,21-05-2017,279,MALLESH,GS,00:00,00:00
52,21-05-2017,282,NAVIN KUMAR.B.R,GS,00:00,00:00
53,21-05-2017,290,NARAYANA REDDY.M,GS,00:00,00:00
54,21-05-2017,293,VENKAT RAMANAIAH YETURU,GS,00:00,00:00
55,21-05-2017,296,NANDEESHA.K,GS,00:00,00:00
56,21-05-2017,300,KEMPARAJU.N.S,GS,00:00,00:00
57,21-05-2017,302,HARSHA KUMAR.H.R,GS,00:00,00:00
58,21-05-2017,303,PRITHVI KUMAR.C.A,GS,00:00,00:00
59,21-05-2017,304,SANTOSH NARAYAN,GS,00:00,00:00
60,21-05-2017,314,VIJAYASHREE.S.ANAND,GS,00:00,00:00
61,21-05-2017,315,BALAJI,GS,00:00,00:00
62,21-05-2017,317,MAHESH GOWDA.C.S,GS,00:00,00:00
63,21-05-2017,321,PALLAVI.K,GS,09:25,17:56
64,21-05-2017,322,SURESH.K,GS,00:00,00:00
65,21-05-2017,323,CHELUVEGOWDA.H.S,GS,00:00,00:00
66,21-05-2017,327,BINDU RANI,GS,00:00,00:00
67,21-05-2017,328,DHANASHEKAR.M,GS,00:00,00:00
68,21-05-2017,330,THIMMAPPA,GS,00:00,00:00
69,21-05-2017,331,ALTAF,GS,00:00,00:00
70,21-05-2017,332,ANIL KUMAR.H.R,GS,00:00,00:00
71,21-05-2017,334,SHIVAPRASAD,GS,00:00,00:00
72,21-05-2017,324,Madan.V(NOT IN PAYROLL),GS,00:00,00:00
73,21-05-2017,336,SHWETHA.H.G,GS,09:44,17:57
74,21-05-2017,338,NANDINI.S.L,GS,00:00,00:00
75,21-05-2017,1010,RAMU.H.M,GS,00:00,00:00
76,21-05-2017,1011,NIRANJAN.K.B,GS,00:00,00:00
77,21-05-2017,189,K.N.RAJU,GS,00:00,00:00
78,21-05-2017,339,MADEVAPPA BHAJANTRI,GS,00:00,00:00
79,21-05-2017,5002,Madhu sudhan.B,GS,00:00,00:00
80,21-05-2017,5004,SHIVANNA JUNIOR,GS,00:00,00:00
81,21-05-2017,5005,Sarath kumar.R,GS,00:00,00:00
82,21-05-2017,5006,Ritish Kiran.,GS,00:00,00:00
83,21-05-2017,5007,Sanjay Prabhakar Balli,GS,00:00,00:00
