SNo,Date,E. Code,Name,Shift, InTime, OutTime
1,22-05-2017,123,K.N.SURENDRA,GS,09:00,18:00
2,22-05-2017,124,K.N.SOWMYA,GS,09:00,18:00
3,22-05-2017,125,K.N.BOREGOWDA,GS,09:00,18:00
4,22-05-2017,127,SRINIVAS.H.C,GS,09:00,18:00
5,22-05-2017,128,KUMAR.H.S,GS,09:00,18:00
6,22-05-2017,130,A.H.PRASAD KUMAR,GS,09:00,18:00
7,22-05-2017,131,GIRISH SHETTY,GS,08:54,18:10
8,22-05-2017,135,KUMAR.B.S,GS,09:06,18:03
9,22-05-2017,136,SUDHIR SHETTY,GS,09:19,17:57
10,22-05-2017,138,PRASANNA KUMAR.S,GS,11:46,18:47
11,22-05-2017,139,MITHUN.G.SHETTY,GS,09:16,19:05
12,22-05-2017,140,VENKATESH.K,GS,00:00,00:00
13,22-05-2017,143,JAGANNATH JAKKA,GS,00:00,00:00
14,22-05-2017,147,UMESH.B.V,GS,09:15,18:02
15,22-05-2017,149,C.V.HARISH,GS,09:00,18:00
16,22-05-2017,152,CHANDRASHEKAR.M.B,GS,00:00,00:00
17,22-05-2017,157,SANTOSH.K.NAIK,GS,00:00,00:00
18,22-05-2017,158,NANJEGOWDA,GS,09:00,18:00
19,22-05-2017,170,VAISHNAVI.R.AITHAL,GS,08:53,18:00
20,22-05-2017,171,SHIVANNA,GS,09:12,18:09
21,22-05-2017,175,BHANUPRAKASH DG,GS,09:14,20:30
22,22-05-2017,197,SHIVA KUMAR.N,GS,09:36,19:53
23,22-05-2017,199,HEMANTH.V.G,GS,09:00,19:03
24,22-05-2017,201,SUNIL KUMAR.B.B,GS,09:07,18:03
25,22-05-2017,202,MAHESH RAJ URS,GS,16:03,18:16
26,22-05-2017,206,PRASANNA.N.M,GS,00:00,00:00
27,22-05-2017,207,PRIYA NAGARAJ,GS,13:11,18:19
28,22-05-2017,208,K.P.RAGHAVENDRA,GS,09:00,18:00
29,22-05-2017,210,KAVYA.B.K,GS,09:46,18:46
30,22-05-2017,211,BASAVARAJU.K.N,GS,00:00,00:00
31,22-05-2017,213,AJITH ASHOKAN,GS,09:01,18:37
32,22-05-2017,217,C.SHASHIDHAR,GS,00:00,00:00
33,22-05-2017,218,KISHORE.B.N,GS,00:00,00:00
34,22-05-2017,223,CHETAN.G.K,GS,09:21,00:00
35,22-05-2017,230,KEERTHI KUMAR.K.R,GS,00:00,00:00
36,22-05-2017,243,ABBUBAKARSIDEEK.K,GS,00:00,00:00
37,22-05-2017,250,YOGESH.A.N,GS,08:07,19:01
38,22-05-2017,252,SRILATHA BOLLADY,GS,09:40,19:12
39,22-05-2017,254,PAVAN KUMAR.H.N,GS,00:00,00:00
40,22-05-2017,257,CHANDRAPPA,GS,00:00,00:00
41,22-05-2017,258,THIPPESWAMY.B.C,GS,09:08,17:58
42,22-05-2017,262,REKHA,GS,09:00,18:00
43,22-05-2017,263,YOGESH GOWDA.M.L,GS,07:10,20:35
44,22-05-2017,265,NAGARAJ PRAKASH,GS,09:09,18:07
45,22-05-2017,268,AVIN KUMAR,GS,00:00,18:18
46,22-05-2017,269,PRADEEP.B.R,GS,00:00,00:00
47,22-05-2017,273,KUSHALA.G.V,GS,09:00,18:00
48,22-05-2017,274,Abhinandan.K.M,GS,09:18,19:51
49,22-05-2017,275,MANJU.B,GS,09:29,19:01
50,22-05-2017,277,N.CHANDRASHEKAR,GS,00:00,00:00
51,22-05-2017,279,MALLESH,GS,00:00,00:00
52,22-05-2017,282,NAVIN KUMAR.B.R,GS,00:00,00:00
53,22-05-2017,290,NARAYANA REDDY.M,GS,08:59,18:31
54,22-05-2017,293,VENKAT RAMANAIAH YETURU,GS,08:56,00:00
55,22-05-2017,296,NANDEESHA.K,GS,00:00,18:19
56,22-05-2017,300,KEMPARAJU.N.S,GS,08:57,19:02
57,22-05-2017,302,HARSHA KUMAR.H.R,GS,00:00,00:00
58,22-05-2017,303,PRITHVI KUMAR.C.A,GS,09:35,18:17
59,22-05-2017,304,SANTOSH NARAYAN,GS,15:03,15:34
60,22-05-2017,314,VIJAYASHREE.S.ANAND,GS,00:00,00:00
61,22-05-2017,315,BALAJI,GS,00:00,00:00
62,22-05-2017,317,MAHESH GOWDA.C.S,GS,09:09,19:52
63,22-05-2017,321,PALLAVI.K,GS,09:13,18:17
64,22-05-2017,322,SURESH.K,GS,09:07,18:03
65,22-05-2017,323,CHELUVEGOWDA.H.S,GS,00:00,00:00
66,22-05-2017,327,BINDU RANI,GS,10:53,17:32
67,22-05-2017,328,DHANASHEKAR.M,GS,10:55,18:43
68,22-05-2017,330,THIMMAPPA,GS,00:00,00:00
69,22-05-2017,331,ALTAF,GS,00:00,00:00
70,22-05-2017,332,ANIL KUMAR.H.R,GS,00:00,18:42
71,22-05-2017,334,SHIVAPRASAD,GS,08:59,19:32
72,22-05-2017,324,Madan.V(NOT IN PAYROLL),GS,00:00,00:00
73,22-05-2017,336,SHWETHA.H.G,GS,09:10,18:17
74,22-05-2017,338,NANDINI.S.L,GS,09:04,18:29
75,22-05-2017,1010,RAMU.H.M,GS,00:00,00:00
76,22-05-2017,1011,NIRANJAN.K.B,GS,00:00,00:00
77,22-05-2017,189,K.N.RAJU,GS,00:00,00:00
78,22-05-2017,339,MADEVAPPA BHAJANTRI,GS,08:44,20:25
79,22-05-2017,5002,Madhu sudhan.B,GS,00:00,00:00
80,22-05-2017,5004,SHIVANNA JUNIOR,GS,09:00,18:00
81,22-05-2017,5005,Sarath kumar.R,GS,09:00,18:00
82,22-05-2017,5006,Ritish Kiran.,GS,09:00,18:00
83,22-05-2017,5007,Sanjay Prabhakar Balli,GS,09:00,18:00
