SNo,Date,E. Code,Name,Shift, InTime, OutTime
1,26-10-2017,123,K.N.SURENDRA,GS,09:00,18:00
2,26-10-2017,124,K.N.SOWMYA,GS,09:00,18:00
3,26-10-2017,125,K.N.BOREGOWDA,GS,09:00,18:00
4,26-10-2017,127,SRINIVAS.H.C,GS,09:00,18:40
5,26-10-2017,128,KUMAR.H.S,GS,09:00,18:00
6,26-10-2017,130,A.H.PRASAD KUMAR,GS,09:00,18:00
7,26-10-2017,131,GIRISH SHETTY,GS,09:00,18:41
8,26-10-2017,135,KUMAR.B.S,GS,08:57,19:17
9,26-10-2017,136,SUDHIR SHETTY,GS,09:13,18:41
10,26-10-2017,138,PRASANNA KUMAR.S,GS,00:00,00:00
11,26-10-2017,139,MITHUN.G.SHETTY,GS,08:34,00:00
12,26-10-2017,140,VENKATESH.K,GS,10:07,19:47
13,26-10-2017,143,JAGANNATH JAKKA,GS,00:00,16:07
14,26-10-2017,147,UMESH.B.V,GS,08:59,18:05
15,26-10-2017,149,C.V.HARISH,GS,00:00,00:00
16,26-10-2017,157,SANTOSH.K.NAIK,GS,00:00,00:00
17,26-10-2017,158,NANJEGOWDA,GS,00:00,00:00
18,26-10-2017,170,VAISHNAVI.R.AITHAL,GS,08:26,18:47
19,26-10-2017,171,SHIVANNA,GS,09:04,18:00
20,26-10-2017,175,BHANUPRAKASH DG,GS,00:00,00:00
21,26-10-2017,197,SHIVA KUMAR.N,GS,09:20,19:00
22,26-10-2017,199,HEMANTH.V.G,GS,00:00,00:00
23,26-10-2017,201,SUNIL KUMAR.B.B,GS,09:12,18:16
24,26-10-2017,202,MAHESH RAJ URS,GS,00:00,18:36
25,26-10-2017,206,PRASANNA.N.M,GS,00:00,00:00
26,26-10-2017,207,PRIYA NAGARAJ,GS,09:16,16:31
27,26-10-2017,208,K.P.RAGHAVENDRA,GS,00:00,00:00
28,26-10-2017,210,KAVYA.B.K,GS,09:43,18:56
29,26-10-2017,211,BASAVARAJU.K.N,GS,00:00,00:00
30,26-10-2017,213,AJITH ASHOKAN,GS,09:05,20:35
31,26-10-2017,217,C.SHASHIDHAR,GS,00:00,00:00
32,26-10-2017,223,CHETAN.G.K,GS,00:00,00:00
33,26-10-2017,243,ABBUBAKARSIDEEK.K,GS,00:00,00:00
34,26-10-2017,250,YOGESH.A.N,GS,08:00,19:43
35,26-10-2017,252,SRILATHA BOLLADY,GS,09:11,18:34
36,26-10-2017,254,PAVAN KUMAR.H.N,GS,09:13,18:18
37,26-10-2017,257,CHANDRAPPA,GS,00:00,00:00
38,26-10-2017,262,REKHA,GS,09:00,18:00
39,26-10-2017,263,YOGESH GOWDA.M.L,GS,07:08,20:46
40,26-10-2017,265,NAGARAJ PRAKASH,GS,08:54,19:46
41,26-10-2017,268,AVIN KUMAR,GS,00:00,18:35
42,26-10-2017,269,PRADEEP.B.R,GS,00:00,00:00
43,26-10-2017,273,KUSHALA.G.V,GS,09:00,18:39
44,26-10-2017,274,Abhinandan.K.M,GS,09:11,19:00
45,26-10-2017,275,MANJU.B,GS,00:00,00:00
46,26-10-2017,277,N.CHANDRASHEKAR,GS,00:00,00:00
47,26-10-2017,279,MALLESH,GS,00:00,00:00
48,26-10-2017,282,NAVIN KUMAR.B.R,GS,00:00,00:00
49,26-10-2017,290,NARAYANA REDDY.M,GS,08:59,18:36
50,26-10-2017,293,VENKAT RAMANAIAH YETURU,GS,08:47,18:12
51,26-10-2017,296,NANDEESHA.K,GS,00:00,18:39
52,26-10-2017,300,KEMPARAJU.N.S,GS,09:03,00:00
53,26-10-2017,302,HARSHA KUMAR.H.R,GS,00:00,00:00
54,26-10-2017,303,PRITHVI KUMAR.C.A,GS,15:04,18:40
55,26-10-2017,304,SANTOSH NARAYAN,GS,11:43,18:34
56,26-10-2017,314,VIJAYASHREE.S.ANAND,GS,09:11,18:19
57,26-10-2017,317,MAHESH GOWDA.C.S,GS,00:00,00:00
58,26-10-2017,322,SURESH.K,GS,09:16,18:07
59,26-10-2017,323,CHELUVEGOWDA.H.S,GS,09:15,19:11
60,26-10-2017,327,BINDU RANI,GS,10:40,18:00
61,26-10-2017,328,DHANASHEKAR.M,GS,09:23,18:35
62,26-10-2017,330,THIMMAPPA,GS,00:00,00:00
63,26-10-2017,331,ALTAF,GS,09:00,18:00
64,26-10-2017,332,ANIL KUMAR.H.R,GS,00:00,00:00
65,26-10-2017,334,SHIVAPRASAD,GS,09:16,18:06
66,26-10-2017,324,Madan.V(NOT IN PAYROLL),GS,09:00,18:00
67,26-10-2017,336,SHWETHA.H.G,GS,08:58,18:35
68,26-10-2017,338,NANDINI.S.L,GS,09:06,18:33
69,26-10-2017,1011,NIRANJAN.K.B,GS,00:00,00:00
70,26-10-2017,189,K.N.RAJU,GS,00:00,00:00
71,26-10-2017,339,MADEVAPPA BHAJANTRI,GS,08:37,20:30
72,26-10-2017,5002,Madhu sudhan.B,GS,00:00,00:00
73,26-10-2017,5004,SHIVANNA JUNIOR,GS,09:00,18:00
74,26-10-2017,5005,Sarath kumar.R,GS,00:00,00:00
75,26-10-2017,5006,Ritish Kiran.,GS,00:00,00:00
76,26-10-2017,5008,Vinay.K.C,GS,00:00,00:00
77,26-10-2017,346,SARANDEEP.S,GS,00:00,00:00
78,26-10-2017,342,NETHRAVATHI.T,GS,09:25,18:36
79,26-10-2017,344,J.K.SRINIVASA,GS,08:48,18:35
80,26-10-2017,5015,SANDEEPA.V.P,GS,00:00,00:00
81,26-10-2017,347,DEEPAK.T.N,GS,10:01,18:36
82,26-10-2017,348,VINAY BHARGAVA.K.N,GS,08:42,20:44
83,26-10-2017,5016,Praveen kumar.H.M,GS,00:00,00:00
84,26-10-2017,351,RAGHUVEER.R,GS,09:02,18:09
85,26-10-2017,349,RATHNA,GS,09:00,18:00
86,26-10-2017,5017,NITHIN KUMAR K,GS,00:00,00:00
87,26-10-2017,5018,KIRAN.M,GS,00:00,00:00
88,26-10-2017,5019,NIVEDITHA.K.S,GS,09:02,18:22
89,26-10-2017,4001,ARPITHA.M,GS,09:02,18:22
90,26-10-2017,4002,CHAITRA.V,GS,00:00,00:00
91,26-10-2017,4003,B.BHAVYASHREE,GS,00:00,00:00
92,26-10-2017,4004,SANTOSHIMATA.S.B,GS,09:28,18:37
