SNo,Date,E. Code,Name,Shift, InTime, OutTime
1,26-07-2017,123,K.N.SURENDRA,GS,09:00,18:00
2,26-07-2017,124,K.N.SOWMYA,GS,09:00,18:00
3,26-07-2017,125,K.N.BOREGOWDA,GS,09:00,18:00
4,26-07-2017,127,SRINIVAS.H.C,GS,09:00,19:17
5,26-07-2017,128,KUMAR.H.S,GS,09:00,18:00
6,26-07-2017,130,A.H.PRASAD KUMAR,GS,09:00,18:00
7,26-07-2017,131,GIRISH SHETTY,GS,08:57,18:52
8,26-07-2017,135,KUMAR.B.S,GS,09:00,18:18
9,26-07-2017,136,SUDHIR SHETTY,GS,08:44,18:18
10,26-07-2017,138,PRASANNA KUMAR.S,GS,09:22,18:10
11,26-07-2017,139,MITHUN.G.SHETTY,GS,08:35,00:00
12,26-07-2017,140,VENKATESH.K,GS,09:34,19:32
13,26-07-2017,143,JAGANNATH JAKKA,GS,10:06,00:00
14,26-07-2017,147,UMESH.B.V,GS,09:09,18:18
15,26-07-2017,149,C.V.HARISH,GS,09:00,18:00
16,26-07-2017,157,SANTOSH.K.NAIK,GS,00:00,00:00
17,26-07-2017,158,NANJEGOWDA,GS,09:00,18:00
18,26-07-2017,170,VAISHNAVI.R.AITHAL,GS,08:50,18:35
19,26-07-2017,171,SHIVANNA,GS,09:17,18:12
20,26-07-2017,175,BHANUPRAKASH DG,GS,08:58,18:42
21,26-07-2017,197,SHIVA KUMAR.N,GS,09:05,19:23
22,26-07-2017,199,HEMANTH.V.G,GS,09:00,18:00
23,26-07-2017,201,SUNIL KUMAR.B.B,GS,09:20,17:58
24,26-07-2017,202,MAHESH RAJ URS,GS,18:15,18:19
25,26-07-2017,206,PRASANNA.N.M,GS,14:28,18:10
26,26-07-2017,207,PRIYA NAGARAJ,GS,09:10,18:19
27,26-07-2017,208,K.P.RAGHAVENDRA,GS,09:00,18:00
28,26-07-2017,210,KAVYA.B.K,GS,09:30,18:59
29,26-07-2017,211,BASAVARAJU.K.N,GS,00:00,00:00
30,26-07-2017,213,AJITH ASHOKAN,GS,08:56,17:21
31,26-07-2017,217,C.SHASHIDHAR,GS,00:00,00:00
32,26-07-2017,218,KISHORE.B.N,GS,00:00,00:00
33,26-07-2017,223,CHETAN.G.K,GS,12:58,00:00
34,26-07-2017,230,KEERTHI KUMAR.K.R,GS,00:00,00:00
35,26-07-2017,243,ABBUBAKARSIDEEK.K,GS,09:00,18:00
36,26-07-2017,250,YOGESH.A.N,GS,08:14,19:18
37,26-07-2017,252,SRILATHA BOLLADY,GS,09:12,18:35
38,26-07-2017,254,PAVAN KUMAR.H.N,GS,08:57,00:00
39,26-07-2017,257,CHANDRAPPA,GS,00:00,00:00
40,26-07-2017,258,THIPPESWAMY.B.C,GS,00:00,00:00
41,26-07-2017,262,REKHA,GS,09:00,18:00
42,26-07-2017,263,YOGESH GOWDA.M.L,GS,06:52,19:33
43,26-07-2017,265,NAGARAJ PRAKASH,GS,09:06,18:16
44,26-07-2017,268,AVIN KUMAR,GS,00:00,17:59
45,26-07-2017,269,PRADEEP.B.R,GS,00:00,00:00
46,26-07-2017,273,KUSHALA.G.V,GS,09:00,18:00
47,26-07-2017,274,Abhinandan.K.M,GS,08:52,19:23
48,26-07-2017,275,MANJU.B,GS,09:09,18:41
49,26-07-2017,277,N.CHANDRASHEKAR,GS,00:00,00:00
50,26-07-2017,279,MALLESH,GS,00:00,00:00
51,26-07-2017,282,NAVIN KUMAR.B.R,GS,00:00,00:00
52,26-07-2017,290,NARAYANA REDDY.M,GS,00:00,00:00
53,26-07-2017,293,VENKAT RAMANAIAH YETURU,GS,08:53,11:33
54,26-07-2017,296,NANDEESHA.K,GS,00:00,00:00
55,26-07-2017,300,KEMPARAJU.N.S,GS,09:03,18:19
56,26-07-2017,302,HARSHA KUMAR.H.R,GS,00:00,00:00
57,26-07-2017,303,PRITHVI KUMAR.C.A,GS,00:00,00:00
58,26-07-2017,304,SANTOSH NARAYAN,GS,10:10,18:35
59,26-07-2017,314,VIJAYASHREE.S.ANAND,GS,08:20,18:04
60,26-07-2017,317,MAHESH GOWDA.C.S,GS,08:50,14:41
61,26-07-2017,322,SURESH.K,GS,09:16,00:00
62,26-07-2017,323,CHELUVEGOWDA.H.S,GS,08:23,18:05
63,26-07-2017,327,BINDU RANI,GS,00:00,00:00
64,26-07-2017,328,DHANASHEKAR.M,GS,09:01,09:01
65,26-07-2017,330,THIMMAPPA,GS,00:00,00:00
66,26-07-2017,331,ALTAF,GS,00:00,00:00
67,26-07-2017,332,ANIL KUMAR.H.R,GS,00:00,00:00
68,26-07-2017,334,SHIVAPRASAD,GS,08:56,19:04
69,26-07-2017,324,Madan.V,GS,00:00,00:00
70,26-07-2017,336,SHWETHA.H.G,GS,09:26,18:06
71,26-07-2017,338,NANDINI.S.L,GS,09:11,18:31
72,26-07-2017,1010,RAMU.H.M,GS,00:00,00:00
73,26-07-2017,1011,NIRANJAN.K.B,GS,00:00,00:00
74,26-07-2017,189,K.N.RAJU,GS,00:00,00:00
75,26-07-2017,339,MADEVAPPA BHAJANTRI,GS,08:38,19:24
76,26-07-2017,5002,Madhu sudhan.B,GS,00:00,00:00
77,26-07-2017,5004,SHIVANNA JUNIOR,GS,00:00,00:00
78,26-07-2017,5005,Sarath kumar.R,GS,00:00,00:00
79,26-07-2017,5006,Ritish Kiran.,GS,00:00,00:00
80,26-07-2017,5007,Sanjay Prabhakar Balli,GS,00:00,00:00
81,26-07-2017,5008,Vinay.K.C,GS,00:00,00:00
82,26-07-2017,346,SARANDEEP.S,GS,09:07,17:53
83,26-07-2017,342,NETHRAVATHI.T,GS,09:06,18:05
84,26-07-2017,5013,CHANNABASAVESHWARASWAMY.G.S,GS,00:00,00:00
85,26-07-2017,344,SRINIVASA JK,GS,08:50,19:23
86,26-07-2017,5015,SANDEEPA.V.P,GS,00:00,00:00
87,26-07-2017,343,SRIDHAR.G,GS,00:00,00:00
88,26-07-2017,347,DEEPAK.T.N,GS,10:16,18:35
89,26-07-2017,348,VINAY BHARGAVA.K.N,GS,00:00,00:00
