SNo,Date,E. Code,Name,Shift, InTime, OutTime
1,26-11-2016,123,K.N.SURENDRA,GS,09:00,18:00
2,26-11-2016,124,K.N.SOWMYA,GS,09:00,18:00
3,26-11-2016,125,K.N.BOREGOWDA,GS,09:00,18:00
4,26-11-2016,127,SRINIVAS.H.C,GS,09:00,18:00
5,26-11-2016,128,KUMAR.H.S,GS,09:00,18:00
6,26-11-2016,130,A.H.PRASAD KUMAR,GS,09:00,18:00
7,26-11-2016,131,GIRISH SHETTY,GS,09:08,18:00
8,26-11-2016,135,KUMAR.B.S,GS,09:12,19:22
9,26-11-2016,136,SUDHIR SHETTY,GS,09:17,18:08
10,26-11-2016,138,PRASANNA KUMAR.S,GS,00:00,00:00
11,26-11-2016,139,MITHUN.G.SHETTY,GS,16:03,18:03
12,26-11-2016,140,VENKATESH.K,GS,09:58,09:59
13,26-11-2016,143,JAGANNATH JAKKA,GS,00:00,00:00
14,26-11-2016,147,UMESH.B.V,GS,09:35,17:56
15,26-11-2016,149,C.V.HARISH,GS,09:00,18:00
16,26-11-2016,152,CHANDRASHEKAR.M.B,GS,00:00,00:00
17,26-11-2016,157,SANTOSH.K.NAIK,GS,08:46,18:16
18,26-11-2016,158,NANJEGOWDA,GS,09:00,18:00
19,26-11-2016,170,VAISHNAVI.R.AITHAL,GS,09:07,18:46
20,26-11-2016,171,SHIVANNA,GS,09:02,17:04
21,26-11-2016,175,BHANUPRAKASH DG,GS,10:22,18:16
22,26-11-2016,188,RATHNA,GS,09:00,18:00
23,26-11-2016,197,SHIVA KUMAR.N,GS,09:22,17:13
24,26-11-2016,199,HEMANTH.V.G,GS,00:00,00:00
25,26-11-2016,201,SUNIL KUMAR.B.B,GS,08:55,18:09
26,26-11-2016,202,MAHESH RAJ URS,GS,08:50,18:03
27,26-11-2016,206,PRASANNA.N.M,GS,08:55,19:00
28,26-11-2016,207,PRIYA NAGARAJ,GS,12:27,18:03
29,26-11-2016,208,K.P.RAGHAVENDRA,GS,09:00,18:00
30,26-11-2016,210,KAVYA.B.K,GS,09:47,18:41
31,26-11-2016,211,BASAVARAJU.K.N,GS,09:25,19:13
32,26-11-2016,213,AJITH ASHOKAN,GS,09:05,18:36
33,26-11-2016,217,C.SHASHIDHAR,GS,08:39,00:00
34,26-11-2016,218,KISHORE.B.N,GS,09:00,18:00
35,26-11-2016,223,CHETAN.G.K,GS,09:00,18:00
36,26-11-2016,230,KEERTHI KUMAR.K.R,GS,09:00,18:00
37,26-11-2016,243,ABBUBAKARSIDEEK.K,GS,08:56,18:17
38,26-11-2016,245,AVILASH.P.G,GS,00:00,00:00
39,26-11-2016,250,YOGESH.A.N,GS,08:39,18:27
40,26-11-2016,252,SRILATHA BOLLADY,GS,00:00,00:00
41,26-11-2016,254,PAVAN KUMAR.H.N,GS,00:00,00:00
42,26-11-2016,257,CHANDRAPPA,GS,08:35,18:14
43,26-11-2016,258,THIPPESWAMY.B.C,GS,09:09,17:49
44,26-11-2016,259,KARTHIKEYA PATIL,GS,08:57,18:08
45,26-11-2016,261,RAMU,GS,15:16,18:49
46,26-11-2016,262,REKHA,GS,09:00,18:00
47,26-11-2016,263,YOGESH GOWDA.M.L,GS,06:34,20:27
48,26-11-2016,265,NAGARAJ PRAKASH,GS,09:04,18:02
49,26-11-2016,268,AVIN KUMAR,GS,08:53,18:02
50,26-11-2016,269,PRADEEP.B.R,GS,09:05,18:16
51,26-11-2016,270,MANJUNATH.R,GS,00:00,00:00
52,26-11-2016,273,KUSHALA.G.V,GS,09:00,18:00
53,26-11-2016,274,Abhinandan.K.M,GS,09:09,17:36
54,26-11-2016,275,MANJU.B,GS,06:34,20:25
55,26-11-2016,277,N.CHANDRASHEKAR,GS,08:57,17:59
56,26-11-2016,279,MALLESH,GS,09:00,18:00
57,26-11-2016,282,NAVIN KUMAR.B.R,GS,08:46,18:17
58,26-11-2016,290,NARAYANA REDDY.M,GS,08:47,18:03
59,26-11-2016,291,RAJANNA.A.C,GS,09:08,18:03
60,26-11-2016,293,VENKAT RAMANAIAH YETURU,GS,00:00,00:00
61,26-11-2016,296,NANDEESHA.K,GS,00:00,00:00
62,26-11-2016,300,KEMPARAJU.N.S,GS,09:07,13:07
63,26-11-2016,301,PUNEETH.M.P,GS,09:00,18:00
64,26-11-2016,302,HARSHA KUMAR.H.R,GS,09:00,18:00
65,26-11-2016,303,PRITHVI KUMAR.C.A,GS,09:01,19:09
66,26-11-2016,304,SANTOSH NARAYAN,GS,11:13,13:18
67,26-11-2016,309,MARY SHARLY,GS,09:22,18:05
68,26-11-2016,311,RAKESH.A.M,GS,00:00,19:21
69,26-11-2016,314,VIJAYASHREE.S.ANAND,GS,10:20,18:17
70,26-11-2016,315,BALAJI,GS,09:00,18:00
71,26-11-2016,317,MAHESH GOWDA.C.S,GS,09:06,17:59
72,26-11-2016,318,DHIRENDRA BHASKAR.H.P,GS,07:14,20:25
73,26-11-2016,319,PRADEEP KUMAR.S.S,GS,08:56,17:58
74,26-11-2016,320,RAJSHEKAR.C,GS,00:00,00:00
75,26-11-2016,321,PALLAVI.K,GS,09:18,18:04
76,26-11-2016,322,SURESH.K,GS,09:20,17:55
77,26-11-2016,323,CHELUVEGOWDA.H.S,GS,06:45,18:27
78,26-11-2016,327,BINDU RANI,GS,11:51,17:19
79,26-11-2016,328,DHANASHEKAR.M,GS,09:41,18:06
80,26-11-2016,329,Kaliprasad(NOT IN PAYROLL),GS,09:00,18:00
81,26-11-2016,330,THIMMAPPA,GS,08:33,18:16
82,26-11-2016,331,ALTAF,GS,00:00,00:00
83,26-11-2016,332,ANIL KUMAR.H.R,GS,09:06,18:37
84,26-11-2016,333,CHETAN.S,GS,00:00,00:00
85,26-11-2016,334,SHIVAPRASAD,GS,07:47,18:10
86,26-11-2016,324,Madan.V,GS,00:00,00:00
87,26-11-2016,249,DIVAKAR.N.M,GS,09:22,18:37
88,26-11-2016,336,SHWETHA.H.G,GS,09:06,18:05
89,26-11-2016,337,SRIDHAR,GS,08:54,18:00
90,26-11-2016,338,NANDINI.S.L,GS,09:05,18:14
91,26-11-2016,1010,RAMU.H.M,GS,09:00,18:00
