SNo,date ,E. Code,Name,Shift, InTime, OutTime,Work Dur.,OT,Tot.  Dur.
1,08-03-2016,123,K.N.SURENDRA,GS,9:00,18:00,9:00,0:00,9:00
2,08-03-2016,127,SRINIVAS.H.C,GS,15:51,18:30,2:39,6:21,2:39
3,08-03-2016,128,KUMAR.H.S,GS,0:00,0:00,0:00,9:00,0:00
4,08-03-2016,130,A.H.PRASAD KUMAR,GS,9:00,18:00,9:00,0:00,9:00
5,08-03-2016,131,GIRISH SHETTY,GS,9:02,18:24,9:22,0:20,9:22
6,08-03-2016,135,KUMAR.B.S,GS,8:55,19:08,10:13,1:18,10:13
7,08-03-2016,136,SUDHIR SHETTY,GS,9:31,18:54,9:23,0:00,9:23
8,08-03-2016,138,PRASANNA KUMAR.S,GS,8:51,18:12,9:21,0.02,9:21
9,08-03-2016,139,MITHUN.G.SHETTY,GS,8:44,18:12,9:28,0.03,9:28
10,08-03-2016,140,VENKATESH.K,GS,9:18,20:48,11:30,0.09,11:30
11,08-03-2016,143,JAGANNATH JAKKA,GS,15:51,20:00,4:09,0:00,4:09
12,08-03-2016,147,UMESH.B.V,GS,9:29,20:06,10:37,0.05,10:37
13,08-03-2016,149,C.V.HARISH,GS,7:31,18:04,10:33,0.13,10:33
14,08-03-2016,152,CHANDRASHEKAR.M.B,GS,9:00,18:00,9:00,0:00,9:00
15,08-03-2016,157,SANTOSH.K.NAIK,GS,0:00,0:00,0:00,0:00,0:00
16,08-03-2016,158,NANJEGOWDA,GS,8:24,18:05,9:41,0.05,9:41
17,08-03-2016,170,VAISHNAVI.R.AITHAL,GS,9:10,18:05,8:55,0:00,8:55
18,08-03-2016,171,SHIVANNA,GS,0:00,0:00,0:00,0:00,0:00
19,08-03-2016,172,BOREGOWDA,GS,8:13,17:56,9:43,0.06,9:43
20,08-03-2016,175,BHANUPRAKASH DG,GS,8:55,18:45,9:50,0.04,9:50
21,08-03-2016,188,RATHNA,GS,0:00,0:00,0:00,0:00,0:00
22,08-03-2016,194,NANJAMANI,GS,8:58,18:08,9:10,0.01,9:10
23,08-03-2016,195,RAVI IV,GS,0:00,0:00,0:00,0:00,0:00
24,08-03-2016,197,SHIVA KUMAR.N,GS,9:06,19:08,10:02,0.04,10:02
25,08-03-2016,199,HEMANTH.V.G,GS,0:00,0:00,0:00,0:00,0:00
26,08-03-2016,201,SUNIL KUMAR.B.B,GS,9:41,18:46,9:05,0:00,9:05
27,08-03-2016,202,MAHESH RAJ URS,GS,8:55,18:00,9:05,0.01,9:05
28,08-03-2016,206,PRASANNA.N.M,GS,9:10,18:12,9:02,0:00,9:02
29,08-03-2016,207,PRIYA NAGARAJ,GS,0:00,0:00,0:00,0:00,0:00
30,08-03-2016,208,K.P.RAGHAVENDRA,GS,7:55,18:05,10:10,0.09,10:10
31,08-03-2016,209,NAVEEN.B.L,GS,8:30,19:41,11:11,0.11,11:11
32,08-03-2016,210,KAVYA.B.K,GS,0:00,0:00,0:00,0:00,0:00
33,08-03-2016,211,BASAVARAJU.K.N,GS,9:49,18:42,8:53,0:00,8:53
34,08-03-2016,213,AJITH ASHOKAN,GS,8:52,18:31,9:39,0.03,9:39
35,08-03-2016,217,C.SHASHIDHAR,GS,9:00,18:10,9:10,0.01,9:10
36,08-03-2016,218,KISHORE.B.N,GS,14:21,18:12,3:51,0:00,3:51
37,08-03-2016,223,CHETAN.G.K,GS,0:00,0:00,0:00,0:00,0:00
38,08-03-2016,230,KEERTHI KUMAR.K.R,GS,11:14,18:05,6:51,0:00,6:51
39,08-03-2016,236,NANDEESH.G.H,GS,0:00,0:00,0:00,0:00,0:00
40,08-03-2016,243,ABBUBAKARSIDEEK.K,GS,0:00,0:00,0:00,0:00,0:00
41,08-03-2016,245,AVILASH.P.G,GS,0:00,0:00,0:00,0:00,0:00
42,08-03-2016,249,DIVAKAR.N.N,GS,10:20,18:08,7:48,0:00,7:48
43,08-03-2016,250,YOGESH.A.N,GS,7:56,19:45,11:49,0.16,11:49
44,08-03-2016,252,SRILATHA BOLLADY,GS,9:05,19:01,9:56,0.04,9:56
45,08-03-2016,254,PAVAN KUMAR.H.N,GS,0:00,0:00,0:00,0:00,0:00
46,08-03-2016,257,CHANDRAPPA,GS,9:02,18:00,8:58,0:00,8:58
47,08-03-2016,258,THIPPESWAMY.B.C,GS,9:03,18:04,9:01,0:00,9:01
48,08-03-2016,259,KARTHIKEYA PATIL,GS,0:00,0:00,0:00,0:00,0:00
49,08-03-2016,261,RAMU,GS,9:00,18:00,9:00,0:00,9:00
50,08-03-2016,262,REKHA,GS,9:00,18:00,9:00,0:00,9:00
51,08-03-2016,263,YOGESH GOWDA.M.L,GS,7:21,21:59,14:38,0.3,14:38
52,08-03-2016,265,NAGARAJ PRAKASH,GS,9:02,18:24,9:22,0.01,9:22
53,08-03-2016,266,RAGHU.D.S,GS,9:17,18:42,9:25,0.01,9:25
54,08-03-2016,268,D.V.Avin Kumar,GS,0:00,0:00,0:00,0:00,0:00
55,08-03-2016,269,PRADEEP.B.R,GS,0:00,0:00,0:00,0:00,0:00
56,08-03-2016,270,MANJUNATH.R,GS,9:05,18:08,9:03,0:00,9:03
57,08-03-2016,273,KUSHALA.G.V,GS,0:00,0:00,0:00,0:00,0:00
58,08-03-2016,274,Abhi,GS,9:04,18:32,9:28,0.02,9:28
59,08-03-2016,275,MANJU.B,GS,9:12,18:33,9:21,0.01,9:21
60,08-03-2016,277,N.CHANDRAHEKAR,GS,8:45,18:03,9:18,0.02,9:18
61,08-03-2016,279,MALLESH,GS,8:39,18:06,9:27,0.03,9:27
62,08-03-2016,282,NAVIN KUMAR.B.R,GS,9:05,18:07,9:02,0:00,9:02
63,08-03-2016,284,BALASUBRAMNYAM.V,GS,11:01,18:00,6:59,0:00,6:59
64,08-03-2016,287,SUNIL.V,GS,11:11,21:59,10:48,0:00,10:48
65,08-03-2016,289,H.VENKAT RAGHAVAN,GS,9:49,18:54,9:05,0:00,9:05
66,08-03-2016,290,NARAYANA REDDY.M,GS,8:51,18:15,9:24,0.02,9:24
67,08-03-2016,291,RAJANNA.A.C,GS,9:27,18:17,8:50,0:00,8:50
68,08-03-2016,293,VENKAT RAMANAIAH YETURU,GS,9:40,20:08,10:28,0.03,10:28
69,08-03-2016,295,SHIVARAJ.V.S,GS,0:00,0:00,0:00,0:00,0:00
70,08-03-2016,296,NANDEESHA.K,GS,0:00,0:00,0:00,0:00,0:00
71,08-03-2016,298,SHARATH.N,GS,0:00,0:00,0:00,0:00,0:00
72,08-03-2016,300,KEMPARAJU.N.S,GS,8:57,18:32,9:35,0.03,9:35
73,08-03-2016,301,PUNEETH.M.P,GS,11:52,18:00,6:08,0:00,6:08
74,08-03-2016,302,HARSHA KUMAR.H.R,GS,9:41,18:05,8:24,0:00,8:24
75,08-03-2016,303,PRITHVI KUMAR.C.A,GS,0:00,0:00,0:00,0:00,0:00
76,08-03-2016,304,SANTOSH NARAYAN,GS,9:00,18:00,9:00,0:00,9:00
77,08-03-2016,307,VIVEK KUMAR SHARMA,GS,0:00,0:00,0:00,0:00,0:00
78,08-03-2016,308,INCHARA.K.B,GS,9:18,18:28,9:10,0:00,9:10
79,08-03-2016,309,MARY SHARLY,GS,0:00,0:00,0:00,0:00,0:00
80,08-03-2016,310,LAKSHMANA.N.R,GS,9:23,18:35,9:12,0:00,9:12
81,08-03-2016,311,RAKESH.A.M,GS,8:43,18:04,9:21,0.03,9:21
82,08-03-2016,312,GAYATRI R BHAT,GS,9:03,18:48,9:45,0.03,9:45
83,08-03-2016,313,SUSHMA.R,GS,0:00,0:00,0:00,0:00,0:00
84,08-03-2016,314,VIJAYASHREE.S.ANAND,GS,0:00,0:00,0:00,0:00,0:00
85,08-03-2016,315,RAMA MAHESH,GS,0:00,0:00,0:00,0:00,0:00
86,08-03-2016,317,BALAJI,GS,9:00,18:00,9:00,0:00,9:00
