SNo,date ,E. Code,Name,Shift, InTime, OutTime,Work Dur.,OT,Tot.  Dur.
1,03-03-16,123,K.N.SURENDRA,GS,9:00,18:00,9:00,0:00,9:00
2,03-03-16,127,SRINIVAS.H.C,GS,9:00,18:00,9:00,0:00,9:00
3,03-03-16,128,KUMAR.H.S,GS,9:00,18:00,9:00,0:00,9:00
4,03-03-16,130,A.H.PRASAD KUMAR,GS,9:00,18:00,9:00,0:00,9:00
5,03-03-16,131,GIRISH SHETTY,GS,9:03,13:30,4:27,0:00,0:00
6,03-03-16,135,KUMAR.B.S,GS,9:10,19:14,10:04,1:00,11:04
7,03-03-16,136,SUDHIR SHETTY,GS,9:33,19:36,10:03,1:03,11:03
8,03-03-16,138,PRASANNA KUMAR.S,GS,9:10,18:52,9:42,0:00,9:42
9,03-03-16,139,MITHUN.G.SHETTY,GS,8:53,18:53,10:00,1:00,11:00
10,03-03-16,140,VENKATESH.K,GS,9:48,20:03,10:15,1:15,11:15
11,03-03-16,143,JAGANNATH JAKKA,GS,9:48,20:05,10:17,1:17,11:17
12,03-03-16,147,UMESH.B.V,GS,9:35,19:36,10:01,1:01,11:01
13,03-03-16,149,C.V.HARISH,GS,7:35,18:38,11:03,2:03,13:03
14,03-03-16,152,CHANDRASHEKAR.M.B,GS,9:00,18:00,9:00,0:00,9:00
15,03-03-16,157,SANTOSH.K.NAIK,GS,8:08,18:37,10:29,1:29,11:29
16,03-03-16,158,NANJEGOWDA,GS,8:08,13:30,5:22,0:00,5:22
17,03-03-16,170,VAISHNAVI.R.AITHAL,GS,9:12,18:04,8:52,0:00,8:52
18,03-03-16,171,SHIVANNA,GS,9:04,19:42,10:38,1:38,11:38
19,03-03-16,172,BOREGOWDA,GS,8:28,17:57,9:29,0:00,9:29
20,03-03-16,175,BHANUPRAKASH DG,GS,9:00,20:06,11:06,2:00,13:06
21,03-03-16,188,RATHNA,GS,9:00,18:00,9:00,0:00,9:00
22,03-03-16,194,NANJAMANI,GS,9:05,18:10,9:05,0:00,9:05
23,03-03-16,195,RAVI IV,GS,8:55,17:47,8:52,0:00,8:52
24,03-03-16,197,SHIVA KUMAR.N,GS,9:07,19:40,10:33,1:33,11:00
25,03-03-16,199,HEMANTH.V.G,GS,9:03,18:03,9:00,0:00,9:00
26,03-03-16,201,SUNIL KUMAR.B.B,GS,9:12,19:00,9:48,0:00,9:48
27,03-03-16,202,MAHESH RAJ URS,GS,8:52,18:01,9:09,0:00,9:09
28,03-03-16,206,PRASANNA.N.M,GS,9:16,18:34,9:18,0:00,9:18
29,03-03-16,207,PRIYA NAGARAJ,GS,9:53,20:09,10:16,1:16,11:16
30,03-03-16,208,K.P.RAGHAVENDRA,GS,9:00,18:36,9:36,0:00,9:36
31,03-03-16,209,NAVEEN.B.L,GS,8:27,19:47,11:20,1:20,12:20
32,03-03-16,210,KAVYA.B.K,GS,9:53,19:21,9:28,0:00,9:28
33,03-03-16,211,BASAVARAJU.K.N,GS,0:00,0:00,0:00,0:00,0:00
34,03-03-16,213,AJITH ASHOKAN,GS,8:59,18:43,9:44,0:00,9:44
35,03-03-16,217,C.SHASHIDHAR,GS,8:35,18:01,9:26,0:00,9:26
36,03-03-16,218,KISHORE.B.N,GS,8:41,18:34,9:53,0:00,9:53
37,03-03-16,223,CHETAN.G.K,GS,9:00,18:35,9:35,0:00,9:35
38,03-03-16,230,KEERTHI KUMAR.K.R,GS,9:00,18:36,9:36,0:00,9:36
39,03-03-16,236,NANDEESH.G.H,GS,10:06,18:13,8:07,0:00,8:07
40,03-03-16,243,ABBUBAKARSIDEEK.K,GS,0:00,0:00,0:00,0:00,0:00
41,03-03-16,245,AVILASH.P.G,GS,8:09,18:39,10:30,1:30,11:30
42,03-03-16,249,DIVAKAR.N.N,GS,9:10,18:45,9:35,0:00,9:35
43,03-03-16,250,YOGESH.A.N,GS,8:07,19:30,11:23,2:23,13:23
44,03-03-16,252,SRILATHA BOLLADY,GS,9:11,19:46,10:35,1:35,11:35
45,03-03-16,254,PAVAN KUMAR.H.N,GS,8:19,19:02,10:43,1:43,11:43
46,03-03-16,257,CHANDRAPPA,GS,8:38,18:00,9:22,0:00,9:22
47,03-03-16,258,THIPPESWAMY.B.C,GS,9:06,18:01,8:55,0:00,8:55
48,03-03-16,259,KARTHIKEYA PATIL,GS,9:05,18:11,9:06,0:00,9:06
49,03-03-16,261,RAMU,GS,9:00,18:00,9:00,0:00,9:00
50,03-03-16,262,REKHA,GS,9:00,18:00,9:00,0:00,9:00
51,03-03-16,263,YOGESH GOWDA.M.L,GS,8:07,20:15,12:08,3:08,15:08
52,03-03-16,265,NAGARAJ PRAKASH,GS,9:03,18:22,9:19,0:00,9:19
53,03-03-16,266,RAGHU.D.S,GS,9:05,18:22,9:17,0:00,9:17
54,03-03-16,268,D.V.Avin Kumar,GS,8:56,18:01,9:05,0:00,9:05
55,03-03-16,269,PRADEEP.B.R,GS,8:59,18:34,9:35,0:00,9:35
56,03-03-16,270,MANJUNATH.R,GS,8:56,18:36,9:40,0:00,9:40
57,03-03-16,273,KUSHALA.G.V,GS,9:00,18:00,9:00,0:00,9:00
58,03-03-16,274,Abhi,GS,9:12,19:51,10:39,1:39,11:39
59,03-03-16,275,MANJU.B,GS,9:25,18:52,9:27,0:00,9:27
60,03-03-16,277,N.CHANDRAHEKAR,GS,8:41,18:08,9:27,0:00,9:27
61,03-03-16,279,MALLESH,GS,8:12,18:33,10:21,1:21,11:21
62,03-03-16,282,NAVIN KUMAR.B.R,GS,8:56,18:36,9:40,0:00,9:40
63,03-03-16,284,BALASUBRAMNYAM.V,GS,10:19,18:26,8:07,0:00,8:07
64,03-03-16,287,SUNIL.V,GS,10:32,19:35,9:03,0:00,9:03
65,03-03-16,289,H.VENKAT RAGHAVAN,GS,9:47,19:21,9:34,0:00,9:34
66,03-03-16,290,NARAYANA REDDY.M,GS,8:53,18:21,9:28,0:00,9:28
67,03-03-16,291,RAJANNA.A.C,GS,9:08,18:02,8:54,0:00,8:54
68,03-03-16,293,VENKAT RAMANAIAH YETURU,GS,8:53,19:35,6:45,0:00,6:45
69,03-03-16,295,SHIVARAJ.V.S,GS,9:31,19:35,10:04,1:04,10:04
70,03-03-16,296,NANDEESHA.K,GS,0:00,0:00,0:00,0:00,0:00
71,03-03-16,298,SHARATH.N,GS,9:49,18:11,8:22,0:00,8:22
72,03-03-16,300,KEMPARAJU.N.S,GS,9:05,18:01,8:56,0:00,8:06
73,03-03-16,301,PUNEETH.M.P,GS,0:00,0:00,0:00,0:00,0:00
74,03-03-16,302,HARSHA KUMAR.H.R,GS,8:53,18:33,9:40,0:00,9:40
75,03-03-16,303,PRITHVI KUMAR.C.A,GS,0:00,0:00,0:00,0:00,0:00
76,03-03-16,304,SANTOSH NARAYAN,GS,14:10,0:00,9:50,0:00,9:50
77,03-03-16,307,VIVEK KUMAR SHARMA,GS,0:00,0:00,0:00,0:00,0:00
78,03-03-16,308,INCHARA.K.B,GS,9:13,18:52,9:39,0:00,9:39
79,03-03-16,309,MARY SHARLY,GS,8:50,17:57,9:07,0:00,9:07
80,03-03-16,310,LAKSHMANA.N.R,GS,0:00,0:00,0:00,0:00,0:00
81,03-03-16,311,RAKESH.A.M,GS,8:39,18:33,9:54,0:00,9:54
82,03-03-16,312,GAYATRI R BHAT,GS,9:13,19:33,10:20,1:20,11:20
83,03-03-16,313,SUSHMA.R,GS,9:30,18:12,8:42,0:00,8:42
84,03-03-16,314,VIJAYASHREE.S.ANAND,GS,0:00,0:00,0:00,0:00,0:00
85,03-03-16,315,RAMA MAHESH,GS,0:00,0:00,0:00,0:00,0:00
86,03-03-16,317,BALAJI,GS,9:00,18:00,9:00,0:00,9:00
,,,,,,,,, 
