SNo,Date,E. Code,Name,Shift, InTime, OutTime
1,24-01-2017,123,K.N.SURENDRA,GS,09:00,18:00
2,24-01-2017,124,K.N.SOWMYA,GS,09:00,18:00
3,24-01-2017,125,K.N.BOREGOWDA,GS,09:00,18:00
4,24-01-2017,127,SRINIVAS.H.C,GS,09:00,18:00
5,24-01-2017,128,KUMAR.H.S,GS,09:00,18:00
6,24-01-2017,130,A.H.PRASAD KUMAR,GS,09:00,18:00
7,24-01-2017,131,GIRISH SHETTY,GS,09:09,18:11
8,24-01-2017,135,KUMAR.B.S,GS,09:07,18:02
9,24-01-2017,136,SUDHIR SHETTY,GS,09:31,18:20
10,24-01-2017,138,PRASANNA KUMAR.S,GS,09:49,18:07
11,24-01-2017,139,MITHUN.G.SHETTY,GS,09:05,20:16
12,24-01-2017,140,VENKATESH.K,GS,10:17,20:26
13,24-01-2017,143,JAGANNATH JAKKA,GS,10:11,19:26
14,24-01-2017,147,UMESH.B.V,GS,09:20,18:11
15,24-01-2017,149,C.V.HARISH,GS,09:00,18:00
16,24-01-2017,152,CHANDRASHEKAR.M.B,GS,09:00,18:00
17,24-01-2017,157,SANTOSH.K.NAIK,GS,08:53,18:19
18,24-01-2017,158,NANJEGOWDA,GS,09:00,18:00
19,24-01-2017,170,VAISHNAVI.R.AITHAL,GS,09:16,18:24
20,24-01-2017,171,SHIVANNA,GS,09:14,18:06
21,24-01-2017,175,BHANUPRAKASH DG,GS,09:23,20:16
22,24-01-2017,188,RATHNA,GS,09:00,18:00
23,24-01-2017,197,SHIVA KUMAR.N,GS,09:05,00:00
24,24-01-2017,199,HEMANTH.V.G,GS,09:44,19:00
25,24-01-2017,201,SUNIL KUMAR.B.B,GS,08:48,18:19
26,24-01-2017,202,MAHESH RAJ URS,GS,08:46,17:54
27,24-01-2017,206,PRASANNA.N.M,GS,00:00,18:07
28,24-01-2017,207,PRIYA NAGARAJ,GS,10:38,18:19
29,24-01-2017,208,K.P.RAGHAVENDRA,GS,09:00,18:00
30,24-01-2017,210,KAVYA.B.K,GS,09:55,18:56
31,24-01-2017,211,BASAVARAJU.K.N,GS,08:54,19:04
32,24-01-2017,213,AJITH ASHOKAN,GS,00:00,00:00
33,24-01-2017,217,C.SHASHIDHAR,GS,00:00,00:00
34,24-01-2017,218,KISHORE.B.N,GS,09:00,18:00
35,24-01-2017,223,CHETAN.G.K,GS,09:00,18:00
36,24-01-2017,230,KEERTHI KUMAR.K.R,GS,00:00,00:00
37,24-01-2017,243,ABBUBAKARSIDEEK.K,GS,00:00,00:00
38,24-01-2017,245,AVILASH.P.G,GS,09:00,18:00
39,24-01-2017,250,YOGESH.A.N,GS,08:32,18:28
40,24-01-2017,252,SRILATHA BOLLADY,GS,09:09,20:18
41,24-01-2017,254,PAVAN KUMAR.H.N,GS,09:10,16:43
42,24-01-2017,257,CHANDRAPPA,GS,00:00,00:00
43,24-01-2017,258,THIPPESWAMY.B.C,GS,09:15,17:59
44,24-01-2017,259,KARTHIKEYA PATIL,GS,00:00,00:00
45,24-01-2017,261,RAMU,GS,09:00,18:00
46,24-01-2017,262,REKHA,GS,09:00,18:00
47,24-01-2017,263,YOGESH GOWDA.M.L,GS,06:56,23:19
48,24-01-2017,265,NAGARAJ PRAKASH,GS,09:08,18:06
49,24-01-2017,268,AVIN KUMAR,GS,08:54,17:54
50,24-01-2017,269,PRADEEP.B.R,GS,00:00,00:00
51,24-01-2017,270,MANJUNATH.R,GS,09:00,18:00
52,24-01-2017,273,KUSHALA.G.V,GS,00:00,00:00
53,24-01-2017,274,Abhinandan.K.M,GS,07:48,23:19
54,24-01-2017,275,MANJU.B,GS,09:09,23:19
55,24-01-2017,277,N.CHANDRASHEKAR,GS,00:00,00:00
56,24-01-2017,279,MALLESH,GS,09:00,18:00
57,24-01-2017,282,NAVIN KUMAR.B.R,GS,09:02,18:08
58,24-01-2017,290,NARAYANA REDDY.M,GS,09:03,18:13
59,24-01-2017,293,VENKAT RAMANAIAH YETURU,GS,09:00,19:22
60,24-01-2017,296,NANDEESHA.K,GS,09:11,17:54
61,24-01-2017,300,KEMPARAJU.N.S,GS,08:51,17:41
62,24-01-2017,301,PUNEETH.M.P,GS,09:00,18:00
63,24-01-2017,302,HARSHA KUMAR.H.R,GS,09:00,18:00
64,24-01-2017,303,PRITHVI KUMAR.C.A,GS,00:00,00:00
65,24-01-2017,304,SANTOSH NARAYAN,GS,00:00,00:00
66,24-01-2017,311,RAKESH.A.M,GS,00:00,00:00
67,24-01-2017,314,VIJAYASHREE.S.ANAND,GS,09:07,18:29
68,24-01-2017,315,BALAJI,GS,09:00,18:00
69,24-01-2017,317,MAHESH GOWDA.C.S,GS,08:58,18:17
70,24-01-2017,318,DHIRENDRA BHASKAR.H.P,GS,00:00,00:00
71,24-01-2017,319,PRADEEP KUMAR.S.S,GS,00:00,00:00
72,24-01-2017,321,PALLAVI.K,GS,09:02,18:06
73,24-01-2017,322,SURESH.K,GS,09:11,18:04
74,24-01-2017,323,CHELUVEGOWDA.H.S,GS,08:50,18:34
75,24-01-2017,327,BINDU RANI,GS,10:35,17:37
76,24-01-2017,328,DHANASHEKAR.M,GS,08:57,18:06
77,24-01-2017,329,Kaliprasad,GS,09:00,18:00
78,24-01-2017,330,THIMMAPPA,GS,08:49,18:18
79,24-01-2017,331,ALTAF,GS,08:55,18:01
80,24-01-2017,332,ANIL KUMAR.H.R,GS,00:00,00:00
81,24-01-2017,334,SHIVAPRASAD,GS,08:43,18:33
82,24-01-2017,324,Madan.V,GS,09:00,18:00
83,24-01-2017,249,DIVAKAR.N.M,GS,00:00,00:00
84,24-01-2017,336,SHWETHA.H.G,GS,00:00,00:00
85,24-01-2017,337,K.O.SREEDHAR,GS,07:31,18:57
86,24-01-2017,338,NANDINI.S.L,GS,09:10,18:23
87,24-01-2017,1010,RAMU.H.M,GS,07:48,20:25
88,24-01-2017,1011,NIRANJAN.K.B,GS,09:03,18:07
