SNo,Date,E. Code,Name,Shift, InTime, OutTime
1,29-11-2017,123,K.N.SURENDRA,GS,09:00,18:00
2,29-11-2017,124,K.N.SOWMYA,GS,09:00,18:00
3,29-11-2017,125,K.N.BOREGOWDA,GS,09:00,18:00
4,29-11-2017,127,SRINIVAS.H.C,GS,09:00,18:00
5,29-11-2017,128,KUMAR.H.S,GS,09:00,18:00
6,29-11-2017,130,A.H.PRASAD KUMAR,GS,09:00,18:00
7,29-11-2017,131,GIRISH SHETTY,GS,09:01,18:29
8,29-11-2017,135,KUMAR.B.S,GS,09:02,19:30
9,29-11-2017,136,SUDHIR SHETTY,GS,09:12,18:29
10,29-11-2017,138,PRASANNA KUMAR.S,GS,17:37,18:52
11,29-11-2017,139,MITHUN.G.SHETTY,GS,00:00,00:00
12,29-11-2017,140,VENKATESH.K,GS,10:15,17:54
13,29-11-2017,143,JAGANNATH JAKKA,GS,00:00,20:29
14,29-11-2017,147,UMESH.B.V,GS,09:05,17:47
15,29-11-2017,149,C.V.HARISH,GS,00:00,00:00
16,29-11-2017,157,SANTOSH.K.NAIK,GS,00:00,00:00
17,29-11-2017,158,NANJEGOWDA,GS,00:00,00:00
18,29-11-2017,170,VAISHNAVI.R.AITHAL,GS,08:52,18:56
19,29-11-2017,171,SHIVANNA,GS,09:08,00:00
20,29-11-2017,175,BHANUPRAKASH DG,GS,09:10,18:54
21,29-11-2017,197,SHIVA KUMAR.N,GS,09:14,00:00
22,29-11-2017,199,HEMANTH.V.G,GS,09:00,19:13
23,29-11-2017,201,SUNIL KUMAR.B.B,GS,09:10,18:07
24,29-11-2017,202,MAHESH RAJ URS,GS,00:00,00:00
25,29-11-2017,206,PRASANNA.N.M,GS,00:00,00:00
26,29-11-2017,207,PRIYA NAGARAJ,GS,09:43,20:29
27,29-11-2017,208,K.P.RAGHAVENDRA,GS,00:00,00:00
28,29-11-2017,210,KAVYA.B.K,GS,09:41,18:58
29,29-11-2017,211,BASAVARAJU.K.N,GS,00:00,00:00
30,29-11-2017,213,AJITH ASHOKAN,GS,09:01,16:55
31,29-11-2017,217,C.SHASHIDHAR,GS,00:00,00:00
32,29-11-2017,223,CHETAN.G.K,GS,00:00,00:00
33,29-11-2017,243,ABBUBAKARSIDEEK.K,GS,00:00,00:00
34,29-11-2017,250,YOGESH.A.N,GS,08:11,18:49
35,29-11-2017,252,SRILATHA BOLLADY,GS,09:07,19:08
36,29-11-2017,254,PAVAN KUMAR.H.N,GS,09:14,17:51
37,29-11-2017,257,CHANDRAPPA,GS,00:00,00:00
38,29-11-2017,262,REKHA,GS,00:00,00:00
39,29-11-2017,263,YOGESH GOWDA.M.L,GS,07:04,20:41
40,29-11-2017,265,NAGARAJ PRAKASH,GS,09:10,18:20
41,29-11-2017,268,AVIN KUMAR,GS,00:00,00:00
42,29-11-2017,269,PRADEEP.B.R,GS,00:00,00:00
43,29-11-2017,273,KUSHALA.G.V,GS,09:00,18:00
44,29-11-2017,274,Abhinandan.K.M,GS,09:06,12:56
45,29-11-2017,275,MANJU.B,GS,00:00,00:00
46,29-11-2017,277,N.CHANDRASHEKAR,GS,00:00,00:00
47,29-11-2017,279,MALLESH,GS,00:00,00:00
48,29-11-2017,282,NAVIN KUMAR.B.R,GS,00:00,00:00
49,29-11-2017,290,NARAYANA REDDY.M,GS,08:47,18:09
50,29-11-2017,293,VENKAT RAMANAIAH YETURU,GS,00:00,00:00
51,29-11-2017,296,NANDEESHA.K,GS,00:00,19:28
52,29-11-2017,300,KEMPARAJU.N.S,GS,09:04,18:20
53,29-11-2017,302,HARSHA KUMAR.H.R,GS,00:00,00:00
54,29-11-2017,303,PRITHVI KUMAR.C.A,GS,10:20,12:17
55,29-11-2017,304,SANTOSH NARAYAN,GS,13:37,19:06
56,29-11-2017,314,VIJAYASHREE.S.ANAND,GS,08:32,17:55
57,29-11-2017,317,MAHESH GOWDA.C.S,GS,08:47,18:29
58,29-11-2017,322,SURESH.K,GS,09:10,17:49
59,29-11-2017,323,CHELUVEGOWDA.H.S,GS,00:00,00:00
60,29-11-2017,327,BINDU RANI,GS,10:54,17:33
61,29-11-2017,328,DHANASHEKAR.M,GS,09:00,18:34
62,29-11-2017,330,THIMMAPPA,GS,00:00,00:00
63,29-11-2017,331,ALTAF,GS,00:00,00:00
64,29-11-2017,332,ANIL KUMAR.H.R,GS,00:00,00:00
65,29-11-2017,334,SHIVAPRASAD,GS,09:15,18:36
66,29-11-2017,336,SHWETHA.H.G,GS,00:00,00:00
67,29-11-2017,1011,NIRANJAN.K.B,GS,00:00,00:00
68,29-11-2017,189,K.N.RAJU,GS,00:00,00:00
69,29-11-2017,339,MADEVAPPA BHAJANTRI,GS,08:47,19:23
70,29-11-2017,5002,Madhu sudhan.B,GS,00:00,00:00
71,29-11-2017,5004,SHIVANNA JUNIOR,GS,09:00,18:00
72,29-11-2017,5005,Sarath kumar.R,GS,00:00,00:00
73,29-11-2017,5006,Ritish Kiran.,GS,00:00,00:00
74,29-11-2017,5008,Vinay.K.C,GS,00:00,00:00
75,29-11-2017,346,SARANDEEP.S,GS,09:26,17:55
76,29-11-2017,342,NETHRAVATHI.T,GS,09:24,18:39
77,29-11-2017,344,J.K.SRINIVASA,GS,08:47,18:27
78,29-11-2017,5015,SANDEEPA.V.P,GS,00:00,00:00
79,29-11-2017,347,DEEPAK.T.N,GS,00:00,00:00
80,29-11-2017,348,VINAY BHARGAVA.K.N,GS,09:02,18:24
81,29-11-2017,5016,Praveen kumar.H.M,GS,00:00,00:00
82,29-11-2017,351,RAGHUVEER.R,GS,09:03,20:39
83,29-11-2017,349,RATHNA,GS,09:00,18:00
84,29-11-2017,5017,NITHIN KUMAR K,GS,00:00,00:00
85,29-11-2017,5018,KIRAN.M,GS,00:00,00:00
86,29-11-2017,5019,NIVEDITHA.K.S,GS,09:44,18:20
87,29-11-2017,4001,ARPITHA.M,GS,09:44,18:21
88,29-11-2017,4002,CHAITRA.V,GS,09:37,18:37
89,29-11-2017,4003,B.BHAVYASHREE,GS,09:22,18:41
90,29-11-2017,4004,SANTOSHIMATA.S.B,GS,09:30,00:00
91,29-11-2017,5020,LAKSHMIKANTH.C.S,GS,00:00,00:00
92,29-11-2017,4005,KEMPEGOWDA.G,GS,09:00,18:00
93,29-11-2017,5021,MENAKA.N,GS,09:00,18:00
94,29-11-2017,5022,Dr.Prasanna Kumar.S,GS,00:00,00:00
95,29-11-2017,5023,Kavya.B.S,GS,09:07,19:08
