SNo,Date,E. Code,Name,Shift, InTime, OutTime
1,29-07-2017,123,K.N.SURENDRA,GS,09:00,18:00
2,29-07-2017,124,K.N.SOWMYA,GS,09:00,18:00
3,29-07-2017,125,K.N.BOREGOWDA,GS,09:00,18:00
4,29-07-2017,127,SRINIVAS.H.C,GS,09:00,18:00
5,29-07-2017,128,KUMAR.H.S,GS,09:00,18:00
6,29-07-2017,130,A.H.PRASAD KUMAR,GS,09:00,18:00
7,29-07-2017,131,GIRISH SHETTY,GS,08:56,18:14
8,29-07-2017,135,KUMAR.B.S,GS,09:05,17:38
9,29-07-2017,136,SUDHIR SHETTY,GS,00:00,00:00
10,29-07-2017,138,PRASANNA KUMAR.S,GS,00:00,00:00
11,29-07-2017,139,MITHUN.G.SHETTY,GS,11:23,00:00
12,29-07-2017,140,VENKATESH.K,GS,14:44,19:19
13,29-07-2017,143,JAGANNATH JAKKA,GS,13:58,17:25
14,29-07-2017,147,UMESH.B.V,GS,09:47,17:37
15,29-07-2017,149,C.V.HARISH,GS,09:00,18:00
16,29-07-2017,157,SANTOSH.K.NAIK,GS,00:00,00:00
17,29-07-2017,158,NANJEGOWDA,GS,09:00,18:00
18,29-07-2017,170,VAISHNAVI.R.AITHAL,GS,08:54,18:13
19,29-07-2017,171,SHIVANNA,GS,11:24,17:52
20,29-07-2017,175,BHANUPRAKASH DG,GS,09:01,19:38
21,29-07-2017,197,SHIVA KUMAR.N,GS,09:03,18:06
22,29-07-2017,199,HEMANTH.V.G,GS,00:00,00:00
23,29-07-2017,201,SUNIL KUMAR.B.B,GS,00:00,00:00
24,29-07-2017,202,MAHESH RAJ URS,GS,00:00,00:00
25,29-07-2017,206,PRASANNA.N.M,GS,00:00,00:00
26,29-07-2017,207,PRIYA NAGARAJ,GS,10:56,18:59
27,29-07-2017,208,K.P.RAGHAVENDRA,GS,09:00,18:00
28,29-07-2017,210,KAVYA.B.K,GS,09:29,18:59
29,29-07-2017,211,BASAVARAJU.K.N,GS,00:00,00:00
30,29-07-2017,213,AJITH ASHOKAN,GS,00:00,00:00
31,29-07-2017,217,C.SHASHIDHAR,GS,00:00,00:00
32,29-07-2017,218,KISHORE.B.N,GS,00:00,00:00
33,29-07-2017,223,CHETAN.G.K,GS,12:20,12:30
34,29-07-2017,230,KEERTHI KUMAR.K.R,GS,00:00,00:00
35,29-07-2017,243,ABBUBAKARSIDEEK.K,GS,09:00,18:00
36,29-07-2017,250,YOGESH.A.N,GS,07:57,19:58
37,29-07-2017,252,SRILATHA BOLLADY,GS,09:11,19:37
38,29-07-2017,254,PAVAN KUMAR.H.N,GS,09:18,18:06
39,29-07-2017,257,CHANDRAPPA,GS,00:00,00:00
40,29-07-2017,258,THIPPESWAMY.B.C,GS,00:00,00:00
41,29-07-2017,262,REKHA,GS,09:00,18:00
42,29-07-2017,263,YOGESH GOWDA.M.L,GS,06:49,06:49
43,29-07-2017,265,NAGARAJ PRAKASH,GS,09:26,18:08
44,29-07-2017,268,AVIN KUMAR,GS,00:00,00:00
45,29-07-2017,269,PRADEEP.B.R,GS,00:00,00:00
46,29-07-2017,273,KUSHALA.G.V,GS,09:00,18:00
47,29-07-2017,274,Abhinandan.K.M,GS,09:23,18:36
48,29-07-2017,275,MANJU.B,GS,08:57,18:00
49,29-07-2017,277,N.CHANDRASHEKAR,GS,00:00,00:00
50,29-07-2017,279,MALLESH,GS,00:00,00:00
51,29-07-2017,282,NAVIN KUMAR.B.R,GS,00:00,00:00
52,29-07-2017,290,NARAYANA REDDY.M,GS,00:00,00:00
53,29-07-2017,293,VENKAT RAMANAIAH YETURU,GS,09:28,18:35
54,29-07-2017,296,NANDEESHA.K,GS,00:00,00:00
55,29-07-2017,300,KEMPARAJU.N.S,GS,09:07,18:14
56,29-07-2017,302,HARSHA KUMAR.H.R,GS,00:00,00:00
57,29-07-2017,303,PRITHVI KUMAR.C.A,GS,09:26,09:33
58,29-07-2017,304,SANTOSH NARAYAN,GS,12:43,19:37
59,29-07-2017,314,VIJAYASHREE.S.ANAND,GS,09:12,18:04
60,29-07-2017,317,MAHESH GOWDA.C.S,GS,00:00,00:00
61,29-07-2017,322,SURESH.K,GS,09:09,17:37
62,29-07-2017,323,CHELUVEGOWDA.H.S,GS,08:47,17:36
63,29-07-2017,327,BINDU RANI,GS,10:05,17:10
64,29-07-2017,328,DHANASHEKAR.M,GS,10:56,18:16
65,29-07-2017,330,THIMMAPPA,GS,00:00,00:00
66,29-07-2017,331,ALTAF,GS,00:00,00:00
67,29-07-2017,332,ANIL KUMAR.H.R,GS,00:00,00:00
68,29-07-2017,334,SHIVAPRASAD,GS,00:00,00:00
69,29-07-2017,324,Madan.V,GS,00:00,16:59
70,29-07-2017,336,SHWETHA.H.G,GS,00:00,00:00
71,29-07-2017,338,NANDINI.S.L,GS,09:13,09:13
72,29-07-2017,1010,RAMU.H.M,GS,00:00,00:00
73,29-07-2017,1011,NIRANJAN.K.B,GS,00:00,00:00
74,29-07-2017,189,K.N.RAJU,GS,00:00,00:00
75,29-07-2017,339,MADEVAPPA BHAJANTRI,GS,08:45,19:38
76,29-07-2017,5002,Madhu sudhan.B,GS,00:00,00:00
77,29-07-2017,5004,SHIVANNA JUNIOR,GS,00:00,00:00
78,29-07-2017,5005,Sarath kumar.R,GS,00:00,00:00
79,29-07-2017,5006,Ritish Kiran.,GS,00:00,00:00
80,29-07-2017,5007,Sanjay Prabhakar Balli,GS,00:00,00:00
81,29-07-2017,5008,Vinay.K.C,GS,00:00,00:00
82,29-07-2017,346,SARANDEEP.S,GS,00:00,00:00
83,29-07-2017,342,NETHRAVATHI.T,GS,08:58,18:16
84,29-07-2017,5013,CHANNABASAVESHWARASWAMY.G.S,GS,00:00,00:00
85,29-07-2017,344,SRINIVASA JK,GS,09:03,19:12
86,29-07-2017,5015,SANDEEPA.V.P,GS,00:00,00:00
87,29-07-2017,343,SRIDHAR.G,GS,00:00,00:00
88,29-07-2017,347,DEEPAK.T.N,GS,16:02,19:37
89,29-07-2017,348,VINAY BHARGAVA.K.N,GS,08:59,18:12
