SNo,Date,E. Code,Name,Shift, InTime, OutTime
1,30-03-2017,123,K.N.SURENDRA,GS,09:00,18:00
2,30-03-2017,124,K.N.SOWMYA,GS,09:00,18:00
3,30-03-2017,125,K.N.BOREGOWDA,GS,09:00,18:00
4,30-03-2017,127,SRINIVAS.H.C,GS,09:00,18:00
5,30-03-2017,128,KUMAR.H.S,GS,09:00,18:00
6,30-03-2017,130,A.H.PRASAD KUMAR,GS,09:00,18:00
7,30-03-2017,131,GIRISH SHETTY,GS,08:48,18:25
8,30-03-2017,135,KUMAR.B.S,GS,09:18,18:17
9,30-03-2017,136,SUDHIR SHETTY,GS,09:22,18:24
10,30-03-2017,138,PRASANNA KUMAR.S,GS,09:22,18:30
11,30-03-2017,139,MITHUN.G.SHETTY,GS,09:03,19:23
12,30-03-2017,140,VENKATESH.K,GS,18:09,18:09
13,30-03-2017,143,JAGANNATH JAKKA,GS,10:13,10:37
14,30-03-2017,147,UMESH.B.V,GS,08:55,18:09
15,30-03-2017,149,C.V.HARISH,GS,09:00,18:00
16,30-03-2017,152,CHANDRASHEKAR.M.B,GS,00:00,00:00
17,30-03-2017,157,SANTOSH.K.NAIK,GS,00:00,00:00
18,30-03-2017,158,NANJEGOWDA,GS,09:00,18:00
19,30-03-2017,170,VAISHNAVI.R.AITHAL,GS,08:48,18:38
20,30-03-2017,171,SHIVANNA,GS,00:00,00:00
21,30-03-2017,175,BHANUPRAKASH DG,GS,09:18,19:25
22,30-03-2017,188,RATHNA,GS,00:00,00:00
23,30-03-2017,197,SHIVA KUMAR.N,GS,09:18,19:25
24,30-03-2017,199,HEMANTH.V.G,GS,09:00,18:00
25,30-03-2017,201,SUNIL KUMAR.B.B,GS,09:14,18:15
26,30-03-2017,202,MAHESH RAJ URS,GS,00:00,00:00
27,30-03-2017,206,PRASANNA.N.M,GS,00:00,00:00
28,30-03-2017,207,PRIYA NAGARAJ,GS,14:19,18:03
29,30-03-2017,208,K.P.RAGHAVENDRA,GS,09:00,18:00
30,30-03-2017,210,KAVYA.B.K,GS,10:08,18:33
31,30-03-2017,211,BASAVARAJU.K.N,GS,00:00,00:00
32,30-03-2017,213,AJITH ASHOKAN,GS,09:04,18:00
33,30-03-2017,217,C.SHASHIDHAR,GS,00:00,00:00
34,30-03-2017,218,KISHORE.B.N,GS,00:00,00:00
35,30-03-2017,223,CHETAN.G.K,GS,00:00,00:00
36,30-03-2017,230,KEERTHI KUMAR.K.R,GS,00:00,19:22
37,30-03-2017,243,ABBUBAKARSIDEEK.K,GS,00:00,00:00
38,30-03-2017,245,AVILASH.P.G,GS,00:00,00:00
39,30-03-2017,250,YOGESH.A.N,GS,07:43,21:00
40,30-03-2017,252,SRILATHA BOLLADY,GS,00:00,00:00
41,30-03-2017,254,PAVAN KUMAR.H.N,GS,08:02,17:44
42,30-03-2017,257,CHANDRAPPA,GS,00:00,00:00
43,30-03-2017,258,THIPPESWAMY.B.C,GS,09:07,17:58
44,30-03-2017,262,REKHA,GS,09:00,18:00
45,30-03-2017,263,YOGESH GOWDA.M.L,GS,07:43,19:45
46,30-03-2017,265,NAGARAJ PRAKASH,GS,09:04,18:22
47,30-03-2017,268,AVIN KUMAR,GS,00:00,00:00
48,30-03-2017,269,PRADEEP.B.R,GS,00:00,00:00
49,30-03-2017,270,MANJUNATH.R,GS,00:00,00:00
50,30-03-2017,273,KUSHALA.G.V,GS,09:00,18:00
51,30-03-2017,274,Abhinandan.K.M,GS,10:11,10:21
52,30-03-2017,275,MANJU.B,GS,09:07,18:00
53,30-03-2017,277,N.CHANDRASHEKAR,GS,00:00,00:00
54,30-03-2017,279,MALLESH,GS,00:00,00:00
55,30-03-2017,282,NAVIN KUMAR.B.R,GS,00:00,00:00
56,30-03-2017,290,NARAYANA REDDY.M,GS,09:04,18:00
57,30-03-2017,293,VENKAT RAMANAIAH YETURU,GS,00:00,00:00
58,30-03-2017,296,NANDEESHA.K,GS,00:00,00:00
59,30-03-2017,300,KEMPARAJU.N.S,GS,00:00,00:00
60,30-03-2017,302,HARSHA KUMAR.H.R,GS,00:00,00:00
61,30-03-2017,303,PRITHVI KUMAR.C.A,GS,09:54,13:30
62,30-03-2017,304,SANTOSH NARAYAN,GS,00:00,00:00
63,30-03-2017,311,RAKESH.A.M,GS,00:00,00:00
64,30-03-2017,314,VIJAYASHREE.S.ANAND,GS,09:20,18:02
65,30-03-2017,315,BALAJI,GS,09:00,18:00
66,30-03-2017,317,MAHESH GOWDA.C.S,GS,09:07,18:15
67,30-03-2017,321,PALLAVI.K,GS,09:28,17:55
68,30-03-2017,322,SURESH.K,GS,00:00,00:00
69,30-03-2017,323,CHELUVEGOWDA.H.S,GS,00:00,00:00
70,30-03-2017,327,BINDU RANI,GS,10:27,17:35
71,30-03-2017,328,DHANASHEKAR.M,GS,09:11,18:09
72,30-03-2017,329,Kaliprasad(NOT IN PAYROLL),GS,00:00,00:00
73,30-03-2017,330,THIMMAPPA,GS,00:00,00:00
74,30-03-2017,331,ALTAF,GS,00:00,00:00
75,30-03-2017,332,ANIL KUMAR.H.R,GS,00:00,00:00
76,30-03-2017,334,SHIVAPRASAD,GS,00:00,00:00
77,30-03-2017,324,Madan.V(NOT IN PAYROLL),GS,00:00,00:00
78,30-03-2017,336,SHWETHA.H.G,GS,09:10,18:03
79,30-03-2017,338,NANDINI.S.L,GS,09:08,18:09
80,30-03-2017,1010,RAMU.H.M,GS,00:00,00:00
81,30-03-2017,1011,NIRANJAN.K.B,GS,00:00,00:00
82,30-03-2017,189,K.N.RAJU,GS,00:00,00:00
83,30-03-2017,339,MADEVAPPA BHAJANTRI,GS,08:00,18:08
84,30-03-2017,5001,M.N.MANJUNATH,GS,09:00,18:00
