SNo,Date,E. Code,Name,Shift, InTime, OutTime
1,30-11-2016,123,K.N.SURENDRA,GS,09:00,18:00
2,30-11-2016,124,K.N.SOWMYA,GS,09:00,18:00
3,30-11-2016,125,K.N.BOREGOWDA,GS,09:00,18:00
4,30-11-2016,127,SRINIVAS.H.C,GS,09:00,18:00
5,30-11-2016,128,KUMAR.H.S,GS,09:00,18:00
6,30-11-2016,130,A.H.PRASAD KUMAR,GS,09:00,18:00
7,30-11-2016,131,GIRISH SHETTY,GS,08:55,19:04
8,30-11-2016,135,KUMAR.B.S,GS,09:07,18:33
9,30-11-2016,136,SUDHIR SHETTY,GS,09:26,19:05
10,30-11-2016,138,PRASANNA KUMAR.S,GS,09:04,19:15
11,30-11-2016,139,MITHUN.G.SHETTY,GS,08:54,19:06
12,30-11-2016,140,VENKATESH.K,GS,10:00,19:21
13,30-11-2016,143,JAGANNATH JAKKA,GS,10:10,00:00
14,30-11-2016,147,UMESH.B.V,GS,09:09,18:18
15,30-11-2016,149,C.V.HARISH,GS,09:00,18:00
16,30-11-2016,152,CHANDRASHEKAR.M.B,GS,00:00,18:59
17,30-11-2016,157,SANTOSH.K.NAIK,GS,08:41,19:00
18,30-11-2016,158,NANJEGOWDA,GS,09:00,18:00
19,30-11-2016,170,VAISHNAVI.R.AITHAL,GS,09:01,18:12
20,30-11-2016,171,SHIVANNA,GS,09:15,19:47
21,30-11-2016,175,BHANUPRAKASH DG,GS,09:25,18:15
22,30-11-2016,188,RATHNA,GS,09:00,18:00
23,30-11-2016,197,SHIVA KUMAR.N,GS,13:51,19:09
24,30-11-2016,199,HEMANTH.V.G,GS,09:00,18:00
25,30-11-2016,201,SUNIL KUMAR.B.B,GS,09:04,18:22
26,30-11-2016,202,MAHESH RAJ URS,GS,09:03,17:49
27,30-11-2016,206,PRASANNA.N.M,GS,09:01,19:14
28,30-11-2016,207,PRIYA NAGARAJ,GS,12:33,18:57
29,30-11-2016,208,K.P.RAGHAVENDRA,GS,09:00,18:00
30,30-11-2016,210,KAVYA.B.K,GS,09:46,19:05
31,30-11-2016,211,BASAVARAJU.K.N,GS,00:00,00:00
32,30-11-2016,213,AJITH ASHOKAN,GS,09:04,18:11
33,30-11-2016,217,C.SHASHIDHAR,GS,08:50,18:05
34,30-11-2016,218,KISHORE.B.N,GS,09:00,18:00
35,30-11-2016,223,CHETAN.G.K,GS,09:00,18:00
36,30-11-2016,230,KEERTHI KUMAR.K.R,GS,09:00,18:00
37,30-11-2016,243,ABBUBAKARSIDEEK.K,GS,00:00,00:00
38,30-11-2016,245,AVILASH.P.G,GS,00:00,00:00
39,30-11-2016,250,YOGESH.A.N,GS,08:32,18:33
40,30-11-2016,252,SRILATHA BOLLADY,GS,09:12,19:46
41,30-11-2016,254,PAVAN KUMAR.H.N,GS,09:06,18:30
42,30-11-2016,257,CHANDRAPPA,GS,00:00,00:00
43,30-11-2016,258,THIPPESWAMY.B.C,GS,09:02,17:56
44,30-11-2016,259,KARTHIKEYA PATIL,GS,00:00,00:00
45,30-11-2016,261,RAMU,GS,09:00,18:00
46,30-11-2016,262,REKHA,GS,09:00,18:00
47,30-11-2016,263,YOGESH GOWDA.M.L,GS,07:41,19:56
48,30-11-2016,265,NAGARAJ PRAKASH,GS,09:07,18:12
49,30-11-2016,268,AVIN KUMAR,GS,08:58,18:10
50,30-11-2016,269,PRADEEP.B.R,GS,00:00,00:00
51,30-11-2016,270,MANJUNATH.R,GS,00:00,00:00
52,30-11-2016,273,KUSHALA.G.V,GS,09:00,18:00
53,30-11-2016,274,Abhinandan.K.M,GS,09:12,18:59
54,30-11-2016,275,MANJU.B,GS,09:08,18:21
55,30-11-2016,277,N.CHANDRASHEKAR,GS,09:04,18:11
56,30-11-2016,279,MALLESH,GS,09:00,18:00
57,30-11-2016,282,NAVIN KUMAR.B.R,GS,00:00,00:00
58,30-11-2016,290,NARAYANA REDDY.M,GS,09:00,18:41
59,30-11-2016,291,RAJANNA.A.C,GS,09:03,18:41
60,30-11-2016,293,VENKAT RAMANAIAH YETURU,GS,09:12,10:40
61,30-11-2016,296,NANDEESHA.K,GS,00:00,00:00
62,30-11-2016,300,KEMPARAJU.N.S,GS,09:22,19:05
63,30-11-2016,301,PUNEETH.M.P,GS,09:00,18:00
64,30-11-2016,302,HARSHA KUMAR.H.R,GS,09:00,18:00
65,30-11-2016,303,PRITHVI KUMAR.C.A,GS,09:47,18:35
66,30-11-2016,304,SANTOSH NARAYAN,GS,10:31,18:22
67,30-11-2016,309,MARY SHARLY,GS,09:30,18:07
68,30-11-2016,311,RAKESH.A.M,GS,00:00,19:14
69,30-11-2016,314,VIJAYASHREE.S.ANAND,GS,09:15,18:12
70,30-11-2016,315,BALAJI,GS,09:00,18:00
71,30-11-2016,317,MAHESH GOWDA.C.S,GS,09:12,18:58
72,30-11-2016,318,DHIRENDRA BHASKAR.H.P,GS,08:57,18:15
73,30-11-2016,319,PRADEEP KUMAR.S.S,GS,08:56,08:56
74,30-11-2016,320,RAJSHEKAR.C,GS,00:00,00:00
75,30-11-2016,321,PALLAVI.K,GS,00:00,00:00
76,30-11-2016,322,SURESH.K,GS,09:04,18:49
77,30-11-2016,323,CHELUVEGOWDA.H.S,GS,00:00,00:00
78,30-11-2016,327,BINDU RANI,GS,11:02,17:42
79,30-11-2016,328,DHANASHEKAR.M,GS,09:03,18:14
80,30-11-2016,329,Kaliprasad(NOT IN PAYROLL),GS,09:00,18:00
81,30-11-2016,330,THIMMAPPA,GS,08:50,19:02
82,30-11-2016,331,ALTAF,GS,00:00,00:00
83,30-11-2016,332,ANIL KUMAR.H.R,GS,00:00,19:00
84,30-11-2016,333,CHETAN.S,GS,00:00,00:00
85,30-11-2016,334,SHIVAPRASAD,GS,08:42,18:14
86,30-11-2016,324,Madan.V,GS,00:00,19:14
87,30-11-2016,249,DIVAKAR.N.M,GS,00:00,18:59
88,30-11-2016,336,SHWETHA.H.G,GS,09:12,18:13
89,30-11-2016,337,SRIDHAR,GS,09:04,19:05
90,30-11-2016,338,NANDINI.S.L,GS,09:00,19:00
91,30-11-2016,1010,RAMU.H.M,GS,08:56,18:35
